 Name                 Group          Measured         Modelled         Residual         Weight       Weight*Measured    Weight*Modelled  Weight*Residual  Measurement_sd   Natural_weight
 p001                 obsgroup      6.2830000E-04    2.0000000E-04    4.2830000E-04     1.000000        6.2830000E-04    2.0000000E-04    4.2830000E-04    5.6729397E-04     1762.755    
 p002                 obsgroup      6.6950000E-04    2.0000000E-04    4.6950000E-04     1.000000        6.6950000E-04    2.0000000E-04    4.6950000E-04    5.6729397E-04     1762.755    
 p003                 obsgroup      6.4890000E-04    2.0000000E-04    4.4890000E-04     1.000000        6.4890000E-04    2.0000000E-04    4.4890000E-04    5.6729397E-04     1762.755    
 p004                 obsgroup      7.8280000E-04    2.0000000E-04    5.8280000E-04     1.000000        7.8280000E-04    2.0000000E-04    5.8280000E-04    5.6729397E-04     1762.755    
 p005                 obsgroup      7.9310000E-04    2.0000000E-04    5.9310000E-04     1.000000        7.9310000E-04    2.0000000E-04    5.9310000E-04    5.6729397E-04     1762.755    
 p006                 obsgroup      8.4460000E-04    2.0000000E-04    6.4460000E-04     1.000000        8.4460000E-04    2.0000000E-04    6.4460000E-04    5.6729397E-04     1762.755    
 p007                 obsgroup      9.2700000E-04    2.0100000E-04    7.2600000E-04     1.000000        9.2700000E-04    2.0100000E-04    7.2600000E-04    5.6729397E-04     1762.755    
 p008                 obsgroup      9.0640000E-04    2.0200000E-04    7.0440000E-04     1.000000        9.0640000E-04    2.0200000E-04    7.0440000E-04    5.6729397E-04     1762.755    
 p009                 obsgroup      9.7850000E-04    2.0400000E-04    7.7450000E-04     1.000000        9.7850000E-04    2.0400000E-04    7.7450000E-04    5.6729397E-04     1762.755    
 p010                 obsgroup      9.0640000E-04    2.0700000E-04    6.9940000E-04     1.000000        9.0640000E-04    2.0700000E-04    6.9940000E-04    5.6729397E-04     1762.755    
 p011                 obsgroup      9.0640000E-04    2.1300000E-04    6.9340000E-04     1.000000        9.0640000E-04    2.1300000E-04    6.9340000E-04    5.6729397E-04     1762.755    
 p012                 obsgroup      9.7850000E-04    2.2200000E-04    7.5650000E-04     1.000000        9.7850000E-04    2.2200000E-04    7.5650000E-04    5.6729397E-04     1762.755    
 p013                 obsgroup      9.0640000E-04    2.3500000E-04    6.7140000E-04     1.000000        9.0640000E-04    2.3500000E-04    6.7140000E-04    5.6729397E-04     1762.755    
 p014                 obsgroup      1.1639000E-03    2.5300000E-04    9.1090000E-04     1.000000        1.1639000E-03    2.5300000E-04    9.1090000E-04    5.6729397E-04     1762.755    
 p015                 obsgroup      1.1948000E-03    2.7800000E-04    9.1680000E-04     1.000000        1.1948000E-03    2.7800000E-04    9.1680000E-04    5.6729397E-04     1762.755    
 p016                 obsgroup      1.1227000E-03    3.0900000E-04    8.1370000E-04     1.000000        1.1227000E-03    3.0900000E-04    8.1370000E-04    5.6729397E-04     1762.755    
 p017                 obsgroup      1.2566000E-03    3.4900000E-04    9.0760000E-04     1.000000        1.2566000E-03    3.4900000E-04    9.0760000E-04    5.6729397E-04     1762.755    
 p018                 obsgroup      1.5759000E-03    3.9500000E-04    1.1809000E-03     1.000000        1.5759000E-03    3.9500000E-04    1.1809000E-03    5.6729397E-04     1762.755    
 p019                 obsgroup      1.6377000E-03    4.5100000E-04    1.1867000E-03     1.000000        1.6377000E-03    4.5100000E-04    1.1867000E-03    5.6729397E-04     1762.755    
 p020                 obsgroup      1.5656000E-03    5.1600000E-04    1.0496000E-03     1.000000        1.5656000E-03    5.1600000E-04    1.0496000E-03    5.6729397E-04     1762.755    
 p021                 obsgroup      1.8334000E-03    5.8900000E-04    1.2444000E-03     1.000000        1.8334000E-03    5.8900000E-04    1.2444000E-03    5.6729397E-04     1762.755    
 p022                 obsgroup      2.0806000E-03    6.7300000E-04    1.4076000E-03     1.000000        2.0806000E-03    6.7300000E-04    1.4076000E-03    5.6729397E-04     1762.755    
 p023                 obsgroup      2.2969000E-03    7.6200000E-04    1.5349000E-03     1.000000        2.2969000E-03    7.6200000E-04    1.5349000E-03    5.6729397E-04     1762.755    
 p024                 obsgroup      2.1836000E-03    8.6100000E-04    1.3226000E-03     1.000000        2.1836000E-03    8.6100000E-04    1.3226000E-03    5.6729397E-04     1762.755    
 p025                 obsgroup      2.5853000E-03    9.6500000E-04    1.6203000E-03     1.000000        2.5853000E-03    9.6500000E-04    1.6203000E-03    5.6729397E-04     1762.755    
 p026                 obsgroup      2.6883000E-03    1.0790000E-03    1.6093000E-03     1.000000        2.6883000E-03    1.0790000E-03    1.6093000E-03    5.6729397E-04     1762.755    
 p027                 obsgroup      2.8943000E-03    1.1990000E-03    1.6953000E-03     1.000000        2.8943000E-03    1.1990000E-03    1.6953000E-03    5.6729397E-04     1762.755    
 p028                 obsgroup      2.8943000E-03    1.3220000E-03    1.5723000E-03     1.000000        2.8943000E-03    1.3220000E-03    1.5723000E-03    5.6729397E-04     1762.755    
 p029                 obsgroup      2.9973000E-03    1.5180000E-03    1.4793000E-03     1.000000        2.9973000E-03    1.5180000E-03    1.4793000E-03    5.6729397E-04     1762.755    
 p030                 obsgroup      3.2033000E-03    1.9350000E-03    1.2683000E-03     1.000000        3.2033000E-03    1.9350000E-03    1.2683000E-03    5.6729397E-04     1762.755    
 p031                 obsgroup      3.3063000E-03    2.1550000E-03    1.1513000E-03     1.000000        3.3063000E-03    2.1550000E-03    1.1513000E-03    5.6729397E-04     1762.755    
 p032                 obsgroup      3.2033000E-03    2.3750000E-03    8.2830000E-04     1.000000        3.2033000E-03    2.3750000E-03    8.2830000E-04    5.6729397E-04     1762.755    
 p033                 obsgroup      3.5123000E-03    2.5940000E-03    9.1830000E-04     1.000000        3.5123000E-03    2.5940000E-03    9.1830000E-04    5.6729397E-04     1762.755    
 p034                 obsgroup      3.9243000E-03    2.8100000E-03    1.1143000E-03     1.000000        3.9243000E-03    2.8100000E-03    1.1143000E-03    5.6729397E-04     1762.755    
 p035                 obsgroup      4.1303000E-03    3.0270000E-03    1.1033000E-03     1.000000        4.1303000E-03    3.0270000E-03    1.1033000E-03    5.6729397E-04     1762.755    
 p036                 obsgroup      3.7183000E-03    3.2380000E-03    4.8030000E-04     1.000000        3.7183000E-03    3.2380000E-03    4.8030000E-04    5.6729397E-04     1762.755    
 p037                 obsgroup      3.9243000E-03    3.4480000E-03    4.7630000E-04     1.000000        3.9243000E-03    3.4480000E-03    4.7630000E-04    5.6729397E-04     1762.755    
 p038                 obsgroup      4.2333000E-03    3.6550000E-03    5.7830000E-04     1.000000        4.2333000E-03    3.6550000E-03    5.7830000E-04    5.6729397E-04     1762.755    
 p039                 obsgroup      4.4393000E-03    3.8510000E-03    5.8830000E-04     1.000000        4.4393000E-03    3.8510000E-03    5.8830000E-04    5.6729397E-04     1762.755    
 p040                 obsgroup      4.2333000E-03    4.0440000E-03    1.8930000E-04     1.000000        4.2333000E-03    4.0440000E-03    1.8930000E-04    5.6729397E-04     1762.755    
 p041                 obsgroup      4.5423000E-03    4.2290000E-03    3.1330000E-04     1.000000        4.5423000E-03    4.2290000E-03    3.1330000E-04    5.6729397E-04     1762.755    
 p042                 obsgroup      5.0573000E-03    4.4110000E-03    6.4630000E-04     1.000000        5.0573000E-03    4.4110000E-03    6.4630000E-04    5.6729397E-04     1762.755    
 p043                 obsgroup      5.0573000E-03    4.7440000E-03    3.1330000E-04     1.000000        5.0573000E-03    4.7440000E-03    3.1330000E-04    5.6729397E-04     1762.755    
 p044                 obsgroup      4.9543000E-03    4.9010000E-03    5.3300000E-05     1.000000        4.9543000E-03    4.9010000E-03    5.3300000E-05    5.6729397E-04     1762.755    
 p045                 obsgroup      4.7483000E-03    5.0490000E-03   -3.0070000E-04     1.000000        4.7483000E-03    5.0490000E-03   -3.0070000E-04    5.6729397E-04     1762.755    
 p046                 obsgroup      4.9543000E-03    5.1880000E-03   -2.3370000E-04     1.000000        4.9543000E-03    5.1880000E-03   -2.3370000E-04    5.6729397E-04     1762.755    
 p047                 obsgroup      4.8513000E-03    5.3190000E-03   -4.6770000E-04     1.000000        4.8513000E-03    5.3190000E-03   -4.6770000E-04    5.6729397E-04     1762.755    
 p048                 obsgroup      5.0573000E-03    5.4420000E-03   -3.8470000E-04     1.000000        5.0573000E-03    5.4420000E-03   -3.8470000E-04    5.6729397E-04     1762.755    
 p049                 obsgroup      5.5723000E-03    5.5550000E-03    1.7300000E-05     1.000000        5.5723000E-03    5.5550000E-03    1.7300000E-05    5.6729397E-04     1762.755    
 p050                 obsgroup      5.2633000E-03    5.6630000E-03   -3.9970000E-04     1.000000        5.2633000E-03    5.6630000E-03   -3.9970000E-04    5.6729397E-04     1762.755    
 p051                 obsgroup      5.4693000E-03    5.7620000E-03   -2.9270000E-04     1.000000        5.4693000E-03    5.7620000E-03   -2.9270000E-04    5.6729397E-04     1762.755    
 p052                 obsgroup      5.6753000E-03    5.8550000E-03   -1.7970000E-04     1.000000        5.6753000E-03    5.8550000E-03   -1.7970000E-04    5.6729397E-04     1762.755    
 p053                 obsgroup      5.4693000E-03    5.9390000E-03   -4.6970000E-04     1.000000        5.4693000E-03    5.9390000E-03   -4.6970000E-04    5.6729397E-04     1762.755    
 p054                 obsgroup      5.4693000E-03    6.0160000E-03   -5.4670000E-04     1.000000        5.4693000E-03    6.0160000E-03   -5.4670000E-04    5.6729397E-04     1762.755    
 p055                 obsgroup      5.7783000E-03    6.0880000E-03   -3.0970000E-04     1.000000        5.7783000E-03    6.0880000E-03   -3.0970000E-04    5.6729397E-04     1762.755    
 p056                 obsgroup      5.6753000E-03    6.1520000E-03   -4.7670000E-04     1.000000        5.6753000E-03    6.1520000E-03   -4.7670000E-04    5.6729397E-04     1762.755    
 p057                 obsgroup      5.7783000E-03    6.2110000E-03   -4.3270000E-04     1.000000        5.7783000E-03    6.2110000E-03   -4.3270000E-04    5.6729397E-04     1762.755    
 p058                 obsgroup      6.0873000E-03    6.2630000E-03   -1.7570000E-04     1.000000        6.0873000E-03    6.2630000E-03   -1.7570000E-04    5.6729397E-04     1762.755    
 p059                 obsgroup      5.7783000E-03    6.3100000E-03   -5.3170000E-04     1.000000        5.7783000E-03    6.3100000E-03   -5.3170000E-04    5.6729397E-04     1762.755    
 p060                 obsgroup      5.9843000E-03    6.3510000E-03   -3.6670000E-04     1.000000        5.9843000E-03    6.3510000E-03   -3.6670000E-04    5.6729397E-04     1762.755    
 p061                 obsgroup      5.9843000E-03    6.4160000E-03   -4.3170000E-04     1.000000        5.9843000E-03    6.4160000E-03   -4.3170000E-04    5.6729397E-04     1762.755    
 p062                 obsgroup      6.0873000E-03    6.4410000E-03   -3.5370000E-04     1.000000        6.0873000E-03    6.4410000E-03   -3.5370000E-04    5.6729397E-04     1762.755    
 p063                 obsgroup      6.2933000E-03    6.4620000E-03   -1.6870000E-04     1.000000        6.2933000E-03    6.4620000E-03   -1.6870000E-04    5.6729397E-04     1762.755    
 p064                 obsgroup      5.8813000E-03    6.4790000E-03   -5.9770000E-04     1.000000        5.8813000E-03    6.4790000E-03   -5.9770000E-04    5.6729397E-04     1762.755    
 p065                 obsgroup      6.2933000E-03    6.4920000E-03   -1.9870000E-04     1.000000        6.2933000E-03    6.4920000E-03   -1.9870000E-04    5.6729397E-04     1762.755    
 p066                 obsgroup      5.8813000E-03    6.5000000E-03   -6.1870000E-04     1.000000        5.8813000E-03    6.5000000E-03   -6.1870000E-04    5.6729397E-04     1762.755    
 p067                 obsgroup      6.0873000E-03    6.5050000E-03   -4.1770000E-04     1.000000        6.0873000E-03    6.5050000E-03   -4.1770000E-04    5.6729397E-04     1762.755    
 p068                 obsgroup      6.1903000E-03    6.5070000E-03   -3.1670000E-04     1.000000        6.1903000E-03    6.5070000E-03   -3.1670000E-04    5.6729397E-04     1762.755    
 p069                 obsgroup      6.6023000E-03    6.5040000E-03    9.8300000E-05     1.000000        6.6023000E-03    6.5040000E-03    9.8300000E-05    5.6729397E-04     1762.755    
 p070                 obsgroup      6.4993000E-03    6.4990000E-03    3.0000000E-07     1.000000        6.4993000E-03    6.4990000E-03    3.0000000E-07    5.6729397E-04     1762.755    
 p071                 obsgroup      6.0873000E-03    6.4900000E-03   -4.0270000E-04     1.000000        6.0873000E-03    6.4900000E-03   -4.0270000E-04    5.6729397E-04     1762.755    
 p072                 obsgroup      6.3963000E-03    6.4790000E-03   -8.2700000E-05     1.000000        6.3963000E-03    6.4790000E-03   -8.2700000E-05    5.6729397E-04     1762.755    
 p073                 obsgroup      6.4993000E-03    6.4650000E-03    3.4300000E-05     1.000000        6.4993000E-03    6.4650000E-03    3.4300000E-05    5.6729397E-04     1762.755    
 p074                 obsgroup      6.4993000E-03    6.4480000E-03    5.1300000E-05     1.000000        6.4993000E-03    6.4480000E-03    5.1300000E-05    5.6729397E-04     1762.755    
 p075                 obsgroup      6.1903000E-03    6.4290000E-03   -2.3870000E-04     1.000000        6.1903000E-03    6.4290000E-03   -2.3870000E-04    5.6729397E-04     1762.755    
 p076                 obsgroup      6.3963000E-03    6.4070000E-03   -1.0700000E-05     1.000000        6.3963000E-03    6.4070000E-03   -1.0700000E-05    5.6729397E-04     1762.755    
 p077                 obsgroup      6.3963000E-03    6.3840000E-03    1.2300000E-05     1.000000        6.3963000E-03    6.3840000E-03    1.2300000E-05    5.6729397E-04     1762.755    
 p078                 obsgroup      6.2933000E-03    6.3580000E-03   -6.4700000E-05     1.000000        6.2933000E-03    6.3580000E-03   -6.4700000E-05    5.6729397E-04     1762.755    
 p079                 obsgroup      6.3963000E-03    6.3300000E-03    6.6300000E-05     1.000000        6.3963000E-03    6.3300000E-03    6.6300000E-05    5.6729397E-04     1762.755    
 p080                 obsgroup      6.6023000E-03    6.3010000E-03    3.0130000E-04     1.000000        6.6023000E-03    6.3010000E-03    3.0130000E-04    5.6729397E-04     1762.755    
 p081                 obsgroup      6.4993000E-03    6.2690000E-03    2.3030000E-04     1.000000        6.4993000E-03    6.2690000E-03    2.3030000E-04    5.6729397E-04     1762.755    
 p082                 obsgroup      5.7783000E-03    6.2360000E-03   -4.5770000E-04     1.000000        5.7783000E-03    6.2360000E-03   -4.5770000E-04    5.6729397E-04     1762.755    
 p083                 obsgroup      6.3963000E-03    6.2020000E-03    1.9430000E-04     1.000000        6.3963000E-03    6.2020000E-03    1.9430000E-04    5.6729397E-04     1762.755    
 p084                 obsgroup      5.7783000E-03    6.1680000E-03   -3.8970000E-04     1.000000        5.7783000E-03    6.1680000E-03   -3.8970000E-04    5.6729397E-04     1762.755    
 p085                 obsgroup      6.0873000E-03    6.1310000E-03   -4.3700000E-05     1.000000        6.0873000E-03    6.1310000E-03   -4.3700000E-05    5.6729397E-04     1762.755    
 p086                 obsgroup      6.1903000E-03    6.0200000E-03    1.7030000E-04     1.000000        6.1903000E-03    6.0200000E-03    1.7030000E-04    5.6729397E-04     1762.755    
 p087                 obsgroup      5.9843000E-03    5.9790000E-03    5.3000000E-06     1.000000        5.9843000E-03    5.9790000E-03    5.3000000E-06    5.6729397E-04     1762.755    
 p088                 obsgroup      5.6753000E-03    5.9360000E-03   -2.6070000E-04     1.000000        5.6753000E-03    5.9360000E-03   -2.6070000E-04    5.6729397E-04     1762.755    
 p089                 obsgroup      5.9843000E-03    5.8930000E-03    9.1300000E-05     1.000000        5.9843000E-03    5.8930000E-03    9.1300000E-05    5.6729397E-04     1762.755    
 p090                 obsgroup      5.6753000E-03    5.8490000E-03   -1.7370000E-04     1.000000        5.6753000E-03    5.8490000E-03   -1.7370000E-04    5.6729397E-04     1762.755    
 p091                 obsgroup      5.8813000E-03    5.8070000E-03    7.4300000E-05     1.000000        5.8813000E-03    5.8070000E-03    7.4300000E-05    5.6729397E-04     1762.755    
 p092                 obsgroup      5.6753000E-03    5.7610000E-03   -8.5700000E-05     1.000000        5.6753000E-03    5.7610000E-03   -8.5700000E-05    5.6729397E-04     1762.755    
 p093                 obsgroup      5.7783000E-03    5.7160000E-03    6.2300000E-05     1.000000        5.7783000E-03    5.7160000E-03    6.2300000E-05    5.6729397E-04     1762.755    
 p094                 obsgroup      5.5723000E-03    5.6690000E-03   -9.6700000E-05     1.000000        5.5723000E-03    5.6690000E-03   -9.6700000E-05    5.6729397E-04     1762.755    
 p095                 obsgroup      5.4693000E-03    5.6210000E-03   -1.5170000E-04     1.000000        5.4693000E-03    5.6210000E-03   -1.5170000E-04    5.6729397E-04     1762.755    
 p096                 obsgroup      5.5723000E-03    5.5730000E-03   -7.0000000E-07     1.000000        5.5723000E-03    5.5730000E-03   -7.0000000E-07    5.6729397E-04     1762.755    
 p097                 obsgroup      5.2633000E-03    5.5260000E-03   -2.6270000E-04     1.000000        5.2633000E-03    5.5260000E-03   -2.6270000E-04    5.6729397E-04     1762.755    
 p098                 obsgroup      5.5723000E-03    5.4780000E-03    9.4300000E-05     1.000000        5.5723000E-03    5.4780000E-03    9.4300000E-05    5.6729397E-04     1762.755    
 p099                 obsgroup      5.4693000E-03    5.4460000E-03    2.3300000E-05     1.000000        5.4693000E-03    5.4460000E-03    2.3300000E-05    5.6729397E-04     1762.755    
 p100                 obsgroup      5.2633000E-03    5.3980000E-03   -1.3470000E-04     1.000000        5.2633000E-03    5.3980000E-03   -1.3470000E-04    5.6729397E-04     1762.755    
 p101                 obsgroup      5.3663000E-03    5.3500000E-03    1.6300000E-05     1.000000        5.3663000E-03    5.3500000E-03    1.6300000E-05    5.6729397E-04     1762.755    
 p102                 obsgroup      5.5723000E-03    5.3020000E-03    2.7030000E-04     1.000000        5.5723000E-03    5.3020000E-03    2.7030000E-04    5.6729397E-04     1762.755    
 p103                 obsgroup      5.0573000E-03    5.2550000E-03   -1.9770000E-04     1.000000        5.0573000E-03    5.2550000E-03   -1.9770000E-04    5.6729397E-04     1762.755    
 p104                 obsgroup      5.2633000E-03    5.1610000E-03    1.0230000E-04     1.000000        5.2633000E-03    5.1610000E-03    1.0230000E-04    5.6729397E-04     1762.755    
 p105                 obsgroup      5.1603000E-03    5.1110000E-03    4.9300000E-05     1.000000        5.1603000E-03    5.1110000E-03    4.9300000E-05    5.6729397E-04     1762.755    
 p106                 obsgroup      5.4693000E-03    5.0630000E-03    4.0630000E-04     1.000000        5.4693000E-03    5.0630000E-03    4.0630000E-04    5.6729397E-04     1762.755    
 p107                 obsgroup      5.1603000E-03    5.0140000E-03    1.4630000E-04     1.000000        5.1603000E-03    5.0140000E-03    1.4630000E-04    5.6729397E-04     1762.755    
 p108                 obsgroup      5.0573000E-03    4.9650000E-03    9.2300000E-05     1.000000        5.0573000E-03    4.9650000E-03    9.2300000E-05    5.6729397E-04     1762.755    
 p109                 obsgroup      4.9543000E-03    4.9160000E-03    3.8300000E-05     1.000000        4.9543000E-03    4.9160000E-03    3.8300000E-05    5.6729397E-04     1762.755    
 p110                 obsgroup      5.0573000E-03    4.8670000E-03    1.9030000E-04     1.000000        5.0573000E-03    4.8670000E-03    1.9030000E-04    5.6729397E-04     1762.755    
 p111                 obsgroup      4.6453000E-03    4.8200000E-03   -1.7470000E-04     1.000000        4.6453000E-03    4.8200000E-03   -1.7470000E-04    5.6729397E-04     1762.755    
 p112                 obsgroup      4.5423000E-03    4.7700000E-03   -2.2770000E-04     1.000000        4.5423000E-03    4.7700000E-03   -2.2770000E-04    5.6729397E-04     1762.755    
 p113                 obsgroup      4.6453000E-03    4.7230000E-03   -7.7700000E-05     1.000000        4.6453000E-03    4.7230000E-03   -7.7700000E-05    5.6729397E-04     1762.755    
 p114                 obsgroup      4.7483000E-03    4.6740000E-03    7.4300000E-05     1.000000        4.7483000E-03    4.6740000E-03    7.4300000E-05    5.6729397E-04     1762.755    
 p115                 obsgroup      4.6453000E-03    4.6260000E-03    1.9300000E-05     1.000000        4.6453000E-03    4.6260000E-03    1.9300000E-05    5.6729397E-04     1762.755    
 p116                 obsgroup      4.6453000E-03    4.5780000E-03    6.7300000E-05     1.000000        4.6453000E-03    4.5780000E-03    6.7300000E-05    5.6729397E-04     1762.755    
 p117                 obsgroup      4.3363000E-03    4.4840000E-03   -1.4770000E-04     1.000000        4.3363000E-03    4.4840000E-03   -1.4770000E-04    5.6729397E-04     1762.755    
 p118                 obsgroup      4.4393000E-03    4.3900000E-03    4.9300000E-05     1.000000        4.4393000E-03    4.3900000E-03    4.9300000E-05    5.6729397E-04     1762.755    
 p119                 obsgroup      4.1303000E-03    4.3440000E-03   -2.1370000E-04     1.000000        4.1303000E-03    4.3440000E-03   -2.1370000E-04    5.6729397E-04     1762.755    
 p120                 obsgroup      4.0273000E-03    4.2980000E-03   -2.7070000E-04     1.000000        4.0273000E-03    4.2980000E-03   -2.7070000E-04    5.6729397E-04     1762.755    
 p121                 obsgroup      3.8213000E-03    4.2080000E-03   -3.8670000E-04     1.000000        3.8213000E-03    4.2080000E-03   -3.8670000E-04    5.6729397E-04     1762.755    
 p122                 obsgroup      3.8213000E-03    4.1620000E-03   -3.4070000E-04     1.000000        3.8213000E-03    4.1620000E-03   -3.4070000E-04    5.6729397E-04     1762.755    
 p123                 obsgroup      3.7183000E-03    4.1160000E-03   -3.9770000E-04     1.000000        3.7183000E-03    4.1160000E-03   -3.9770000E-04    5.6729397E-04     1762.755    
 p124                 obsgroup      3.5123000E-03    4.0720000E-03   -5.5970000E-04     1.000000        3.5123000E-03    4.0720000E-03   -5.5970000E-04    5.6729397E-04     1762.755    
 p125                 obsgroup      3.7183000E-03    4.0270000E-03   -3.0870000E-04     1.000000        3.7183000E-03    4.0270000E-03   -3.0870000E-04    5.6729397E-04     1762.755    
 p126                 obsgroup      3.3063000E-03    3.9830000E-03   -6.7670000E-04     1.000000        3.3063000E-03    3.9830000E-03   -6.7670000E-04    5.6729397E-04     1762.755    
 p127                 obsgroup      3.4093000E-03    3.9390000E-03   -5.2970000E-04     1.000000        3.4093000E-03    3.9390000E-03   -5.2970000E-04    5.6729397E-04     1762.755    
 p128                 obsgroup      3.5123000E-03    3.8950000E-03   -3.8270000E-04     1.000000        3.5123000E-03    3.8950000E-03   -3.8270000E-04    5.6729397E-04     1762.755    
 p129                 obsgroup      3.5123000E-03    3.8520000E-03   -3.3970000E-04     1.000000        3.5123000E-03    3.8520000E-03   -3.3970000E-04    5.6729397E-04     1762.755    
 p130                 obsgroup      3.3063000E-03    3.8090000E-03   -5.0270000E-04     1.000000        3.3063000E-03    3.8090000E-03   -5.0270000E-04    5.6729397E-04     1762.755    
 p131                 obsgroup      3.1003000E-03    3.7650000E-03   -6.6470000E-04     1.000000        3.1003000E-03    3.7650000E-03   -6.6470000E-04    5.6729397E-04     1762.755    
 p132                 obsgroup      3.3063000E-03    3.7250000E-03   -4.1870000E-04     1.000000        3.3063000E-03    3.7250000E-03   -4.1870000E-04    5.6729397E-04     1762.755    
 p133                 obsgroup      2.9973000E-03    3.6820000E-03   -6.8470000E-04     1.000000        2.9973000E-03    3.6820000E-03   -6.8470000E-04    5.6729397E-04     1762.755    
 p134                 obsgroup      3.3063000E-03    3.6460000E-03   -3.3970000E-04     1.000000        3.3063000E-03    3.6460000E-03   -3.3970000E-04    5.6729397E-04     1762.755    
 p135                 obsgroup      3.2033000E-03    3.5540000E-03   -3.5070000E-04     1.000000        3.2033000E-03    3.5540000E-03   -3.5070000E-04    5.6729397E-04     1762.755    
 p136                 obsgroup      3.1003000E-03    3.5110000E-03   -4.1070000E-04     1.000000        3.1003000E-03    3.5110000E-03   -4.1070000E-04    5.6729397E-04     1762.755    
 p137                 obsgroup      3.3063000E-03    3.2840000E-03    2.2300000E-05     1.000000        3.3063000E-03    3.2840000E-03    2.2300000E-05    5.6729397E-04     1762.755    
 p138                 obsgroup      2.9973000E-03    3.1090000E-03   -1.1170000E-04     1.000000        2.9973000E-03    3.1090000E-03   -1.1170000E-04    5.6729397E-04     1762.755    
 p139                 obsgroup      2.9973000E-03    2.9840000E-03    1.3300000E-05     1.000000        2.9973000E-03    2.9840000E-03    1.3300000E-05    5.6729397E-04     1762.755    
 p140                 obsgroup      2.9973000E-03    2.9440000E-03    5.3300000E-05     1.000000        2.9973000E-03    2.9440000E-03    5.3300000E-05    5.6729397E-04     1762.755    
 p141                 obsgroup      3.1003000E-03    2.7850000E-03    3.1530000E-04     1.000000        3.1003000E-03    2.7850000E-03    3.1530000E-04    5.6729397E-04     1762.755    
 p142                 obsgroup      2.9973000E-03    2.7480000E-03    2.4930000E-04     1.000000        2.9973000E-03    2.7480000E-03    2.4930000E-04    5.6729397E-04     1762.755    
 p143                 obsgroup      2.8943000E-03    2.7100000E-03    1.8430000E-04     1.000000        2.8943000E-03    2.7100000E-03    1.8430000E-04    5.6729397E-04     1762.755    
 p144                 obsgroup      2.8943000E-03    2.6730000E-03    2.2130000E-04     1.000000        2.8943000E-03    2.6730000E-03    2.2130000E-04    5.6729397E-04     1762.755    
 p145                 obsgroup      2.7913000E-03    2.5300000E-03    2.6130000E-04     1.000000        2.7913000E-03    2.5300000E-03    2.6130000E-04    5.6729397E-04     1762.755    
 p146                 obsgroup      2.5853000E-03    2.4960000E-03    8.9300000E-05     1.000000        2.5853000E-03    2.4960000E-03    8.9300000E-05    5.6729397E-04     1762.755    
 p147                 obsgroup      2.7913000E-03    2.4620000E-03    3.2930000E-04     1.000000        2.7913000E-03    2.4620000E-03    3.2930000E-04    5.6729397E-04     1762.755    
 p148                 obsgroup      2.7913000E-03    2.3620000E-03    4.2930000E-04     1.000000        2.7913000E-03    2.3620000E-03    4.2930000E-04    5.6729397E-04     1762.755    
 p149                 obsgroup      2.6883000E-03    2.1090000E-03    5.7930000E-04     1.000000        2.6883000E-03    2.1090000E-03    5.7930000E-04    5.6729397E-04     1762.755    
 p150                 obsgroup      2.5853000E-03    1.9090000E-03    6.7630000E-04     1.000000        2.5853000E-03    1.9090000E-03    6.7630000E-04    5.6729397E-04     1762.755    
 p151                 obsgroup      2.6883000E-03    1.8820000E-03    8.0630000E-04     1.000000        2.6883000E-03    1.8820000E-03    8.0630000E-04    5.6729397E-04     1762.755    
 p152                 obsgroup      2.6883000E-03    1.8480000E-03    8.4030000E-04     1.000000        2.6883000E-03    1.8480000E-03    8.4030000E-04    5.6729397E-04     1762.755    
 p153                 obsgroup      2.6883000E-03    1.7990000E-03    8.8930000E-04     1.000000        2.6883000E-03    1.7990000E-03    8.8930000E-04    5.6729397E-04     1762.755    
 p154                 obsgroup      2.5853000E-03    1.7750000E-03    8.1030000E-04     1.000000        2.5853000E-03    1.7750000E-03    8.1030000E-04    5.6729397E-04     1762.755    
 p155                 obsgroup      2.3175000E-03    1.7510000E-03    5.6650000E-04     1.000000        2.3175000E-03    1.7510000E-03    5.6650000E-04    5.6729397E-04     1762.755    
 p156                 obsgroup      2.2351000E-03    1.7270000E-03    5.0810000E-04     1.000000        2.2351000E-03    1.7270000E-03    5.0810000E-04    5.6729397E-04     1762.755    
 p157                 obsgroup      2.2454000E-03    1.7040000E-03    5.4140000E-04     1.000000        2.2454000E-03    1.7040000E-03    5.4140000E-04    5.6729397E-04     1762.755    
 p158                 obsgroup      2.4823000E-03    1.6820000E-03    8.0030000E-04     1.000000        2.4823000E-03    1.6820000E-03    8.0030000E-04    5.6729397E-04     1762.755    
 p159                 obsgroup      2.4823000E-03    1.6590000E-03    8.2330000E-04     1.000000        2.4823000E-03    1.6590000E-03    8.2330000E-04    5.6729397E-04     1762.755    
 p160                 obsgroup      2.3072000E-03    1.6180000E-03    6.8920000E-04     1.000000        2.3072000E-03    1.6180000E-03    6.8920000E-04    5.6729397E-04     1762.755    
 p161                 obsgroup      2.1527000E-03    1.5960000E-03    5.5670000E-04     1.000000        2.1527000E-03    1.5960000E-03    5.5670000E-04    5.6729397E-04     1762.755    
 p162                 obsgroup      2.2866000E-03    1.5540000E-03    7.3260000E-04     1.000000        2.2866000E-03    1.5540000E-03    7.3260000E-04    5.6729397E-04     1762.755    
 p163                 obsgroup      2.1115000E-03    1.5330000E-03    5.7850000E-04     1.000000        2.1115000E-03    1.5330000E-03    5.7850000E-04    5.6729397E-04     1762.755    
 p164                 obsgroup      2.0291000E-03    1.5130000E-03    5.1610000E-04     1.000000        2.0291000E-03    1.5130000E-03    5.1610000E-04    5.6729397E-04     1762.755    
 p165                 obsgroup      2.1012000E-03    1.4930000E-03    6.0820000E-04     1.000000        2.1012000E-03    1.4930000E-03    6.0820000E-04    5.6729397E-04     1762.755    
 p166                 obsgroup      2.2866000E-03    1.4740000E-03    8.1260000E-04     1.000000        2.2866000E-03    1.4740000E-03    8.1260000E-04    5.6729397E-04     1762.755    
 p167                 obsgroup      2.2660000E-03    1.4350000E-03    8.3100000E-04     1.000000        2.2660000E-03    1.4350000E-03    8.3100000E-04    5.6729397E-04     1762.755    
 p168                 obsgroup      2.2454000E-03    1.4160000E-03    8.2940000E-04     1.000000        2.2454000E-03    1.4160000E-03    8.2940000E-04    5.6729397E-04     1762.755    
 p169                 obsgroup      2.2248000E-03    1.3970000E-03    8.2780000E-04     1.000000        2.2248000E-03    1.3970000E-03    8.2780000E-04    5.6729397E-04     1762.755    
 p170                 obsgroup      2.1630000E-03    1.3790000E-03    7.8400000E-04     1.000000        2.1630000E-03    1.3790000E-03    7.8400000E-04    5.6729397E-04     1762.755    
 p171                 obsgroup      2.1321000E-03    1.3610000E-03    7.7110000E-04     1.000000        2.1321000E-03    1.3610000E-03    7.7110000E-04    5.6729397E-04     1762.755    
 p172                 obsgroup      2.0291000E-03    1.3430000E-03    6.8610000E-04     1.000000        2.0291000E-03    1.3430000E-03    6.8610000E-04    5.6729397E-04     1762.755    
 p173                 obsgroup      1.9879000E-03    1.3250000E-03    6.6290000E-04     1.000000        1.9879000E-03    1.3250000E-03    6.6290000E-04    5.6729397E-04     1762.755    
 p174                 obsgroup      2.0600000E-03    1.3070000E-03    7.5300000E-04     1.000000        2.0600000E-03    1.3070000E-03    7.5300000E-04    5.6729397E-04     1762.755    
 p175                 obsgroup      1.9673000E-03    1.2560000E-03    7.1130000E-04     1.000000        1.9673000E-03    1.2560000E-03    7.1130000E-04    5.6729397E-04     1762.755    
 p176                 obsgroup      1.8952000E-03    1.2390000E-03    6.5620000E-04     1.000000        1.8952000E-03    1.2390000E-03    6.5620000E-04    5.6729397E-04     1762.755    
 p177                 obsgroup      1.6995000E-03    1.2230000E-03    4.7650000E-04     1.000000        1.6995000E-03    1.2230000E-03    4.7650000E-04    5.6729397E-04     1762.755    
 p178                 obsgroup      1.8128000E-03    1.2060000E-03    6.0680000E-04     1.000000        1.8128000E-03    1.2060000E-03    6.0680000E-04    5.6729397E-04     1762.755    
 p179                 obsgroup      1.9467000E-03    1.1900000E-03    7.5670000E-04     1.000000        1.9467000E-03    1.1900000E-03    7.5670000E-04    5.6729397E-04     1762.755    
 p180                 obsgroup      2.0291000E-03    1.1740000E-03    8.5510000E-04     1.000000        2.0291000E-03    1.1740000E-03    8.5510000E-04    5.6729397E-04     1762.755    
 p181                 obsgroup      1.8952000E-03    1.1580000E-03    7.3720000E-04     1.000000        1.8952000E-03    1.1580000E-03    7.3720000E-04    5.6729397E-04     1762.755    
 p182                 obsgroup      1.7819000E-03    1.1420000E-03    6.3990000E-04     1.000000        1.7819000E-03    1.1420000E-03    6.3990000E-04    5.6729397E-04     1762.755    
 p183                 obsgroup      1.7613000E-03    1.1270000E-03    6.3430000E-04     1.000000        1.7613000E-03    1.1270000E-03    6.3430000E-04    5.6729397E-04     1762.755    
 p184                 obsgroup      1.6377000E-03    1.0970000E-03    5.4070000E-04     1.000000        1.6377000E-03    1.0970000E-03    5.4070000E-04    5.6729397E-04     1762.755    
 p185                 obsgroup      1.6789000E-03    1.0820000E-03    5.9690000E-04     1.000000        1.6789000E-03    1.0820000E-03    5.9690000E-04    5.6729397E-04     1762.755    
 p186                 obsgroup      1.7407000E-03    1.0670000E-03    6.7370000E-04     1.000000        1.7407000E-03    1.0670000E-03    6.7370000E-04    5.6729397E-04     1762.755    
 p187                 obsgroup      1.4832000E-03    1.0530000E-03    4.3020000E-04     1.000000        1.4832000E-03    1.0530000E-03    4.3020000E-04    5.6729397E-04     1762.755    
 p188                 obsgroup      1.3184000E-03    1.0380000E-03    2.8040000E-04     1.000000        1.3184000E-03    1.0380000E-03    2.8040000E-04    5.6729397E-04     1762.755    
 p189                 obsgroup      1.4420000E-03    1.0240000E-03    4.1800000E-04     1.000000        1.4420000E-03    1.0240000E-03    4.1800000E-04    5.6729397E-04     1762.755    
 p190                 obsgroup      1.6068000E-03    1.0110000E-03    5.9580000E-04     1.000000        1.6068000E-03    1.0110000E-03    5.9580000E-04    5.6729397E-04     1762.755    
 p191                 obsgroup      1.4420000E-03    9.9700000E-04    4.4500000E-04     1.000000        1.4420000E-03    9.9700000E-04    4.4500000E-04    5.6729397E-04     1762.755    
 p192                 obsgroup      1.4317000E-03    9.8300000E-04    4.4870000E-04     1.000000        1.4317000E-03    9.8300000E-04    4.4870000E-04    5.6729397E-04     1762.755    
 p193                 obsgroup      1.1948000E-03    9.7000000E-04    2.2480000E-04     1.000000        1.1948000E-03    9.7000000E-04    2.2480000E-04    5.6729397E-04     1762.755    
 p194                 obsgroup      1.1227000E-03    9.5700000E-04    1.6570000E-04     1.000000        1.1227000E-03    9.5700000E-04    1.6570000E-04    5.6729397E-04     1762.755    
 p195                 obsgroup      1.3493000E-03    9.1600000E-04    4.3330000E-04     1.000000        1.3493000E-03    9.1600000E-04    4.3330000E-04    5.6729397E-04     1762.755    
 p196                 obsgroup      1.4111000E-03    9.0500000E-04    5.0610000E-04     1.000000        1.4111000E-03    9.0500000E-04    5.0610000E-04    5.6729397E-04     1762.755    
 p197                 obsgroup      1.2360000E-03    8.9500000E-04    3.4100000E-04     1.000000        1.2360000E-03    8.9500000E-04    3.4100000E-04    5.6729397E-04     1762.755    
 p198                 obsgroup      1.2875000E-03    8.8400000E-04    4.0350000E-04     1.000000        1.2875000E-03    8.8400000E-04    4.0350000E-04    5.6729397E-04     1762.755    
 p199                 obsgroup      1.2463000E-03    8.7400000E-04    3.7230000E-04     1.000000        1.2463000E-03    8.7400000E-04    3.7230000E-04    5.6729397E-04     1762.755    
 p200                 obsgroup      1.1433000E-03    8.5400000E-04    2.8930000E-04     1.000000        1.1433000E-03    8.5400000E-04    2.8930000E-04    5.6729397E-04     1762.755    
 p201                 obsgroup      1.0197000E-03    8.4400000E-04    1.7570000E-04     1.000000        1.0197000E-03    8.4400000E-04    1.7570000E-04    5.6729397E-04     1762.755    
 p202                 obsgroup      1.1021000E-03    8.2500000E-04    2.7710000E-04     1.000000        1.1021000E-03    8.2500000E-04    2.7710000E-04    5.6729397E-04     1762.755    
 p203                 obsgroup      1.1639000E-03    8.1500000E-04    3.4890000E-04     1.000000        1.1639000E-03    8.1500000E-04    3.4890000E-04    5.6729397E-04     1762.755    
 p204                 obsgroup      1.1124000E-03    8.0500000E-04    3.0740000E-04     1.000000        1.1124000E-03    8.0500000E-04    3.0740000E-04    5.6729397E-04     1762.755    
 p205                 obsgroup      1.1433000E-03    7.9600000E-04    3.4730000E-04     1.000000        1.1433000E-03    7.9600000E-04    3.4730000E-04    5.6729397E-04     1762.755    
 p206                 obsgroup      9.0640000E-04    7.8600000E-04    1.2040000E-04     1.000000        9.0640000E-04    7.8600000E-04    1.2040000E-04    5.6729397E-04     1762.755    
 p207                 obsgroup      8.3430000E-04    7.7700000E-04    5.7300000E-05     1.000000        8.3430000E-04    7.7700000E-04    5.7300000E-05    5.6729397E-04     1762.755    
 p208                 obsgroup      9.8880000E-04    7.6800000E-04    2.2080000E-04     1.000000        9.8880000E-04    7.6800000E-04    2.2080000E-04    5.6729397E-04     1762.755    
 p209                 obsgroup      8.9610000E-04    7.5900000E-04    1.3710000E-04     1.000000        8.9610000E-04    7.5900000E-04    1.3710000E-04    5.6729397E-04     1762.755    
 p210                 obsgroup      1.1536000E-03    7.5000000E-04    4.0360000E-04     1.000000        1.1536000E-03    7.5000000E-04    4.0360000E-04    5.6729397E-04     1762.755    
 p211                 obsgroup      8.5490000E-04    7.4100000E-04    1.1390000E-04     1.000000        8.5490000E-04    7.4100000E-04    1.1390000E-04    5.6729397E-04     1762.755    
 p212                 obsgroup      9.5790000E-04    7.3200000E-04    2.2590000E-04     1.000000        9.5790000E-04    7.3200000E-04    2.2590000E-04    5.6729397E-04     1762.755    
 p213                 obsgroup      6.3860000E-04    7.2400000E-04   -8.5400000E-05     1.000000        6.3860000E-04    7.2400000E-04   -8.5400000E-05    5.6729397E-04     1762.755    
 p214                 obsgroup      9.5790000E-04    7.0800000E-04    2.4990000E-04     1.000000        9.5790000E-04    7.0800000E-04    2.4990000E-04    5.6729397E-04     1762.755    
 p215                 obsgroup      9.6820000E-04    6.9900000E-04    2.6920000E-04     1.000000        9.6820000E-04    6.9900000E-04    2.6920000E-04    5.6729397E-04     1762.755    
 p216                 obsgroup      7.6220000E-04    6.8300000E-04    7.9200000E-05     1.000000        7.6220000E-04    6.8300000E-04    7.9200000E-05    5.6729397E-04     1762.755    
 p217                 obsgroup      8.6520000E-04    6.7500000E-04    1.9020000E-04     1.000000        8.6520000E-04    6.7500000E-04    1.9020000E-04    5.6729397E-04     1762.755    
 p218                 obsgroup      7.5190000E-04    6.6700000E-04    8.4900000E-05     1.000000        7.5190000E-04    6.6700000E-04    8.4900000E-05    5.6729397E-04     1762.755    
 p219                 obsgroup      8.0340000E-04    6.5900000E-04    1.4440000E-04     1.000000        8.0340000E-04    6.5900000E-04    1.4440000E-04    5.6729397E-04     1762.755    
 p220                 obsgroup      8.0340000E-04    6.5100000E-04    1.5240000E-04     1.000000        8.0340000E-04    6.5100000E-04    1.5240000E-04    5.6729397E-04     1762.755    
 p221                 obsgroup      6.2830000E-04    6.4300000E-04   -1.4700000E-05     1.000000        6.2830000E-04    6.4300000E-04   -1.4700000E-05    5.6729397E-04     1762.755    
 p222                 obsgroup      8.5490000E-04    6.3600000E-04    2.1890000E-04     1.000000        8.5490000E-04    6.3600000E-04    2.1890000E-04    5.6729397E-04     1762.755    
 p223                 obsgroup      8.5490000E-04    6.2800000E-04    2.2690000E-04     1.000000        8.5490000E-04    6.2800000E-04    2.2690000E-04    5.6729397E-04     1762.755    
 p224                 obsgroup      8.9610000E-04    6.2100000E-04    2.7510000E-04     1.000000        8.9610000E-04    6.2100000E-04    2.7510000E-04    5.6729397E-04     1762.755    
 p225                 obsgroup      6.3860000E-04    6.1400000E-04    2.4600000E-05     1.000000        6.3860000E-04    6.1400000E-04    2.4600000E-05    5.6729397E-04     1762.755    
 p226                 obsgroup      6.3860000E-04    6.0700000E-04    3.1600000E-05     1.000000        6.3860000E-04    6.0700000E-04    3.1600000E-05    5.6729397E-04     1762.755    
 p227                 obsgroup      7.9310000E-04    5.9900000E-04    1.9410000E-04     1.000000        7.9310000E-04    5.9900000E-04    1.9410000E-04    5.6729397E-04     1762.755    
 p228                 obsgroup      9.0640000E-04    5.9200000E-04    3.1440000E-04     1.000000        9.0640000E-04    5.9200000E-04    3.1440000E-04    5.6729397E-04     1762.755    
 p229                 obsgroup      7.1070000E-04    5.8600000E-04    1.2470000E-04     1.000000        7.1070000E-04    5.8600000E-04    1.2470000E-04    5.6729397E-04     1762.755    
 p230                 obsgroup      7.3130000E-04    5.7900000E-04    1.5230000E-04     1.000000        7.3130000E-04    5.7900000E-04    1.5230000E-04    5.6729397E-04     1762.755    
