 Name                 Group          Measured         Modelled         Residual         Weight       Weight*Measured    Weight*Modelled  Weight*Residual  Measurement_sd   Natural_weight
 p001                 obsgroup      1.0510000E-03    1.1090000E-03   -5.8000000E-05     1.000000        1.0510000E-03    1.1090000E-03   -5.8000000E-05    3.3304977E-04     3002.554    
 p002                 obsgroup      1.0270000E-03    1.1510000E-03   -1.2400000E-04     1.000000        1.0270000E-03    1.1510000E-03   -1.2400000E-04    3.3304977E-04     3002.554    
 p003                 obsgroup      9.6400000E-04    1.2040000E-03   -2.4000000E-04     1.000000        9.6400000E-04    1.2040000E-03   -2.4000000E-04    3.3304977E-04     3002.554    
 p004                 obsgroup      1.0610000E-03    1.2700000E-03   -2.0900000E-04     1.000000        1.0610000E-03    1.2700000E-03   -2.0900000E-04    3.3304977E-04     3002.554    
 p005                 obsgroup      1.1020000E-03    1.3480000E-03   -2.4600000E-04     1.000000        1.1020000E-03    1.3480000E-03   -2.4600000E-04    3.3304977E-04     3002.554    
 p006                 obsgroup      1.0290000E-03    1.4420000E-03   -4.1300000E-04     1.000000        1.0290000E-03    1.4420000E-03   -4.1300000E-04    3.3304977E-04     3002.554    
 p007                 obsgroup      1.1120000E-03    1.5510000E-03   -4.3900000E-04     1.000000        1.1120000E-03    1.5510000E-03   -4.3900000E-04    3.3304977E-04     3002.554    
 p008                 obsgroup      1.1740000E-03    1.6760000E-03   -5.0200000E-04     1.000000        1.1740000E-03    1.6760000E-03   -5.0200000E-04    3.3304977E-04     3002.554    
 p009                 obsgroup      1.2260000E-03    1.8180000E-03   -5.9200000E-04     1.000000        1.2260000E-03    1.8180000E-03   -5.9200000E-04    3.3304977E-04     3002.554    
 p010                 obsgroup      1.3290000E-03    1.9800000E-03   -6.5100000E-04     1.000000        1.3290000E-03    1.9800000E-03   -6.5100000E-04    3.3304977E-04     3002.554    
 p011                 obsgroup      1.5140000E-03    2.1580000E-03   -6.4400000E-04     1.000000        1.5140000E-03    2.1580000E-03   -6.4400000E-04    3.3304977E-04     3002.554    
 p012                 obsgroup      1.6890000E-03    2.3500000E-03   -6.6100000E-04     1.000000        1.6890000E-03    2.3500000E-03   -6.6100000E-04    3.3304977E-04     3002.554    
 p013                 obsgroup      1.9060000E-03    2.5580000E-03   -6.5200000E-04     1.000000        1.9060000E-03    2.5580000E-03   -6.5200000E-04    3.3304977E-04     3002.554    
 p014                 obsgroup      1.9360000E-03    2.7810000E-03   -8.4500000E-04     1.000000        1.9360000E-03    2.7810000E-03   -8.4500000E-04    3.3304977E-04     3002.554    
 p015                 obsgroup      2.3280000E-03    3.0180000E-03   -6.9000000E-04     1.000000        2.3280000E-03    3.0180000E-03   -6.9000000E-04    3.3304977E-04     3002.554    
 p016                 obsgroup      2.4310000E-03    3.2740000E-03   -8.4300000E-04     1.000000        2.4310000E-03    3.2740000E-03   -8.4300000E-04    3.3304977E-04     3002.554    
 p017                 obsgroup      2.9360000E-03    3.5340000E-03   -5.9800000E-04     1.000000        2.9360000E-03    3.5340000E-03   -5.9800000E-04    3.3304977E-04     3002.554    
 p018                 obsgroup      2.9660000E-03    3.7920000E-03   -8.2600000E-04     1.000000        2.9660000E-03    3.7920000E-03   -8.2600000E-04    3.3304977E-04     3002.554    
 p019                 obsgroup      3.4200000E-03    4.0630000E-03   -6.4300000E-04     1.000000        3.4200000E-03    4.0630000E-03   -6.4300000E-04    3.3304977E-04     3002.554    
 p020                 obsgroup      3.8010000E-03    4.3400000E-03   -5.3900000E-04     1.000000        3.8010000E-03    4.3400000E-03   -5.3900000E-04    3.3304977E-04     3002.554    
 p021                 obsgroup      4.1410000E-03    4.6230000E-03   -4.8200000E-04     1.000000        4.1410000E-03    4.6230000E-03   -4.8200000E-04    3.3304977E-04     3002.554    
 p022                 obsgroup      4.3160000E-03    4.9140000E-03   -5.9800000E-04     1.000000        4.3160000E-03    4.9140000E-03   -5.9800000E-04    3.3304977E-04     3002.554    
 p023                 obsgroup      4.8620000E-03    5.2000000E-03   -3.3800000E-04     1.000000        4.8620000E-03    5.2000000E-03   -3.3800000E-04    3.3304977E-04     3002.554    
 p024                 obsgroup      5.3350000E-03    5.4810000E-03   -1.4600000E-04     1.000000        5.3350000E-03    5.4810000E-03   -1.4600000E-04    3.3304977E-04     3002.554    
 p025                 obsgroup      5.5930000E-03    5.7680000E-03   -1.7500000E-04     1.000000        5.5930000E-03    5.7680000E-03   -1.7500000E-04    3.3304977E-04     3002.554    
 p026                 obsgroup      5.5930000E-03    6.0570000E-03   -4.6400000E-04     1.000000        5.5930000E-03    6.0570000E-03   -4.6400000E-04    3.3304977E-04     3002.554    
 p027                 obsgroup      6.7260000E-03    6.3340000E-03    3.9200000E-04     1.000000        6.7260000E-03    6.3340000E-03    3.9200000E-04    3.3304977E-04     3002.554    
 p028                 obsgroup      6.8800000E-03    6.5990000E-03    2.8100000E-04     1.000000        6.8800000E-03    6.5990000E-03    2.8100000E-04    3.3304977E-04     3002.554    
 p029                 obsgroup      7.1280000E-03    6.8610000E-03    2.6700000E-04     1.000000        7.1280000E-03    6.8610000E-03    2.6700000E-04    3.3304977E-04     3002.554    
 p030                 obsgroup      7.2510000E-03    7.1210000E-03    1.3000000E-04     1.000000        7.2510000E-03    7.1210000E-03    1.3000000E-04    3.3304977E-04     3002.554    
 p031                 obsgroup      7.6840000E-03    7.3750000E-03    3.0900000E-04     1.000000        7.6840000E-03    7.3750000E-03    3.0900000E-04    3.3304977E-04     3002.554    
 p032                 obsgroup      8.4670000E-03    7.6180000E-03    8.4900000E-04     1.000000        8.4670000E-03    7.6180000E-03    8.4900000E-04    3.3304977E-04     3002.554    
 p033                 obsgroup      8.2090000E-03    7.8560000E-03    3.5300000E-04     1.000000        8.2090000E-03    7.8560000E-03    3.5300000E-04    3.3304977E-04     3002.554    
 p034                 obsgroup      8.4770000E-03    8.0870000E-03    3.9000000E-04     1.000000        8.4770000E-03    8.0870000E-03    3.9000000E-04    3.3304977E-04     3002.554    
 p035                 obsgroup      8.5800000E-03    8.3100000E-03    2.7000000E-04     1.000000        8.5800000E-03    8.3100000E-03    2.7000000E-04    3.3304977E-04     3002.554    
 p036                 obsgroup      8.8580000E-03    8.5260000E-03    3.3200000E-04     1.000000        8.8580000E-03    8.5260000E-03    3.3200000E-04    3.3304977E-04     3002.554    
 p037                 obsgroup      9.1770000E-03    8.7360000E-03    4.4100000E-04     1.000000        9.1770000E-03    8.7360000E-03    4.4100000E-04    3.3304977E-04     3002.554    
 p038                 obsgroup      9.1980000E-03    8.9340000E-03    2.6400000E-04     1.000000        9.1980000E-03    8.9340000E-03    2.6400000E-04    3.3304977E-04     3002.554    
 p039                 obsgroup      9.3730000E-03    9.1220000E-03    2.5100000E-04     1.000000        9.3730000E-03    9.1220000E-03    2.5100000E-04    3.3304977E-04     3002.554    
 p040                 obsgroup      9.7440000E-03    9.3020000E-03    4.4200000E-04     1.000000        9.7440000E-03    9.3020000E-03    4.4200000E-04    3.3304977E-04     3002.554    
 p041                 obsgroup      1.0187000E-02    9.4720000E-03    7.1500000E-04     1.000000        1.0187000E-02    9.4720000E-03    7.1500000E-04    3.3304977E-04     3002.554    
 p042                 obsgroup      1.0043000E-02    9.6310000E-03    4.1200000E-04     1.000000        1.0043000E-02    9.6310000E-03    4.1200000E-04    3.3304977E-04     3002.554    
 p043                 obsgroup      1.0218000E-02    9.7790000E-03    4.3900000E-04     1.000000        1.0218000E-02    9.7790000E-03    4.3900000E-04    3.3304977E-04     3002.554    
 p044                 obsgroup      1.0712000E-02    9.9150000E-03    7.9700000E-04     1.000000        1.0712000E-02    9.9150000E-03    7.9700000E-04    3.3304977E-04     3002.554    
 p045                 obsgroup      1.0238000E-02    1.0042000E-02    1.9600000E-04     1.000000        1.0238000E-02    1.0042000E-02    1.9600000E-04    3.3304977E-04     3002.554    
 p046                 obsgroup      1.1021000E-02    1.0157000E-02    8.6400000E-04     1.000000        1.1021000E-02    1.0157000E-02    8.6400000E-04    3.3304977E-04     3002.554    
 p047                 obsgroup      1.0506000E-02    1.0260000E-02    2.4600000E-04     1.000000        1.0506000E-02    1.0260000E-02    2.4600000E-04    3.3304977E-04     3002.554    
 p048                 obsgroup      1.0506000E-02    1.0354000E-02    1.5200000E-04     1.000000        1.0506000E-02    1.0354000E-02    1.5200000E-04    3.3304977E-04     3002.554    
 p049                 obsgroup      1.1021000E-02    1.0439000E-02    5.8200000E-04     1.000000        1.1021000E-02    1.0439000E-02    5.8200000E-04    3.3304977E-04     3002.554    
 p050                 obsgroup      1.0712000E-02    1.0514000E-02    1.9800000E-04     1.000000        1.0712000E-02    1.0514000E-02    1.9800000E-04    3.3304977E-04     3002.554    
 p051                 obsgroup      1.0712000E-02    1.0580000E-02    1.3200000E-04     1.000000        1.0712000E-02    1.0580000E-02    1.3200000E-04    3.3304977E-04     3002.554    
 p052                 obsgroup      1.0712000E-02    1.0638000E-02    7.4000000E-05     1.000000        1.0712000E-02    1.0638000E-02    7.4000000E-05    3.3304977E-04     3002.554    
 p053                 obsgroup      1.1433000E-02    1.0686000E-02    7.4700000E-04     1.000000        1.1433000E-02    1.0686000E-02    7.4700000E-04    3.3304977E-04     3002.554    
 p054                 obsgroup      1.1330000E-02    1.0724000E-02    6.0600000E-04     1.000000        1.1330000E-02    1.0724000E-02    6.0600000E-04    3.3304977E-04     3002.554    
 p055                 obsgroup      1.1433000E-02    1.0756000E-02    6.7700000E-04     1.000000        1.1433000E-02    1.0756000E-02    6.7700000E-04    3.3304977E-04     3002.554    
 p056                 obsgroup      1.1536000E-02    1.0781000E-02    7.5500000E-04     1.000000        1.1536000E-02    1.0781000E-02    7.5500000E-04    3.3304977E-04     3002.554    
 p057                 obsgroup      1.0918000E-02    1.0799000E-02    1.1900000E-04     1.000000        1.0918000E-02    1.0799000E-02    1.1900000E-04    3.3304977E-04     3002.554    
 p058                 obsgroup      1.0815000E-02    1.0809000E-02    6.0000000E-06     1.000000        1.0815000E-02    1.0809000E-02    6.0000000E-06    3.3304977E-04     3002.554    
 p059                 obsgroup      1.0506000E-02    1.0813000E-02   -3.0700000E-04     1.000000        1.0506000E-02    1.0813000E-02   -3.0700000E-04    3.3304977E-04     3002.554    
 p060                 obsgroup      1.0918000E-02    1.0810000E-02    1.0800000E-04     1.000000        1.0918000E-02    1.0810000E-02    1.0800000E-04    3.3304977E-04     3002.554    
 p061                 obsgroup      1.0815000E-02    1.0801000E-02    1.4000000E-05     1.000000        1.0815000E-02    1.0801000E-02    1.4000000E-05    3.3304977E-04     3002.554    
 p062                 obsgroup      1.0506000E-02    1.0785000E-02   -2.7900000E-04     1.000000        1.0506000E-02    1.0785000E-02   -2.7900000E-04    3.3304977E-04     3002.554    
 p063                 obsgroup      1.0300000E-02    1.0762000E-02   -4.6200000E-04     1.000000        1.0300000E-02    1.0762000E-02   -4.6200000E-04    3.3304977E-04     3002.554    
 p064                 obsgroup      1.0146000E-02    1.0734000E-02   -5.8800000E-04     1.000000        1.0146000E-02    1.0734000E-02   -5.8800000E-04    3.3304977E-04     3002.554    
 p065                 obsgroup      1.0403000E-02    1.0699000E-02   -2.9600000E-04     1.000000        1.0403000E-02    1.0699000E-02   -2.9600000E-04    3.3304977E-04     3002.554    
 p066                 obsgroup      1.0166000E-02    1.0659000E-02   -4.9300000E-04     1.000000        1.0166000E-02    1.0659000E-02   -4.9300000E-04    3.3304977E-04     3002.554    
 p067                 obsgroup      9.9400000E-03    1.0614000E-02   -6.7400000E-04     1.000000        9.9400000E-03    1.0614000E-02   -6.7400000E-04    3.3304977E-04     3002.554    
 p068                 obsgroup      1.0146000E-02    1.0563000E-02   -4.1700000E-04     1.000000        1.0146000E-02    1.0563000E-02   -4.1700000E-04    3.3304977E-04     3002.554    
 p069                 obsgroup      9.7750000E-03    1.0507000E-02   -7.3200000E-04     1.000000        9.7750000E-03    1.0507000E-02   -7.3200000E-04    3.3304977E-04     3002.554    
 p070                 obsgroup      1.0156000E-02    1.0446000E-02   -2.9000000E-04     1.000000        1.0156000E-02    1.0446000E-02   -2.9000000E-04    3.3304977E-04     3002.554    
 p071                 obsgroup      1.0115000E-02    1.0382000E-02   -2.6700000E-04     1.000000        1.0115000E-02    1.0382000E-02   -2.6700000E-04    3.3304977E-04     3002.554    
 p072                 obsgroup      9.8980000E-03    1.0314000E-02   -4.1600000E-04     1.000000        9.8980000E-03    1.0314000E-02   -4.1600000E-04    3.3304977E-04     3002.554    
 p073                 obsgroup      9.6000000E-03    1.0243000E-02   -6.4300000E-04     1.000000        9.6000000E-03    1.0243000E-02   -6.4300000E-04    3.3304977E-04     3002.554    
 p074                 obsgroup      9.8160000E-03    1.0169000E-02   -3.5300000E-04     1.000000        9.8160000E-03    1.0169000E-02   -3.5300000E-04    3.3304977E-04     3002.554    
 p075                 obsgroup      1.0022000E-02    1.0092000E-02   -7.0000000E-05     1.000000        1.0022000E-02    1.0092000E-02   -7.0000000E-05    3.3304977E-04     3002.554    
 p076                 obsgroup      9.2390000E-03    1.0012000E-02   -7.7300000E-04     1.000000        9.2390000E-03    1.0012000E-02   -7.7300000E-04    3.3304977E-04     3002.554    
 p077                 obsgroup      9.7540000E-03    9.9280000E-03   -1.7400000E-04     1.000000        9.7540000E-03    9.9280000E-03   -1.7400000E-04    3.3304977E-04     3002.554    
 p078                 obsgroup      9.2600000E-03    9.8430000E-03   -5.8300000E-04     1.000000        9.2600000E-03    9.8430000E-03   -5.8300000E-04    3.3304977E-04     3002.554    
 p079                 obsgroup      9.3420000E-03    9.7540000E-03   -4.1200000E-04     1.000000        9.3420000E-03    9.7540000E-03   -4.1200000E-04    3.3304977E-04     3002.554    
 p080                 obsgroup      9.1460000E-03    9.6630000E-03   -5.1700000E-04     1.000000        9.1460000E-03    9.6630000E-03   -5.1700000E-04    3.3304977E-04     3002.554    
 p081                 obsgroup      9.1670000E-03    9.3870000E-03   -2.2000000E-04     1.000000        9.1670000E-03    9.3870000E-03   -2.2000000E-04    3.3304977E-04     3002.554    
 p082                 obsgroup      8.5900000E-03    9.0970000E-03   -5.0700000E-04     1.000000        8.5900000E-03    9.0970000E-03   -5.0700000E-04    3.3304977E-04     3002.554    
 p083                 obsgroup      8.3120000E-03    8.8020000E-03   -4.9000000E-04     1.000000        8.3120000E-03    8.8020000E-03   -4.9000000E-04    3.3304977E-04     3002.554    
 p084                 obsgroup      8.2500000E-03    8.5030000E-03   -2.5300000E-04     1.000000        8.2500000E-03    8.5030000E-03   -2.5300000E-04    3.3304977E-04     3002.554    
 p085                 obsgroup      7.8590000E-03    8.1960000E-03   -3.3700000E-04     1.000000        7.8590000E-03    8.1960000E-03   -3.3700000E-04    3.3304977E-04     3002.554    
 p086                 obsgroup      7.4880000E-03    7.8790000E-03   -3.9100000E-04     1.000000        7.4880000E-03    7.8790000E-03   -3.9100000E-04    3.3304977E-04     3002.554    
 p087                 obsgroup      7.4260000E-03    7.5770000E-03   -1.5100000E-04     1.000000        7.4260000E-03    7.5770000E-03   -1.5100000E-04    3.3304977E-04     3002.554    
 p088                 obsgroup      7.0350000E-03    7.2770000E-03   -2.4200000E-04     1.000000        7.0350000E-03    7.2770000E-03   -2.4200000E-04    3.3304977E-04     3002.554    
 p089                 obsgroup      7.0560000E-03    6.9820000E-03    7.4000000E-05     1.000000        7.0560000E-03    6.9820000E-03    7.4000000E-05    3.3304977E-04     3002.554    
 p090                 obsgroup      6.7880000E-03    6.7020000E-03    8.6000000E-05     1.000000        6.7880000E-03    6.7020000E-03    8.6000000E-05    3.3304977E-04     3002.554    
 p091                 obsgroup      6.5300000E-03    6.4270000E-03    1.0300000E-04     1.000000        6.5300000E-03    6.4270000E-03    1.0300000E-04    3.3304977E-04     3002.554    
 p092                 obsgroup      6.3240000E-03    6.1610000E-03    1.6300000E-04     1.000000        6.3240000E-03    6.1610000E-03    1.6300000E-04    3.3304977E-04     3002.554    
 p093                 obsgroup      6.0770000E-03    5.9080000E-03    1.6900000E-04     1.000000        6.0770000E-03    5.9080000E-03    1.6900000E-04    3.3304977E-04     3002.554    
 p094                 obsgroup      5.7780000E-03    5.6610000E-03    1.1700000E-04     1.000000        5.7780000E-03    5.6610000E-03    1.1700000E-04    3.3304977E-04     3002.554    
 p095                 obsgroup      5.5410000E-03    5.4270000E-03    1.1400000E-04     1.000000        5.5410000E-03    5.4270000E-03    1.1400000E-04    3.3304977E-04     3002.554    
 p096                 obsgroup      5.4280000E-03    5.2000000E-03    2.2800000E-04     1.000000        5.4280000E-03    5.2000000E-03    2.2800000E-04    3.3304977E-04     3002.554    
 p097                 obsgroup      5.3250000E-03    4.9830000E-03    3.4200000E-04     1.000000        5.3250000E-03    4.9830000E-03    3.4200000E-04    3.3304977E-04     3002.554    
 p098                 obsgroup      5.0260000E-03    4.7830000E-03    2.4300000E-04     1.000000        5.0260000E-03    4.7830000E-03    2.4300000E-04    3.3304977E-04     3002.554    
 p099                 obsgroup      5.3660000E-03    4.5940000E-03    7.7200000E-04     1.000000        5.3660000E-03    4.5940000E-03    7.7200000E-04    3.3304977E-04     3002.554    
 p100                 obsgroup      4.9960000E-03    4.4160000E-03    5.8000000E-04     1.000000        4.9960000E-03    4.4160000E-03    5.8000000E-04    3.3304977E-04     3002.554    
 p101                 obsgroup      4.6450000E-03    4.2460000E-03    3.9900000E-04     1.000000        4.6450000E-03    4.2460000E-03    3.9900000E-04    3.3304977E-04     3002.554    
 p102                 obsgroup      4.5220000E-03    4.0850000E-03    4.3700000E-04     1.000000        4.5220000E-03    4.0850000E-03    4.3700000E-04    3.3304977E-04     3002.554    
 p103                 obsgroup      4.2850000E-03    3.9330000E-03    3.5200000E-04     1.000000        4.2850000E-03    3.9330000E-03    3.5200000E-04    3.3304977E-04     3002.554    
 p104                 obsgroup      4.1100000E-03    3.7880000E-03    3.2200000E-04     1.000000        4.1100000E-03    3.7880000E-03    3.2200000E-04    3.3304977E-04     3002.554    
 p105                 obsgroup      3.9860000E-03    3.6480000E-03    3.3800000E-04     1.000000        3.9860000E-03    3.6480000E-03    3.3800000E-04    3.3304977E-04     3002.554    
 p106                 obsgroup      4.2540000E-03    3.5140000E-03    7.4000000E-04     1.000000        4.2540000E-03    3.5140000E-03    7.4000000E-04    3.3304977E-04     3002.554    
 p107                 obsgroup      3.8730000E-03    3.3910000E-03    4.8200000E-04     1.000000        3.8730000E-03    3.3910000E-03    4.8200000E-04    3.3304977E-04     3002.554    
 p108                 obsgroup      3.7490000E-03    3.2760000E-03    4.7300000E-04     1.000000        3.7490000E-03    3.2760000E-03    4.7300000E-04    3.3304977E-04     3002.554    
 p109                 obsgroup      4.0270000E-03    3.1670000E-03    8.6000000E-04     1.000000        4.0270000E-03    3.1670000E-03    8.6000000E-04    3.3304977E-04     3002.554    
 p110                 obsgroup      3.5330000E-03    3.0690000E-03    4.6400000E-04     1.000000        3.5330000E-03    3.0690000E-03    4.6400000E-04    3.3304977E-04     3002.554    
 p111                 obsgroup      3.5840000E-03    2.9750000E-03    6.0900000E-04     1.000000        3.5840000E-03    2.9750000E-03    6.0900000E-04    3.3304977E-04     3002.554    
 p112                 obsgroup      3.3480000E-03    2.8880000E-03    4.6000000E-04     1.000000        3.3480000E-03    2.8880000E-03    4.6000000E-04    3.3304977E-04     3002.554    
 p113                 obsgroup      3.1520000E-03    2.8050000E-03    3.4700000E-04     1.000000        3.1520000E-03    2.8050000E-03    3.4700000E-04    3.3304977E-04     3002.554    
 p114                 obsgroup      3.0690000E-03    2.7260000E-03    3.4300000E-04     1.000000        3.0690000E-03    2.7260000E-03    3.4300000E-04    3.3304977E-04     3002.554    
 p115                 obsgroup      2.9250000E-03    2.6520000E-03    2.7300000E-04     1.000000        2.9250000E-03    2.6520000E-03    2.7300000E-04    3.3304977E-04     3002.554    
 p116                 obsgroup      2.9770000E-03    2.5810000E-03    3.9600000E-04     1.000000        2.9770000E-03    2.5810000E-03    3.9600000E-04    3.3304977E-04     3002.554    
 p117                 obsgroup      2.8120000E-03    2.5130000E-03    2.9900000E-04     1.000000        2.8120000E-03    2.5130000E-03    2.9900000E-04    3.3304977E-04     3002.554    
 p118                 obsgroup      2.8120000E-03    2.4510000E-03    3.6100000E-04     1.000000        2.8120000E-03    2.4510000E-03    3.6100000E-04    3.3304977E-04     3002.554    
 p119                 obsgroup      2.8020000E-03    2.3930000E-03    4.0900000E-04     1.000000        2.8020000E-03    2.3930000E-03    4.0900000E-04    3.3304977E-04     3002.554    
 p120                 obsgroup      2.7090000E-03    2.3390000E-03    3.7000000E-04     1.000000        2.7090000E-03    2.3390000E-03    3.7000000E-04    3.3304977E-04     3002.554    
 p121                 obsgroup      2.5240000E-03    2.2870000E-03    2.3700000E-04     1.000000        2.5240000E-03    2.2870000E-03    2.3700000E-04    3.3304977E-04     3002.554    
 p122                 obsgroup      2.5750000E-03    2.2370000E-03    3.3800000E-04     1.000000        2.5750000E-03    2.2370000E-03    3.3800000E-04    3.3304977E-04     3002.554    
 p123                 obsgroup      2.5030000E-03    2.1910000E-03    3.1200000E-04     1.000000        2.5030000E-03    2.1910000E-03    3.1200000E-04    3.3304977E-04     3002.554    
 p124                 obsgroup      2.4210000E-03    2.1480000E-03    2.7300000E-04     1.000000        2.4210000E-03    2.1480000E-03    2.7300000E-04    3.3304977E-04     3002.554    
 p125                 obsgroup      2.4310000E-03    2.1080000E-03    3.2300000E-04     1.000000        2.4310000E-03    2.1080000E-03    3.2300000E-04    3.3304977E-04     3002.554    
 p126                 obsgroup      2.2560000E-03    2.0680000E-03    1.8800000E-04     1.000000        2.2560000E-03    2.0680000E-03    1.8800000E-04    3.3304977E-04     3002.554    
 p127                 obsgroup      2.2350000E-03    2.0300000E-03    2.0500000E-04     1.000000        2.2350000E-03    2.0300000E-03    2.0500000E-04    3.3304977E-04     3002.554    
 p128                 obsgroup      2.2040000E-03    1.9940000E-03    2.1000000E-04     1.000000        2.2040000E-03    1.9940000E-03    2.1000000E-04    3.3304977E-04     3002.554    
 p129                 obsgroup      2.1220000E-03    1.9610000E-03    1.6100000E-04     1.000000        2.1220000E-03    1.9610000E-03    1.6100000E-04    3.3304977E-04     3002.554    
 p130                 obsgroup      2.0910000E-03    1.9290000E-03    1.6200000E-04     1.000000        2.0910000E-03    1.9290000E-03    1.6200000E-04    3.3304977E-04     3002.554    
 p131                 obsgroup      2.1730000E-03    1.9000000E-03    2.7300000E-04     1.000000        2.1730000E-03    1.9000000E-03    2.7300000E-04    3.3304977E-04     3002.554    
 p132                 obsgroup      1.9780000E-03    1.8720000E-03    1.0600000E-04     1.000000        1.9780000E-03    1.8720000E-03    1.0600000E-04    3.3304977E-04     3002.554    
 p133                 obsgroup      1.9360000E-03    1.8450000E-03    9.1000000E-05     1.000000        1.9360000E-03    1.8450000E-03    9.1000000E-05    3.3304977E-04     3002.554    
 p134                 obsgroup      1.8750000E-03    1.8190000E-03    5.6000000E-05     1.000000        1.8750000E-03    1.8190000E-03    5.6000000E-05    3.3304977E-04     3002.554    
 p135                 obsgroup      2.0810000E-03    1.7950000E-03    2.8600000E-04     1.000000        2.0810000E-03    1.7950000E-03    2.8600000E-04    3.3304977E-04     3002.554    
 p136                 obsgroup      1.9260000E-03    1.7710000E-03    1.5500000E-04     1.000000        1.9260000E-03    1.7710000E-03    1.5500000E-04    3.3304977E-04     3002.554    
 p137                 obsgroup      1.9670000E-03    1.7490000E-03    2.1800000E-04     1.000000        1.9670000E-03    1.7490000E-03    2.1800000E-04    3.3304977E-04     3002.554    
 p138                 obsgroup      1.8950000E-03    1.7270000E-03    1.6800000E-04     1.000000        1.8950000E-03    1.7270000E-03    1.6800000E-04    3.3304977E-04     3002.554    
 p139                 obsgroup      1.8440000E-03    1.7070000E-03    1.3700000E-04     1.000000        1.8440000E-03    1.7070000E-03    1.3700000E-04    3.3304977E-04     3002.554    
 p140                 obsgroup      1.7200000E-03    1.6870000E-03    3.3000000E-05     1.000000        1.7200000E-03    1.6870000E-03    3.3000000E-05    3.3304977E-04     3002.554    
 p141                 obsgroup      1.7820000E-03    1.6680000E-03    1.1400000E-04     1.000000        1.7820000E-03    1.6680000E-03    1.1400000E-04    3.3304977E-04     3002.554    
 p142                 obsgroup      1.8230000E-03    1.6500000E-03    1.7300000E-04     1.000000        1.8230000E-03    1.6500000E-03    1.7300000E-04    3.3304977E-04     3002.554    
 p143                 obsgroup      1.6890000E-03    1.6330000E-03    5.6000000E-05     1.000000        1.6890000E-03    1.6330000E-03    5.6000000E-05    3.3304977E-04     3002.554    
 p144                 obsgroup      1.6170000E-03    1.6150000E-03    2.0000000E-06     1.000000        1.6170000E-03    1.6150000E-03    2.0000000E-06    3.3304977E-04     3002.554    
 p145                 obsgroup      1.5760000E-03    1.5980000E-03   -2.2000000E-05     1.000000        1.5760000E-03    1.5980000E-03   -2.2000000E-05    3.3304977E-04     3002.554    
 p146                 obsgroup      1.5760000E-03    1.5820000E-03   -6.0000000E-06     1.000000        1.5760000E-03    1.5820000E-03   -6.0000000E-06    3.3304977E-04     3002.554    
 p147                 obsgroup      1.6170000E-03    1.5650000E-03    5.2000000E-05     1.000000        1.6170000E-03    1.5650000E-03    5.2000000E-05    3.3304977E-04     3002.554    
 p148                 obsgroup      1.4730000E-03    1.5500000E-03   -7.7000000E-05     1.000000        1.4730000E-03    1.5500000E-03   -7.7000000E-05    3.3304977E-04     3002.554    
 p149                 obsgroup      1.4830000E-03    1.5340000E-03   -5.1000000E-05     1.000000        1.4830000E-03    1.5340000E-03   -5.1000000E-05    3.3304977E-04     3002.554    
 p150                 obsgroup      1.6170000E-03    1.5200000E-03    9.7000000E-05     1.000000        1.6170000E-03    1.5200000E-03    9.7000000E-05    3.3304977E-04     3002.554    
 p151                 obsgroup      1.4630000E-03    1.5060000E-03   -4.3000000E-05     1.000000        1.4630000E-03    1.5060000E-03   -4.3000000E-05    3.3304977E-04     3002.554    
 p152                 obsgroup      1.4520000E-03    1.4920000E-03   -4.0000000E-05     1.000000        1.4520000E-03    1.4920000E-03   -4.0000000E-05    3.3304977E-04     3002.554    
 p153                 obsgroup      1.4010000E-03    1.4740000E-03   -7.3000000E-05     1.000000        1.4010000E-03    1.4740000E-03   -7.3000000E-05    3.3304977E-04     3002.554    
 p154                 obsgroup      1.2880000E-03    1.4560000E-03   -1.6800000E-04     1.000000        1.2880000E-03    1.4560000E-03   -1.6800000E-04    3.3304977E-04     3002.554    
 p155                 obsgroup      1.1950000E-03    1.4390000E-03   -2.4400000E-04     1.000000        1.1950000E-03    1.4390000E-03   -2.4400000E-04    3.3304977E-04     3002.554    
 p156                 obsgroup      1.3080000E-03    1.4220000E-03   -1.1400000E-04     1.000000        1.3080000E-03    1.4220000E-03   -1.1400000E-04    3.3304977E-04     3002.554    
 p157                 obsgroup      1.2260000E-03    1.4050000E-03   -1.7900000E-04     1.000000        1.2260000E-03    1.4050000E-03   -1.7900000E-04    3.3304977E-04     3002.554    
 p158                 obsgroup      1.2570000E-03    1.3890000E-03   -1.3200000E-04     1.000000        1.2570000E-03    1.3890000E-03   -1.3200000E-04    3.3304977E-04     3002.554    
 p159                 obsgroup      1.1020000E-03    1.3740000E-03   -2.7200000E-04     1.000000        1.1020000E-03    1.3740000E-03   -2.7200000E-04    3.3304977E-04     3002.554    
 p160                 obsgroup      1.1950000E-03    1.3590000E-03   -1.6400000E-04     1.000000        1.1950000E-03    1.3590000E-03   -1.6400000E-04    3.3304977E-04     3002.554    
 p161                 obsgroup      1.0920000E-03    1.3440000E-03   -2.5200000E-04     1.000000        1.0920000E-03    1.3440000E-03   -2.5200000E-04    3.3304977E-04     3002.554    
 p162                 obsgroup      1.0510000E-03    1.3290000E-03   -2.7800000E-04     1.000000        1.0510000E-03    1.3290000E-03   -2.7800000E-04    3.3304977E-04     3002.554    
 p163                 obsgroup      1.0400000E-03    1.3140000E-03   -2.7400000E-04     1.000000        1.0400000E-03    1.3140000E-03   -2.7400000E-04    3.3304977E-04     3002.554    
 p164                 obsgroup      1.0240000E-03    1.2990000E-03   -2.7500000E-04     1.000000        1.0240000E-03    1.2990000E-03   -2.7500000E-04    3.3304977E-04     3002.554    
 p165                 obsgroup      1.0710000E-03    1.2860000E-03   -2.1500000E-04     1.000000        1.0710000E-03    1.2860000E-03   -2.1500000E-04    3.3304977E-04     3002.554    
 p166                 obsgroup      1.0250000E-03    1.2720000E-03   -2.4700000E-04     1.000000        1.0250000E-03    1.2720000E-03   -2.4700000E-04    3.3304977E-04     3002.554    
 p167                 obsgroup      1.0920000E-03    1.2590000E-03   -1.6700000E-04     1.000000        1.0920000E-03    1.2590000E-03   -1.6700000E-04    3.3304977E-04     3002.554    
 p168                 obsgroup      9.6900000E-04    1.2410000E-03   -2.7200000E-04     1.000000        9.6900000E-04    1.2410000E-03   -2.7200000E-04    3.3304977E-04     3002.554    
 p169                 obsgroup      9.8300000E-04    1.2290000E-03   -2.4600000E-04     1.000000        9.8300000E-04    1.2290000E-03   -2.4600000E-04    3.3304977E-04     3002.554    
 p170                 obsgroup      8.0900000E-04    1.2200000E-03   -4.1100000E-04     1.000000        8.0900000E-04    1.2200000E-03   -4.1100000E-04    3.3304977E-04     3002.554    
 p171                 obsgroup      8.3800000E-04    1.2080000E-03   -3.7000000E-04     1.000000        8.3800000E-04    1.2080000E-03   -3.7000000E-04    3.3304977E-04     3002.554    
 p172                 obsgroup      7.6100000E-04    1.1950000E-03   -4.3400000E-04     1.000000        7.6100000E-04    1.1950000E-03   -4.3400000E-04    3.3304977E-04     3002.554    
 p173                 obsgroup      6.9900000E-04    1.1830000E-03   -4.8400000E-04     1.000000        6.9900000E-04    1.1830000E-03   -4.8400000E-04    3.3304977E-04     3002.554    
 p174                 obsgroup      7.4200000E-04    1.1720000E-03   -4.3000000E-04     1.000000        7.4200000E-04    1.1720000E-03   -4.3000000E-04    3.3304977E-04     3002.554    
 p175                 obsgroup      7.5800000E-04    1.1600000E-03   -4.0200000E-04     1.000000        7.5800000E-04    1.1600000E-03   -4.0200000E-04    3.3304977E-04     3002.554    
 p176                 obsgroup      6.6800000E-04    1.1480000E-03   -4.8000000E-04     1.000000        6.6800000E-04    1.1480000E-03   -4.8000000E-04    3.3304977E-04     3002.554    
 p177                 obsgroup      7.5400000E-04    1.1360000E-03   -3.8200000E-04     1.000000        7.5400000E-04    1.1360000E-03   -3.8200000E-04    3.3304977E-04     3002.554    
 p178                 obsgroup      6.9300000E-04    1.1240000E-03   -4.3100000E-04     1.000000        6.9300000E-04    1.1240000E-03   -4.3100000E-04    3.3304977E-04     3002.554    
 p179                 obsgroup      7.5100000E-04    1.1130000E-03   -3.6200000E-04     1.000000        7.5100000E-04    1.1130000E-03   -3.6200000E-04    3.3304977E-04     3002.554    
 p180                 obsgroup      6.5300000E-04    1.1020000E-03   -4.4900000E-04     1.000000        6.5300000E-04    1.1020000E-03   -4.4900000E-04    3.3304977E-04     3002.554    
 p181                 obsgroup      7.8600000E-04    1.0910000E-03   -3.0500000E-04     1.000000        7.8600000E-04    1.0910000E-03   -3.0500000E-04    3.3304977E-04     3002.554    
 p182                 obsgroup      6.7900000E-04    1.0830000E-03   -4.0400000E-04     1.000000        6.7900000E-04    1.0830000E-03   -4.0400000E-04    3.3304977E-04     3002.554    
 p183                 obsgroup      6.8800000E-04    1.0700000E-03   -3.8200000E-04     1.000000        6.8800000E-04    1.0700000E-03   -3.8200000E-04    3.3304977E-04     3002.554    
 p184                 obsgroup      6.2300000E-04    1.0590000E-03   -4.3600000E-04     1.000000        6.2300000E-04    1.0590000E-03   -4.3600000E-04    3.3304977E-04     3002.554    
 p185                 obsgroup      6.8800000E-04    1.0480000E-03   -3.6000000E-04     1.000000        6.8800000E-04    1.0480000E-03   -3.6000000E-04    3.3304977E-04     3002.554    
 p186                 obsgroup      7.2700000E-04    1.0370000E-03   -3.1000000E-04     1.000000        7.2700000E-04    1.0370000E-03   -3.1000000E-04    3.3304977E-04     3002.554    
 p187                 obsgroup      6.3400000E-04    1.0270000E-03   -3.9300000E-04     1.000000        6.3400000E-04    1.0270000E-03   -3.9300000E-04    3.3304977E-04     3002.554    
 p188                 obsgroup      5.9400000E-04    1.0170000E-03   -4.2300000E-04     1.000000        5.9400000E-04    1.0170000E-03   -4.2300000E-04    3.3304977E-04     3002.554    
 p189                 obsgroup      6.2600000E-04    1.0070000E-03   -3.8100000E-04     1.000000        6.2600000E-04    1.0070000E-03   -3.8100000E-04    3.3304977E-04     3002.554    
 p190                 obsgroup      6.3900000E-04    9.9700000E-04   -3.5800000E-04     1.000000        6.3900000E-04    9.9700000E-04   -3.5800000E-04    3.3304977E-04     3002.554    
 p191                 obsgroup      6.1800000E-04    9.8700000E-04   -3.6900000E-04     1.000000        6.1800000E-04    9.8700000E-04   -3.6900000E-04    3.3304977E-04     3002.554    
 p192                 obsgroup      5.7900000E-04    9.7700000E-04   -3.9800000E-04     1.000000        5.7900000E-04    9.7700000E-04   -3.9800000E-04    3.3304977E-04     3002.554    
 p193                 obsgroup      6.8800000E-04    9.6800000E-04   -2.8000000E-04     1.000000        6.8800000E-04    9.6800000E-04   -2.8000000E-04    3.3304977E-04     3002.554    
 p194                 obsgroup      6.8100000E-04    9.5800000E-04   -2.7700000E-04     1.000000        6.8100000E-04    9.5800000E-04   -2.7700000E-04    3.3304977E-04     3002.554    
 p195                 obsgroup      5.8600000E-04    9.4900000E-04   -3.6300000E-04     1.000000        5.8600000E-04    9.4900000E-04   -3.6300000E-04    3.3304977E-04     3002.554    
 p196                 obsgroup      6.0500000E-04    9.4000000E-04   -3.3500000E-04     1.000000        6.0500000E-04    9.4000000E-04   -3.3500000E-04    3.3304977E-04     3002.554    
 p197                 obsgroup      6.0800000E-04    9.3100000E-04   -3.2300000E-04     1.000000        6.0800000E-04    9.3100000E-04   -3.2300000E-04    3.3304977E-04     3002.554    
 p198                 obsgroup      5.4800000E-04    9.2200000E-04   -3.7400000E-04     1.000000        5.4800000E-04    9.2200000E-04   -3.7400000E-04    3.3304977E-04     3002.554    
 p199                 obsgroup      5.6900000E-04    9.1300000E-04   -3.4400000E-04     1.000000        5.6900000E-04    9.1300000E-04   -3.4400000E-04    3.3304977E-04     3002.554    
 p200                 obsgroup      6.2400000E-04    9.0300000E-04   -2.7900000E-04     1.000000        6.2400000E-04    9.0300000E-04   -2.7900000E-04    3.3304977E-04     3002.554    
 p201                 obsgroup      4.9900000E-04    8.9400000E-04   -3.9500000E-04     1.000000        4.9900000E-04    8.9400000E-04   -3.9500000E-04    3.3304977E-04     3002.554    
 p202                 obsgroup      5.2400000E-04    8.8500000E-04   -3.6100000E-04     1.000000        5.2400000E-04    8.8500000E-04   -3.6100000E-04    3.3304977E-04     3002.554    
 p203                 obsgroup      5.6100000E-04    8.7700000E-04   -3.1600000E-04     1.000000        5.6100000E-04    8.7700000E-04   -3.1600000E-04    3.3304977E-04     3002.554    
 p204                 obsgroup      6.4000000E-04    8.6800000E-04   -2.2800000E-04     1.000000        6.4000000E-04    8.6800000E-04   -2.2800000E-04    3.3304977E-04     3002.554    
 p205                 obsgroup      4.5400000E-04    8.6000000E-04   -4.0600000E-04     1.000000        4.5400000E-04    8.6000000E-04   -4.0600000E-04    3.3304977E-04     3002.554    
 p206                 obsgroup      4.9400000E-04    8.5100000E-04   -3.5700000E-04     1.000000        4.9400000E-04    8.5100000E-04   -3.5700000E-04    3.3304977E-04     3002.554    
 p207                 obsgroup      4.9600000E-04    8.4300000E-04   -3.4700000E-04     1.000000        4.9600000E-04    8.4300000E-04   -3.4700000E-04    3.3304977E-04     3002.554    
 p208                 obsgroup      4.5900000E-04    8.3400000E-04   -3.7500000E-04     1.000000        4.5900000E-04    8.3400000E-04   -3.7500000E-04    3.3304977E-04     3002.554    
 p209                 obsgroup      5.0100000E-04    8.2700000E-04   -3.2600000E-04     1.000000        5.0100000E-04    8.2700000E-04   -3.2600000E-04    3.3304977E-04     3002.554    
 p210                 obsgroup      4.1100000E-04    8.1800000E-04   -4.0700000E-04     1.000000        4.1100000E-04    8.1800000E-04   -4.0700000E-04    3.3304977E-04     3002.554    
 p211                 obsgroup      4.7600000E-04    8.1000000E-04   -3.3400000E-04     1.000000        4.7600000E-04    8.1000000E-04   -3.3400000E-04    3.3304977E-04     3002.554    
 p212                 obsgroup      4.2600000E-04    8.0200000E-04   -3.7600000E-04     1.000000        4.2600000E-04    8.0200000E-04   -3.7600000E-04    3.3304977E-04     3002.554    
 p213                 obsgroup      4.7100000E-04    7.9500000E-04   -3.2400000E-04     1.000000        4.7100000E-04    7.9500000E-04   -3.2400000E-04    3.3304977E-04     3002.554    
 p214                 obsgroup      4.3700000E-04    7.8700000E-04   -3.5000000E-04     1.000000        4.3700000E-04    7.8700000E-04   -3.5000000E-04    3.3304977E-04     3002.554    
 p215                 obsgroup      4.0000000E-04    7.7800000E-04   -3.7800000E-04     1.000000        4.0000000E-04    7.7800000E-04   -3.7800000E-04    3.3304977E-04     3002.554    
 p216                 obsgroup      4.6400000E-04    7.7000000E-04   -3.0600000E-04     1.000000        4.6400000E-04    7.7000000E-04   -3.0600000E-04    3.3304977E-04     3002.554    
 p217                 obsgroup      5.7400000E-04    7.6200000E-04   -1.8800000E-04     1.000000        5.7400000E-04    7.6200000E-04   -1.8800000E-04    3.3304977E-04     3002.554    
 p218                 obsgroup      4.3800000E-04    7.5400000E-04   -3.1600000E-04     1.000000        4.3800000E-04    7.5400000E-04   -3.1600000E-04    3.3304977E-04     3002.554    
 p219                 obsgroup      4.5600000E-04    7.4700000E-04   -2.9100000E-04     1.000000        4.5600000E-04    7.4700000E-04   -2.9100000E-04    3.3304977E-04     3002.554    
 p220                 obsgroup      4.3200000E-04    7.4000000E-04   -3.0800000E-04     1.000000        4.3200000E-04    7.4000000E-04   -3.0800000E-04    3.3304977E-04     3002.554    
 p221                 obsgroup      5.9400000E-04    7.3300000E-04   -1.3900000E-04     1.000000        5.9400000E-04    7.3300000E-04   -1.3900000E-04    3.3304977E-04     3002.554    
 p222                 obsgroup      4.1400000E-04    7.2500000E-04   -3.1100000E-04     1.000000        4.1400000E-04    7.2500000E-04   -3.1100000E-04    3.3304977E-04     3002.554    
 p223                 obsgroup      4.2300000E-04    7.1700000E-04   -2.9400000E-04     1.000000        4.2300000E-04    7.1700000E-04   -2.9400000E-04    3.3304977E-04     3002.554    
 p224                 obsgroup      5.0600000E-04    7.1000000E-04   -2.0400000E-04     1.000000        5.0600000E-04    7.1000000E-04   -2.0400000E-04    3.3304977E-04     3002.554    
 p225                 obsgroup      4.4600000E-04    7.0200000E-04   -2.5600000E-04     1.000000        4.4600000E-04    7.0200000E-04   -2.5600000E-04    3.3304977E-04     3002.554    
 p226                 obsgroup      4.0800000E-04    6.9500000E-04   -2.8700000E-04     1.000000        4.0800000E-04    6.9500000E-04   -2.8700000E-04    3.3304977E-04     3002.554    
 p227                 obsgroup      4.3100000E-04    6.8800000E-04   -2.5700000E-04     1.000000        4.3100000E-04    6.8800000E-04   -2.5700000E-04    3.3304977E-04     3002.554    
 p228                 obsgroup      4.5400000E-04    6.8200000E-04   -2.2800000E-04     1.000000        4.5400000E-04    6.8200000E-04   -2.2800000E-04    3.3304977E-04     3002.554    
 p229                 obsgroup      4.6100000E-04    6.7500000E-04   -2.1400000E-04     1.000000        4.6100000E-04    6.7500000E-04   -2.1400000E-04    3.3304977E-04     3002.554    
 p230                 obsgroup      4.3300000E-04    6.6800000E-04   -2.3500000E-04     1.000000        4.3300000E-04    6.6800000E-04   -2.3500000E-04    3.3304977E-04     3002.554    
 p231                 obsgroup      3.8900000E-04    6.6100000E-04   -2.7200000E-04     1.000000        3.8900000E-04    6.6100000E-04   -2.7200000E-04    3.3304977E-04     3002.554    
 p232                 obsgroup      3.8000000E-04    6.5400000E-04   -2.7400000E-04     1.000000        3.8000000E-04    6.5400000E-04   -2.7400000E-04    3.3304977E-04     3002.554    
 p233                 obsgroup      4.1600000E-04    6.4700000E-04   -2.3100000E-04     1.000000        4.1600000E-04    6.4700000E-04   -2.3100000E-04    3.3304977E-04     3002.554    
 p234                 obsgroup      4.6500000E-04    6.4100000E-04   -1.7600000E-04     1.000000        4.6500000E-04    6.4100000E-04   -1.7600000E-04    3.3304977E-04     3002.554    
 p235                 obsgroup      4.1200000E-04    6.3500000E-04   -2.2300000E-04     1.000000        4.1200000E-04    6.3500000E-04   -2.2300000E-04    3.3304977E-04     3002.554    
 p236                 obsgroup      4.1700000E-04    6.2800000E-04   -2.1100000E-04     1.000000        4.1700000E-04    6.2800000E-04   -2.1100000E-04    3.3304977E-04     3002.554    
 p237                 obsgroup      3.9700000E-04    6.2200000E-04   -2.2500000E-04     1.000000        3.9700000E-04    6.2200000E-04   -2.2500000E-04    3.3304977E-04     3002.554    
 p238                 obsgroup      3.9400000E-04    6.1500000E-04   -2.2100000E-04     1.000000        3.9400000E-04    6.1500000E-04   -2.2100000E-04    3.3304977E-04     3002.554    
 p239                 obsgroup      3.6200000E-04    6.0900000E-04   -2.4700000E-04     1.000000        3.6200000E-04    6.0900000E-04   -2.4700000E-04    3.3304977E-04     3002.554    
 p240                 obsgroup      3.6400000E-04    6.0300000E-04   -2.3900000E-04     1.000000        3.6400000E-04    6.0300000E-04   -2.3900000E-04    3.3304977E-04     3002.554    
 p241                 obsgroup      3.6300000E-04    5.9700000E-04   -2.3400000E-04     1.000000        3.6300000E-04    5.9700000E-04   -2.3400000E-04    3.3304977E-04     3002.554    
 p242                 obsgroup      3.5700000E-04    5.9200000E-04   -2.3500000E-04     1.000000        3.5700000E-04    5.9200000E-04   -2.3500000E-04    3.3304977E-04     3002.554    
 p243                 obsgroup      3.7700000E-04    5.8600000E-04   -2.0900000E-04     1.000000        3.7700000E-04    5.8600000E-04   -2.0900000E-04    3.3304977E-04     3002.554    
 p244                 obsgroup      4.2300000E-04    5.8000000E-04   -1.5700000E-04     1.000000        4.2300000E-04    5.8000000E-04   -1.5700000E-04    3.3304977E-04     3002.554    
 p245                 obsgroup      3.6300000E-04    5.7400000E-04   -2.1100000E-04     1.000000        3.6300000E-04    5.7400000E-04   -2.1100000E-04    3.3304977E-04     3002.554    
 p246                 obsgroup      3.9800000E-04    5.6800000E-04   -1.7000000E-04     1.000000        3.9800000E-04    5.6800000E-04   -1.7000000E-04    3.3304977E-04     3002.554    
 p247                 obsgroup      4.5600000E-04    5.6300000E-04   -1.0700000E-04     1.000000        4.5600000E-04    5.6300000E-04   -1.0700000E-04    3.3304977E-04     3002.554    
 p248                 obsgroup      3.8500000E-04    5.5800000E-04   -1.7300000E-04     1.000000        3.8500000E-04    5.5800000E-04   -1.7300000E-04    3.3304977E-04     3002.554    
 p249                 obsgroup      3.8600000E-04    5.5200000E-04   -1.6600000E-04     1.000000        3.8600000E-04    5.5200000E-04   -1.6600000E-04    3.3304977E-04     3002.554    
 p250                 obsgroup      3.8400000E-04    5.4700000E-04   -1.6300000E-04     1.000000        3.8400000E-04    5.4700000E-04   -1.6300000E-04    3.3304977E-04     3002.554    
 p251                 obsgroup      4.0200000E-04    5.4200000E-04   -1.4000000E-04     1.000000        4.0200000E-04    5.4200000E-04   -1.4000000E-04    3.3304977E-04     3002.554    
 p252                 obsgroup      3.5500000E-04    5.3600000E-04   -1.8100000E-04     1.000000        3.5500000E-04    5.3600000E-04   -1.8100000E-04    3.3304977E-04     3002.554    
 p253                 obsgroup      3.3500000E-04    5.3100000E-04   -1.9600000E-04     1.000000        3.3500000E-04    5.3100000E-04   -1.9600000E-04    3.3304977E-04     3002.554    
 p254                 obsgroup      3.3300000E-04    5.2500000E-04   -1.9200000E-04     1.000000        3.3300000E-04    5.2500000E-04   -1.9200000E-04    3.3304977E-04     3002.554    
 p255                 obsgroup      3.7600000E-04    5.2000000E-04   -1.4400000E-04     1.000000        3.7600000E-04    5.2000000E-04   -1.4400000E-04    3.3304977E-04     3002.554    
 p256                 obsgroup      3.3100000E-04    5.1500000E-04   -1.8400000E-04     1.000000        3.3100000E-04    5.1500000E-04   -1.8400000E-04    3.3304977E-04     3002.554    
 p257                 obsgroup      4.0500000E-04    5.1000000E-04   -1.0500000E-04     1.000000        4.0500000E-04    5.1000000E-04   -1.0500000E-04    3.3304977E-04     3002.554    
 p258                 obsgroup      3.5400000E-04    5.0500000E-04   -1.5100000E-04     1.000000        3.5400000E-04    5.0500000E-04   -1.5100000E-04    3.3304977E-04     3002.554    
 p259                 obsgroup      3.3000000E-04    5.0000000E-04   -1.7000000E-04     1.000000        3.3000000E-04    5.0000000E-04   -1.7000000E-04    3.3304977E-04     3002.554    
 p260                 obsgroup      3.4700000E-04    4.9500000E-04   -1.4800000E-04     1.000000        3.4700000E-04    4.9500000E-04   -1.4800000E-04    3.3304977E-04     3002.554    
 p261                 obsgroup      3.5800000E-04    4.8900000E-04   -1.3100000E-04     1.000000        3.5800000E-04    4.8900000E-04   -1.3100000E-04    3.3304977E-04     3002.554    
 p262                 obsgroup      3.6600000E-04    4.8500000E-04   -1.1900000E-04     1.000000        3.6600000E-04    4.8500000E-04   -1.1900000E-04    3.3304977E-04     3002.554    
 p263                 obsgroup      3.5600000E-04    4.8000000E-04   -1.2400000E-04     1.000000        3.5600000E-04    4.8000000E-04   -1.2400000E-04    3.3304977E-04     3002.554    
 p264                 obsgroup      3.4800000E-04    4.7500000E-04   -1.2700000E-04     1.000000        3.4800000E-04    4.7500000E-04   -1.2700000E-04    3.3304977E-04     3002.554    
 p265                 obsgroup      3.5800000E-04    4.6900000E-04   -1.1100000E-04     1.000000        3.5800000E-04    4.6900000E-04   -1.1100000E-04    3.3304977E-04     3002.554    
 p266                 obsgroup      3.7200000E-04    4.6500000E-04   -9.3000000E-05     1.000000        3.7200000E-04    4.6500000E-04   -9.3000000E-05    3.3304977E-04     3002.554    
 p267                 obsgroup      4.1300000E-04    4.5300000E-04   -4.0000000E-05     1.000000        4.1300000E-04    4.5300000E-04   -4.0000000E-05    3.3304977E-04     3002.554    
 p268                 obsgroup      3.1700000E-04    4.4800000E-04   -1.3100000E-04     1.000000        3.1700000E-04    4.4800000E-04   -1.3100000E-04    3.3304977E-04     3002.554    
 p269                 obsgroup      3.8400000E-04    4.4300000E-04   -5.9000000E-05     1.000000        3.8400000E-04    4.4300000E-04   -5.9000000E-05    3.3304977E-04     3002.554    
 p270                 obsgroup      3.2400000E-04    4.3900000E-04   -1.1500000E-04     1.000000        3.2400000E-04    4.3900000E-04   -1.1500000E-04    3.3304977E-04     3002.554    
 p271                 obsgroup      4.3300000E-04    4.3400000E-04   -1.0000000E-06     1.000000        4.3300000E-04    4.3400000E-04   -1.0000000E-06    3.3304977E-04     3002.554    
 p272                 obsgroup      3.8200000E-04    4.3000000E-04   -4.8000000E-05     1.000000        3.8200000E-04    4.3000000E-04   -4.8000000E-05    3.3304977E-04     3002.554    
 p273                 obsgroup      4.8900000E-04    4.2500000E-04    6.4000000E-05     1.000000        4.8900000E-04    4.2500000E-04    6.4000000E-05    3.3304977E-04     3002.554    
 p274                 obsgroup      3.1900000E-04    4.2100000E-04   -1.0200000E-04     1.000000        3.1900000E-04    4.2100000E-04   -1.0200000E-04    3.3304977E-04     3002.554    
 p275                 obsgroup      3.5500000E-04    4.1800000E-04   -6.3000000E-05     1.000000        3.5500000E-04    4.1800000E-04   -6.3000000E-05    3.3304977E-04     3002.554    
 p276                 obsgroup      3.5500000E-04    4.1400000E-04   -5.9000000E-05     1.000000        3.5500000E-04    4.1400000E-04   -5.9000000E-05    3.3304977E-04     3002.554    
 p277                 obsgroup      3.5600000E-04    4.1100000E-04   -5.5000000E-05     1.000000        3.5600000E-04    4.1100000E-04   -5.5000000E-05    3.3304977E-04     3002.554    
 p278                 obsgroup      3.4500000E-04    4.0800000E-04   -6.3000000E-05     1.000000        3.4500000E-04    4.0800000E-04   -6.3000000E-05    3.3304977E-04     3002.554    
 p279                 obsgroup      3.7300000E-04    4.0500000E-04   -3.2000000E-05     1.000000        3.7300000E-04    4.0500000E-04   -3.2000000E-05    3.3304977E-04     3002.554    
 p280                 obsgroup      3.3500000E-04    4.0200000E-04   -6.7000000E-05     1.000000        3.3500000E-04    4.0200000E-04   -6.7000000E-05    3.3304977E-04     3002.554    
 p281                 obsgroup      3.5100000E-04    3.9800000E-04   -4.7000000E-05     1.000000        3.5100000E-04    3.9800000E-04   -4.7000000E-05    3.3304977E-04     3002.554    
 p282                 obsgroup      3.7000000E-04    3.9500000E-04   -2.5000000E-05     1.000000        3.7000000E-04    3.9500000E-04   -2.5000000E-05    3.3304977E-04     3002.554    
 p283                 obsgroup      4.8800000E-04    3.9200000E-04    9.6000000E-05     1.000000        4.8800000E-04    3.9200000E-04    9.6000000E-05    3.3304977E-04     3002.554    
 p284                 obsgroup      3.8300000E-04    3.8900000E-04   -6.0000000E-06     1.000000        3.8300000E-04    3.8900000E-04   -6.0000000E-06    3.3304977E-04     3002.554    
 p285                 obsgroup      4.2000000E-04    3.8600000E-04    3.4000000E-05     1.000000        4.2000000E-04    3.8600000E-04    3.4000000E-05    3.3304977E-04     3002.554    
 p286                 obsgroup      3.9000000E-04    3.8300000E-04    7.0000000E-06     1.000000        3.9000000E-04    3.8300000E-04    7.0000000E-06    3.3304977E-04     3002.554    
 p287                 obsgroup      4.1900000E-04    3.8000000E-04    3.9000000E-05     1.000000        4.1900000E-04    3.8000000E-04    3.9000000E-05    3.3304977E-04     3002.554    
 p288                 obsgroup      4.1700000E-04    3.7700000E-04    4.0000000E-05     1.000000        4.1700000E-04    3.7700000E-04    4.0000000E-05    3.3304977E-04     3002.554    
 p289                 obsgroup      5.0700000E-04    3.7400000E-04    1.3300000E-04     1.000000        5.0700000E-04    3.7400000E-04    1.3300000E-04    3.3304977E-04     3002.554    
 p290                 obsgroup      3.5600000E-04    3.7100000E-04   -1.5000000E-05     1.000000        3.5600000E-04    3.7100000E-04   -1.5000000E-05    3.3304977E-04     3002.554    
 p291                 obsgroup      4.0200000E-04    3.6800000E-04    3.4000000E-05     1.000000        4.0200000E-04    3.6800000E-04    3.4000000E-05    3.3304977E-04     3002.554    
 p292                 obsgroup      3.5800000E-04    3.6500000E-04   -7.0000000E-06     1.000000        3.5800000E-04    3.6500000E-04   -7.0000000E-06    3.3304977E-04     3002.554    
 p293                 obsgroup      5.2800000E-04    3.6300000E-04    1.6500000E-04     1.000000        5.2800000E-04    3.6300000E-04    1.6500000E-04    3.3304977E-04     3002.554    
 p294                 obsgroup      3.3200000E-04    3.6000000E-04   -2.8000000E-05     1.000000        3.3200000E-04    3.6000000E-04   -2.8000000E-05    3.3304977E-04     3002.554    
 p295                 obsgroup      3.5800000E-04    3.5700000E-04    1.0000000E-06     1.000000        3.5800000E-04    3.5700000E-04    1.0000000E-06    3.3304977E-04     3002.554    
 p296                 obsgroup      3.0100000E-04    3.5400000E-04   -5.3000000E-05     1.000000        3.0100000E-04    3.5400000E-04   -5.3000000E-05    3.3304977E-04     3002.554    
 p297                 obsgroup      3.1300000E-04    3.5200000E-04   -3.9000000E-05     1.000000        3.1300000E-04    3.5200000E-04   -3.9000000E-05    3.3304977E-04     3002.554    
 p298                 obsgroup      3.8000000E-04    3.4900000E-04    3.1000000E-05     1.000000        3.8000000E-04    3.4900000E-04    3.1000000E-05    3.3304977E-04     3002.554    
 p299                 obsgroup      3.6100000E-04    3.4700000E-04    1.4000000E-05     1.000000        3.6100000E-04    3.4700000E-04    1.4000000E-05    3.3304977E-04     3002.554    
 p300                 obsgroup      3.5300000E-04    3.4400000E-04    9.0000000E-06     1.000000        3.5300000E-04    3.4400000E-04    9.0000000E-06    3.3304977E-04     3002.554    
 p301                 obsgroup      3.2100000E-04    3.4100000E-04   -2.0000000E-05     1.000000        3.2100000E-04    3.4100000E-04   -2.0000000E-05    3.3304977E-04     3002.554    
 p302                 obsgroup      3.6800000E-04    3.3900000E-04    2.9000000E-05     1.000000        3.6800000E-04    3.3900000E-04    2.9000000E-05    3.3304977E-04     3002.554    
 p303                 obsgroup      3.2300000E-04    3.3600000E-04   -1.3000000E-05     1.000000        3.2300000E-04    3.3600000E-04   -1.3000000E-05    3.3304977E-04     3002.554    
 p304                 obsgroup      3.1500000E-04    3.3400000E-04   -1.9000000E-05     1.000000        3.1500000E-04    3.3400000E-04   -1.9000000E-05    3.3304977E-04     3002.554    
 p305                 obsgroup      3.2900000E-04    3.3100000E-04   -2.0000000E-06     1.000000        3.2900000E-04    3.3100000E-04   -2.0000000E-06    3.3304977E-04     3002.554    
 p306                 obsgroup      3.2500000E-04    3.2900000E-04   -4.0000000E-06     1.000000        3.2500000E-04    3.2900000E-04   -4.0000000E-06    3.3304977E-04     3002.554    
 p307                 obsgroup      2.9000000E-04    3.2700000E-04   -3.7000000E-05     1.000000        2.9000000E-04    3.2700000E-04   -3.7000000E-05    3.3304977E-04     3002.554    
 p308                 obsgroup      3.3500000E-04    3.2400000E-04    1.1000000E-05     1.000000        3.3500000E-04    3.2400000E-04    1.1000000E-05    3.3304977E-04     3002.554    
 p309                 obsgroup      3.4900000E-04    3.2200000E-04    2.7000000E-05     1.000000        3.4900000E-04    3.2200000E-04    2.7000000E-05    3.3304977E-04     3002.554    
 p310                 obsgroup      3.3200000E-04    3.1900000E-04    1.3000000E-05     1.000000        3.3200000E-04    3.1900000E-04    1.3000000E-05    3.3304977E-04     3002.554    
 p311                 obsgroup      2.8800000E-04    3.1700000E-04   -2.9000000E-05     1.000000        2.8800000E-04    3.1700000E-04   -2.9000000E-05    3.3304977E-04     3002.554    
 p312                 obsgroup      3.1400000E-04    3.1500000E-04   -1.0000000E-06     1.000000        3.1400000E-04    3.1500000E-04   -1.0000000E-06    3.3304977E-04     3002.554    
 p313                 obsgroup      3.2100000E-04    3.1300000E-04    8.0000000E-06     1.000000        3.2100000E-04    3.1300000E-04    8.0000000E-06    3.3304977E-04     3002.554    
 p314                 obsgroup      3.3500000E-04    3.1000000E-04    2.5000000E-05     1.000000        3.3500000E-04    3.1000000E-04    2.5000000E-05    3.3304977E-04     3002.554    
 p315                 obsgroup      3.2400000E-04    3.0800000E-04    1.6000000E-05     1.000000        3.2400000E-04    3.0800000E-04    1.6000000E-05    3.3304977E-04     3002.554    
 p316                 obsgroup      3.0700000E-04    3.0600000E-04    1.0000000E-06     1.000000        3.0700000E-04    3.0600000E-04    1.0000000E-06    3.3304977E-04     3002.554    
 p317                 obsgroup      3.7600000E-04    3.0400000E-04    7.2000000E-05     1.000000        3.7600000E-04    3.0400000E-04    7.2000000E-05    3.3304977E-04     3002.554    
 p318                 obsgroup      3.7100000E-04    3.0300000E-04    6.8000000E-05     1.000000        3.7100000E-04    3.0300000E-04    6.8000000E-05    3.3304977E-04     3002.554    
 p319                 obsgroup      3.4300000E-04    3.0000000E-04    4.3000000E-05     1.000000        3.4300000E-04    3.0000000E-04    4.3000000E-05    3.3304977E-04     3002.554    
 p320                 obsgroup      2.8600000E-04    2.9800000E-04   -1.2000000E-05     1.000000        2.8600000E-04    2.9800000E-04   -1.2000000E-05    3.3304977E-04     3002.554    
 p321                 obsgroup      3.0700000E-04    2.9600000E-04    1.1000000E-05     1.000000        3.0700000E-04    2.9600000E-04    1.1000000E-05    3.3304977E-04     3002.554    
 p322                 obsgroup      2.9500000E-04    2.9300000E-04    2.0000000E-06     1.000000        2.9500000E-04    2.9300000E-04    2.0000000E-06    3.3304977E-04     3002.554    
 p323                 obsgroup      3.0200000E-04    2.9000000E-04    1.2000000E-05     1.000000        3.0200000E-04    2.9000000E-04    1.2000000E-05    3.3304977E-04     3002.554    
 p324                 obsgroup      3.3500000E-04    2.8700000E-04    4.8000000E-05     1.000000        3.3500000E-04    2.8700000E-04    4.8000000E-05    3.3304977E-04     3002.554    
 p325                 obsgroup      3.0400000E-04    2.8500000E-04    1.9000000E-05     1.000000        3.0400000E-04    2.8500000E-04    1.9000000E-05    3.3304977E-04     3002.554    
 p326                 obsgroup      2.8000000E-04    2.8300000E-04   -3.0000000E-06     1.000000        2.8000000E-04    2.8300000E-04   -3.0000000E-06    3.3304977E-04     3002.554    
 p327                 obsgroup      2.9600000E-04    2.8100000E-04    1.5000000E-05     1.000000        2.9600000E-04    2.8100000E-04    1.5000000E-05    3.3304977E-04     3002.554    
 p328                 obsgroup      2.8000000E-04    2.7800000E-04    2.0000000E-06     1.000000        2.8000000E-04    2.7800000E-04    2.0000000E-06    3.3304977E-04     3002.554    
