 Name                 Group          Measured         Modelled         Residual         Weight       Weight*Measured    Weight*Modelled  Weight*Residual  Measurement_sd   Natural_weight
 p001                 obsgroup      1.0022000E-02    8.9980000E-03    1.0240000E-03     1.000000        1.0022000E-02    8.9980000E-03    1.0240000E-03    2.9854464E-03     334.9583    
 p002                 obsgroup      9.4970000E-03    8.9980000E-03    4.9900000E-04     1.000000        9.4970000E-03    8.9980000E-03    4.9900000E-04    2.9854464E-03     334.9583    
 p003                 obsgroup      1.0125000E-02    8.9980000E-03    1.1270000E-03     1.000000        1.0125000E-02    8.9980000E-03    1.1270000E-03    2.9854464E-03     334.9583    
 p004                 obsgroup      9.7950000E-03    8.9970000E-03    7.9800000E-04     1.000000        9.7950000E-03    8.9970000E-03    7.9800000E-04    2.9854464E-03     334.9583    
 p005                 obsgroup      9.9290000E-03    8.9970000E-03    9.3200000E-04     1.000000        9.9290000E-03    8.9970000E-03    9.3200000E-04    2.9854464E-03     334.9583    
 p006                 obsgroup      9.8880000E-03    8.9970000E-03    8.9100000E-04     1.000000        9.8880000E-03    8.9970000E-03    8.9100000E-04    2.9854464E-03     334.9583    
 p007                 obsgroup      9.3010000E-03    8.9960000E-03    3.0500000E-04     1.000000        9.3010000E-03    8.9960000E-03    3.0500000E-04    2.9854464E-03     334.9583    
 p008                 obsgroup      9.6510000E-03    8.9960000E-03    6.5500000E-04     1.000000        9.6510000E-03    8.9960000E-03    6.5500000E-04    2.9854464E-03     334.9583    
 p009                 obsgroup      9.5790000E-03    8.9950000E-03    5.8400000E-04     1.000000        9.5790000E-03    8.9950000E-03    5.8400000E-04    2.9854464E-03     334.9583    
 p010                 obsgroup      9.5170000E-03    8.9950000E-03    5.2200000E-04     1.000000        9.5170000E-03    8.9950000E-03    5.2200000E-04    2.9854464E-03     334.9583    
 p011                 obsgroup      9.2800000E-03    8.9950000E-03    2.8500000E-04     1.000000        9.2800000E-03    8.9950000E-03    2.8500000E-04    2.9854464E-03     334.9583    
 p012                 obsgroup      8.7340000E-03    8.9940000E-03   -2.6000000E-04     1.000000        8.7340000E-03    8.9940000E-03   -2.6000000E-04    2.9854464E-03     334.9583    
 p013                 obsgroup      9.6000000E-03    8.9940000E-03    6.0600000E-04     1.000000        9.6000000E-03    8.9940000E-03    6.0600000E-04    2.9854464E-03     334.9583    
 p014                 obsgroup      9.3730000E-03    8.9950000E-03    3.7800000E-04     1.000000        9.3730000E-03    8.9950000E-03    3.7800000E-04    2.9854464E-03     334.9583    
 p015                 obsgroup      9.1670000E-03    8.9960000E-03    1.7100000E-04     1.000000        9.1670000E-03    8.9960000E-03    1.7100000E-04    2.9854464E-03     334.9583    
 p016                 obsgroup      8.8170000E-03    8.9970000E-03   -1.8000000E-04     1.000000        8.8170000E-03    8.9970000E-03   -1.8000000E-04    2.9854464E-03     334.9583    
 p017                 obsgroup      9.1050000E-03    9.0000000E-03    1.0500000E-04     1.000000        9.1050000E-03    9.0000000E-03    1.0500000E-04    2.9854464E-03     334.9583    
 p018                 obsgroup      9.0850000E-03    9.0060000E-03    7.9000000E-05     1.000000        9.0850000E-03    9.0060000E-03    7.9000000E-05    2.9854464E-03     334.9583    
 p019                 obsgroup      8.7450000E-03    9.0130000E-03   -2.6800000E-04     1.000000        8.7450000E-03    9.0130000E-03   -2.6800000E-04    2.9854464E-03     334.9583    
 p020                 obsgroup      8.6730000E-03    9.0250000E-03   -3.5200000E-04     1.000000        8.6730000E-03    9.0250000E-03   -3.5200000E-04    2.9854464E-03     334.9583    
 p021                 obsgroup      8.9510000E-03    9.0420000E-03   -9.1000000E-05     1.000000        8.9510000E-03    9.0420000E-03   -9.1000000E-05    2.9854464E-03     334.9583    
 p022                 obsgroup      8.5280000E-03    9.0650000E-03   -5.3700000E-04     1.000000        8.5280000E-03    9.0650000E-03   -5.3700000E-04    2.9854464E-03     334.9583    
 p023                 obsgroup      8.8890000E-03    9.0970000E-03   -2.0800000E-04     1.000000        8.8890000E-03    9.0970000E-03   -2.0800000E-04    2.9854464E-03     334.9583    
 p024                 obsgroup      8.6010000E-03    9.1390000E-03   -5.3800000E-04     1.000000        8.6010000E-03    9.1390000E-03   -5.3800000E-04    2.9854464E-03     334.9583    
 p025                 obsgroup      8.2190000E-03    9.1930000E-03   -9.7400000E-04     1.000000        8.2190000E-03    9.1930000E-03   -9.7400000E-04    2.9854464E-03     334.9583    
 p026                 obsgroup      8.8070000E-03    9.2610000E-03   -4.5400000E-04     1.000000        8.8070000E-03    9.2610000E-03   -4.5400000E-04    2.9854464E-03     334.9583    
 p027                 obsgroup      9.3520000E-03    9.3390000E-03    1.3000000E-05     1.000000        9.3520000E-03    9.3390000E-03    1.3000000E-05    2.9854464E-03     334.9583    
 p028                 obsgroup      8.7550000E-03    9.4340000E-03   -6.7900000E-04     1.000000        8.7550000E-03    9.4340000E-03   -6.7900000E-04    2.9854464E-03     334.9583    
 p029                 obsgroup      8.9100000E-03    9.5480000E-03   -6.3800000E-04     1.000000        8.9100000E-03    9.5480000E-03   -6.3800000E-04    2.9854464E-03     334.9583    
 p030                 obsgroup      8.8370000E-03    9.6770000E-03   -8.4000000E-04     1.000000        8.8370000E-03    9.6770000E-03   -8.4000000E-04    2.9854464E-03     334.9583    
 p031                 obsgroup      8.8070000E-03    9.8300000E-03   -1.0230000E-03     1.000000        8.8070000E-03    9.8300000E-03   -1.0230000E-03    2.9854464E-03     334.9583    
 p032                 obsgroup      9.0020000E-03    1.0005000E-02   -1.0030000E-03     1.000000        9.0020000E-03    1.0005000E-02   -1.0030000E-03    2.9854464E-03     334.9583    
 p033                 obsgroup      8.8070000E-03    1.0196000E-02   -1.3890000E-03     1.000000        8.8070000E-03    1.0196000E-02   -1.3890000E-03    2.9854464E-03     334.9583    
 p034                 obsgroup      9.0640000E-03    1.0405000E-02   -1.3410000E-03     1.000000        9.0640000E-03    1.0405000E-02   -1.3410000E-03    2.9854464E-03     334.9583    
 p035                 obsgroup      8.6110000E-03    1.0651000E-02   -2.0400000E-03     1.000000        8.6110000E-03    1.0651000E-02   -2.0400000E-03    2.9854464E-03     334.9583    
 p036                 obsgroup      9.1360000E-03    1.0932000E-02   -1.7960000E-03     1.000000        9.1360000E-03    1.0932000E-02   -1.7960000E-03    2.9854464E-03     334.9583    
 p037                 obsgroup      9.2290000E-03    1.1242000E-02   -2.0130000E-03     1.000000        9.2290000E-03    1.1242000E-02   -2.0130000E-03    2.9854464E-03     334.9583    
 p038                 obsgroup      9.6000000E-03    1.1580000E-02   -1.9800000E-03     1.000000        9.6000000E-03    1.1580000E-02   -1.9800000E-03    2.9854464E-03     334.9583    
 p039                 obsgroup      9.4970000E-03    1.1945000E-02   -2.4480000E-03     1.000000        9.4970000E-03    1.1945000E-02   -2.4480000E-03    2.9854464E-03     334.9583    
 p040                 obsgroup      1.0815000E-02    1.2761000E-02   -1.9460000E-03     1.000000        1.0815000E-02    1.2761000E-02   -1.9460000E-03    2.9854464E-03     334.9583    
 p041                 obsgroup      1.1742000E-02    1.4145000E-02   -2.4030000E-03     1.000000        1.1742000E-02    1.4145000E-02   -2.4030000E-03    2.9854464E-03     334.9583    
 p042                 obsgroup      1.4523000E-02    1.5694000E-02   -1.1710000E-03     1.000000        1.4523000E-02    1.5694000E-02   -1.1710000E-03    2.9854464E-03     334.9583    
 p043                 obsgroup      1.5862000E-02    1.7445000E-02   -1.5830000E-03     1.000000        1.5862000E-02    1.7445000E-02   -1.5830000E-03    2.9854464E-03     334.9583    
 p044                 obsgroup      1.7510000E-02    1.9470000E-02   -1.9600000E-03     1.000000        1.7510000E-02    1.9470000E-02   -1.9600000E-03    2.9854464E-03     334.9583    
 p045                 obsgroup      2.0497000E-02    2.1619000E-02   -1.1220000E-03     1.000000        2.0497000E-02    2.1619000E-02   -1.1220000E-03    2.9854464E-03     334.9583    
 p046                 obsgroup      2.3896000E-02    2.3894000E-02    2.0000000E-06     1.000000        2.3896000E-02    2.3894000E-02    2.0000000E-06    2.9854464E-03     334.9583    
 p047                 obsgroup      2.5956000E-02    2.6186000E-02   -2.3000000E-04     1.000000        2.5956000E-02    2.6186000E-02   -2.3000000E-04    2.9854464E-03     334.9583    
 p048                 obsgroup      3.0282000E-02    2.7800000E-02    2.4820000E-03     1.000000        3.0282000E-02    2.7800000E-02    2.4820000E-03    2.9854464E-03     334.9583    
 p049                 obsgroup      3.1415000E-02    3.1250000E-02    1.6500000E-04     1.000000        3.1415000E-02    3.1250000E-02    1.6500000E-04    2.9854464E-03     334.9583    
 p050                 obsgroup      3.3887000E-02    3.3941000E-02   -5.4000000E-05     1.000000        3.3887000E-02    3.3941000E-02   -5.4000000E-05    2.9854464E-03     334.9583    
 p051                 obsgroup      3.6462000E-02    3.7475000E-02   -1.0130000E-03     1.000000        3.6462000E-02    3.7475000E-02   -1.0130000E-03    2.9854464E-03     334.9583    
 p052                 obsgroup      3.9758000E-02    3.9305000E-02    4.5300000E-04     1.000000        3.9758000E-02    3.9305000E-02    4.5300000E-04    2.9854464E-03     334.9583    
 p053                 obsgroup      4.3466000E-02    4.2083000E-02    1.3830000E-03     1.000000        4.3466000E-02    4.2083000E-02    1.3830000E-03    2.9854464E-03     334.9583    
 p054                 obsgroup      4.2848000E-02    4.4922000E-02   -2.0740000E-03     1.000000        4.2848000E-02    4.4922000E-02   -2.0740000E-03    2.9854464E-03     334.9583    
 p055                 obsgroup      4.9028000E-02    4.7779000E-02    1.2490000E-03     1.000000        4.9028000E-02    4.7779000E-02    1.2490000E-03    2.9854464E-03     334.9583    
 p056                 obsgroup      5.3148000E-02    5.0403000E-02    2.7450000E-03     1.000000        5.3148000E-02    5.0403000E-02    2.7450000E-03    2.9854464E-03     334.9583    
 p057                 obsgroup      5.5620000E-02    5.2934000E-02    2.6860000E-03     1.000000        5.5620000E-02    5.2934000E-02    2.6860000E-03    2.9854464E-03     334.9583    
 p058                 obsgroup      5.6135000E-02    5.5548000E-02    5.8700000E-04     1.000000        5.6135000E-02    5.5548000E-02    5.8700000E-04    2.9854464E-03     334.9583    
 p059                 obsgroup      5.8092000E-02    5.8142000E-02   -5.0000000E-05     1.000000        5.8092000E-02    5.8142000E-02   -5.0000000E-05    2.9854464E-03     334.9583    
 p060                 obsgroup      6.4581000E-02    6.2984000E-02    1.5970000E-03     1.000000        6.4581000E-02    6.2984000E-02    1.5970000E-03    2.9854464E-03     334.9583    
 p061                 obsgroup      6.8495000E-02    6.7312000E-02    1.1830000E-03     1.000000        6.8495000E-02    6.7312000E-02    1.1830000E-03    2.9854464E-03     334.9583    
 p062                 obsgroup      7.1173000E-02    6.9653000E-02    1.5200000E-03     1.000000        7.1173000E-02    6.9653000E-02    1.5200000E-03    2.9854464E-03     334.9583    
 p063                 obsgroup      7.5293000E-02    7.4061000E-02    1.2320000E-03     1.000000        7.5293000E-02    7.4061000E-02    1.2320000E-03    2.9854464E-03     334.9583    
 p064                 obsgroup      7.4881000E-02    7.6086000E-02   -1.2050000E-03     1.000000        7.4881000E-02    7.6086000E-02   -1.2050000E-03    2.9854464E-03     334.9583    
 p065                 obsgroup      8.3739000E-02    7.8210000E-02    5.5290000E-03     1.000000        8.3739000E-02    7.8210000E-02    5.5290000E-03    2.9854464E-03     334.9583    
 p066                 obsgroup      8.2091000E-02    8.0126000E-02    1.9650000E-03     1.000000        8.2091000E-02    8.0126000E-02    1.9650000E-03    2.9854464E-03     334.9583    
 p067                 obsgroup      8.2915000E-02    8.2170000E-02    7.4500000E-04     1.000000        8.2915000E-02    8.2170000E-02    7.4500000E-04    2.9854464E-03     334.9583    
 p068                 obsgroup      8.5593000E-02    8.3775000E-02    1.8180000E-03     1.000000        8.5593000E-02    8.3775000E-02    1.8180000E-03    2.9854464E-03     334.9583    
 p069                 obsgroup      8.4460000E-02    8.5511000E-02   -1.0510000E-03     1.000000        8.4460000E-02    8.5511000E-02   -1.0510000E-03    2.9854464E-03     334.9583    
 p070                 obsgroup      8.7756000E-02    8.8898000E-02   -1.1420000E-03     1.000000        8.7756000E-02    8.8898000E-02   -1.1420000E-03    2.9854464E-03     334.9583    
 p071                 obsgroup      8.9404000E-02    9.0510000E-02   -1.1060000E-03     1.000000        8.9404000E-02    9.0510000E-02   -1.1060000E-03    2.9854464E-03     334.9583    
 p072                 obsgroup      9.4966000E-02    9.2052000E-02    2.9140000E-03     1.000000        9.4966000E-02    9.2052000E-02    2.9140000E-03    2.9854464E-03     334.9583    
 p073                 obsgroup      9.3627000E-02    9.3549000E-02    7.8000000E-05     1.000000        9.3627000E-02    9.3549000E-02    7.8000000E-05    2.9854464E-03     334.9583    
 p074                 obsgroup      9.0743000E-02    9.5043000E-02   -4.3000000E-03     1.000000        9.0743000E-02    9.5043000E-02   -4.3000000E-03    2.9854464E-03     334.9583    
 p075                 obsgroup      9.4348000E-02    9.6469000E-02   -2.1210000E-03     1.000000        9.4348000E-02    9.6469000E-02   -2.1210000E-03    2.9854464E-03     334.9583    
 p076                 obsgroup      9.8056000E-02    9.7841000E-02    2.1500000E-04     1.000000        9.8056000E-02    9.7841000E-02    2.1500000E-04    2.9854464E-03     334.9583    
 p077                 obsgroup      0.1030000        0.1003620        2.6380000E-03     1.000000        0.1030000        0.1003620        2.6380000E-03    2.9854464E-03     334.9583    
 p078                 obsgroup      9.8056000E-02    0.1015910       -3.5350000E-03     1.000000        9.8056000E-02    0.1015910       -3.5350000E-03    2.9854464E-03     334.9583    
 p079                 obsgroup      9.6820000E-02    0.1028060       -5.9860000E-03     1.000000        9.6820000E-02    0.1028060       -5.9860000E-03    2.9854464E-03     334.9583    
 p080                 obsgroup      9.8777000E-02    0.1039840       -5.2070000E-03     1.000000        9.8777000E-02    0.1039840       -5.2070000E-03    2.9854464E-03     334.9583    
 p081                 obsgroup      0.1050600        0.1050920       -3.2000000E-05     1.000000        0.1050600        0.1050920       -3.2000000E-05    2.9854464E-03     334.9583    
 p082                 obsgroup      0.1071200        0.1061680        9.5200000E-04     1.000000        0.1071200        0.1061680        9.5200000E-04    2.9854464E-03     334.9583    
 p083                 obsgroup      0.1102100        0.1082840        1.9260000E-03     1.000000        0.1102100        0.1082840        1.9260000E-03    2.9854464E-03     334.9583    
 p084                 obsgroup      0.1060900        0.1092430       -3.1530000E-03     1.000000        0.1060900        0.1092430       -3.1530000E-03    2.9854464E-03     334.9583    
 p085                 obsgroup      0.1071200        0.1101890       -3.0690000E-03     1.000000        0.1071200        0.1101890       -3.0690000E-03    2.9854464E-03     334.9583    
 p086                 obsgroup      0.1174200        0.1137870        3.6330000E-03     1.000000        0.1174200        0.1137870        3.6330000E-03    2.9854464E-03     334.9583    
 p087                 obsgroup      0.1163900        0.1153340        1.0560000E-03     1.000000        0.1163900        0.1153340        1.0560000E-03    2.9854464E-03     334.9583    
 p088                 obsgroup      0.1174200        0.1161250        1.2950000E-03     1.000000        0.1174200        0.1161250        1.2950000E-03    2.9854464E-03     334.9583    
 p089                 obsgroup      0.1184500        0.1183150        1.3500000E-04     1.000000        0.1184500        0.1183150        1.3500000E-04    2.9854464E-03     334.9583    
 p090                 obsgroup      0.1246300        0.1190080        5.6220000E-03     1.000000        0.1246300        0.1190080        5.6220000E-03    2.9854464E-03     334.9583    
 p091                 obsgroup      0.1194800        0.1203140       -8.3400000E-04     1.000000        0.1194800        0.1203140       -8.3400000E-04    2.9854464E-03     334.9583    
 p092                 obsgroup      0.1277200        0.1209220        6.7980000E-03     1.000000        0.1277200        0.1209220        6.7980000E-03    2.9854464E-03     334.9583    
 p093                 obsgroup      0.1266900        0.1215210        5.1690000E-03     1.000000        0.1266900        0.1215210        5.1690000E-03    2.9854464E-03     334.9583    
 p094                 obsgroup      0.1225700        0.1232920       -7.2200000E-04     1.000000        0.1225700        0.1232920       -7.2200000E-04    2.9854464E-03     334.9583    
 p095                 obsgroup      0.1308100        0.1238600        6.9500000E-03     1.000000        0.1308100        0.1238600        6.9500000E-03    2.9854464E-03     334.9583    
 p096                 obsgroup      0.1308100        0.1269680        3.8420000E-03     1.000000        0.1308100        0.1269680        3.8420000E-03    2.9854464E-03     334.9583    
 p097                 obsgroup      0.1318400        0.1274240        4.4160000E-03     1.000000        0.1318400        0.1274240        4.4160000E-03    2.9854464E-03     334.9583    
 p098                 obsgroup      0.1349300        0.1283340        6.5960000E-03     1.000000        0.1349300        0.1283340        6.5960000E-03    2.9854464E-03     334.9583    
 p099                 obsgroup      0.1359600        0.1312720        4.6880000E-03     1.000000        0.1359600        0.1312720        4.6880000E-03    2.9854464E-03     334.9583    
 p100                 obsgroup      0.1349300        0.1316280        3.3020000E-03     1.000000        0.1349300        0.1316280        3.3020000E-03    2.9854464E-03     334.9583    
 p101                 obsgroup      0.1400800        0.1318860        8.1940000E-03     1.000000        0.1400800        0.1318860        8.1940000E-03    2.9854464E-03     334.9583    
 p102                 obsgroup      0.1390500        0.1325230        6.5270000E-03     1.000000        0.1390500        0.1325230        6.5270000E-03    2.9854464E-03     334.9583    
 p103                 obsgroup      0.1411100        0.1327370        8.3730000E-03     1.000000        0.1411100        0.1327370        8.3730000E-03    2.9854464E-03     334.9583    
 p104                 obsgroup      0.1400800        0.1329480        7.1320000E-03     1.000000        0.1400800        0.1329480        7.1320000E-03    2.9854464E-03     334.9583    
 p105                 obsgroup      0.1421400        0.1335740        8.5660000E-03     1.000000        0.1421400        0.1335740        8.5660000E-03    2.9854464E-03     334.9583    
 p106                 obsgroup      0.1328700        0.1339730       -1.1030000E-03     1.000000        0.1328700        0.1339730       -1.1030000E-03    2.9854464E-03     334.9583    
 p107                 obsgroup      0.1380200        0.1343460        3.6740000E-03     1.000000        0.1380200        0.1343460        3.6740000E-03    2.9854464E-03     334.9583    
 p108                 obsgroup      0.1318400        0.1345410       -2.7010000E-03     1.000000        0.1318400        0.1345410       -2.7010000E-03    2.9854464E-03     334.9583    
 p109                 obsgroup      0.1431700        0.1347450        8.4250000E-03     1.000000        0.1431700        0.1347450        8.4250000E-03    2.9854464E-03     334.9583    
 p110                 obsgroup      0.1369900        0.1349200        2.0700000E-03     1.000000        0.1369900        0.1349200        2.0700000E-03    2.9854464E-03     334.9583    
 p111                 obsgroup      0.1390500        0.1350940        3.9560000E-03     1.000000        0.1390500        0.1350940        3.9560000E-03    2.9854464E-03     334.9583    
 p112                 obsgroup      0.1287500        0.1352740       -6.5240000E-03     1.000000        0.1287500        0.1352740       -6.5240000E-03    2.9854464E-03     334.9583    
 p113                 obsgroup      0.1380200        0.1356180        2.4020000E-03     1.000000        0.1380200        0.1356180        2.4020000E-03    2.9854464E-03     334.9583    
 p114                 obsgroup      0.1328700        0.1357940       -2.9240000E-03     1.000000        0.1328700        0.1357940       -2.9240000E-03    2.9854464E-03     334.9583    
 p115                 obsgroup      0.1339000        0.1359690       -2.0690000E-03     1.000000        0.1339000        0.1359690       -2.0690000E-03    2.9854464E-03     334.9583    
 p116                 obsgroup      0.1390500        0.1366300        2.4200000E-03     1.000000        0.1390500        0.1366300        2.4200000E-03    2.9854464E-03     334.9583    
 p117                 obsgroup      0.1359600        0.1367920       -8.3200000E-04     1.000000        0.1359600        0.1367920       -8.3200000E-04    2.9854464E-03     334.9583    
 p118                 obsgroup      0.1287500        0.1369610       -8.2110000E-03     1.000000        0.1287500        0.1369610       -8.2110000E-03    2.9854464E-03     334.9583    
 p119                 obsgroup      0.1266900        0.1371360       -1.0446000E-02     1.000000        0.1266900        0.1371360       -1.0446000E-02    2.9854464E-03     334.9583    
 p120                 obsgroup      0.1328700        0.1372970       -4.4270000E-03     1.000000        0.1328700        0.1372970       -4.4270000E-03    2.9854464E-03     334.9583    
 p121                 obsgroup      0.1308100        0.1374580       -6.6480000E-03     1.000000        0.1308100        0.1374580       -6.6480000E-03    2.9854464E-03     334.9583    
 p122                 obsgroup      0.1339000        0.1376230       -3.7230000E-03     1.000000        0.1339000        0.1376230       -3.7230000E-03    2.9854464E-03     334.9583    
 p123                 obsgroup      0.1308100        0.1377980       -6.9880000E-03     1.000000        0.1308100        0.1377980       -6.9880000E-03    2.9854464E-03     334.9583    
 p124                 obsgroup      0.1400800        0.1379480        2.1320000E-03     1.000000        0.1400800        0.1379480        2.1320000E-03    2.9854464E-03     334.9583    
 p125                 obsgroup      0.1359600        0.1380630       -2.1030000E-03     1.000000        0.1359600        0.1380630       -2.1030000E-03    2.9854464E-03     334.9583    
 p126                 obsgroup      0.1277200        0.1381490       -1.0429000E-02     1.000000        0.1277200        0.1381490       -1.0429000E-02    2.9854464E-03     334.9583    
 p127                 obsgroup      0.1411100        0.1383100        2.8000000E-03     1.000000        0.1411100        0.1383100        2.8000000E-03    2.9854464E-03     334.9583    
 p128                 obsgroup      0.1328700        0.1384750       -5.6050000E-03     1.000000        0.1328700        0.1384750       -5.6050000E-03    2.9854464E-03     334.9583    
 p129                 obsgroup      0.1349300        0.1386400       -3.7100000E-03     1.000000        0.1349300        0.1386400       -3.7100000E-03    2.9854464E-03     334.9583    
 p130                 obsgroup      0.1328700        0.1388030       -5.9330000E-03     1.000000        0.1328700        0.1388030       -5.9330000E-03    2.9854464E-03     334.9583    
 p131                 obsgroup      0.1349300        0.1389750       -4.0450000E-03     1.000000        0.1349300        0.1389750       -4.0450000E-03    2.9854464E-03     334.9583    
 p132                 obsgroup      0.1390500        0.1392800       -2.3000000E-04     1.000000        0.1390500        0.1392800       -2.3000000E-04    2.9854464E-03     334.9583    
 p133                 obsgroup      0.1359600        0.1394420       -3.4820000E-03     1.000000        0.1359600        0.1394420       -3.4820000E-03    2.9854464E-03     334.9583    
 p134                 obsgroup      0.1421400        0.1397940        2.3460000E-03     1.000000        0.1421400        0.1397940        2.3460000E-03    2.9854464E-03     334.9583    
 p135                 obsgroup      0.1411100        0.1398840        1.2260000E-03     1.000000        0.1411100        0.1398840        1.2260000E-03    2.9854464E-03     334.9583    
 p136                 obsgroup      0.1390500        0.1401070       -1.0570000E-03     1.000000        0.1390500        0.1401070       -1.0570000E-03    2.9854464E-03     334.9583    
 p137                 obsgroup      0.1380200        0.1401820       -2.1620000E-03     1.000000        0.1380200        0.1401820       -2.1620000E-03    2.9854464E-03     334.9583    
 p138                 obsgroup      0.1400800        0.1402440       -1.6400000E-04     1.000000        0.1400800        0.1402440       -1.6400000E-04    2.9854464E-03     334.9583    
 p139                 obsgroup      0.1421400        0.1401240        2.0160000E-03     1.000000        0.1421400        0.1401240        2.0160000E-03    2.9854464E-03     334.9583    
 p140                 obsgroup      0.1421400        0.1399160        2.2240000E-03     1.000000        0.1421400        0.1399160        2.2240000E-03    2.9854464E-03     334.9583    
 p141                 obsgroup      0.1390500        0.1395910       -5.4100000E-04     1.000000        0.1390500        0.1395910       -5.4100000E-04    2.9854464E-03     334.9583    
 p142                 obsgroup      0.1369900        0.1391270       -2.1370000E-03     1.000000        0.1369900        0.1391270       -2.1370000E-03    2.9854464E-03     334.9583    
 p143                 obsgroup      0.1349300        0.1384820       -3.5520000E-03     1.000000        0.1349300        0.1384820       -3.5520000E-03    2.9854464E-03     334.9583    
 p144                 obsgroup      0.1380200        0.1376760        3.4400000E-04     1.000000        0.1380200        0.1376760        3.4400000E-04    2.9854464E-03     334.9583    
 p145                 obsgroup      0.1349300        0.1366950       -1.7650000E-03     1.000000        0.1349300        0.1366950       -1.7650000E-03    2.9854464E-03     334.9583    
 p146                 obsgroup      0.1380200        0.1355250        2.4950000E-03     1.000000        0.1380200        0.1355250        2.4950000E-03    2.9854464E-03     334.9583    
 p147                 obsgroup      0.1287500        0.1341710       -5.4210000E-03     1.000000        0.1287500        0.1341710       -5.4210000E-03    2.9854464E-03     334.9583    
 p148                 obsgroup      0.1266900        0.1325330       -5.8430000E-03     1.000000        0.1266900        0.1325330       -5.8430000E-03    2.9854464E-03     334.9583    
 p149                 obsgroup      0.1297800        0.1306990       -9.1900000E-04     1.000000        0.1297800        0.1306990       -9.1900000E-04    2.9854464E-03     334.9583    
 p150                 obsgroup      0.1277200        0.1287220       -1.0020000E-03     1.000000        0.1277200        0.1287220       -1.0020000E-03    2.9854464E-03     334.9583    
 p151                 obsgroup      0.1225700        0.1243800       -1.8100000E-03     1.000000        0.1225700        0.1243800       -1.8100000E-03    2.9854464E-03     334.9583    
 p152                 obsgroup      0.1194800        0.1192330        2.4700000E-04     1.000000        0.1194800        0.1192330        2.4700000E-04    2.9854464E-03     334.9583    
 p153                 obsgroup      0.1174200        0.1167190        7.0100000E-04     1.000000        0.1174200        0.1167190        7.0100000E-04    2.9854464E-03     334.9583    
 p154                 obsgroup      0.1102100        0.1140520       -3.8420000E-03     1.000000        0.1102100        0.1140520       -3.8420000E-03    2.9854464E-03     334.9583    
 p155                 obsgroup      0.1102100        0.1115170       -1.3070000E-03     1.000000        0.1102100        0.1115170       -1.3070000E-03    2.9854464E-03     334.9583    
 p156                 obsgroup      0.1081500        0.1086850       -5.3500000E-04     1.000000        0.1081500        0.1086850       -5.3500000E-04    2.9854464E-03     334.9583    
 p157                 obsgroup      0.1024850        0.1060660       -3.5810000E-03     1.000000        0.1024850        0.1060660       -3.5810000E-03    2.9854464E-03     334.9583    
 p158                 obsgroup      0.1002190        0.1008610       -6.4200000E-04     1.000000        0.1002190        0.1008610       -6.4200000E-04    2.9854464E-03     334.9583    
 p159                 obsgroup      9.6614000E-02    9.8245000E-02   -1.6310000E-03     1.000000        9.6614000E-02    9.8245000E-02   -1.6310000E-03    2.9854464E-03     334.9583    
 p160                 obsgroup      9.6717000E-02    9.2819000E-02    3.8980000E-03     1.000000        9.6717000E-02    9.2819000E-02    3.8980000E-03    2.9854464E-03     334.9583    
 p161                 obsgroup      9.2185000E-02    9.0524000E-02    1.6610000E-03     1.000000        9.2185000E-02    9.0524000E-02    1.6610000E-03    2.9854464E-03     334.9583    
 p162                 obsgroup      9.2906000E-02    8.8123000E-02    4.7830000E-03     1.000000        9.2906000E-02    8.8123000E-02    4.7830000E-03    2.9854464E-03     334.9583    
 p163                 obsgroup      8.1267000E-02    8.1039000E-02    2.2800000E-04     1.000000        8.1267000E-02    8.1039000E-02    2.2800000E-04    2.9854464E-03     334.9583    
 p164                 obsgroup      8.2915000E-02    7.8899000E-02    4.0160000E-03     1.000000        8.2915000E-02    7.8899000E-02    4.0160000E-03    2.9854464E-03     334.9583    
 p165                 obsgroup      8.2812000E-02    7.6888000E-02    5.9240000E-03     1.000000        8.2812000E-02    7.6888000E-02    5.9240000E-03    2.9854464E-03     334.9583    
 p166                 obsgroup      7.1997000E-02    7.2834000E-02   -8.3700000E-04     1.000000        7.1997000E-02    7.2834000E-02   -8.3700000E-04    2.9854464E-03     334.9583    
 p167                 obsgroup      7.4263000E-02    7.0819000E-02    3.4440000E-03     1.000000        7.4263000E-02    7.0819000E-02    3.4440000E-03    2.9854464E-03     334.9583    
 p168                 obsgroup      6.5714000E-02    6.7380000E-02   -1.6660000E-03     1.000000        6.5714000E-02    6.7380000E-02   -1.6660000E-03    2.9854464E-03     334.9583    
 p169                 obsgroup      6.1285000E-02    6.0619000E-02    6.6600000E-04     1.000000        6.1285000E-02    6.0619000E-02    6.6600000E-04    2.9854464E-03     334.9583    
 p170                 obsgroup      5.8401000E-02    5.9212000E-02   -8.1100000E-04     1.000000        5.8401000E-02    5.9212000E-02   -8.1100000E-04    2.9854464E-03     334.9583    
 p171                 obsgroup      5.4178000E-02    5.6177000E-02   -1.9990000E-03     1.000000        5.4178000E-02    5.6177000E-02   -1.9990000E-03    2.9854464E-03     334.9583    
 p172                 obsgroup      5.2942000E-02    5.4753000E-02   -1.8110000E-03     1.000000        5.2942000E-02    5.4753000E-02   -1.8110000E-03    2.9854464E-03     334.9583    
 p173                 obsgroup      4.8204000E-02    4.9649000E-02   -1.4450000E-03     1.000000        4.8204000E-02    4.9649000E-02   -1.4450000E-03    2.9854464E-03     334.9583    
 p174                 obsgroup      4.8925000E-02    4.8477000E-02    4.4800000E-04     1.000000        4.8925000E-02    4.8477000E-02    4.4800000E-04    2.9854464E-03     334.9583    
 p175                 obsgroup      4.7380000E-02    4.7346000E-02    3.4000000E-05     1.000000        4.7380000E-02    4.7346000E-02    3.4000000E-05    2.9854464E-03     334.9583    
 p176                 obsgroup      4.5320000E-02    4.6269000E-02   -9.4900000E-04     1.000000        4.5320000E-02    4.6269000E-02   -9.4900000E-04    2.9854464E-03     334.9583    
 p177                 obsgroup      4.4702000E-02    4.5132000E-02   -4.3000000E-04     1.000000        4.4702000E-02    4.5132000E-02   -4.3000000E-04    2.9854464E-03     334.9583    
 p178                 obsgroup      4.3054000E-02    4.3059000E-02   -5.0000000E-06     1.000000        4.3054000E-02    4.3059000E-02   -5.0000000E-06    2.9854464E-03     334.9583    
 p179                 obsgroup      4.2642000E-02    4.2102000E-02    5.4000000E-04     1.000000        4.2642000E-02    4.2102000E-02    5.4000000E-04    2.9854464E-03     334.9583    
 p180                 obsgroup      4.2127000E-02    4.0554000E-02    1.5730000E-03     1.000000        4.2127000E-02    4.0554000E-02    1.5730000E-03    2.9854464E-03     334.9583    
 p181                 obsgroup      4.1303000E-02    3.9669000E-02    1.6340000E-03     1.000000        4.1303000E-02    3.9669000E-02    1.6340000E-03    2.9854464E-03     334.9583    
 p182                 obsgroup      3.5741000E-02    3.7187000E-02   -1.4460000E-03     1.000000        3.5741000E-02    3.7187000E-02   -1.4460000E-03    2.9854464E-03     334.9583    
 p183                 obsgroup      3.6050000E-02    3.6373000E-02   -3.2300000E-04     1.000000        3.6050000E-02    3.6373000E-02   -3.2300000E-04    2.9854464E-03     334.9583    
 p184                 obsgroup      3.3063000E-02    3.2298000E-02    7.6500000E-04     1.000000        3.3063000E-02    3.2298000E-02    7.6500000E-04    2.9854464E-03     334.9583    
 p185                 obsgroup      3.2754000E-02    3.1672000E-02    1.0820000E-03     1.000000        3.2754000E-02    3.1672000E-02    1.0820000E-03    2.9854464E-03     334.9583    
 p186                 obsgroup      2.7810000E-02    2.9860000E-02   -2.0500000E-03     1.000000        2.7810000E-02    2.9860000E-02   -2.0500000E-03    2.9854464E-03     334.9583    
 p187                 obsgroup      2.7295000E-02    2.9252000E-02   -1.9570000E-03     1.000000        2.7295000E-02    2.9252000E-02   -1.9570000E-03    2.9854464E-03     334.9583    
 p188                 obsgroup      2.8531000E-02    2.8727000E-02   -1.9600000E-04     1.000000        2.8531000E-02    2.8727000E-02   -1.9600000E-04    2.9854464E-03     334.9583    
 p189                 obsgroup      2.5853000E-02    2.7111000E-02   -1.2580000E-03     1.000000        2.5853000E-02    2.7111000E-02   -1.2580000E-03    2.9854464E-03     334.9583    
 p190                 obsgroup      2.5544000E-02    2.6592000E-02   -1.0480000E-03     1.000000        2.5544000E-02    2.6592000E-02   -1.0480000E-03    2.9854464E-03     334.9583    
 p191                 obsgroup      2.5853000E-02    2.5137000E-02    7.1600000E-04     1.000000        2.5853000E-02    2.5137000E-02    7.1600000E-04    2.9854464E-03     334.9583    
 p192                 obsgroup      2.3381000E-02    2.4693000E-02   -1.3120000E-03     1.000000        2.3381000E-02    2.4693000E-02   -1.3120000E-03    2.9854464E-03     334.9583    
 p193                 obsgroup      2.4308000E-02    2.4262000E-02    4.6000000E-05     1.000000        2.4308000E-02    2.4262000E-02    4.6000000E-05    2.9854464E-03     334.9583    
 p194                 obsgroup      2.3587000E-02    2.3817000E-02   -2.3000000E-04     1.000000        2.3587000E-02    2.3817000E-02   -2.3000000E-04    2.9854464E-03     334.9583    
 p195                 obsgroup      2.4205000E-02    2.3416000E-02    7.8900000E-04     1.000000        2.4205000E-02    2.3416000E-02    7.8900000E-04    2.9854464E-03     334.9583    
 p196                 obsgroup      2.2866000E-02    2.3011000E-02   -1.4500000E-04     1.000000        2.2866000E-02    2.3011000E-02   -1.4500000E-04    2.9854464E-03     334.9583    
 p197                 obsgroup      2.3072000E-02    2.2222000E-02    8.5000000E-04     1.000000        2.3072000E-02    2.2222000E-02    8.5000000E-04    2.9854464E-03     334.9583    
 p198                 obsgroup      2.2042000E-02    2.1846000E-02    1.9600000E-04     1.000000        2.2042000E-02    2.1846000E-02    1.9600000E-04    2.9854464E-03     334.9583    
 p199                 obsgroup      2.1218000E-02    2.1176000E-02    4.2000000E-05     1.000000        2.1218000E-02    2.1176000E-02    4.2000000E-05    2.9854464E-03     334.9583    
 p200                 obsgroup      2.0703000E-02    2.0820000E-02   -1.1700000E-04     1.000000        2.0703000E-02    2.0820000E-02   -1.1700000E-04    2.9854464E-03     334.9583    
 p201                 obsgroup      2.0291000E-02    2.0182000E-02    1.0900000E-04     1.000000        2.0291000E-02    2.0182000E-02    1.0900000E-04    2.9854464E-03     334.9583    
 p202                 obsgroup      2.0703000E-02    1.9871000E-02    8.3200000E-04     1.000000        2.0703000E-02    1.9871000E-02    8.3200000E-04    2.9854464E-03     334.9583    
 p203                 obsgroup      1.9982000E-02    1.9226000E-02    7.5600000E-04     1.000000        1.9982000E-02    1.9226000E-02    7.5600000E-04    2.9854464E-03     334.9583    
 p204                 obsgroup      1.9467000E-02    1.8635000E-02    8.3200000E-04     1.000000        1.9467000E-02    1.8635000E-02    8.3200000E-04    2.9854464E-03     334.9583    
 p205                 obsgroup      1.8437000E-02    1.7527000E-02    9.1000000E-04     1.000000        1.8437000E-02    1.7527000E-02    9.1000000E-04    2.9854464E-03     334.9583    
 p206                 obsgroup      1.8231000E-02    1.7246000E-02    9.8500000E-04     1.000000        1.8231000E-02    1.7246000E-02    9.8500000E-04    2.9854464E-03     334.9583    
 p207                 obsgroup      1.9364000E-02    1.7005000E-02    2.3590000E-03     1.000000        1.9364000E-02    1.7005000E-02    2.3590000E-03    2.9854464E-03     334.9583    
 p208                 obsgroup      1.8128000E-02    1.6757000E-02    1.3710000E-03     1.000000        1.8128000E-02    1.6757000E-02    1.3710000E-03    2.9854464E-03     334.9583    
 p209                 obsgroup      1.8128000E-02    1.6497000E-02    1.6310000E-03     1.000000        1.8128000E-02    1.6497000E-02    1.6310000E-03    2.9854464E-03     334.9583    
 p210                 obsgroup      1.7716000E-02    1.6254000E-02    1.4620000E-03     1.000000        1.7716000E-02    1.6254000E-02    1.4620000E-03    2.9854464E-03     334.9583    
 p211                 obsgroup      1.7098000E-02    1.6031000E-02    1.0670000E-03     1.000000        1.7098000E-02    1.6031000E-02    1.0670000E-03    2.9854464E-03     334.9583    
 p212                 obsgroup      1.5965000E-02    1.5802000E-02    1.6300000E-04     1.000000        1.5965000E-02    1.5802000E-02    1.6300000E-04    2.9854464E-03     334.9583    
 p213                 obsgroup      1.7201000E-02    1.5570000E-02    1.6310000E-03     1.000000        1.7201000E-02    1.5570000E-02    1.6310000E-03    2.9854464E-03     334.9583    
 p214                 obsgroup      1.4626000E-02    1.5337000E-02   -7.1100000E-04     1.000000        1.4626000E-02    1.5337000E-02   -7.1100000E-04    2.9854464E-03     334.9583    
 p215                 obsgroup      1.6171000E-02    1.4912000E-02    1.2590000E-03     1.000000        1.6171000E-02    1.4912000E-02    1.2590000E-03    2.9854464E-03     334.9583    
 p216                 obsgroup      1.5553000E-02    1.4710000E-02    8.4300000E-04     1.000000        1.5553000E-02    1.4710000E-02    8.4300000E-04    2.9854464E-03     334.9583    
 p217                 obsgroup      1.5759000E-02    1.4521000E-02    1.2380000E-03     1.000000        1.5759000E-02    1.4521000E-02    1.2380000E-03    2.9854464E-03     334.9583    
 p218                 obsgroup      1.5450000E-02    1.4312000E-02    1.1380000E-03     1.000000        1.5450000E-02    1.4312000E-02    1.1380000E-03    2.9854464E-03     334.9583    
 p219                 obsgroup      1.4935000E-02    1.3947000E-02    9.8800000E-04     1.000000        1.4935000E-02    1.3947000E-02    9.8800000E-04    2.9854464E-03     334.9583    
