 Name                 Group          Measured         Modelled         Residual         Weight       Weight*Measured    Weight*Modelled  Weight*Residual  Measurement_sd   Natural_weight
 p001                 obsgroup      4.9750000E-04    5.1000000E-04   -1.2500000E-05     1.000000        4.9750000E-04    5.1000000E-04   -1.2500000E-05    2.7485900E-03     363.8229    
 p002                 obsgroup      4.9950000E-04    5.5600000E-04   -5.6500000E-05     1.000000        4.9950000E-04    5.5600000E-04   -5.6500000E-05    2.7485900E-03     363.8229    
 p003                 obsgroup      5.3150000E-04    6.4700000E-04   -1.1550000E-04     1.000000        5.3150000E-04    6.4700000E-04   -1.1550000E-04    2.7485900E-03     363.8229    
 p004                 obsgroup      5.4590000E-04    8.9400000E-04   -3.4810000E-04     1.000000        5.4590000E-04    8.9400000E-04   -3.4810000E-04    2.7485900E-03     363.8229    
 p005                 obsgroup      6.0670000E-04    1.2030000E-03   -5.9630000E-04     1.000000        6.0670000E-04    1.2030000E-03   -5.9630000E-04    2.7485900E-03     363.8229    
 p006                 obsgroup      7.4880000E-04    1.8300000E-03   -1.0812000E-03     1.000000        7.4880000E-04    1.8300000E-03   -1.0812000E-03    2.7485900E-03     363.8229    
 p007                 obsgroup      1.4111000E-03    3.2410000E-03   -1.8299000E-03     1.000000        1.4111000E-03    3.2410000E-03   -1.8299000E-03    2.7485900E-03     363.8229    
 p008                 obsgroup      1.7201000E-03    3.8500000E-03   -2.1299000E-03     1.000000        1.7201000E-03    3.8500000E-03   -2.1299000E-03    2.7485900E-03     363.8229    
 p009                 obsgroup      3.0797000E-03    5.6440000E-03   -2.5643000E-03     1.000000        3.0797000E-03    5.6440000E-03   -2.5643000E-03    2.7485900E-03     363.8229    
 p010                 obsgroup      4.9543000E-03    7.8060000E-03   -2.8517000E-03     1.000000        4.9543000E-03    7.8060000E-03   -2.8517000E-03    2.7485900E-03     363.8229    
 p011                 obsgroup      6.5817000E-03    9.2870000E-03   -2.7053000E-03     1.000000        6.5817000E-03    9.2870000E-03   -2.7053000E-03    2.7485900E-03     363.8229    
 p012                 obsgroup      8.9507000E-03    1.1394000E-02   -2.4433000E-03     1.000000        8.9507000E-03    1.1394000E-02   -2.4433000E-03    2.7485900E-03     363.8229    
 p013                 obsgroup      1.1433000E-02    1.3666000E-02   -2.2330000E-03     1.000000        1.1433000E-02    1.3666000E-02   -2.2330000E-03    2.7485900E-03     363.8229    
 p014                 obsgroup      1.2875000E-02    1.5465000E-02   -2.5900000E-03     1.000000        1.2875000E-02    1.5465000E-02   -2.5900000E-03    2.7485900E-03     363.8229    
 p015                 obsgroup      1.6583000E-02    1.7952000E-02   -1.3690000E-03     1.000000        1.6583000E-02    1.7952000E-02   -1.3690000E-03    2.7485900E-03     363.8229    
 p016                 obsgroup      2.3484000E-02    2.3831000E-02   -3.4700000E-04     1.000000        2.3484000E-02    2.3831000E-02   -3.4700000E-04    2.7485900E-03     363.8229    
 p017                 obsgroup      3.1209000E-02    2.9923000E-02    1.2860000E-03     1.000000        3.1209000E-02    2.9923000E-02    1.2860000E-03    2.7485900E-03     363.8229    
 p018                 obsgroup      4.2333000E-02    3.7999000E-02    4.3340000E-03     1.000000        4.2333000E-02    3.7999000E-02    4.3340000E-03    2.7485900E-03     363.8229    
 p019                 obsgroup      6.5199000E-02    6.1644000E-02    3.5550000E-03     1.000000        6.5199000E-02    6.1644000E-02    3.5550000E-03    2.7485900E-03     363.8229    
 p020                 obsgroup      8.1576000E-02    7.9893000E-02    1.6830000E-03     1.000000        8.1576000E-02    7.9893000E-02    1.6830000E-03    2.7485900E-03     363.8229    
 p021                 obsgroup      9.0228000E-02    8.8937000E-02    1.2910000E-03     1.000000        9.0228000E-02    8.8937000E-02    1.2910000E-03    2.7485900E-03     363.8229    
 p022                 obsgroup      9.9910000E-02    0.1016490       -1.7390000E-03     1.000000        9.9910000E-02    0.1016490       -1.7390000E-03    2.7485900E-03     363.8229    
 p023                 obsgroup      0.1050600        0.1074020       -2.3420000E-03     1.000000        0.1050600        0.1074020       -2.3420000E-03    2.7485900E-03     363.8229    
 p024                 obsgroup      0.1102100        0.1102040        6.0000000E-06     1.000000        0.1102100        0.1102040        6.0000000E-06    2.7485900E-03     363.8229    
 p025                 obsgroup      0.1060900        0.1060010        8.9000000E-05     1.000000        0.1060900        0.1060010        8.9000000E-05    2.7485900E-03     363.8229    
 p026                 obsgroup      8.7550000E-02    9.0720000E-02   -3.1700000E-03     1.000000        8.7550000E-02    9.0720000E-02   -3.1700000E-03    2.7485900E-03     363.8229    
 p027                 obsgroup      5.1397000E-02    5.5168000E-02   -3.7710000E-03     1.000000        5.1397000E-02    5.5168000E-02   -3.7710000E-03    2.7485900E-03     363.8229    
 p028                 obsgroup      3.2857000E-02    3.1294000E-02    1.5630000E-03     1.000000        3.2857000E-02    3.1294000E-02    1.5630000E-03    2.7485900E-03     363.8229    
 p029                 obsgroup      2.2454000E-02    1.7297000E-02    5.1570000E-03     1.000000        2.2454000E-02    1.7297000E-02    5.1570000E-03    2.7485900E-03     363.8229    
 p030                 obsgroup      1.5965000E-02    9.1980000E-03    6.7670000E-03     1.000000        1.5965000E-02    9.1980000E-03    6.7670000E-03    2.7485900E-03     363.8229    
