 Name                 Group          Measured         Modelled         Residual         Weight       Weight*Measured    Weight*Modelled  Weight*Residual  Measurement_sd   Natural_weight
 p001                 obsgroup      2.3000000E-04    1.5000000E-04    8.0000000E-05     1.000000        2.3000000E-04    1.5000000E-04    8.0000000E-05    1.5188930E-04     6583.742    
 p002                 obsgroup      1.9000000E-04    1.5100000E-04    3.9000000E-05     1.000000        1.9000000E-04    1.5100000E-04    3.9000000E-05    1.5188930E-04     6583.742    
 p003                 obsgroup      1.5000000E-04    1.5600000E-04   -6.0000000E-06     1.000000        1.5000000E-04    1.5600000E-04   -6.0000000E-06    1.5188930E-04     6583.742    
 p004                 obsgroup      1.8000000E-04    2.0200000E-04   -2.2000000E-05     1.000000        1.8000000E-04    2.0200000E-04   -2.2000000E-05    1.5188930E-04     6583.742    
 p005                 obsgroup      1.6000000E-04    2.6800000E-04   -1.0800000E-04     1.000000        1.6000000E-04    2.6800000E-04   -1.0800000E-04    1.5188930E-04     6583.742    
 p006                 obsgroup      3.7000000E-04    3.7800000E-04   -8.0000000E-06     1.000000        3.7000000E-04    3.7800000E-04   -8.0000000E-06    1.5188930E-04     6583.742    
 p007                 obsgroup      4.3000000E-04    5.4100000E-04   -1.1100000E-04     1.000000        4.3000000E-04    5.4100000E-04   -1.1100000E-04    1.5188930E-04     6583.742    
 p008                 obsgroup      6.1000000E-04    7.6500000E-04   -1.5500000E-04     1.000000        6.1000000E-04    7.6500000E-04   -1.5500000E-04    1.5188930E-04     6583.742    
 p009                 obsgroup      8.1000000E-04    1.0510000E-03   -2.4100000E-04     1.000000        8.1000000E-04    1.0510000E-03   -2.4100000E-04    1.5188930E-04     6583.742    
 p010                 obsgroup      1.1900000E-03    1.3890000E-03   -1.9900000E-04     1.000000        1.1900000E-03    1.3890000E-03   -1.9900000E-04    1.5188930E-04     6583.742    
 p011                 obsgroup      1.6400000E-03    1.7770000E-03   -1.3700000E-04     1.000000        1.6400000E-03    1.7770000E-03   -1.3700000E-04    1.5188930E-04     6583.742    
 p012                 obsgroup      2.0200000E-03    2.2070000E-03   -1.8700000E-04     1.000000        2.0200000E-03    2.2070000E-03   -1.8700000E-04    1.5188930E-04     6583.742    
 p013                 obsgroup      2.6600000E-03    2.6740000E-03   -1.4000000E-05     1.000000        2.6600000E-03    2.6740000E-03   -1.4000000E-05    1.5188930E-04     6583.742    
 p014                 obsgroup      3.2400000E-03    3.1640000E-03    7.6000000E-05     1.000000        3.2400000E-03    3.1640000E-03    7.6000000E-05    1.5188930E-04     6583.742    
 p015                 obsgroup      3.7500000E-03    3.6670000E-03    8.3000000E-05     1.000000        3.7500000E-03    3.6670000E-03    8.3000000E-05    1.5188930E-04     6583.742    
 p016                 obsgroup      4.1300000E-03    4.1730000E-03   -4.3000000E-05     1.000000        4.1300000E-03    4.1730000E-03   -4.3000000E-05    1.5188930E-04     6583.742    
 p017                 obsgroup      4.8400000E-03    4.6850000E-03    1.5500000E-04     1.000000        4.8400000E-03    4.6850000E-03    1.5500000E-04    1.5188930E-04     6583.742    
 p018                 obsgroup      5.2800000E-03    5.1530000E-03    1.2700000E-04     1.000000        5.2800000E-03    5.1530000E-03    1.2700000E-04    1.5188930E-04     6583.742    
 p019                 obsgroup      5.6800000E-03    5.6270000E-03    5.3000000E-05     1.000000        5.6800000E-03    5.6270000E-03    5.3000000E-05    1.5188930E-04     6583.742    
 p020                 obsgroup      6.1300000E-03    6.0760000E-03    5.4000000E-05     1.000000        6.1300000E-03    6.0760000E-03    5.4000000E-05    1.5188930E-04     6583.742    
 p021                 obsgroup      6.5800000E-03    6.4940000E-03    8.6000000E-05     1.000000        6.5800000E-03    6.4940000E-03    8.6000000E-05    1.5188930E-04     6583.742    
 p022                 obsgroup      6.8500000E-03    6.8920000E-03   -4.2000000E-05     1.000000        6.8500000E-03    6.8920000E-03   -4.2000000E-05    1.5188930E-04     6583.742    
 p023                 obsgroup      7.5900000E-03    7.2460000E-03    3.4400000E-04     1.000000        7.5900000E-03    7.2460000E-03    3.4400000E-04    1.5188930E-04     6583.742    
 p024                 obsgroup      7.4900000E-03    7.5780000E-03   -8.8000000E-05     1.000000        7.4900000E-03    7.5780000E-03   -8.8000000E-05    1.5188930E-04     6583.742    
 p025                 obsgroup      8.1500000E-03    7.8720000E-03    2.7800000E-04     1.000000        8.1500000E-03    7.8720000E-03    2.7800000E-04    1.5188930E-04     6583.742    
 p026                 obsgroup      8.1800000E-03    8.1410000E-03    3.9000000E-05     1.000000        8.1800000E-03    8.1410000E-03    3.9000000E-05    1.5188930E-04     6583.742    
 p027                 obsgroup      8.5600000E-03    8.3760000E-03    1.8400000E-04     1.000000        8.5600000E-03    8.3760000E-03    1.8400000E-04    1.5188930E-04     6583.742    
 p028                 obsgroup      8.5600000E-03    8.5770000E-03   -1.7000000E-05     1.000000        8.5600000E-03    8.5770000E-03   -1.7000000E-05    1.5188930E-04     6583.742    
 p029                 obsgroup      8.3600000E-03    8.8300000E-03   -4.7000000E-04     1.000000        8.3600000E-03    8.8300000E-03   -4.7000000E-04    1.5188930E-04     6583.742    
 p030                 obsgroup      8.9700000E-03    9.1550000E-03   -1.8500000E-04     1.000000        8.9700000E-03    9.1550000E-03   -1.8500000E-04    1.5188930E-04     6583.742    
 p031                 obsgroup      9.1800000E-03    9.2390000E-03   -5.9000000E-05     1.000000        9.1800000E-03    9.2390000E-03   -5.9000000E-05    1.5188930E-04     6583.742    
 p032                 obsgroup      9.3800000E-03    9.2760000E-03    1.0400000E-04     1.000000        9.3800000E-03    9.2760000E-03    1.0400000E-04    1.5188930E-04     6583.742    
 p033                 obsgroup      9.3800000E-03    9.2720000E-03    1.0800000E-04     1.000000        9.3800000E-03    9.2720000E-03    1.0800000E-04    1.5188930E-04     6583.742    
 p034                 obsgroup      9.3800000E-03    9.2330000E-03    1.4700000E-04     1.000000        9.3800000E-03    9.2330000E-03    1.4700000E-04    1.5188930E-04     6583.742    
 p035                 obsgroup      9.1800000E-03    9.1640000E-03    1.6000000E-05     1.000000        9.1800000E-03    9.1640000E-03    1.6000000E-05    1.5188930E-04     6583.742    
 p036                 obsgroup      9.1800000E-03    9.0690000E-03    1.1100000E-04     1.000000        9.1800000E-03    9.0690000E-03    1.1100000E-04    1.5188930E-04     6583.742    
 p037                 obsgroup      9.0700000E-03    8.9510000E-03    1.1900000E-04     1.000000        9.0700000E-03    8.9510000E-03    1.1900000E-04    1.5188930E-04     6583.742    
 p038                 obsgroup      8.9700000E-03    8.8120000E-03    1.5800000E-04     1.000000        8.9700000E-03    8.8120000E-03    1.5800000E-04    1.5188930E-04     6583.742    
 p039                 obsgroup      8.7700000E-03    8.6600000E-03    1.1000000E-04     1.000000        8.7700000E-03    8.6600000E-03    1.1000000E-04    1.5188930E-04     6583.742    
 p040                 obsgroup      8.5200000E-03    8.4930000E-03    2.7000000E-05     1.000000        8.5200000E-03    8.4930000E-03    2.7000000E-05    1.5188930E-04     6583.742    
 p041                 obsgroup      8.3200000E-03    8.3160000E-03    4.0000000E-06     1.000000        8.3200000E-03    8.3160000E-03    4.0000000E-06    1.5188930E-04     6583.742    
 p042                 obsgroup      7.9500000E-03    8.1280000E-03   -1.7800000E-04     1.000000        7.9500000E-03    8.1280000E-03   -1.7800000E-04    1.5188930E-04     6583.742    
 p043                 obsgroup      7.7300000E-03    7.7420000E-03   -1.2000000E-05     1.000000        7.7300000E-03    7.7420000E-03   -1.2000000E-05    1.5188930E-04     6583.742    
 p044                 obsgroup      7.5100000E-03    7.5410000E-03   -3.1000000E-05     1.000000        7.5100000E-03    7.5410000E-03   -3.1000000E-05    1.5188930E-04     6583.742    
 p045                 obsgroup      7.0700000E-03    7.3400000E-03   -2.7000000E-04     1.000000        7.0700000E-03    7.3400000E-03   -2.7000000E-04    1.5188930E-04     6583.742    
 p046                 obsgroup      6.9800000E-03    7.1400000E-03   -1.6000000E-04     1.000000        6.9800000E-03    7.1400000E-03   -1.6000000E-04    1.5188930E-04     6583.742    
 p047                 obsgroup      6.8800000E-03    6.9410000E-03   -6.1000000E-05     1.000000        6.8800000E-03    6.9410000E-03   -6.1000000E-05    1.5188930E-04     6583.742    
 p048                 obsgroup      6.7600000E-03    6.7430000E-03    1.7000000E-05     1.000000        6.7600000E-03    6.7430000E-03    1.7000000E-05    1.5188930E-04     6583.742    
 p049                 obsgroup      6.4000000E-03    6.5520000E-03   -1.5200000E-04     1.000000        6.4000000E-03    6.5520000E-03   -1.5200000E-04    1.5188930E-04     6583.742    
 p050                 obsgroup      6.1400000E-03    6.3610000E-03   -2.2100000E-04     1.000000        6.1400000E-03    6.3610000E-03   -2.2100000E-04    1.5188930E-04     6583.742    
 p051                 obsgroup      6.1100000E-03    6.1740000E-03   -6.4000000E-05     1.000000        6.1100000E-03    6.1740000E-03   -6.4000000E-05    1.5188930E-04     6583.742    
 p052                 obsgroup      5.9100000E-03    5.9890000E-03   -7.9000000E-05     1.000000        5.9100000E-03    5.9890000E-03   -7.9000000E-05    1.5188930E-04     6583.742    
 p053                 obsgroup      5.7300000E-03    5.8140000E-03   -8.4000000E-05     1.000000        5.7300000E-03    5.8140000E-03   -8.4000000E-05    1.5188930E-04     6583.742    
 p054                 obsgroup      5.6000000E-03    5.6420000E-03   -4.2000000E-05     1.000000        5.6000000E-03    5.6420000E-03   -4.2000000E-05    1.5188930E-04     6583.742    
 p055                 obsgroup      5.3900000E-03    5.4720000E-03   -8.2000000E-05     1.000000        5.3900000E-03    5.4720000E-03   -8.2000000E-05    1.5188930E-04     6583.742    
 p056                 obsgroup      5.3600000E-03    5.3090000E-03    5.1000000E-05     1.000000        5.3600000E-03    5.3090000E-03    5.1000000E-05    1.5188930E-04     6583.742    
 p057                 obsgroup      5.1100000E-03    5.1500000E-03   -4.0000000E-05     1.000000        5.1100000E-03    5.1500000E-03   -4.0000000E-05    1.5188930E-04     6583.742    
 p058                 obsgroup      4.9200000E-03    4.9970000E-03   -7.7000000E-05     1.000000        4.9200000E-03    4.9970000E-03   -7.7000000E-05    1.5188930E-04     6583.742    
 p059                 obsgroup      4.8300000E-03    4.8480000E-03   -1.8000000E-05     1.000000        4.8300000E-03    4.8480000E-03   -1.8000000E-05    1.5188930E-04     6583.742    
 p060                 obsgroup      4.7800000E-03    4.7050000E-03    7.5000000E-05     1.000000        4.7800000E-03    4.7050000E-03    7.5000000E-05    1.5188930E-04     6583.742    
 p061                 obsgroup      4.3400000E-03    4.4390000E-03   -9.9000000E-05     1.000000        4.3400000E-03    4.4390000E-03   -9.9000000E-05    1.5188930E-04     6583.742    
 p062                 obsgroup      4.4000000E-03    4.3130000E-03    8.7000000E-05     1.000000        4.4000000E-03    4.3130000E-03    8.7000000E-05    1.5188930E-04     6583.742    
 p063                 obsgroup      4.2800000E-03    4.1930000E-03    8.7000000E-05     1.000000        4.2800000E-03    4.1930000E-03    8.7000000E-05    1.5188930E-04     6583.742    
 p064                 obsgroup      4.1700000E-03    4.0730000E-03    9.7000000E-05     1.000000        4.1700000E-03    4.0730000E-03    9.7000000E-05    1.5188930E-04     6583.742    
 p065                 obsgroup      3.9200000E-03    3.9580000E-03   -3.8000000E-05     1.000000        3.9200000E-03    3.9580000E-03   -3.8000000E-05    1.5188930E-04     6583.742    
 p066                 obsgroup      3.9300000E-03    3.8500000E-03    8.0000000E-05     1.000000        3.9300000E-03    3.8500000E-03    8.0000000E-05    1.5188930E-04     6583.742    
 p067                 obsgroup      3.8300000E-03    3.7440000E-03    8.6000000E-05     1.000000        3.8300000E-03    3.7440000E-03    8.6000000E-05    1.5188930E-04     6583.742    
 p068                 obsgroup      3.6600000E-03    3.6420000E-03    1.8000000E-05     1.000000        3.6600000E-03    3.6420000E-03    1.8000000E-05    1.5188930E-04     6583.742    
 p069                 obsgroup      3.5700000E-03    3.5460000E-03    2.4000000E-05     1.000000        3.5700000E-03    3.5460000E-03    2.4000000E-05    1.5188930E-04     6583.742    
 p070                 obsgroup      3.4500000E-03    3.4530000E-03   -3.0000000E-06     1.000000        3.4500000E-03    3.4530000E-03   -3.0000000E-06    1.5188930E-04     6583.742    
 p071                 obsgroup      3.5000000E-03    3.3630000E-03    1.3700000E-04     1.000000        3.5000000E-03    3.3630000E-03    1.3700000E-04    1.5188930E-04     6583.742    
 p072                 obsgroup      3.4400000E-03    3.2790000E-03    1.6100000E-04     1.000000        3.4400000E-03    3.2790000E-03    1.6100000E-04    1.5188930E-04     6583.742    
 p073                 obsgroup      3.2800000E-03    3.1970000E-03    8.3000000E-05     1.000000        3.2800000E-03    3.1970000E-03    8.3000000E-05    1.5188930E-04     6583.742    
 p074                 obsgroup      3.2000000E-03    3.1190000E-03    8.1000000E-05     1.000000        3.2000000E-03    3.1190000E-03    8.1000000E-05    1.5188930E-04     6583.742    
 p075                 obsgroup      3.2100000E-03    3.0460000E-03    1.6400000E-04     1.000000        3.2100000E-03    3.0460000E-03    1.6400000E-04    1.5188930E-04     6583.742    
 p076                 obsgroup      3.0000000E-03    2.9720000E-03    2.8000000E-05     1.000000        3.0000000E-03    2.9720000E-03    2.8000000E-05    1.5188930E-04     6583.742    
 p077                 obsgroup      2.9000000E-03    2.9040000E-03   -4.0000000E-06     1.000000        2.9000000E-03    2.9040000E-03   -4.0000000E-06    1.5188930E-04     6583.742    
 p078                 obsgroup      2.9800000E-03    2.8370000E-03    1.4300000E-04     1.000000        2.9800000E-03    2.8370000E-03    1.4300000E-04    1.5188930E-04     6583.742    
 p079                 obsgroup      2.8500000E-03    2.7720000E-03    7.8000000E-05     1.000000        2.8500000E-03    2.7720000E-03    7.8000000E-05    1.5188930E-04     6583.742    
 p080                 obsgroup      2.9100000E-03    2.7100000E-03    2.0000000E-04     1.000000        2.9100000E-03    2.7100000E-03    2.0000000E-04    1.5188930E-04     6583.742    
 p081                 obsgroup      2.8200000E-03    2.6510000E-03    1.6900000E-04     1.000000        2.8200000E-03    2.6510000E-03    1.6900000E-04    1.5188930E-04     6583.742    
 p082                 obsgroup      2.6800000E-03    2.5940000E-03    8.6000000E-05     1.000000        2.6800000E-03    2.5940000E-03    8.6000000E-05    1.5188930E-04     6583.742    
 p083                 obsgroup      2.6500000E-03    2.5400000E-03    1.1000000E-04     1.000000        2.6500000E-03    2.5400000E-03    1.1000000E-04    1.5188930E-04     6583.742    
 p084                 obsgroup      2.6500000E-03    2.4910000E-03    1.5900000E-04     1.000000        2.6500000E-03    2.4910000E-03    1.5900000E-04    1.5188930E-04     6583.742    
 p085                 obsgroup      2.5100000E-03    2.4400000E-03    7.0000000E-05     1.000000        2.5100000E-03    2.4400000E-03    7.0000000E-05    1.5188930E-04     6583.742    
 p086                 obsgroup      2.3700000E-03    2.3100000E-03    6.0000000E-05     1.000000        2.3700000E-03    2.3100000E-03    6.0000000E-05    1.5188930E-04     6583.742    
 p087                 obsgroup      2.4400000E-03    2.2670000E-03    1.7300000E-04     1.000000        2.4400000E-03    2.2670000E-03    1.7300000E-04    1.5188930E-04     6583.742    
 p088                 obsgroup      2.2400000E-03    2.2250000E-03    1.5000000E-05     1.000000        2.2400000E-03    2.2250000E-03    1.5000000E-05    1.5188930E-04     6583.742    
 p089                 obsgroup      2.2700000E-03    2.1840000E-03    8.6000000E-05     1.000000        2.2700000E-03    2.1840000E-03    8.6000000E-05    1.5188930E-04     6583.742    
 p090                 obsgroup      2.3100000E-03    2.1470000E-03    1.6300000E-04     1.000000        2.3100000E-03    2.1470000E-03    1.6300000E-04    1.5188930E-04     6583.742    
 p091                 obsgroup      2.1900000E-03    2.1110000E-03    7.9000000E-05     1.000000        2.1900000E-03    2.1110000E-03    7.9000000E-05    1.5188930E-04     6583.742    
 p092                 obsgroup      2.1900000E-03    2.0750000E-03    1.1500000E-04     1.000000        2.1900000E-03    2.0750000E-03    1.1500000E-04    1.5188930E-04     6583.742    
 p093                 obsgroup      2.0900000E-03    2.0420000E-03    4.8000000E-05     1.000000        2.0900000E-03    2.0420000E-03    4.8000000E-05    1.5188930E-04     6583.742    
 p094                 obsgroup      2.1200000E-03    2.0080000E-03    1.1200000E-04     1.000000        2.1200000E-03    2.0080000E-03    1.1200000E-04    1.5188930E-04     6583.742    
 p095                 obsgroup      2.0200000E-03    1.9750000E-03    4.5000000E-05     1.000000        2.0200000E-03    1.9750000E-03    4.5000000E-05    1.5188930E-04     6583.742    
 p096                 obsgroup      1.9700000E-03    1.9440000E-03    2.6000000E-05     1.000000        1.9700000E-03    1.9440000E-03    2.6000000E-05    1.5188930E-04     6583.742    
 p097                 obsgroup      2.0000000E-03    1.9150000E-03    8.5000000E-05     1.000000        2.0000000E-03    1.9150000E-03    8.5000000E-05    1.5188930E-04     6583.742    
 p098                 obsgroup      2.0000000E-03    1.8860000E-03    1.1400000E-04     1.000000        2.0000000E-03    1.8860000E-03    1.1400000E-04    1.5188930E-04     6583.742    
 p099                 obsgroup      1.9500000E-03    1.8680000E-03    8.2000000E-05     1.000000        1.9500000E-03    1.8680000E-03    8.2000000E-05    1.5188930E-04     6583.742    
 p100                 obsgroup      1.9700000E-03    1.8410000E-03    1.2900000E-04     1.000000        1.9700000E-03    1.8410000E-03    1.2900000E-04    1.5188930E-04     6583.742    
 p101                 obsgroup      1.9300000E-03    1.8150000E-03    1.1500000E-04     1.000000        1.9300000E-03    1.8150000E-03    1.1500000E-04    1.5188930E-04     6583.742    
 p102                 obsgroup      1.9400000E-03    1.7900000E-03    1.5000000E-04     1.000000        1.9400000E-03    1.7900000E-03    1.5000000E-04    1.5188930E-04     6583.742    
 p103                 obsgroup      1.9000000E-03    1.7660000E-03    1.3400000E-04     1.000000        1.9000000E-03    1.7660000E-03    1.3400000E-04    1.5188930E-04     6583.742    
 p104                 obsgroup      1.8700000E-03    1.7220000E-03    1.4800000E-04     1.000000        1.8700000E-03    1.7220000E-03    1.4800000E-04    1.5188930E-04     6583.742    
 p105                 obsgroup      1.7400000E-03    1.6990000E-03    4.1000000E-05     1.000000        1.7400000E-03    1.6990000E-03    4.1000000E-05    1.5188930E-04     6583.742    
 p106                 obsgroup      1.7600000E-03    1.6780000E-03    8.2000000E-05     1.000000        1.7600000E-03    1.6780000E-03    8.2000000E-05    1.5188930E-04     6583.742    
 p107                 obsgroup      1.7100000E-03    1.6570000E-03    5.3000000E-05     1.000000        1.7100000E-03    1.6570000E-03    5.3000000E-05    1.5188930E-04     6583.742    
 p108                 obsgroup      1.7300000E-03    1.6370000E-03    9.3000000E-05     1.000000        1.7300000E-03    1.6370000E-03    9.3000000E-05    1.5188930E-04     6583.742    
 p109                 obsgroup      1.7100000E-03    1.6170000E-03    9.3000000E-05     1.000000        1.7100000E-03    1.6170000E-03    9.3000000E-05    1.5188930E-04     6583.742    
 p110                 obsgroup      1.6700000E-03    1.5980000E-03    7.2000000E-05     1.000000        1.6700000E-03    1.5980000E-03    7.2000000E-05    1.5188930E-04     6583.742    
 p111                 obsgroup      1.5900000E-03    1.5800000E-03    1.0000000E-05     1.000000        1.5900000E-03    1.5800000E-03    1.0000000E-05    1.5188930E-04     6583.742    
 p112                 obsgroup      1.5900000E-03    1.5610000E-03    2.9000000E-05     1.000000        1.5900000E-03    1.5610000E-03    2.9000000E-05    1.5188930E-04     6583.742    
 p113                 obsgroup      1.5200000E-03    1.5440000E-03   -2.4000000E-05     1.000000        1.5200000E-03    1.5440000E-03   -2.4000000E-05    1.5188930E-04     6583.742    
 p114                 obsgroup      1.5600000E-03    1.5270000E-03    3.3000000E-05     1.000000        1.5600000E-03    1.5270000E-03    3.3000000E-05    1.5188930E-04     6583.742    
 p115                 obsgroup      1.5000000E-03    1.5100000E-03   -1.0000000E-05     1.000000        1.5000000E-03    1.5100000E-03   -1.0000000E-05    1.5188930E-04     6583.742    
 p116                 obsgroup      1.4700000E-03    1.4940000E-03   -2.4000000E-05     1.000000        1.4700000E-03    1.4940000E-03   -2.4000000E-05    1.5188930E-04     6583.742    
 p117                 obsgroup      1.4300000E-03    1.4620000E-03   -3.2000000E-05     1.000000        1.4300000E-03    1.4620000E-03   -3.2000000E-05    1.5188930E-04     6583.742    
 p118                 obsgroup      1.4300000E-03    1.4330000E-03   -3.0000000E-06     1.000000        1.4300000E-03    1.4330000E-03   -3.0000000E-06    1.5188930E-04     6583.742    
 p119                 obsgroup      1.3900000E-03    1.4180000E-03   -2.8000000E-05     1.000000        1.3900000E-03    1.4180000E-03   -2.8000000E-05    1.5188930E-04     6583.742    
 p120                 obsgroup      1.3500000E-03    1.4040000E-03   -5.4000000E-05     1.000000        1.3500000E-03    1.4040000E-03   -5.4000000E-05    1.5188930E-04     6583.742    
 p121                 obsgroup      1.3500000E-03    1.3770000E-03   -2.7000000E-05     1.000000        1.3500000E-03    1.3770000E-03   -2.7000000E-05    1.5188930E-04     6583.742    
 p122                 obsgroup      1.3500000E-03    1.3640000E-03   -1.4000000E-05     1.000000        1.3500000E-03    1.3640000E-03   -1.4000000E-05    1.5188930E-04     6583.742    
 p123                 obsgroup      1.3500000E-03    1.3510000E-03   -1.0000000E-06     1.000000        1.3500000E-03    1.3510000E-03   -1.0000000E-06    1.5188930E-04     6583.742    
 p124                 obsgroup      1.2900000E-03    1.3380000E-03   -4.8000000E-05     1.000000        1.2900000E-03    1.3380000E-03   -4.8000000E-05    1.5188930E-04     6583.742    
 p125                 obsgroup      1.3200000E-03    1.3250000E-03   -5.0000000E-06     1.000000        1.3200000E-03    1.3250000E-03   -5.0000000E-06    1.5188930E-04     6583.742    
 p126                 obsgroup      1.2600000E-03    1.3130000E-03   -5.3000000E-05     1.000000        1.2600000E-03    1.3130000E-03   -5.3000000E-05    1.5188930E-04     6583.742    
 p127                 obsgroup      1.2600000E-03    1.3010000E-03   -4.1000000E-05     1.000000        1.2600000E-03    1.3010000E-03   -4.1000000E-05    1.5188930E-04     6583.742    
 p128                 obsgroup      1.2400000E-03    1.2890000E-03   -4.9000000E-05     1.000000        1.2400000E-03    1.2890000E-03   -4.9000000E-05    1.5188930E-04     6583.742    
 p129                 obsgroup      1.1700000E-03    1.2780000E-03   -1.0800000E-04     1.000000        1.1700000E-03    1.2780000E-03   -1.0800000E-04    1.5188930E-04     6583.742    
 p130                 obsgroup      1.1800000E-03    1.2660000E-03   -8.6000000E-05     1.000000        1.1800000E-03    1.2660000E-03   -8.6000000E-05    1.5188930E-04     6583.742    
 p131                 obsgroup      1.1900000E-03    1.2550000E-03   -6.5000000E-05     1.000000        1.1900000E-03    1.2550000E-03   -6.5000000E-05    1.5188930E-04     6583.742    
 p132                 obsgroup      1.1500000E-03    1.2440000E-03   -9.4000000E-05     1.000000        1.1500000E-03    1.2440000E-03   -9.4000000E-05    1.5188930E-04     6583.742    
 p133                 obsgroup      1.1500000E-03    1.2330000E-03   -8.3000000E-05     1.000000        1.1500000E-03    1.2330000E-03   -8.3000000E-05    1.5188930E-04     6583.742    
 p134                 obsgroup      1.1800000E-03    1.2230000E-03   -4.3000000E-05     1.000000        1.1800000E-03    1.2230000E-03   -4.3000000E-05    1.5188930E-04     6583.742    
 p135                 obsgroup      1.1900000E-03    1.2000000E-03   -1.0000000E-05     1.000000        1.1900000E-03    1.2000000E-03   -1.0000000E-05    1.5188930E-04     6583.742    
 p136                 obsgroup      1.0900000E-03    1.1890000E-03   -9.9000000E-05     1.000000        1.0900000E-03    1.1890000E-03   -9.9000000E-05    1.5188930E-04     6583.742    
 p137                 obsgroup      1.0900000E-03    1.1330000E-03   -4.3000000E-05     1.000000        1.0900000E-03    1.1330000E-03   -4.3000000E-05    1.5188930E-04     6583.742    
 p138                 obsgroup      1.0200000E-03    1.0900000E-03   -7.0000000E-05     1.000000        1.0200000E-03    1.0900000E-03   -7.0000000E-05    1.5188930E-04     6583.742    
 p139                 obsgroup      1.0600000E-03    1.0600000E-03     0.000000         1.000000        1.0600000E-03    1.0600000E-03     0.000000        1.5188930E-04     6583.742    
 p140                 obsgroup      1.0100000E-03    1.0500000E-03   -4.0000000E-05     1.000000        1.0100000E-03    1.0500000E-03   -4.0000000E-05    1.5188930E-04     6583.742    
 p141                 obsgroup      1.0400000E-03    1.0120000E-03    2.8000000E-05     1.000000        1.0400000E-03    1.0120000E-03    2.8000000E-05    1.5188930E-04     6583.742    
 p142                 obsgroup      1.0300000E-03    1.0030000E-03    2.7000000E-05     1.000000        1.0300000E-03    1.0030000E-03    2.7000000E-05    1.5188930E-04     6583.742    
 p143                 obsgroup      1.0900000E-03    9.9400000E-04    9.6000000E-05     1.000000        1.0900000E-03    9.9400000E-04    9.6000000E-05    1.5188930E-04     6583.742    
 p144                 obsgroup      1.0400000E-03    9.8500000E-04    5.5000000E-05     1.000000        1.0400000E-03    9.8500000E-04    5.5000000E-05    1.5188930E-04     6583.742    
 p145                 obsgroup      1.0600000E-03    9.5000000E-04    1.1000000E-04     1.000000        1.0600000E-03    9.5000000E-04    1.1000000E-04    1.5188930E-04     6583.742    
 p146                 obsgroup      9.9000000E-04    9.4200000E-04    4.8000000E-05     1.000000        9.9000000E-04    9.4200000E-04    4.8000000E-05    1.5188930E-04     6583.742    
 p147                 obsgroup      1.0700000E-03    9.3400000E-04    1.3600000E-04     1.000000        1.0700000E-03    9.3400000E-04    1.3600000E-04    1.5188930E-04     6583.742    
 p148                 obsgroup      9.6000000E-04    9.0900000E-04    5.1000000E-05     1.000000        9.6000000E-04    9.0900000E-04    5.1000000E-05    1.5188930E-04     6583.742    
 p149                 obsgroup      8.4000000E-04    8.4600000E-04   -6.0000000E-06     1.000000        8.4000000E-04    8.4600000E-04   -6.0000000E-06    1.5188930E-04     6583.742    
 p150                 obsgroup      7.6000000E-04    7.9500000E-04   -3.5000000E-05     1.000000        7.6000000E-04    7.9500000E-04   -3.5000000E-05    1.5188930E-04     6583.742    
 p151                 obsgroup      7.8000000E-04    7.8800000E-04   -8.0000000E-06     1.000000        7.8000000E-04    7.8800000E-04   -8.0000000E-06    1.5188930E-04     6583.742    
 p152                 obsgroup      7.1000000E-04    7.7900000E-04   -6.9000000E-05     1.000000        7.1000000E-04    7.7900000E-04   -6.9000000E-05    1.5188930E-04     6583.742    
 p153                 obsgroup      7.0000000E-04    7.6600000E-04   -6.6000000E-05     1.000000        7.0000000E-04    7.6600000E-04   -6.6000000E-05    1.5188930E-04     6583.742    
 p154                 obsgroup      6.9000000E-04    7.5900000E-04   -6.9000000E-05     1.000000        6.9000000E-04    7.5900000E-04   -6.9000000E-05    1.5188930E-04     6583.742    
 p155                 obsgroup      6.3000000E-04    7.5300000E-04   -1.2300000E-04     1.000000        6.3000000E-04    7.5300000E-04   -1.2300000E-04    1.5188930E-04     6583.742    
 p156                 obsgroup      6.5000000E-04    7.4600000E-04   -9.6000000E-05     1.000000        6.5000000E-04    7.4600000E-04   -9.6000000E-05    1.5188930E-04     6583.742    
 p157                 obsgroup      6.5000000E-04    7.4000000E-04   -9.0000000E-05     1.000000        6.5000000E-04    7.4000000E-04   -9.0000000E-05    1.5188930E-04     6583.742    
 p158                 obsgroup      6.4000000E-04    7.3400000E-04   -9.4000000E-05     1.000000        6.4000000E-04    7.3400000E-04   -9.4000000E-05    1.5188930E-04     6583.742    
 p159                 obsgroup      6.1000000E-04    7.2800000E-04   -1.1800000E-04     1.000000        6.1000000E-04    7.2800000E-04   -1.1800000E-04    1.5188930E-04     6583.742    
 p160                 obsgroup      6.3000000E-04    7.1700000E-04   -8.7000000E-05     1.000000        6.3000000E-04    7.1700000E-04   -8.7000000E-05    1.5188930E-04     6583.742    
 p161                 obsgroup      6.2000000E-04    7.1100000E-04   -9.1000000E-05     1.000000        6.2000000E-04    7.1100000E-04   -9.1000000E-05    1.5188930E-04     6583.742    
 p162                 obsgroup      5.6000000E-04    6.9900000E-04   -1.3900000E-04     1.000000        5.6000000E-04    6.9900000E-04   -1.3900000E-04    1.5188930E-04     6583.742    
 p163                 obsgroup      6.0000000E-04    6.9300000E-04   -9.3000000E-05     1.000000        6.0000000E-04    6.9300000E-04   -9.3000000E-05    1.5188930E-04     6583.742    
 p164                 obsgroup      6.0000000E-04    6.8700000E-04   -8.7000000E-05     1.000000        6.0000000E-04    6.8700000E-04   -8.7000000E-05    1.5188930E-04     6583.742    
 p165                 obsgroup      5.6000000E-04    6.8200000E-04   -1.2200000E-04     1.000000        5.6000000E-04    6.8200000E-04   -1.2200000E-04    1.5188930E-04     6583.742    
 p166                 obsgroup      5.9000000E-04    6.7600000E-04   -8.6000000E-05     1.000000        5.9000000E-04    6.7600000E-04   -8.6000000E-05    1.5188930E-04     6583.742    
 p167                 obsgroup      5.6000000E-04    6.6500000E-04   -1.0500000E-04     1.000000        5.6000000E-04    6.6500000E-04   -1.0500000E-04    1.5188930E-04     6583.742    
 p168                 obsgroup      5.6000000E-04    6.6000000E-04   -1.0000000E-04     1.000000        5.6000000E-04    6.6000000E-04   -1.0000000E-04    1.5188930E-04     6583.742    
 p169                 obsgroup      5.5000000E-04    6.5400000E-04   -1.0400000E-04     1.000000        5.5000000E-04    6.5400000E-04   -1.0400000E-04    1.5188930E-04     6583.742    
 p170                 obsgroup      5.5000000E-04    6.4900000E-04   -9.9000000E-05     1.000000        5.5000000E-04    6.4900000E-04   -9.9000000E-05    1.5188930E-04     6583.742    
 p171                 obsgroup      5.2000000E-04    6.4300000E-04   -1.2300000E-04     1.000000        5.2000000E-04    6.4300000E-04   -1.2300000E-04    1.5188930E-04     6583.742    
 p172                 obsgroup      5.0000000E-04    6.3800000E-04   -1.3800000E-04     1.000000        5.0000000E-04    6.3800000E-04   -1.3800000E-04    1.5188930E-04     6583.742    
 p173                 obsgroup      5.0000000E-04    6.3300000E-04   -1.3300000E-04     1.000000        5.0000000E-04    6.3300000E-04   -1.3300000E-04    1.5188930E-04     6583.742    
 p174                 obsgroup      5.0000000E-04    6.2700000E-04   -1.2700000E-04     1.000000        5.0000000E-04    6.2700000E-04   -1.2700000E-04    1.5188930E-04     6583.742    
 p175                 obsgroup      5.2000000E-04    6.1200000E-04   -9.2000000E-05     1.000000        5.2000000E-04    6.1200000E-04   -9.2000000E-05    1.5188930E-04     6583.742    
 p176                 obsgroup      4.7000000E-04    6.0700000E-04   -1.3700000E-04     1.000000        4.7000000E-04    6.0700000E-04   -1.3700000E-04    1.5188930E-04     6583.742    
 p177                 obsgroup      4.6000000E-04    6.0200000E-04   -1.4200000E-04     1.000000        4.6000000E-04    6.0200000E-04   -1.4200000E-04    1.5188930E-04     6583.742    
 p178                 obsgroup      4.7000000E-04    5.9700000E-04   -1.2700000E-04     1.000000        4.7000000E-04    5.9700000E-04   -1.2700000E-04    1.5188930E-04     6583.742    
 p179                 obsgroup      4.5000000E-04    5.9200000E-04   -1.4200000E-04     1.000000        4.5000000E-04    5.9200000E-04   -1.4200000E-04    1.5188930E-04     6583.742    
 p180                 obsgroup      4.6000000E-04    5.8700000E-04   -1.2700000E-04     1.000000        4.6000000E-04    5.8700000E-04   -1.2700000E-04    1.5188930E-04     6583.742    
 p181                 obsgroup      4.4000000E-04    5.8200000E-04   -1.4200000E-04     1.000000        4.4000000E-04    5.8200000E-04   -1.4200000E-04    1.5188930E-04     6583.742    
 p182                 obsgroup      4.2000000E-04    5.7700000E-04   -1.5700000E-04     1.000000        4.2000000E-04    5.7700000E-04   -1.5700000E-04    1.5188930E-04     6583.742    
 p183                 obsgroup      4.5000000E-04    5.7200000E-04   -1.2200000E-04     1.000000        4.5000000E-04    5.7200000E-04   -1.2200000E-04    1.5188930E-04     6583.742    
 p184                 obsgroup      4.5000000E-04    5.6200000E-04   -1.1200000E-04     1.000000        4.5000000E-04    5.6200000E-04   -1.1200000E-04    1.5188930E-04     6583.742    
 p185                 obsgroup      3.8000000E-04    5.5700000E-04   -1.7700000E-04     1.000000        3.8000000E-04    5.5700000E-04   -1.7700000E-04    1.5188930E-04     6583.742    
 p186                 obsgroup      3.6000000E-04    5.5300000E-04   -1.9300000E-04     1.000000        3.6000000E-04    5.5300000E-04   -1.9300000E-04    1.5188930E-04     6583.742    
 p187                 obsgroup      4.0000000E-04    5.4800000E-04   -1.4800000E-04     1.000000        4.0000000E-04    5.4800000E-04   -1.4800000E-04    1.5188930E-04     6583.742    
 p188                 obsgroup      3.7000000E-04    5.4300000E-04   -1.7300000E-04     1.000000        3.7000000E-04    5.4300000E-04   -1.7300000E-04    1.5188930E-04     6583.742    
 p189                 obsgroup      3.7000000E-04    5.3900000E-04   -1.6900000E-04     1.000000        3.7000000E-04    5.3900000E-04   -1.6900000E-04    1.5188930E-04     6583.742    
 p190                 obsgroup      3.6000000E-04    5.3400000E-04   -1.7400000E-04     1.000000        3.6000000E-04    5.3400000E-04   -1.7400000E-04    1.5188930E-04     6583.742    
 p191                 obsgroup      3.7000000E-04    5.3000000E-04   -1.6000000E-04     1.000000        3.7000000E-04    5.3000000E-04   -1.6000000E-04    1.5188930E-04     6583.742    
 p192                 obsgroup      3.2000000E-04    5.2500000E-04   -2.0500000E-04     1.000000        3.2000000E-04    5.2500000E-04   -2.0500000E-04    1.5188930E-04     6583.742    
 p193                 obsgroup      3.3000000E-04    5.2100000E-04   -1.9100000E-04     1.000000        3.3000000E-04    5.2100000E-04   -1.9100000E-04    1.5188930E-04     6583.742    
 p194                 obsgroup      3.7000000E-04    5.1600000E-04   -1.4600000E-04     1.000000        3.7000000E-04    5.1600000E-04   -1.4600000E-04    1.5188930E-04     6583.742    
 p195                 obsgroup      2.9000000E-04    5.0200000E-04   -2.1200000E-04     1.000000        2.9000000E-04    5.0200000E-04   -2.1200000E-04    1.5188930E-04     6583.742    
 p196                 obsgroup      2.9000000E-04    4.9800000E-04   -2.0800000E-04     1.000000        2.9000000E-04    4.9800000E-04   -2.0800000E-04    1.5188930E-04     6583.742    
 p197                 obsgroup      2.8000000E-04    4.9500000E-04   -2.1500000E-04     1.000000        2.8000000E-04    4.9500000E-04   -2.1500000E-04    1.5188930E-04     6583.742    
 p198                 obsgroup      2.1000000E-04    4.9100000E-04   -2.8100000E-04     1.000000        2.1000000E-04    4.9100000E-04   -2.8100000E-04    1.5188930E-04     6583.742    
 p199                 obsgroup      2.8000000E-04    4.8800000E-04   -2.0800000E-04     1.000000        2.8000000E-04    4.8800000E-04   -2.0800000E-04    1.5188930E-04     6583.742    
 p200                 obsgroup      2.4000000E-04    4.8100000E-04   -2.4100000E-04     1.000000        2.4000000E-04    4.8100000E-04   -2.4100000E-04    1.5188930E-04     6583.742    
 p201                 obsgroup      2.4000000E-04    4.7700000E-04   -2.3700000E-04     1.000000        2.4000000E-04    4.7700000E-04   -2.3700000E-04    1.5188930E-04     6583.742    
 p202                 obsgroup      2.6000000E-04    4.7000000E-04   -2.1000000E-04     1.000000        2.6000000E-04    4.7000000E-04   -2.1000000E-04    1.5188930E-04     6583.742    
 p203                 obsgroup      2.7000000E-04    4.6600000E-04   -1.9600000E-04     1.000000        2.7000000E-04    4.6600000E-04   -1.9600000E-04    1.5188930E-04     6583.742    
 p204                 obsgroup      2.3000000E-04    4.6300000E-04   -2.3300000E-04     1.000000        2.3000000E-04    4.6300000E-04   -2.3300000E-04    1.5188930E-04     6583.742    
 p205                 obsgroup      1.9000000E-04    4.5900000E-04   -2.6900000E-04     1.000000        1.9000000E-04    4.5900000E-04   -2.6900000E-04    1.5188930E-04     6583.742    
 p206                 obsgroup      1.9000000E-04    4.5600000E-04   -2.6600000E-04     1.000000        1.9000000E-04    4.5600000E-04   -2.6600000E-04    1.5188930E-04     6583.742    
 p207                 obsgroup      2.6000000E-04    4.5300000E-04   -1.9300000E-04     1.000000        2.6000000E-04    4.5300000E-04   -1.9300000E-04    1.5188930E-04     6583.742    
 p208                 obsgroup      2.6000000E-04    4.4900000E-04   -1.8900000E-04     1.000000        2.6000000E-04    4.4900000E-04   -1.8900000E-04    1.5188930E-04     6583.742    
 p209                 obsgroup      2.8000000E-04    4.4600000E-04   -1.6600000E-04     1.000000        2.8000000E-04    4.4600000E-04   -1.6600000E-04    1.5188930E-04     6583.742    
 p210                 obsgroup      2.8000000E-04    4.4300000E-04   -1.6300000E-04     1.000000        2.8000000E-04    4.4300000E-04   -1.6300000E-04    1.5188930E-04     6583.742    
 p211                 obsgroup      3.0000000E-04    4.3900000E-04   -1.3900000E-04     1.000000        3.0000000E-04    4.3900000E-04   -1.3900000E-04    1.5188930E-04     6583.742    
 p212                 obsgroup      3.3000000E-04    4.3600000E-04   -1.0600000E-04     1.000000        3.3000000E-04    4.3600000E-04   -1.0600000E-04    1.5188930E-04     6583.742    
 p213                 obsgroup      2.4000000E-04    4.3300000E-04   -1.9300000E-04     1.000000        2.4000000E-04    4.3300000E-04   -1.9300000E-04    1.5188930E-04     6583.742    
 p214                 obsgroup      3.1000000E-04    4.2600000E-04   -1.1600000E-04     1.000000        3.1000000E-04    4.2600000E-04   -1.1600000E-04    1.5188930E-04     6583.742    
 p215                 obsgroup      3.4000000E-04    4.2300000E-04   -8.3000000E-05     1.000000        3.4000000E-04    4.2300000E-04   -8.3000000E-05    1.5188930E-04     6583.742    
 p216                 obsgroup      2.6000000E-04    4.1700000E-04   -1.5700000E-04     1.000000        2.6000000E-04    4.1700000E-04   -1.5700000E-04    1.5188930E-04     6583.742    
 p217                 obsgroup      2.2000000E-04    4.1400000E-04   -1.9400000E-04     1.000000        2.2000000E-04    4.1400000E-04   -1.9400000E-04    1.5188930E-04     6583.742    
 p218                 obsgroup      2.7000000E-04    4.1100000E-04   -1.4100000E-04     1.000000        2.7000000E-04    4.1100000E-04   -1.4100000E-04    1.5188930E-04     6583.742    
 p219                 obsgroup      3.2000000E-04    4.0800000E-04   -8.8000000E-05     1.000000        3.2000000E-04    4.0800000E-04   -8.8000000E-05    1.5188930E-04     6583.742    
 p220                 obsgroup      2.7800000E-04    4.0400000E-04   -1.2600000E-04     1.000000        2.7800000E-04    4.0400000E-04   -1.2600000E-04    1.5188930E-04     6583.742    
 p221                 obsgroup      2.4700000E-04    4.0100000E-04   -1.5400000E-04     1.000000        2.4700000E-04    4.0100000E-04   -1.5400000E-04    1.5188930E-04     6583.742    
 p222                 obsgroup      1.9600000E-04    3.9800000E-04   -2.0200000E-04     1.000000        1.9600000E-04    3.9800000E-04   -2.0200000E-04    1.5188930E-04     6583.742    
 p223                 obsgroup      1.6500000E-04    3.9500000E-04   -2.3000000E-04     1.000000        1.6500000E-04    3.9500000E-04   -2.3000000E-04    1.5188930E-04     6583.742    
 p224                 obsgroup      2.2700000E-04    3.9200000E-04   -1.6500000E-04     1.000000        2.2700000E-04    3.9200000E-04   -1.6500000E-04    1.5188930E-04     6583.742    
 p225                 obsgroup      1.9600000E-04    3.9000000E-04   -1.9400000E-04     1.000000        1.9600000E-04    3.9000000E-04   -1.9400000E-04    1.5188930E-04     6583.742    
 p226                 obsgroup      1.6500000E-04    3.8700000E-04   -2.2200000E-04     1.000000        1.6500000E-04    3.8700000E-04   -2.2200000E-04    1.5188930E-04     6583.742    
 p227                 obsgroup      2.0600000E-04    3.8400000E-04   -1.7800000E-04     1.000000        2.0600000E-04    3.8400000E-04   -1.7800000E-04    1.5188930E-04     6583.742    
 p228                 obsgroup      3.9100000E-04    3.8100000E-04    1.0000000E-05     1.000000        3.9100000E-04    3.8100000E-04    1.0000000E-05    1.5188930E-04     6583.742    
 p229                 obsgroup      1.7500000E-04    3.7800000E-04   -2.0300000E-04     1.000000        1.7500000E-04    3.7800000E-04   -2.0300000E-04    1.5188930E-04     6583.742    
 p230                 obsgroup      1.2400000E-04    3.7500000E-04   -2.5100000E-04     1.000000        1.2400000E-04    3.7500000E-04   -2.5100000E-04    1.5188930E-04     6583.742    
 p231                 obsgroup      1.4400000E-04    3.7200000E-04   -2.2800000E-04     1.000000        1.4400000E-04    3.7200000E-04   -2.2800000E-04    1.5188930E-04     6583.742    
 p232                 obsgroup      2.7800000E-04    3.6900000E-04   -9.1000000E-05     1.000000        2.7800000E-04    3.6900000E-04   -9.1000000E-05    1.5188930E-04     6583.742    
 p233                 obsgroup      1.4400000E-04    3.6700000E-04   -2.2300000E-04     1.000000        1.4400000E-04    3.6700000E-04   -2.2300000E-04    1.5188930E-04     6583.742    
 p234                 obsgroup      1.6500000E-04    3.6500000E-04   -2.0000000E-04     1.000000        1.6500000E-04    3.6500000E-04   -2.0000000E-04    1.5188930E-04     6583.742    
 p235                 obsgroup      8.2000000E-05    3.6200000E-04   -2.8000000E-04     1.000000        8.2000000E-05    3.6200000E-04   -2.8000000E-04    1.5188930E-04     6583.742    
 p236                 obsgroup      8.2000000E-05    3.5900000E-04   -2.7700000E-04     1.000000        8.2000000E-05    3.5900000E-04   -2.7700000E-04    1.5188930E-04     6583.742    
 p237                 obsgroup      1.4400000E-04    3.5600000E-04   -2.1200000E-04     1.000000        1.4400000E-04    3.5600000E-04   -2.1200000E-04    1.5188930E-04     6583.742    
 p238                 obsgroup      8.2000000E-05    3.5400000E-04   -2.7200000E-04     1.000000        8.2000000E-05    3.5400000E-04   -2.7200000E-04    1.5188930E-04     6583.742    
 p239                 obsgroup      8.2000000E-05    3.5100000E-04   -2.6900000E-04     1.000000        8.2000000E-05    3.5100000E-04   -2.6900000E-04    1.5188930E-04     6583.742    
 p240                 obsgroup      5.2000000E-05    3.4800000E-04   -2.9600000E-04     1.000000        5.2000000E-05    3.4800000E-04   -2.9600000E-04    1.5188930E-04     6583.742    
 p241                 obsgroup      1.1300000E-04    3.4600000E-04   -2.3300000E-04     1.000000        1.1300000E-04    3.4600000E-04   -2.3300000E-04    1.5188930E-04     6583.742    
 p242                 obsgroup      2.1000000E-05    3.4300000E-04   -3.2200000E-04     1.000000        2.1000000E-05    3.4300000E-04   -3.2200000E-04    1.5188930E-04     6583.742    
 p243                 obsgroup      1.0300000E-04    3.4000000E-04   -2.3700000E-04     1.000000        1.0300000E-04    3.4000000E-04   -2.3700000E-04    1.5188930E-04     6583.742    
 p244                 obsgroup      9.3000000E-05    3.3800000E-04   -2.4500000E-04     1.000000        9.3000000E-05    3.3800000E-04   -2.4500000E-04    1.5188930E-04     6583.742    
 p245                 obsgroup      2.1000000E-05    3.3500000E-04   -3.1400000E-04     1.000000        2.1000000E-05    3.3500000E-04   -3.1400000E-04    1.5188930E-04     6583.742    
 p246                 obsgroup      5.2000000E-05    3.3300000E-04   -2.8100000E-04     1.000000        5.2000000E-05    3.3300000E-04   -2.8100000E-04    1.5188930E-04     6583.742    
 p247                 obsgroup      3.1000000E-05    3.3000000E-04   -2.9900000E-04     1.000000        3.1000000E-05    3.3000000E-04   -2.9900000E-04    1.5188930E-04     6583.742    
 p248                 obsgroup      4.1000000E-05    3.2800000E-04   -2.8700000E-04     1.000000        4.1000000E-05    3.2800000E-04   -2.8700000E-04    1.5188930E-04     6583.742    
 p249                 obsgroup      4.1000000E-05    3.2500000E-04   -2.8400000E-04     1.000000        4.1000000E-05    3.2500000E-04   -2.8400000E-04    1.5188930E-04     6583.742    
 p250                 obsgroup       0.000000        3.2000000E-04   -3.2000000E-04     1.000000         0.000000        3.2000000E-04   -3.2000000E-04    1.5188930E-04     6583.742    
 p251                 obsgroup      5.2000000E-05    3.1900000E-04   -2.6700000E-04     1.000000        5.2000000E-05    3.1900000E-04   -2.6700000E-04    1.5188930E-04     6583.742    
 p252                 obsgroup      3.1000000E-05    3.1600000E-04   -2.8500000E-04     1.000000        3.1000000E-05    3.1600000E-04   -2.8500000E-04    1.5188930E-04     6583.742    
 p253                 obsgroup      6.2000000E-05    3.1400000E-04   -2.5200000E-04     1.000000        6.2000000E-05    3.1400000E-04   -2.5200000E-04    1.5188930E-04     6583.742    
 p254                 obsgroup      2.1000000E-05    3.1100000E-04   -2.9000000E-04     1.000000        2.1000000E-05    3.1100000E-04   -2.9000000E-04    1.5188930E-04     6583.742    
 p255                 obsgroup      1.0000000E-05    3.0900000E-04   -2.9900000E-04     1.000000        1.0000000E-05    3.0900000E-04   -2.9900000E-04    1.5188930E-04     6583.742    
 p256                 obsgroup      7.2000000E-05    3.0700000E-04   -2.3500000E-04     1.000000        7.2000000E-05    3.0700000E-04   -2.3500000E-04    1.5188930E-04     6583.742    
 p257                 obsgroup      8.2000000E-05    3.0400000E-04   -2.2200000E-04     1.000000        8.2000000E-05    3.0400000E-04   -2.2200000E-04    1.5188930E-04     6583.742    
 p258                 obsgroup      3.1000000E-05    3.0200000E-04   -2.7100000E-04     1.000000        3.1000000E-05    3.0200000E-04   -2.7100000E-04    1.5188930E-04     6583.742    
 p259                 obsgroup      6.2000000E-05    3.0000000E-04   -2.3800000E-04     1.000000        6.2000000E-05    3.0000000E-04   -2.3800000E-04    1.5188930E-04     6583.742    
