 Name                 Group          Measured         Modelled         Residual         Weight       Weight*Measured    Weight*Modelled  Weight*Residual  Measurement_sd   Natural_weight
 p001                 obsgroup      6.2830000E-04    2.0000000E-04    4.2830000E-04     1.000000        6.2830000E-04    2.0000000E-04    4.2830000E-04    3.7931167E-04     2636.354    
 p002                 obsgroup      6.6950000E-04    2.0000000E-04    4.6950000E-04     1.000000        6.6950000E-04    2.0000000E-04    4.6950000E-04    3.7931167E-04     2636.354    
 p003                 obsgroup      6.4890000E-04    2.0000000E-04    4.4890000E-04     1.000000        6.4890000E-04    2.0000000E-04    4.4890000E-04    3.7931167E-04     2636.354    
 p004                 obsgroup      7.8280000E-04    2.0300000E-04    5.7980000E-04     1.000000        7.8280000E-04    2.0300000E-04    5.7980000E-04    3.7931167E-04     2636.354    
 p005                 obsgroup      7.9310000E-04    2.0700000E-04    5.8610000E-04     1.000000        7.9310000E-04    2.0700000E-04    5.8610000E-04    3.7931167E-04     2636.354    
 p006                 obsgroup      8.4460000E-04    2.1700000E-04    6.2760000E-04     1.000000        8.4460000E-04    2.1700000E-04    6.2760000E-04    3.7931167E-04     2636.354    
 p007                 obsgroup      9.2700000E-04    2.3300000E-04    6.9400000E-04     1.000000        9.2700000E-04    2.3300000E-04    6.9400000E-04    3.7931167E-04     2636.354    
 p008                 obsgroup      9.0640000E-04    2.6100000E-04    6.4540000E-04     1.000000        9.0640000E-04    2.6100000E-04    6.4540000E-04    3.7931167E-04     2636.354    
 p009                 obsgroup      9.7850000E-04    3.0200000E-04    6.7650000E-04     1.000000        9.7850000E-04    3.0200000E-04    6.7650000E-04    3.7931167E-04     2636.354    
 p010                 obsgroup      9.0640000E-04    3.5900000E-04    5.4740000E-04     1.000000        9.0640000E-04    3.5900000E-04    5.4740000E-04    3.7931167E-04     2636.354    
 p011                 obsgroup      9.0640000E-04    4.3300000E-04    4.7340000E-04     1.000000        9.0640000E-04    4.3300000E-04    4.7340000E-04    3.7931167E-04     2636.354    
 p012                 obsgroup      9.7850000E-04    5.2500000E-04    4.5350000E-04     1.000000        9.7850000E-04    5.2500000E-04    4.5350000E-04    3.7931167E-04     2636.354    
 p013                 obsgroup      9.0640000E-04    6.3600000E-04    2.7040000E-04     1.000000        9.0640000E-04    6.3600000E-04    2.7040000E-04    3.7931167E-04     2636.354    
 p014                 obsgroup      1.1639000E-03    7.6300000E-04    4.0090000E-04     1.000000        1.1639000E-03    7.6300000E-04    4.0090000E-04    3.7931167E-04     2636.354    
 p015                 obsgroup      1.1948000E-03    9.0400000E-04    2.9080000E-04     1.000000        1.1948000E-03    9.0400000E-04    2.9080000E-04    3.7931167E-04     2636.354    
 p016                 obsgroup      1.1227000E-03    1.0550000E-03    6.7700000E-05     1.000000        1.1227000E-03    1.0550000E-03    6.7700000E-05    3.7931167E-04     2636.354    
 p017                 obsgroup      1.2566000E-03    1.2180000E-03    3.8600000E-05     1.000000        1.2566000E-03    1.2180000E-03    3.8600000E-05    3.7931167E-04     2636.354    
 p018                 obsgroup      1.5759000E-03    1.3760000E-03    1.9990000E-04     1.000000        1.5759000E-03    1.3760000E-03    1.9990000E-04    3.7931167E-04     2636.354    
 p019                 obsgroup      1.6377000E-03    1.5440000E-03    9.3700000E-05     1.000000        1.6377000E-03    1.5440000E-03    9.3700000E-05    3.7931167E-04     2636.354    
 p020                 obsgroup      1.5656000E-03    1.7120000E-03   -1.4640000E-04     1.000000        1.5656000E-03    1.7120000E-03   -1.4640000E-04    3.7931167E-04     2636.354    
 p021                 obsgroup      1.8334000E-03    1.8770000E-03   -4.3600000E-05     1.000000        1.8334000E-03    1.8770000E-03   -4.3600000E-05    3.7931167E-04     2636.354    
 p022                 obsgroup      2.0806000E-03    2.0410000E-03    3.9600000E-05     1.000000        2.0806000E-03    2.0410000E-03    3.9600000E-05    3.7931167E-04     2636.354    
 p023                 obsgroup      2.2969000E-03    2.1960000E-03    1.0090000E-04     1.000000        2.2969000E-03    2.1960000E-03    1.0090000E-04    3.7931167E-04     2636.354    
 p024                 obsgroup      2.1836000E-03    2.3500000E-03   -1.6640000E-04     1.000000        2.1836000E-03    2.3500000E-03   -1.6640000E-04    3.7931167E-04     2636.354    
 p025                 obsgroup      2.5853000E-03    2.4960000E-03    8.9300000E-05     1.000000        2.5853000E-03    2.4960000E-03    8.9300000E-05    3.7931167E-04     2636.354    
 p026                 obsgroup      2.6883000E-03    2.6380000E-03    5.0300000E-05     1.000000        2.6883000E-03    2.6380000E-03    5.0300000E-05    3.7931167E-04     2636.354    
 p027                 obsgroup      2.8943000E-03    2.7740000E-03    1.2030000E-04     1.000000        2.8943000E-03    2.7740000E-03    1.2030000E-04    3.7931167E-04     2636.354    
 p028                 obsgroup      2.8943000E-03    2.9010000E-03   -6.7000000E-06     1.000000        2.8943000E-03    2.9010000E-03   -6.7000000E-06    3.7931167E-04     2636.354    
 p029                 obsgroup      2.9973000E-03    3.0850000E-03   -8.7700000E-05     1.000000        2.9973000E-03    3.0850000E-03   -8.7700000E-05    3.7931167E-04     2636.354    
 p030                 obsgroup      3.2033000E-03    3.4140000E-03   -2.1070000E-04     1.000000        3.2033000E-03    3.4140000E-03   -2.1070000E-04    3.7931167E-04     2636.354    
 p031                 obsgroup      3.3063000E-03    3.5650000E-03   -2.5870000E-04     1.000000        3.3063000E-03    3.5650000E-03   -2.5870000E-04    3.7931167E-04     2636.354    
 p032                 obsgroup      3.2033000E-03    3.7040000E-03   -5.0070000E-04     1.000000        3.2033000E-03    3.7040000E-03   -5.0070000E-04    3.7931167E-04     2636.354    
 p033                 obsgroup      3.5123000E-03    3.8340000E-03   -3.2170000E-04     1.000000        3.5123000E-03    3.8340000E-03   -3.2170000E-04    3.7931167E-04     2636.354    
 p034                 obsgroup      3.9243000E-03    3.9560000E-03   -3.1700000E-05     1.000000        3.9243000E-03    3.9560000E-03   -3.1700000E-05    3.7931167E-04     2636.354    
 p035                 obsgroup      4.1303000E-03    4.0720000E-03    5.8300000E-05     1.000000        4.1303000E-03    4.0720000E-03    5.8300000E-05    3.7931167E-04     2636.354    
 p036                 obsgroup      3.7183000E-03    4.1810000E-03   -4.6270000E-04     1.000000        3.7183000E-03    4.1810000E-03   -4.6270000E-04    3.7931167E-04     2636.354    
 p037                 obsgroup      3.9243000E-03    4.2860000E-03   -3.6170000E-04     1.000000        3.9243000E-03    4.2860000E-03   -3.6170000E-04    3.7931167E-04     2636.354    
 p038                 obsgroup      4.2333000E-03    4.3870000E-03   -1.5370000E-04     1.000000        4.2333000E-03    4.3870000E-03   -1.5370000E-04    3.7931167E-04     2636.354    
 p039                 obsgroup      4.4393000E-03    4.4820000E-03   -4.2700000E-05     1.000000        4.4393000E-03    4.4820000E-03   -4.2700000E-05    3.7931167E-04     2636.354    
 p040                 obsgroup      4.2333000E-03    4.5730000E-03   -3.3970000E-04     1.000000        4.2333000E-03    4.5730000E-03   -3.3970000E-04    3.7931167E-04     2636.354    
 p041                 obsgroup      4.5423000E-03    4.6600000E-03   -1.1770000E-04     1.000000        4.5423000E-03    4.6600000E-03   -1.1770000E-04    3.7931167E-04     2636.354    
 p042                 obsgroup      5.0573000E-03    4.7460000E-03    3.1130000E-04     1.000000        5.0573000E-03    4.7460000E-03    3.1130000E-04    3.7931167E-04     2636.354    
 p043                 obsgroup      5.0573000E-03    4.9020000E-03    1.5530000E-04     1.000000        5.0573000E-03    4.9020000E-03    1.5530000E-04    3.7931167E-04     2636.354    
 p044                 obsgroup      4.9543000E-03    4.9770000E-03   -2.2700000E-05     1.000000        4.9543000E-03    4.9770000E-03   -2.2700000E-05    3.7931167E-04     2636.354    
 p045                 obsgroup      4.7483000E-03    5.0480000E-03   -2.9970000E-04     1.000000        4.7483000E-03    5.0480000E-03   -2.9970000E-04    3.7931167E-04     2636.354    
 p046                 obsgroup      4.9543000E-03    5.1150000E-03   -1.6070000E-04     1.000000        4.9543000E-03    5.1150000E-03   -1.6070000E-04    3.7931167E-04     2636.354    
 p047                 obsgroup      4.8513000E-03    5.1790000E-03   -3.2770000E-04     1.000000        4.8513000E-03    5.1790000E-03   -3.2770000E-04    3.7931167E-04     2636.354    
 p048                 obsgroup      5.0573000E-03    5.2410000E-03   -1.8370000E-04     1.000000        5.0573000E-03    5.2410000E-03   -1.8370000E-04    3.7931167E-04     2636.354    
 p049                 obsgroup      5.5723000E-03    5.2980000E-03    2.7430000E-04     1.000000        5.5723000E-03    5.2980000E-03    2.7430000E-04    3.7931167E-04     2636.354    
 p050                 obsgroup      5.2633000E-03    5.3530000E-03   -8.9700000E-05     1.000000        5.2633000E-03    5.3530000E-03   -8.9700000E-05    3.7931167E-04     2636.354    
 p051                 obsgroup      5.4693000E-03    5.4050000E-03    6.4300000E-05     1.000000        5.4693000E-03    5.4050000E-03    6.4300000E-05    3.7931167E-04     2636.354    
 p052                 obsgroup      5.6753000E-03    5.4550000E-03    2.2030000E-04     1.000000        5.6753000E-03    5.4550000E-03    2.2030000E-04    3.7931167E-04     2636.354    
 p053                 obsgroup      5.4693000E-03    5.5010000E-03   -3.1700000E-05     1.000000        5.4693000E-03    5.5010000E-03   -3.1700000E-05    3.7931167E-04     2636.354    
 p054                 obsgroup      5.4693000E-03    5.5450000E-03   -7.5700000E-05     1.000000        5.4693000E-03    5.5450000E-03   -7.5700000E-05    3.7931167E-04     2636.354    
 p055                 obsgroup      5.7783000E-03    5.5860000E-03    1.9230000E-04     1.000000        5.7783000E-03    5.5860000E-03    1.9230000E-04    3.7931167E-04     2636.354    
 p056                 obsgroup      5.6753000E-03    5.6250000E-03    5.0300000E-05     1.000000        5.6753000E-03    5.6250000E-03    5.0300000E-05    3.7931167E-04     2636.354    
 p057                 obsgroup      5.7783000E-03    5.6610000E-03    1.1730000E-04     1.000000        5.7783000E-03    5.6610000E-03    1.1730000E-04    3.7931167E-04     2636.354    
 p058                 obsgroup      6.0873000E-03    5.6940000E-03    3.9330000E-04     1.000000        6.0873000E-03    5.6940000E-03    3.9330000E-04    3.7931167E-04     2636.354    
 p059                 obsgroup      5.7783000E-03    5.7260000E-03    5.2300000E-05     1.000000        5.7783000E-03    5.7260000E-03    5.2300000E-05    3.7931167E-04     2636.354    
 p060                 obsgroup      5.9843000E-03    5.7540000E-03    2.3030000E-04     1.000000        5.9843000E-03    5.7540000E-03    2.3030000E-04    3.7931167E-04     2636.354    
 p061                 obsgroup      5.9843000E-03    5.8030000E-03    1.8130000E-04     1.000000        5.9843000E-03    5.8030000E-03    1.8130000E-04    3.7931167E-04     2636.354    
 p062                 obsgroup      6.0873000E-03    5.8250000E-03    2.6230000E-04     1.000000        6.0873000E-03    5.8250000E-03    2.6230000E-04    3.7931167E-04     2636.354    
 p063                 obsgroup      6.2933000E-03    5.8430000E-03    4.5030000E-04     1.000000        6.2933000E-03    5.8430000E-03    4.5030000E-04    3.7931167E-04     2636.354    
 p064                 obsgroup      5.8813000E-03    5.8610000E-03    2.0300000E-05     1.000000        5.8813000E-03    5.8610000E-03    2.0300000E-05    3.7931167E-04     2636.354    
 p065                 obsgroup      6.2933000E-03    5.8760000E-03    4.1730000E-04     1.000000        6.2933000E-03    5.8760000E-03    4.1730000E-04    3.7931167E-04     2636.354    
 p066                 obsgroup      5.8813000E-03    5.8890000E-03   -7.7000000E-06     1.000000        5.8813000E-03    5.8890000E-03   -7.7000000E-06    3.7931167E-04     2636.354    
 p067                 obsgroup      6.0873000E-03    5.9000000E-03    1.8730000E-04     1.000000        6.0873000E-03    5.9000000E-03    1.8730000E-04    3.7931167E-04     2636.354    
 p068                 obsgroup      6.1903000E-03    5.9090000E-03    2.8130000E-04     1.000000        6.1903000E-03    5.9090000E-03    2.8130000E-04    3.7931167E-04     2636.354    
 p069                 obsgroup      6.6023000E-03    5.9160000E-03    6.8630000E-04     1.000000        6.6023000E-03    5.9160000E-03    6.8630000E-04    3.7931167E-04     2636.354    
 p070                 obsgroup      6.4993000E-03    5.9220000E-03    5.7730000E-04     1.000000        6.4993000E-03    5.9220000E-03    5.7730000E-04    3.7931167E-04     2636.354    
 p071                 obsgroup      6.0873000E-03    5.9250000E-03    1.6230000E-04     1.000000        6.0873000E-03    5.9250000E-03    1.6230000E-04    3.7931167E-04     2636.354    
 p072                 obsgroup      6.3963000E-03    5.9270000E-03    4.6930000E-04     1.000000        6.3963000E-03    5.9270000E-03    4.6930000E-04    3.7931167E-04     2636.354    
 p073                 obsgroup      6.4993000E-03    5.9270000E-03    5.7230000E-04     1.000000        6.4993000E-03    5.9270000E-03    5.7230000E-04    3.7931167E-04     2636.354    
 p074                 obsgroup      6.4993000E-03    5.9250000E-03    5.7430000E-04     1.000000        6.4993000E-03    5.9250000E-03    5.7430000E-04    3.7931167E-04     2636.354    
 p075                 obsgroup      6.1903000E-03    5.9220000E-03    2.6830000E-04     1.000000        6.1903000E-03    5.9220000E-03    2.6830000E-04    3.7931167E-04     2636.354    
 p076                 obsgroup      6.3963000E-03    5.9170000E-03    4.7930000E-04     1.000000        6.3963000E-03    5.9170000E-03    4.7930000E-04    3.7931167E-04     2636.354    
 p077                 obsgroup      6.3963000E-03    5.9110000E-03    4.8530000E-04     1.000000        6.3963000E-03    5.9110000E-03    4.8530000E-04    3.7931167E-04     2636.354    
 p078                 obsgroup      6.2933000E-03    5.9030000E-03    3.9030000E-04     1.000000        6.2933000E-03    5.9030000E-03    3.9030000E-04    3.7931167E-04     2636.354    
 p079                 obsgroup      6.3963000E-03    5.8930000E-03    5.0330000E-04     1.000000        6.3963000E-03    5.8930000E-03    5.0330000E-04    3.7931167E-04     2636.354    
 p080                 obsgroup      6.6023000E-03    5.8830000E-03    7.1930000E-04     1.000000        6.6023000E-03    5.8830000E-03    7.1930000E-04    3.7931167E-04     2636.354    
 p081                 obsgroup      6.4993000E-03    5.8710000E-03    6.2830000E-04     1.000000        6.4993000E-03    5.8710000E-03    6.2830000E-04    3.7931167E-04     2636.354    
 p082                 obsgroup      5.7783000E-03    5.8570000E-03   -7.8700000E-05     1.000000        5.7783000E-03    5.8570000E-03   -7.8700000E-05    3.7931167E-04     2636.354    
 p083                 obsgroup      6.3963000E-03    5.8430000E-03    5.5330000E-04     1.000000        6.3963000E-03    5.8430000E-03    5.5330000E-04    3.7931167E-04     2636.354    
 p084                 obsgroup      5.7783000E-03    5.8280000E-03   -4.9700000E-05     1.000000        5.7783000E-03    5.8280000E-03   -4.9700000E-05    3.7931167E-04     2636.354    
 p085                 obsgroup      6.0873000E-03    5.8110000E-03    2.7630000E-04     1.000000        6.0873000E-03    5.8110000E-03    2.7630000E-04    3.7931167E-04     2636.354    
 p086                 obsgroup      6.1903000E-03    5.7570000E-03    4.3330000E-04     1.000000        6.1903000E-03    5.7570000E-03    4.3330000E-04    3.7931167E-04     2636.354    
 p087                 obsgroup      5.9843000E-03    5.7360000E-03    2.4830000E-04     1.000000        5.9843000E-03    5.7360000E-03    2.4830000E-04    3.7931167E-04     2636.354    
 p088                 obsgroup      5.6753000E-03    5.7140000E-03   -3.8700000E-05     1.000000        5.6753000E-03    5.7140000E-03   -3.8700000E-05    3.7931167E-04     2636.354    
 p089                 obsgroup      5.9843000E-03    5.6900000E-03    2.9430000E-04     1.000000        5.9843000E-03    5.6900000E-03    2.9430000E-04    3.7931167E-04     2636.354    
 p090                 obsgroup      5.6753000E-03    5.6670000E-03    8.3000000E-06     1.000000        5.6753000E-03    5.6670000E-03    8.3000000E-06    3.7931167E-04     2636.354    
 p091                 obsgroup      5.8813000E-03    5.6430000E-03    2.3830000E-04     1.000000        5.8813000E-03    5.6430000E-03    2.3830000E-04    3.7931167E-04     2636.354    
 p092                 obsgroup      5.6753000E-03    5.6170000E-03    5.8300000E-05     1.000000        5.6753000E-03    5.6170000E-03    5.8300000E-05    3.7931167E-04     2636.354    
 p093                 obsgroup      5.7783000E-03    5.5910000E-03    1.8730000E-04     1.000000        5.7783000E-03    5.5910000E-03    1.8730000E-04    3.7931167E-04     2636.354    
 p094                 obsgroup      5.5723000E-03    5.5630000E-03    9.3000000E-06     1.000000        5.5723000E-03    5.5630000E-03    9.3000000E-06    3.7931167E-04     2636.354    
 p095                 obsgroup      5.4693000E-03    5.5350000E-03   -6.5700000E-05     1.000000        5.4693000E-03    5.5350000E-03   -6.5700000E-05    3.7931167E-04     2636.354    
 p096                 obsgroup      5.5723000E-03    5.5060000E-03    6.6300000E-05     1.000000        5.5723000E-03    5.5060000E-03    6.6300000E-05    3.7931167E-04     2636.354    
 p097                 obsgroup      5.2633000E-03    5.4770000E-03   -2.1370000E-04     1.000000        5.2633000E-03    5.4770000E-03   -2.1370000E-04    3.7931167E-04     2636.354    
 p098                 obsgroup      5.5723000E-03    5.4470000E-03    1.2530000E-04     1.000000        5.5723000E-03    5.4470000E-03    1.2530000E-04    3.7931167E-04     2636.354    
 p099                 obsgroup      5.4693000E-03    5.4260000E-03    4.3300000E-05     1.000000        5.4693000E-03    5.4260000E-03    4.3300000E-05    3.7931167E-04     2636.354    
 p100                 obsgroup      5.2633000E-03    5.3950000E-03   -1.3170000E-04     1.000000        5.2633000E-03    5.3950000E-03   -1.3170000E-04    3.7931167E-04     2636.354    
 p101                 obsgroup      5.3663000E-03    5.3640000E-03    2.3000000E-06     1.000000        5.3663000E-03    5.3640000E-03    2.3000000E-06    3.7931167E-04     2636.354    
 p102                 obsgroup      5.5723000E-03    5.3330000E-03    2.3930000E-04     1.000000        5.5723000E-03    5.3330000E-03    2.3930000E-04    3.7931167E-04     2636.354    
 p103                 obsgroup      5.0573000E-03    5.3010000E-03   -2.4370000E-04     1.000000        5.0573000E-03    5.3010000E-03   -2.4370000E-04    3.7931167E-04     2636.354    
 p104                 obsgroup      5.2633000E-03    5.2380000E-03    2.5300000E-05     1.000000        5.2633000E-03    5.2380000E-03    2.5300000E-05    3.7931167E-04     2636.354    
 p105                 obsgroup      5.1603000E-03    5.2040000E-03   -4.3700000E-05     1.000000        5.1603000E-03    5.2040000E-03   -4.3700000E-05    3.7931167E-04     2636.354    
 p106                 obsgroup      5.4693000E-03    5.1700000E-03    2.9930000E-04     1.000000        5.4693000E-03    5.1700000E-03    2.9930000E-04    3.7931167E-04     2636.354    
 p107                 obsgroup      5.1603000E-03    5.1350000E-03    2.5300000E-05     1.000000        5.1603000E-03    5.1350000E-03    2.5300000E-05    3.7931167E-04     2636.354    
 p108                 obsgroup      5.0573000E-03    5.1000000E-03   -4.2700000E-05     1.000000        5.0573000E-03    5.1000000E-03   -4.2700000E-05    3.7931167E-04     2636.354    
 p109                 obsgroup      4.9543000E-03    5.0650000E-03   -1.1070000E-04     1.000000        4.9543000E-03    5.0650000E-03   -1.1070000E-04    3.7931167E-04     2636.354    
 p110                 obsgroup      5.0573000E-03    5.0290000E-03    2.8300000E-05     1.000000        5.0573000E-03    5.0290000E-03    2.8300000E-05    3.7931167E-04     2636.354    
 p111                 obsgroup      4.6453000E-03    4.9950000E-03   -3.4970000E-04     1.000000        4.6453000E-03    4.9950000E-03   -3.4970000E-04    3.7931167E-04     2636.354    
 p112                 obsgroup      4.5423000E-03    4.9580000E-03   -4.1570000E-04     1.000000        4.5423000E-03    4.9580000E-03   -4.1570000E-04    3.7931167E-04     2636.354    
 p113                 obsgroup      4.6453000E-03    4.9220000E-03   -2.7670000E-04     1.000000        4.6453000E-03    4.9220000E-03   -2.7670000E-04    3.7931167E-04     2636.354    
 p114                 obsgroup      4.7483000E-03    4.8860000E-03   -1.3770000E-04     1.000000        4.7483000E-03    4.8860000E-03   -1.3770000E-04    3.7931167E-04     2636.354    
 p115                 obsgroup      4.6453000E-03    4.8490000E-03   -2.0370000E-04     1.000000        4.6453000E-03    4.8490000E-03   -2.0370000E-04    3.7931167E-04     2636.354    
 p116                 obsgroup      4.6453000E-03    4.8120000E-03   -1.6670000E-04     1.000000        4.6453000E-03    4.8120000E-03   -1.6670000E-04    3.7931167E-04     2636.354    
 p117                 obsgroup      4.3363000E-03    4.7380000E-03   -4.0170000E-04     1.000000        4.3363000E-03    4.7380000E-03   -4.0170000E-04    3.7931167E-04     2636.354    
 p118                 obsgroup      4.4393000E-03    4.6630000E-03   -2.2370000E-04     1.000000        4.4393000E-03    4.6630000E-03   -2.2370000E-04    3.7931167E-04     2636.354    
 p119                 obsgroup      4.1303000E-03    4.6260000E-03   -4.9570000E-04     1.000000        4.1303000E-03    4.6260000E-03   -4.9570000E-04    3.7931167E-04     2636.354    
 p120                 obsgroup      4.0273000E-03    4.5890000E-03   -5.6170000E-04     1.000000        4.0273000E-03    4.5890000E-03   -5.6170000E-04    3.7931167E-04     2636.354    
 p121                 obsgroup      3.8213000E-03    4.5150000E-03   -6.9370000E-04     1.000000        3.8213000E-03    4.5150000E-03   -6.9370000E-04    3.7931167E-04     2636.354    
 p122                 obsgroup      3.8213000E-03    4.4770000E-03   -6.5570000E-04     1.000000        3.8213000E-03    4.4770000E-03   -6.5570000E-04    3.7931167E-04     2636.354    
 p123                 obsgroup      3.7183000E-03    4.4380000E-03   -7.1970000E-04     1.000000        3.7183000E-03    4.4380000E-03   -7.1970000E-04    3.7931167E-04     2636.354    
 p124                 obsgroup      3.5123000E-03    4.4010000E-03   -8.8870000E-04     1.000000        3.5123000E-03    4.4010000E-03   -8.8870000E-04    3.7931167E-04     2636.354    
 p125                 obsgroup      3.7183000E-03    4.3630000E-03   -6.4470000E-04     1.000000        3.7183000E-03    4.3630000E-03   -6.4470000E-04    3.7931167E-04     2636.354    
 p126                 obsgroup      3.3063000E-03    4.3250000E-03   -1.0187000E-03     1.000000        3.3063000E-03    4.3250000E-03   -1.0187000E-03    3.7931167E-04     2636.354    
 p127                 obsgroup      3.4093000E-03    4.2870000E-03   -8.7770000E-04     1.000000        3.4093000E-03    4.2870000E-03   -8.7770000E-04    3.7931167E-04     2636.354    
 p128                 obsgroup      3.5123000E-03    4.2490000E-03   -7.3670000E-04     1.000000        3.5123000E-03    4.2490000E-03   -7.3670000E-04    3.7931167E-04     2636.354    
 p129                 obsgroup      3.5123000E-03    4.2110000E-03   -6.9870000E-04     1.000000        3.5123000E-03    4.2110000E-03   -6.9870000E-04    3.7931167E-04     2636.354    
 p130                 obsgroup      3.3063000E-03    4.1730000E-03   -8.6670000E-04     1.000000        3.3063000E-03    4.1730000E-03   -8.6670000E-04    3.7931167E-04     2636.354    
 p131                 obsgroup      3.1003000E-03    4.1350000E-03   -1.0347000E-03     1.000000        3.1003000E-03    4.1350000E-03   -1.0347000E-03    3.7931167E-04     2636.354    
 p132                 obsgroup      3.3063000E-03    4.0980000E-03   -7.9170000E-04     1.000000        3.3063000E-03    4.0980000E-03   -7.9170000E-04    3.7931167E-04     2636.354    
 p133                 obsgroup      2.9973000E-03    4.0600000E-03   -1.0627000E-03     1.000000        2.9973000E-03    4.0600000E-03   -1.0627000E-03    3.7931167E-04     2636.354    
 p134                 obsgroup      3.3063000E-03    4.0270000E-03   -7.2070000E-04     1.000000        3.3063000E-03    4.0270000E-03   -7.2070000E-04    3.7931167E-04     2636.354    
 p135                 obsgroup      3.2033000E-03    3.9440000E-03   -7.4070000E-04     1.000000        3.2033000E-03    3.9440000E-03   -7.4070000E-04    3.7931167E-04     2636.354    
 p136                 obsgroup      3.1003000E-03    3.9050000E-03   -8.0470000E-04     1.000000        3.1003000E-03    3.9050000E-03   -8.0470000E-04    3.7931167E-04     2636.354    
 p137                 obsgroup      3.3063000E-03    3.6910000E-03   -3.8470000E-04     1.000000        3.3063000E-03    3.6910000E-03   -3.8470000E-04    3.7931167E-04     2636.354    
 p138                 obsgroup      2.9973000E-03    3.5230000E-03   -5.2570000E-04     1.000000        2.9973000E-03    3.5230000E-03   -5.2570000E-04    3.7931167E-04     2636.354    
 p139                 obsgroup      2.9973000E-03    3.3990000E-03   -4.0170000E-04     1.000000        2.9973000E-03    3.3990000E-03   -4.0170000E-04    3.7931167E-04     2636.354    
 p140                 obsgroup      2.9973000E-03    3.3600000E-03   -3.6270000E-04     1.000000        2.9973000E-03    3.3600000E-03   -3.6270000E-04    3.7931167E-04     2636.354    
 p141                 obsgroup      3.1003000E-03    3.2000000E-03   -9.9700000E-05     1.000000        3.1003000E-03    3.2000000E-03   -9.9700000E-05    3.7931167E-04     2636.354    
 p142                 obsgroup      2.9973000E-03    3.1610000E-03   -1.6370000E-04     1.000000        2.9973000E-03    3.1610000E-03   -1.6370000E-04    3.7931167E-04     2636.354    
 p143                 obsgroup      2.8943000E-03    3.1230000E-03   -2.2870000E-04     1.000000        2.8943000E-03    3.1230000E-03   -2.2870000E-04    3.7931167E-04     2636.354    
 p144                 obsgroup      2.8943000E-03    3.0850000E-03   -1.9070000E-04     1.000000        2.8943000E-03    3.0850000E-03   -1.9070000E-04    3.7931167E-04     2636.354    
 p145                 obsgroup      2.7913000E-03    2.9360000E-03   -1.4470000E-04     1.000000        2.7913000E-03    2.9360000E-03   -1.4470000E-04    3.7931167E-04     2636.354    
 p146                 obsgroup      2.5853000E-03    2.9000000E-03   -3.1470000E-04     1.000000        2.5853000E-03    2.9000000E-03   -3.1470000E-04    3.7931167E-04     2636.354    
 p147                 obsgroup      2.7913000E-03    2.8640000E-03   -7.2700000E-05     1.000000        2.7913000E-03    2.8640000E-03   -7.2700000E-05    3.7931167E-04     2636.354    
 p148                 obsgroup      2.7913000E-03    2.7570000E-03    3.4300000E-05     1.000000        2.7913000E-03    2.7570000E-03    3.4300000E-05    3.7931167E-04     2636.354    
 p149                 obsgroup      2.6883000E-03    2.4830000E-03    2.0530000E-04     1.000000        2.6883000E-03    2.4830000E-03    2.0530000E-04    3.7931167E-04     2636.354    
 p150                 obsgroup      2.5853000E-03    2.2600000E-03    3.2530000E-04     1.000000        2.5853000E-03    2.2600000E-03    3.2530000E-04    3.7931167E-04     2636.354    
 p151                 obsgroup      2.6883000E-03    2.2290000E-03    4.5930000E-04     1.000000        2.6883000E-03    2.2290000E-03    4.5930000E-04    3.7931167E-04     2636.354    
 p152                 obsgroup      2.6883000E-03    2.1910000E-03    4.9730000E-04     1.000000        2.6883000E-03    2.1910000E-03    4.9730000E-04    3.7931167E-04     2636.354    
 p153                 obsgroup      2.6883000E-03    2.1350000E-03    5.5330000E-04     1.000000        2.6883000E-03    2.1350000E-03    5.5330000E-04    3.7931167E-04     2636.354    
 p154                 obsgroup      2.5853000E-03    2.1070000E-03    4.7830000E-04     1.000000        2.5853000E-03    2.1070000E-03    4.7830000E-04    3.7931167E-04     2636.354    
 p155                 obsgroup      2.3175000E-03    2.0800000E-03    2.3750000E-04     1.000000        2.3175000E-03    2.0800000E-03    2.3750000E-04    3.7931167E-04     2636.354    
 p156                 obsgroup      2.2351000E-03    2.0530000E-03    1.8210000E-04     1.000000        2.2351000E-03    2.0530000E-03    1.8210000E-04    3.7931167E-04     2636.354    
 p157                 obsgroup      2.2454000E-03    2.0270000E-03    2.1840000E-04     1.000000        2.2454000E-03    2.0270000E-03    2.1840000E-04    3.7931167E-04     2636.354    
 p158                 obsgroup      2.4823000E-03    2.0010000E-03    4.8130000E-04     1.000000        2.4823000E-03    2.0010000E-03    4.8130000E-04    3.7931167E-04     2636.354    
 p159                 obsgroup      2.4823000E-03    1.9750000E-03    5.0730000E-04     1.000000        2.4823000E-03    1.9750000E-03    5.0730000E-04    3.7931167E-04     2636.354    
 p160                 obsgroup      2.3072000E-03    1.9260000E-03    3.8120000E-04     1.000000        2.3072000E-03    1.9260000E-03    3.8120000E-04    3.7931167E-04     2636.354    
 p161                 obsgroup      2.1527000E-03    1.9010000E-03    2.5170000E-04     1.000000        2.1527000E-03    1.9010000E-03    2.5170000E-04    3.7931167E-04     2636.354    
 p162                 obsgroup      2.2866000E-03    1.8520000E-03    4.3460000E-04     1.000000        2.2866000E-03    1.8520000E-03    4.3460000E-04    3.7931167E-04     2636.354    
 p163                 obsgroup      2.1115000E-03    1.8280000E-03    2.8350000E-04     1.000000        2.1115000E-03    1.8280000E-03    2.8350000E-04    3.7931167E-04     2636.354    
 p164                 obsgroup      2.0291000E-03    1.8050000E-03    2.2410000E-04     1.000000        2.0291000E-03    1.8050000E-03    2.2410000E-04    3.7931167E-04     2636.354    
 p165                 obsgroup      2.1012000E-03    1.7820000E-03    3.1920000E-04     1.000000        2.1012000E-03    1.7820000E-03    3.1920000E-04    3.7931167E-04     2636.354    
 p166                 obsgroup      2.2866000E-03    1.7580000E-03    5.2860000E-04     1.000000        2.2866000E-03    1.7580000E-03    5.2860000E-04    3.7931167E-04     2636.354    
 p167                 obsgroup      2.2660000E-03    1.7130000E-03    5.5300000E-04     1.000000        2.2660000E-03    1.7130000E-03    5.5300000E-04    3.7931167E-04     2636.354    
 p168                 obsgroup      2.2454000E-03    1.6910000E-03    5.5440000E-04     1.000000        2.2454000E-03    1.6910000E-03    5.5440000E-04    3.7931167E-04     2636.354    
 p169                 obsgroup      2.2248000E-03    1.6680000E-03    5.5680000E-04     1.000000        2.2248000E-03    1.6680000E-03    5.5680000E-04    3.7931167E-04     2636.354    
 p170                 obsgroup      2.1630000E-03    1.6470000E-03    5.1600000E-04     1.000000        2.1630000E-03    1.6470000E-03    5.1600000E-04    3.7931167E-04     2636.354    
 p171                 obsgroup      2.1321000E-03    1.6250000E-03    5.0710000E-04     1.000000        2.1321000E-03    1.6250000E-03    5.0710000E-04    3.7931167E-04     2636.354    
 p172                 obsgroup      2.0291000E-03    1.6030000E-03    4.2610000E-04     1.000000        2.0291000E-03    1.6030000E-03    4.2610000E-04    3.7931167E-04     2636.354    
 p173                 obsgroup      1.9879000E-03    1.5820000E-03    4.0590000E-04     1.000000        1.9879000E-03    1.5820000E-03    4.0590000E-04    3.7931167E-04     2636.354    
 p174                 obsgroup      2.0600000E-03    1.5610000E-03    4.9900000E-04     1.000000        2.0600000E-03    1.5610000E-03    4.9900000E-04    3.7931167E-04     2636.354    
 p175                 obsgroup      1.9673000E-03    1.5000000E-03    4.6730000E-04     1.000000        1.9673000E-03    1.5000000E-03    4.6730000E-04    3.7931167E-04     2636.354    
 p176                 obsgroup      1.8952000E-03    1.4800000E-03    4.1520000E-04     1.000000        1.8952000E-03    1.4800000E-03    4.1520000E-04    3.7931167E-04     2636.354    
 p177                 obsgroup      1.6995000E-03    1.4600000E-03    2.3950000E-04     1.000000        1.6995000E-03    1.4600000E-03    2.3950000E-04    3.7931167E-04     2636.354    
 p178                 obsgroup      1.8128000E-03    1.4400000E-03    3.7280000E-04     1.000000        1.8128000E-03    1.4400000E-03    3.7280000E-04    3.7931167E-04     2636.354    
 p179                 obsgroup      1.9467000E-03    1.4200000E-03    5.2670000E-04     1.000000        1.9467000E-03    1.4200000E-03    5.2670000E-04    3.7931167E-04     2636.354    
 p180                 obsgroup      2.0291000E-03    1.4010000E-03    6.2810000E-04     1.000000        2.0291000E-03    1.4010000E-03    6.2810000E-04    3.7931167E-04     2636.354    
 p181                 obsgroup      1.8952000E-03    1.3820000E-03    5.1320000E-04     1.000000        1.8952000E-03    1.3820000E-03    5.1320000E-04    3.7931167E-04     2636.354    
 p182                 obsgroup      1.7819000E-03    1.3630000E-03    4.1890000E-04     1.000000        1.7819000E-03    1.3630000E-03    4.1890000E-04    3.7931167E-04     2636.354    
 p183                 obsgroup      1.7613000E-03    1.3440000E-03    4.1730000E-04     1.000000        1.7613000E-03    1.3440000E-03    4.1730000E-04    3.7931167E-04     2636.354    
 p184                 obsgroup      1.6377000E-03    1.3080000E-03    3.2970000E-04     1.000000        1.6377000E-03    1.3080000E-03    3.2970000E-04    3.7931167E-04     2636.354    
 p185                 obsgroup      1.6789000E-03    1.2900000E-03    3.8890000E-04     1.000000        1.6789000E-03    1.2900000E-03    3.8890000E-04    3.7931167E-04     2636.354    
 p186                 obsgroup      1.7407000E-03    1.2720000E-03    4.6870000E-04     1.000000        1.7407000E-03    1.2720000E-03    4.6870000E-04    3.7931167E-04     2636.354    
 p187                 obsgroup      1.4832000E-03    1.2540000E-03    2.2920000E-04     1.000000        1.4832000E-03    1.2540000E-03    2.2920000E-04    3.7931167E-04     2636.354    
 p188                 obsgroup      1.3184000E-03    1.2370000E-03    8.1400000E-05     1.000000        1.3184000E-03    1.2370000E-03    8.1400000E-05    3.7931167E-04     2636.354    
 p189                 obsgroup      1.4420000E-03    1.2200000E-03    2.2200000E-04     1.000000        1.4420000E-03    1.2200000E-03    2.2200000E-04    3.7931167E-04     2636.354    
 p190                 obsgroup      1.6068000E-03    1.2030000E-03    4.0380000E-04     1.000000        1.6068000E-03    1.2030000E-03    4.0380000E-04    3.7931167E-04     2636.354    
 p191                 obsgroup      1.4420000E-03    1.1860000E-03    2.5600000E-04     1.000000        1.4420000E-03    1.1860000E-03    2.5600000E-04    3.7931167E-04     2636.354    
 p192                 obsgroup      1.4317000E-03    1.1700000E-03    2.6170000E-04     1.000000        1.4317000E-03    1.1700000E-03    2.6170000E-04    3.7931167E-04     2636.354    
 p193                 obsgroup      1.1948000E-03    1.1540000E-03    4.0800000E-05     1.000000        1.1948000E-03    1.1540000E-03    4.0800000E-05    3.7931167E-04     2636.354    
 p194                 obsgroup      1.1227000E-03    1.1370000E-03   -1.4300000E-05     1.000000        1.1227000E-03    1.1370000E-03   -1.4300000E-05    3.7931167E-04     2636.354    
 p195                 obsgroup      1.3493000E-03    1.0870000E-03    2.6230000E-04     1.000000        1.3493000E-03    1.0870000E-03    2.6230000E-04    3.7931167E-04     2636.354    
 p196                 obsgroup      1.4111000E-03    1.0740000E-03    3.3710000E-04     1.000000        1.4111000E-03    1.0740000E-03    3.3710000E-04    3.7931167E-04     2636.354    
 p197                 obsgroup      1.2360000E-03    1.0620000E-03    1.7400000E-04     1.000000        1.2360000E-03    1.0620000E-03    1.7400000E-04    3.7931167E-04     2636.354    
 p198                 obsgroup      1.2875000E-03    1.0490000E-03    2.3850000E-04     1.000000        1.2875000E-03    1.0490000E-03    2.3850000E-04    3.7931167E-04     2636.354    
 p199                 obsgroup      1.2463000E-03    1.0360000E-03    2.1030000E-04     1.000000        1.2463000E-03    1.0360000E-03    2.1030000E-04    3.7931167E-04     2636.354    
 p200                 obsgroup      1.1433000E-03    1.0120000E-03    1.3130000E-04     1.000000        1.1433000E-03    1.0120000E-03    1.3130000E-04    3.7931167E-04     2636.354    
 p201                 obsgroup      1.0197000E-03    1.0000000E-03    1.9700000E-05     1.000000        1.0197000E-03    1.0000000E-03    1.9700000E-05    3.7931167E-04     2636.354    
 p202                 obsgroup      1.1021000E-03    9.7500000E-04    1.2710000E-04     1.000000        1.1021000E-03    9.7500000E-04    1.2710000E-04    3.7931167E-04     2636.354    
 p203                 obsgroup      1.1639000E-03    9.6300000E-04    2.0090000E-04     1.000000        1.1639000E-03    9.6300000E-04    2.0090000E-04    3.7931167E-04     2636.354    
 p204                 obsgroup      1.1124000E-03    9.5200000E-04    1.6040000E-04     1.000000        1.1124000E-03    9.5200000E-04    1.6040000E-04    3.7931167E-04     2636.354    
 p205                 obsgroup      1.1433000E-03    9.4000000E-04    2.0330000E-04     1.000000        1.1433000E-03    9.4000000E-04    2.0330000E-04    3.7931167E-04     2636.354    
 p206                 obsgroup      9.0640000E-04    9.2800000E-04   -2.1600000E-05     1.000000        9.0640000E-04    9.2800000E-04   -2.1600000E-05    3.7931167E-04     2636.354    
 p207                 obsgroup      8.3430000E-04    9.1700000E-04   -8.2700000E-05     1.000000        8.3430000E-04    9.1700000E-04   -8.2700000E-05    3.7931167E-04     2636.354    
 p208                 obsgroup      9.8880000E-04    9.0600000E-04    8.2800000E-05     1.000000        9.8880000E-04    9.0600000E-04    8.2800000E-05    3.7931167E-04     2636.354    
 p209                 obsgroup      8.9610000E-04    8.9500000E-04    1.1000000E-06     1.000000        8.9610000E-04    8.9500000E-04    1.1000000E-06    3.7931167E-04     2636.354    
 p210                 obsgroup      1.1536000E-03    8.8400000E-04    2.6960000E-04     1.000000        1.1536000E-03    8.8400000E-04    2.6960000E-04    3.7931167E-04     2636.354    
 p211                 obsgroup      8.5490000E-04    8.7300000E-04   -1.8100000E-05     1.000000        8.5490000E-04    8.7300000E-04   -1.8100000E-05    3.7931167E-04     2636.354    
 p212                 obsgroup      9.5790000E-04    8.6200000E-04    9.5900000E-05     1.000000        9.5790000E-04    8.6200000E-04    9.5900000E-05    3.7931167E-04     2636.354    
 p213                 obsgroup      6.3860000E-04    8.5100000E-04   -2.1240000E-04     1.000000        6.3860000E-04    8.5100000E-04   -2.1240000E-04    3.7931167E-04     2636.354    
 p214                 obsgroup      9.5790000E-04    8.3100000E-04    1.2690000E-04     1.000000        9.5790000E-04    8.3100000E-04    1.2690000E-04    3.7931167E-04     2636.354    
 p215                 obsgroup      9.6820000E-04    8.2100000E-04    1.4720000E-04     1.000000        9.6820000E-04    8.2100000E-04    1.4720000E-04    3.7931167E-04     2636.354    
 p216                 obsgroup      7.6220000E-04    8.0100000E-04   -3.8800000E-05     1.000000        7.6220000E-04    8.0100000E-04   -3.8800000E-05    3.7931167E-04     2636.354    
 p217                 obsgroup      8.6520000E-04    7.9100000E-04    7.4200000E-05     1.000000        8.6520000E-04    7.9100000E-04    7.4200000E-05    3.7931167E-04     2636.354    
 p218                 obsgroup      7.5190000E-04    7.8100000E-04   -2.9100000E-05     1.000000        7.5190000E-04    7.8100000E-04   -2.9100000E-05    3.7931167E-04     2636.354    
 p219                 obsgroup      8.0340000E-04    7.7100000E-04    3.2400000E-05     1.000000        8.0340000E-04    7.7100000E-04    3.2400000E-05    3.7931167E-04     2636.354    
 p220                 obsgroup      8.0340000E-04    7.6100000E-04    4.2400000E-05     1.000000        8.0340000E-04    7.6100000E-04    4.2400000E-05    3.7931167E-04     2636.354    
 p221                 obsgroup      6.2830000E-04    7.5200000E-04   -1.2370000E-04     1.000000        6.2830000E-04    7.5200000E-04   -1.2370000E-04    3.7931167E-04     2636.354    
 p222                 obsgroup      8.5490000E-04    7.4300000E-04    1.1190000E-04     1.000000        8.5490000E-04    7.4300000E-04    1.1190000E-04    3.7931167E-04     2636.354    
 p223                 obsgroup      8.5490000E-04    7.3300000E-04    1.2190000E-04     1.000000        8.5490000E-04    7.3300000E-04    1.2190000E-04    3.7931167E-04     2636.354    
 p224                 obsgroup      8.9610000E-04    7.2400000E-04    1.7210000E-04     1.000000        8.9610000E-04    7.2400000E-04    1.7210000E-04    3.7931167E-04     2636.354    
 p225                 obsgroup      6.3860000E-04    7.1500000E-04   -7.6400000E-05     1.000000        6.3860000E-04    7.1500000E-04   -7.6400000E-05    3.7931167E-04     2636.354    
 p226                 obsgroup      6.3860000E-04    7.0600000E-04   -6.7400000E-05     1.000000        6.3860000E-04    7.0600000E-04   -6.7400000E-05    3.7931167E-04     2636.354    
 p227                 obsgroup      7.9310000E-04    6.9800000E-04    9.5100000E-05     1.000000        7.9310000E-04    6.9800000E-04    9.5100000E-05    3.7931167E-04     2636.354    
 p228                 obsgroup      9.0640000E-04    6.8900000E-04    2.1740000E-04     1.000000        9.0640000E-04    6.8900000E-04    2.1740000E-04    3.7931167E-04     2636.354    
 p229                 obsgroup      7.1070000E-04    6.8000000E-04    3.0700000E-05     1.000000        7.1070000E-04    6.8000000E-04    3.0700000E-05    3.7931167E-04     2636.354    
 p230                 obsgroup      7.3130000E-04    6.7200000E-04    5.9300000E-05     1.000000        7.3130000E-04    6.7200000E-04    5.9300000E-05    3.7931167E-04     2636.354    
