 Name                 Group          Measured         Modelled         Residual         Weight       Weight*Measured    Weight*Modelled  Weight*Residual  Measurement_sd   Natural_weight
 p001                 obsgroup      2.3000000E-04    1.5000000E-04    8.0000000E-05     1.000000        2.3000000E-04    1.5000000E-04    8.0000000E-05    1.0649077E-04     9390.485    
 p002                 obsgroup      1.9000000E-04    1.5100000E-04    3.9000000E-05     1.000000        1.9000000E-04    1.5100000E-04    3.9000000E-05    1.0649077E-04     9390.485    
 p003                 obsgroup      1.5000000E-04    1.5400000E-04   -4.0000000E-06     1.000000        1.5000000E-04    1.5400000E-04   -4.0000000E-06    1.0649077E-04     9390.485    
 p004                 obsgroup      1.8000000E-04    1.8800000E-04   -8.0000000E-06     1.000000        1.8000000E-04    1.8800000E-04   -8.0000000E-06    1.0649077E-04     9390.485    
 p005                 obsgroup      1.6000000E-04    2.4200000E-04   -8.2000000E-05     1.000000        1.6000000E-04    2.4200000E-04   -8.2000000E-05    1.0649077E-04     9390.485    
 p006                 obsgroup      3.7000000E-04    3.3600000E-04    3.4000000E-05     1.000000        3.7000000E-04    3.3600000E-04    3.4000000E-05    1.0649077E-04     9390.485    
 p007                 obsgroup      4.3000000E-04    4.8200000E-04   -5.2000000E-05     1.000000        4.3000000E-04    4.8200000E-04   -5.2000000E-05    1.0649077E-04     9390.485    
 p008                 obsgroup      6.1000000E-04    6.9000000E-04   -8.0000000E-05     1.000000        6.1000000E-04    6.9000000E-04   -8.0000000E-05    1.0649077E-04     9390.485    
 p009                 obsgroup      8.1000000E-04    9.6200000E-04   -1.5200000E-04     1.000000        8.1000000E-04    9.6200000E-04   -1.5200000E-04    1.0649077E-04     9390.485    
 p010                 obsgroup      1.1900000E-03    1.2910000E-03   -1.0100000E-04     1.000000        1.1900000E-03    1.2910000E-03   -1.0100000E-04    1.0649077E-04     9390.485    
 p011                 obsgroup      1.6400000E-03    1.6750000E-03   -3.5000000E-05     1.000000        1.6400000E-03    1.6750000E-03   -3.5000000E-05    1.0649077E-04     9390.485    
 p012                 obsgroup      2.0200000E-03    2.1080000E-03   -8.8000000E-05     1.000000        2.0200000E-03    2.1080000E-03   -8.8000000E-05    1.0649077E-04     9390.485    
 p013                 obsgroup      2.6600000E-03    2.5830000E-03    7.7000000E-05     1.000000        2.6600000E-03    2.5830000E-03    7.7000000E-05    1.0649077E-04     9390.485    
 p014                 obsgroup      3.2400000E-03    3.0860000E-03    1.5400000E-04     1.000000        3.2400000E-03    3.0860000E-03    1.5400000E-04    1.0649077E-04     9390.485    
 p015                 obsgroup      3.7500000E-03    3.6060000E-03    1.4400000E-04     1.000000        3.7500000E-03    3.6060000E-03    1.4400000E-04    1.0649077E-04     9390.485    
 p016                 obsgroup      4.1300000E-03    4.1330000E-03   -3.0000000E-06     1.000000        4.1300000E-03    4.1330000E-03   -3.0000000E-06    1.0649077E-04     9390.485    
 p017                 obsgroup      4.8400000E-03    4.6670000E-03    1.7300000E-04     1.000000        4.8400000E-03    4.6670000E-03    1.7300000E-04    1.0649077E-04     9390.485    
 p018                 obsgroup      5.2800000E-03    5.1570000E-03    1.2300000E-04     1.000000        5.2800000E-03    5.1570000E-03    1.2300000E-04    1.0649077E-04     9390.485    
 p019                 obsgroup      5.6800000E-03    5.6530000E-03    2.7000000E-05     1.000000        5.6800000E-03    5.6530000E-03    2.7000000E-05    1.0649077E-04     9390.485    
 p020                 obsgroup      6.1300000E-03    6.1230000E-03    7.0000000E-06     1.000000        6.1300000E-03    6.1230000E-03    7.0000000E-06    1.0649077E-04     9390.485    
 p021                 obsgroup      6.5800000E-03    6.5600000E-03    2.0000000E-05     1.000000        6.5800000E-03    6.5600000E-03    2.0000000E-05    1.0649077E-04     9390.485    
 p022                 obsgroup      6.8500000E-03    6.9740000E-03   -1.2400000E-04     1.000000        6.8500000E-03    6.9740000E-03   -1.2400000E-04    1.0649077E-04     9390.485    
 p023                 obsgroup      7.5900000E-03    7.3420000E-03    2.4800000E-04     1.000000        7.5900000E-03    7.3420000E-03    2.4800000E-04    1.0649077E-04     9390.485    
 p024                 obsgroup      7.4900000E-03    7.6840000E-03   -1.9400000E-04     1.000000        7.4900000E-03    7.6840000E-03   -1.9400000E-04    1.0649077E-04     9390.485    
 p025                 obsgroup      8.1500000E-03    7.9850000E-03    1.6500000E-04     1.000000        8.1500000E-03    7.9850000E-03    1.6500000E-04    1.0649077E-04     9390.485    
 p026                 obsgroup      8.1800000E-03    8.2590000E-03   -7.9000000E-05     1.000000        8.1800000E-03    8.2590000E-03   -7.9000000E-05    1.0649077E-04     9390.485    
 p027                 obsgroup      8.5600000E-03    8.4950000E-03    6.5000000E-05     1.000000        8.5600000E-03    8.4950000E-03    6.5000000E-05    1.0649077E-04     9390.485    
 p028                 obsgroup      8.5600000E-03    8.6960000E-03   -1.3600000E-04     1.000000        8.5600000E-03    8.6960000E-03   -1.3600000E-04    1.0649077E-04     9390.485    
 p029                 obsgroup      8.3600000E-03    8.9420000E-03   -5.8200000E-04     1.000000        8.3600000E-03    8.9420000E-03   -5.8200000E-04    1.0649077E-04     9390.485    
 p030                 obsgroup      8.9700000E-03    9.2430000E-03   -2.7300000E-04     1.000000        8.9700000E-03    9.2430000E-03   -2.7300000E-04    1.0649077E-04     9390.485    
 p031                 obsgroup      9.1800000E-03    9.3100000E-03   -1.3000000E-04     1.000000        9.1800000E-03    9.3100000E-03   -1.3000000E-04    1.0649077E-04     9390.485    
 p032                 obsgroup      9.3800000E-03    9.3280000E-03    5.2000000E-05     1.000000        9.3800000E-03    9.3280000E-03    5.2000000E-05    1.0649077E-04     9390.485    
 p033                 obsgroup      9.3800000E-03    9.3060000E-03    7.4000000E-05     1.000000        9.3800000E-03    9.3060000E-03    7.4000000E-05    1.0649077E-04     9390.485    
 p034                 obsgroup      9.3800000E-03    9.2480000E-03    1.3200000E-04     1.000000        9.3800000E-03    9.2480000E-03    1.3200000E-04    1.0649077E-04     9390.485    
 p035                 obsgroup      9.1800000E-03    9.1600000E-03    2.0000000E-05     1.000000        9.1800000E-03    9.1600000E-03    2.0000000E-05    1.0649077E-04     9390.485    
 p036                 obsgroup      9.1800000E-03    9.0470000E-03    1.3300000E-04     1.000000        9.1800000E-03    9.0470000E-03    1.3300000E-04    1.0649077E-04     9390.485    
 p037                 obsgroup      9.0700000E-03    8.9120000E-03    1.5800000E-04     1.000000        9.0700000E-03    8.9120000E-03    1.5800000E-04    1.0649077E-04     9390.485    
 p038                 obsgroup      8.9700000E-03    8.7580000E-03    2.1200000E-04     1.000000        8.9700000E-03    8.7580000E-03    2.1200000E-04    1.0649077E-04     9390.485    
 p039                 obsgroup      8.7700000E-03    8.5930000E-03    1.7700000E-04     1.000000        8.7700000E-03    8.5930000E-03    1.7700000E-04    1.0649077E-04     9390.485    
 p040                 obsgroup      8.5200000E-03    8.4150000E-03    1.0500000E-04     1.000000        8.5200000E-03    8.4150000E-03    1.0500000E-04    1.0649077E-04     9390.485    
 p041                 obsgroup      8.3200000E-03    8.2290000E-03    9.1000000E-05     1.000000        8.3200000E-03    8.2290000E-03    9.1000000E-05    1.0649077E-04     9390.485    
 p042                 obsgroup      7.9500000E-03    8.0330000E-03   -8.3000000E-05     1.000000        7.9500000E-03    8.0330000E-03   -8.3000000E-05    1.0649077E-04     9390.485    
 p043                 obsgroup      7.7300000E-03    7.6390000E-03    9.1000000E-05     1.000000        7.7300000E-03    7.6390000E-03    9.1000000E-05    1.0649077E-04     9390.485    
 p044                 obsgroup      7.5100000E-03    7.4360000E-03    7.4000000E-05     1.000000        7.5100000E-03    7.4360000E-03    7.4000000E-05    1.0649077E-04     9390.485    
 p045                 obsgroup      7.0700000E-03    7.2350000E-03   -1.6500000E-04     1.000000        7.0700000E-03    7.2350000E-03   -1.6500000E-04    1.0649077E-04     9390.485    
 p046                 obsgroup      6.9800000E-03    7.0360000E-03   -5.6000000E-05     1.000000        6.9800000E-03    7.0360000E-03   -5.6000000E-05    1.0649077E-04     9390.485    
 p047                 obsgroup      6.8800000E-03    6.8410000E-03    3.9000000E-05     1.000000        6.8800000E-03    6.8410000E-03    3.9000000E-05    1.0649077E-04     9390.485    
 p048                 obsgroup      6.7600000E-03    6.6480000E-03    1.1200000E-04     1.000000        6.7600000E-03    6.6480000E-03    1.1200000E-04    1.0649077E-04     9390.485    
 p049                 obsgroup      6.4000000E-03    6.4630000E-03   -6.3000000E-05     1.000000        6.4000000E-03    6.4630000E-03   -6.3000000E-05    1.0649077E-04     9390.485    
 p050                 obsgroup      6.1400000E-03    6.2780000E-03   -1.3800000E-04     1.000000        6.1400000E-03    6.2780000E-03   -1.3800000E-04    1.0649077E-04     9390.485    
 p051                 obsgroup      6.1100000E-03    6.0990000E-03    1.1000000E-05     1.000000        6.1100000E-03    6.0990000E-03    1.1000000E-05    1.0649077E-04     9390.485    
 p052                 obsgroup      5.9100000E-03    5.9230000E-03   -1.3000000E-05     1.000000        5.9100000E-03    5.9230000E-03   -1.3000000E-05    1.0649077E-04     9390.485    
 p053                 obsgroup      5.7300000E-03    5.7560000E-03   -2.6000000E-05     1.000000        5.7300000E-03    5.7560000E-03   -2.6000000E-05    1.0649077E-04     9390.485    
 p054                 obsgroup      5.6000000E-03    5.5930000E-03    7.0000000E-06     1.000000        5.6000000E-03    5.5930000E-03    7.0000000E-06    1.0649077E-04     9390.485    
 p055                 obsgroup      5.3900000E-03    5.4330000E-03   -4.3000000E-05     1.000000        5.3900000E-03    5.4330000E-03   -4.3000000E-05    1.0649077E-04     9390.485    
 p056                 obsgroup      5.3600000E-03    5.2810000E-03    7.9000000E-05     1.000000        5.3600000E-03    5.2810000E-03    7.9000000E-05    1.0649077E-04     9390.485    
 p057                 obsgroup      5.1100000E-03    5.1310000E-03   -2.1000000E-05     1.000000        5.1100000E-03    5.1310000E-03   -2.1000000E-05    1.0649077E-04     9390.485    
 p058                 obsgroup      4.9200000E-03    4.9880000E-03   -6.8000000E-05     1.000000        4.9200000E-03    4.9880000E-03   -6.8000000E-05    1.0649077E-04     9390.485    
 p059                 obsgroup      4.8300000E-03    4.8500000E-03   -2.0000000E-05     1.000000        4.8300000E-03    4.8500000E-03   -2.0000000E-05    1.0649077E-04     9390.485    
 p060                 obsgroup      4.7800000E-03    4.7160000E-03    6.4000000E-05     1.000000        4.7800000E-03    4.7160000E-03    6.4000000E-05    1.0649077E-04     9390.485    
 p061                 obsgroup      4.3400000E-03    4.4700000E-03   -1.3000000E-04     1.000000        4.3400000E-03    4.4700000E-03   -1.3000000E-04    1.0649077E-04     9390.485    
 p062                 obsgroup      4.4000000E-03    4.3520000E-03    4.8000000E-05     1.000000        4.4000000E-03    4.3520000E-03    4.8000000E-05    1.0649077E-04     9390.485    
 p063                 obsgroup      4.2800000E-03    4.2410000E-03    3.9000000E-05     1.000000        4.2800000E-03    4.2410000E-03    3.9000000E-05    1.0649077E-04     9390.485    
 p064                 obsgroup      4.1700000E-03    4.1300000E-03    4.0000000E-05     1.000000        4.1700000E-03    4.1300000E-03    4.0000000E-05    1.0649077E-04     9390.485    
 p065                 obsgroup      3.9200000E-03    4.0230000E-03   -1.0300000E-04     1.000000        3.9200000E-03    4.0230000E-03   -1.0300000E-04    1.0649077E-04     9390.485    
 p066                 obsgroup      3.9300000E-03    3.9220000E-03    8.0000000E-06     1.000000        3.9300000E-03    3.9220000E-03    8.0000000E-06    1.0649077E-04     9390.485    
 p067                 obsgroup      3.8300000E-03    3.8240000E-03    6.0000000E-06     1.000000        3.8300000E-03    3.8240000E-03    6.0000000E-06    1.0649077E-04     9390.485    
 p068                 obsgroup      3.6600000E-03    3.7280000E-03   -6.8000000E-05     1.000000        3.6600000E-03    3.7280000E-03   -6.8000000E-05    1.0649077E-04     9390.485    
 p069                 obsgroup      3.5700000E-03    3.6390000E-03   -6.9000000E-05     1.000000        3.5700000E-03    3.6390000E-03   -6.9000000E-05    1.0649077E-04     9390.485    
 p070                 obsgroup      3.4500000E-03    3.5510000E-03   -1.0100000E-04     1.000000        3.4500000E-03    3.5510000E-03   -1.0100000E-04    1.0649077E-04     9390.485    
 p071                 obsgroup      3.5000000E-03    3.4660000E-03    3.4000000E-05     1.000000        3.5000000E-03    3.4660000E-03    3.4000000E-05    1.0649077E-04     9390.485    
 p072                 obsgroup      3.4400000E-03    3.3880000E-03    5.2000000E-05     1.000000        3.4400000E-03    3.3880000E-03    5.2000000E-05    1.0649077E-04     9390.485    
 p073                 obsgroup      3.2800000E-03    3.3090000E-03   -2.9000000E-05     1.000000        3.2800000E-03    3.3090000E-03   -2.9000000E-05    1.0649077E-04     9390.485    
 p074                 obsgroup      3.2000000E-03    3.2350000E-03   -3.5000000E-05     1.000000        3.2000000E-03    3.2350000E-03   -3.5000000E-05    1.0649077E-04     9390.485    
 p075                 obsgroup      3.2100000E-03    3.1650000E-03    4.5000000E-05     1.000000        3.2100000E-03    3.1650000E-03    4.5000000E-05    1.0649077E-04     9390.485    
 p076                 obsgroup      3.0000000E-03    3.0940000E-03   -9.4000000E-05     1.000000        3.0000000E-03    3.0940000E-03   -9.4000000E-05    1.0649077E-04     9390.485    
 p077                 obsgroup      2.9000000E-03    3.0290000E-03   -1.2900000E-04     1.000000        2.9000000E-03    3.0290000E-03   -1.2900000E-04    1.0649077E-04     9390.485    
 p078                 obsgroup      2.9800000E-03    2.9630000E-03    1.7000000E-05     1.000000        2.9800000E-03    2.9630000E-03    1.7000000E-05    1.0649077E-04     9390.485    
 p079                 obsgroup      2.8500000E-03    2.9010000E-03   -5.1000000E-05     1.000000        2.8500000E-03    2.9010000E-03   -5.1000000E-05    1.0649077E-04     9390.485    
 p080                 obsgroup      2.9100000E-03    2.8400000E-03    7.0000000E-05     1.000000        2.9100000E-03    2.8400000E-03    7.0000000E-05    1.0649077E-04     9390.485    
 p081                 obsgroup      2.8200000E-03    2.7820000E-03    3.8000000E-05     1.000000        2.8200000E-03    2.7820000E-03    3.8000000E-05    1.0649077E-04     9390.485    
 p082                 obsgroup      2.6800000E-03    2.7250000E-03   -4.5000000E-05     1.000000        2.6800000E-03    2.7250000E-03   -4.5000000E-05    1.0649077E-04     9390.485    
 p083                 obsgroup      2.6500000E-03    2.6710000E-03   -2.1000000E-05     1.000000        2.6500000E-03    2.6710000E-03   -2.1000000E-05    1.0649077E-04     9390.485    
 p084                 obsgroup      2.6500000E-03    2.6210000E-03    2.9000000E-05     1.000000        2.6500000E-03    2.6210000E-03    2.9000000E-05    1.0649077E-04     9390.485    
 p085                 obsgroup      2.5100000E-03    2.5700000E-03   -6.0000000E-05     1.000000        2.5100000E-03    2.5700000E-03   -6.0000000E-05    1.0649077E-04     9390.485    
 p086                 obsgroup      2.3700000E-03    2.4360000E-03   -6.6000000E-05     1.000000        2.3700000E-03    2.4360000E-03   -6.6000000E-05    1.0649077E-04     9390.485    
 p087                 obsgroup      2.4400000E-03    2.3910000E-03    4.9000000E-05     1.000000        2.4400000E-03    2.3910000E-03    4.9000000E-05    1.0649077E-04     9390.485    
 p088                 obsgroup      2.2400000E-03    2.3470000E-03   -1.0700000E-04     1.000000        2.2400000E-03    2.3470000E-03   -1.0700000E-04    1.0649077E-04     9390.485    
 p089                 obsgroup      2.2700000E-03    2.3040000E-03   -3.4000000E-05     1.000000        2.2700000E-03    2.3040000E-03   -3.4000000E-05    1.0649077E-04     9390.485    
 p090                 obsgroup      2.3100000E-03    2.2630000E-03    4.7000000E-05     1.000000        2.3100000E-03    2.2630000E-03    4.7000000E-05    1.0649077E-04     9390.485    
 p091                 obsgroup      2.1900000E-03    2.2250000E-03   -3.5000000E-05     1.000000        2.1900000E-03    2.2250000E-03   -3.5000000E-05    1.0649077E-04     9390.485    
 p092                 obsgroup      2.1900000E-03    2.1860000E-03    4.0000000E-06     1.000000        2.1900000E-03    2.1860000E-03    4.0000000E-06    1.0649077E-04     9390.485    
 p093                 obsgroup      2.0900000E-03    2.1500000E-03   -6.0000000E-05     1.000000        2.0900000E-03    2.1500000E-03   -6.0000000E-05    1.0649077E-04     9390.485    
 p094                 obsgroup      2.1200000E-03    2.1120000E-03    8.0000000E-06     1.000000        2.1200000E-03    2.1120000E-03    8.0000000E-06    1.0649077E-04     9390.485    
 p095                 obsgroup      2.0200000E-03    2.0760000E-03   -5.6000000E-05     1.000000        2.0200000E-03    2.0760000E-03   -5.6000000E-05    1.0649077E-04     9390.485    
 p096                 obsgroup      1.9700000E-03    2.0420000E-03   -7.2000000E-05     1.000000        1.9700000E-03    2.0420000E-03   -7.2000000E-05    1.0649077E-04     9390.485    
 p097                 obsgroup      2.0000000E-03    2.0080000E-03   -8.0000000E-06     1.000000        2.0000000E-03    2.0080000E-03   -8.0000000E-06    1.0649077E-04     9390.485    
 p098                 obsgroup      2.0000000E-03    1.9760000E-03    2.4000000E-05     1.000000        2.0000000E-03    1.9760000E-03    2.4000000E-05    1.0649077E-04     9390.485    
 p099                 obsgroup      1.9500000E-03    1.9550000E-03   -5.0000000E-06     1.000000        1.9500000E-03    1.9550000E-03   -5.0000000E-06    1.0649077E-04     9390.485    
 p100                 obsgroup      1.9700000E-03    1.9240000E-03    4.6000000E-05     1.000000        1.9700000E-03    1.9240000E-03    4.6000000E-05    1.0649077E-04     9390.485    
 p101                 obsgroup      1.9300000E-03    1.8940000E-03    3.6000000E-05     1.000000        1.9300000E-03    1.8940000E-03    3.6000000E-05    1.0649077E-04     9390.485    
 p102                 obsgroup      1.9400000E-03    1.8650000E-03    7.5000000E-05     1.000000        1.9400000E-03    1.8650000E-03    7.5000000E-05    1.0649077E-04     9390.485    
 p103                 obsgroup      1.9000000E-03    1.8370000E-03    6.3000000E-05     1.000000        1.9000000E-03    1.8370000E-03    6.3000000E-05    1.0649077E-04     9390.485    
 p104                 obsgroup      1.8700000E-03    1.7840000E-03    8.6000000E-05     1.000000        1.8700000E-03    1.7840000E-03    8.6000000E-05    1.0649077E-04     9390.485    
 p105                 obsgroup      1.7400000E-03    1.7570000E-03   -1.7000000E-05     1.000000        1.7400000E-03    1.7570000E-03   -1.7000000E-05    1.0649077E-04     9390.485    
 p106                 obsgroup      1.7600000E-03    1.7320000E-03    2.8000000E-05     1.000000        1.7600000E-03    1.7320000E-03    2.8000000E-05    1.0649077E-04     9390.485    
 p107                 obsgroup      1.7100000E-03    1.7060000E-03    4.0000000E-06     1.000000        1.7100000E-03    1.7060000E-03    4.0000000E-06    1.0649077E-04     9390.485    
 p108                 obsgroup      1.7300000E-03    1.6820000E-03    4.8000000E-05     1.000000        1.7300000E-03    1.6820000E-03    4.8000000E-05    1.0649077E-04     9390.485    
 p109                 obsgroup      1.7100000E-03    1.6570000E-03    5.3000000E-05     1.000000        1.7100000E-03    1.6570000E-03    5.3000000E-05    1.0649077E-04     9390.485    
 p110                 obsgroup      1.6700000E-03    1.6340000E-03    3.6000000E-05     1.000000        1.6700000E-03    1.6340000E-03    3.6000000E-05    1.0649077E-04     9390.485    
 p111                 obsgroup      1.5900000E-03    1.6110000E-03   -2.1000000E-05     1.000000        1.5900000E-03    1.6110000E-03   -2.1000000E-05    1.0649077E-04     9390.485    
 p112                 obsgroup      1.5900000E-03    1.5880000E-03    2.0000000E-06     1.000000        1.5900000E-03    1.5880000E-03    2.0000000E-06    1.0649077E-04     9390.485    
 p113                 obsgroup      1.5200000E-03    1.5670000E-03   -4.7000000E-05     1.000000        1.5200000E-03    1.5670000E-03   -4.7000000E-05    1.0649077E-04     9390.485    
 p114                 obsgroup      1.5600000E-03    1.5450000E-03    1.5000000E-05     1.000000        1.5600000E-03    1.5450000E-03    1.5000000E-05    1.0649077E-04     9390.485    
 p115                 obsgroup      1.5000000E-03    1.5240000E-03   -2.4000000E-05     1.000000        1.5000000E-03    1.5240000E-03   -2.4000000E-05    1.0649077E-04     9390.485    
 p116                 obsgroup      1.4700000E-03    1.5030000E-03   -3.3000000E-05     1.000000        1.4700000E-03    1.5030000E-03   -3.3000000E-05    1.0649077E-04     9390.485    
 p117                 obsgroup      1.4300000E-03    1.4640000E-03   -3.4000000E-05     1.000000        1.4300000E-03    1.4640000E-03   -3.4000000E-05    1.0649077E-04     9390.485    
 p118                 obsgroup      1.4300000E-03    1.4250000E-03    5.0000000E-06     1.000000        1.4300000E-03    1.4250000E-03    5.0000000E-06    1.0649077E-04     9390.485    
 p119                 obsgroup      1.3900000E-03    1.4070000E-03   -1.7000000E-05     1.000000        1.3900000E-03    1.4070000E-03   -1.7000000E-05    1.0649077E-04     9390.485    
 p120                 obsgroup      1.3500000E-03    1.3890000E-03   -3.9000000E-05     1.000000        1.3500000E-03    1.3890000E-03   -3.9000000E-05    1.0649077E-04     9390.485    
 p121                 obsgroup      1.3500000E-03    1.3540000E-03   -4.0000000E-06     1.000000        1.3500000E-03    1.3540000E-03   -4.0000000E-06    1.0649077E-04     9390.485    
 p122                 obsgroup      1.3500000E-03    1.3370000E-03    1.3000000E-05     1.000000        1.3500000E-03    1.3370000E-03    1.3000000E-05    1.0649077E-04     9390.485    
 p123                 obsgroup      1.3500000E-03    1.3200000E-03    3.0000000E-05     1.000000        1.3500000E-03    1.3200000E-03    3.0000000E-05    1.0649077E-04     9390.485    
 p124                 obsgroup      1.2900000E-03    1.3030000E-03   -1.3000000E-05     1.000000        1.2900000E-03    1.3030000E-03   -1.3000000E-05    1.0649077E-04     9390.485    
 p125                 obsgroup      1.3200000E-03    1.2870000E-03    3.3000000E-05     1.000000        1.3200000E-03    1.2870000E-03    3.3000000E-05    1.0649077E-04     9390.485    
 p126                 obsgroup      1.2600000E-03    1.2710000E-03   -1.1000000E-05     1.000000        1.2600000E-03    1.2710000E-03   -1.1000000E-05    1.0649077E-04     9390.485    
 p127                 obsgroup      1.2600000E-03    1.2550000E-03    5.0000000E-06     1.000000        1.2600000E-03    1.2550000E-03    5.0000000E-06    1.0649077E-04     9390.485    
 p128                 obsgroup      1.2400000E-03    1.2400000E-03     0.000000         1.000000        1.2400000E-03    1.2400000E-03     0.000000        1.0649077E-04     9390.485    
 p129                 obsgroup      1.1700000E-03    1.2250000E-03   -5.5000000E-05     1.000000        1.1700000E-03    1.2250000E-03   -5.5000000E-05    1.0649077E-04     9390.485    
 p130                 obsgroup      1.1800000E-03    1.2100000E-03   -3.0000000E-05     1.000000        1.1800000E-03    1.2100000E-03   -3.0000000E-05    1.0649077E-04     9390.485    
 p131                 obsgroup      1.1900000E-03    1.1950000E-03   -5.0000000E-06     1.000000        1.1900000E-03    1.1950000E-03   -5.0000000E-06    1.0649077E-04     9390.485    
 p132                 obsgroup      1.1500000E-03    1.1810000E-03   -3.1000000E-05     1.000000        1.1500000E-03    1.1810000E-03   -3.1000000E-05    1.0649077E-04     9390.485    
 p133                 obsgroup      1.1500000E-03    1.1670000E-03   -1.7000000E-05     1.000000        1.1500000E-03    1.1670000E-03   -1.7000000E-05    1.0649077E-04     9390.485    
 p134                 obsgroup      1.1800000E-03    1.1550000E-03    2.5000000E-05     1.000000        1.1800000E-03    1.1550000E-03    2.5000000E-05    1.0649077E-04     9390.485    
 p135                 obsgroup      1.1900000E-03    1.1250000E-03    6.5000000E-05     1.000000        1.1900000E-03    1.1250000E-03    6.5000000E-05    1.0649077E-04     9390.485    
 p136                 obsgroup      1.0900000E-03    1.1110000E-03   -2.1000000E-05     1.000000        1.0900000E-03    1.1110000E-03   -2.1000000E-05    1.0649077E-04     9390.485    
 p137                 obsgroup      1.0900000E-03    1.0390000E-03    5.1000000E-05     1.000000        1.0900000E-03    1.0390000E-03    5.1000000E-05    1.0649077E-04     9390.485    
 p138                 obsgroup      1.0200000E-03    9.8500000E-04    3.5000000E-05     1.000000        1.0200000E-03    9.8500000E-04    3.5000000E-05    1.0649077E-04     9390.485    
 p139                 obsgroup      1.0600000E-03    9.4800000E-04    1.1200000E-04     1.000000        1.0600000E-03    9.4800000E-04    1.1200000E-04    1.0649077E-04     9390.485    
 p140                 obsgroup      1.0100000E-03    9.3600000E-04    7.4000000E-05     1.000000        1.0100000E-03    9.3600000E-04    7.4000000E-05    1.0649077E-04     9390.485    
 p141                 obsgroup      1.0400000E-03    8.9000000E-04    1.5000000E-04     1.000000        1.0400000E-03    8.9000000E-04    1.5000000E-04    1.0649077E-04     9390.485    
 p142                 obsgroup      1.0300000E-03    8.7900000E-04    1.5100000E-04     1.000000        1.0300000E-03    8.7900000E-04    1.5100000E-04    1.0649077E-04     9390.485    
 p143                 obsgroup      1.0900000E-03    8.6800000E-04    2.2200000E-04     1.000000        1.0900000E-03    8.6800000E-04    2.2200000E-04    1.0649077E-04     9390.485    
 p144                 obsgroup      1.0400000E-03    8.5700000E-04    1.8300000E-04     1.000000        1.0400000E-03    8.5700000E-04    1.8300000E-04    1.0649077E-04     9390.485    
 p145                 obsgroup      1.0600000E-03    8.1700000E-04    2.4300000E-04     1.000000        1.0600000E-03    8.1700000E-04    2.4300000E-04    1.0649077E-04     9390.485    
 p146                 obsgroup      9.9000000E-04    8.0700000E-04    1.8300000E-04     1.000000        9.9000000E-04    8.0700000E-04    1.8300000E-04    1.0649077E-04     9390.485    
 p147                 obsgroup      1.0700000E-03    7.9700000E-04    2.7300000E-04     1.000000        1.0700000E-03    7.9700000E-04    2.7300000E-04    1.0649077E-04     9390.485    
 p148                 obsgroup      9.6000000E-04    7.6900000E-04    1.9100000E-04     1.000000        9.6000000E-04    7.6900000E-04    1.9100000E-04    1.0649077E-04     9390.485    
 p149                 obsgroup      8.4000000E-04    7.0000000E-04    1.4000000E-04     1.000000        8.4000000E-04    7.0000000E-04    1.4000000E-04    1.0649077E-04     9390.485    
 p150                 obsgroup      7.6000000E-04    6.4500000E-04    1.1500000E-04     1.000000        7.6000000E-04    6.4500000E-04    1.1500000E-04    1.0649077E-04     9390.485    
 p151                 obsgroup      7.8000000E-04    6.3800000E-04    1.4200000E-04     1.000000        7.8000000E-04    6.3800000E-04    1.4200000E-04    1.0649077E-04     9390.485    
 p152                 obsgroup      7.1000000E-04    6.2900000E-04    8.1000000E-05     1.000000        7.1000000E-04    6.2900000E-04    8.1000000E-05    1.0649077E-04     9390.485    
 p153                 obsgroup      7.0000000E-04    6.1500000E-04    8.5000000E-05     1.000000        7.0000000E-04    6.1500000E-04    8.5000000E-05    1.0649077E-04     9390.485    
 p154                 obsgroup      6.9000000E-04    6.0900000E-04    8.1000000E-05     1.000000        6.9000000E-04    6.0900000E-04    8.1000000E-05    1.0649077E-04     9390.485    
 p155                 obsgroup      6.3000000E-04    6.0200000E-04    2.8000000E-05     1.000000        6.3000000E-04    6.0200000E-04    2.8000000E-05    1.0649077E-04     9390.485    
 p156                 obsgroup      6.5000000E-04    5.9600000E-04    5.4000000E-05     1.000000        6.5000000E-04    5.9600000E-04    5.4000000E-05    1.0649077E-04     9390.485    
 p157                 obsgroup      6.5000000E-04    5.9000000E-04    6.0000000E-05     1.000000        6.5000000E-04    5.9000000E-04    6.0000000E-05    1.0649077E-04     9390.485    
 p158                 obsgroup      6.4000000E-04    5.8400000E-04    5.6000000E-05     1.000000        6.4000000E-04    5.8400000E-04    5.6000000E-05    1.0649077E-04     9390.485    
 p159                 obsgroup      6.1000000E-04    5.7800000E-04    3.2000000E-05     1.000000        6.1000000E-04    5.7800000E-04    3.2000000E-05    1.0649077E-04     9390.485    
 p160                 obsgroup      6.3000000E-04    5.6600000E-04    6.4000000E-05     1.000000        6.3000000E-04    5.6600000E-04    6.4000000E-05    1.0649077E-04     9390.485    
 p161                 obsgroup      6.2000000E-04    5.6000000E-04    6.0000000E-05     1.000000        6.2000000E-04    5.6000000E-04    6.0000000E-05    1.0649077E-04     9390.485    
 p162                 obsgroup      5.6000000E-04    5.4900000E-04    1.1000000E-05     1.000000        5.6000000E-04    5.4900000E-04    1.1000000E-05    1.0649077E-04     9390.485    
 p163                 obsgroup      6.0000000E-04    5.4300000E-04    5.7000000E-05     1.000000        6.0000000E-04    5.4300000E-04    5.7000000E-05    1.0649077E-04     9390.485    
 p164                 obsgroup      6.0000000E-04    5.3800000E-04    6.2000000E-05     1.000000        6.0000000E-04    5.3800000E-04    6.2000000E-05    1.0649077E-04     9390.485    
 p165                 obsgroup      5.6000000E-04    5.3300000E-04    2.7000000E-05     1.000000        5.6000000E-04    5.3300000E-04    2.7000000E-05    1.0649077E-04     9390.485    
 p166                 obsgroup      5.9000000E-04    5.2700000E-04    6.3000000E-05     1.000000        5.9000000E-04    5.2700000E-04    6.3000000E-05    1.0649077E-04     9390.485    
 p167                 obsgroup      5.6000000E-04    5.1700000E-04    4.3000000E-05     1.000000        5.6000000E-04    5.1700000E-04    4.3000000E-05    1.0649077E-04     9390.485    
 p168                 obsgroup      5.6000000E-04    5.1200000E-04    4.8000000E-05     1.000000        5.6000000E-04    5.1200000E-04    4.8000000E-05    1.0649077E-04     9390.485    
 p169                 obsgroup      5.5000000E-04    5.0700000E-04    4.3000000E-05     1.000000        5.5000000E-04    5.0700000E-04    4.3000000E-05    1.0649077E-04     9390.485    
 p170                 obsgroup      5.5000000E-04    5.0200000E-04    4.8000000E-05     1.000000        5.5000000E-04    5.0200000E-04    4.8000000E-05    1.0649077E-04     9390.485    
 p171                 obsgroup      5.2000000E-04    4.9700000E-04    2.3000000E-05     1.000000        5.2000000E-04    4.9700000E-04    2.3000000E-05    1.0649077E-04     9390.485    
 p172                 obsgroup      5.0000000E-04    4.9200000E-04    8.0000000E-06     1.000000        5.0000000E-04    4.9200000E-04    8.0000000E-06    1.0649077E-04     9390.485    
 p173                 obsgroup      5.0000000E-04    4.8700000E-04    1.3000000E-05     1.000000        5.0000000E-04    4.8700000E-04    1.3000000E-05    1.0649077E-04     9390.485    
 p174                 obsgroup      5.0000000E-04    4.8200000E-04    1.8000000E-05     1.000000        5.0000000E-04    4.8200000E-04    1.8000000E-05    1.0649077E-04     9390.485    
 p175                 obsgroup      5.2000000E-04    4.6800000E-04    5.2000000E-05     1.000000        5.2000000E-04    4.6800000E-04    5.2000000E-05    1.0649077E-04     9390.485    
 p176                 obsgroup      4.7000000E-04    4.6300000E-04    7.0000000E-06     1.000000        4.7000000E-04    4.6300000E-04    7.0000000E-06    1.0649077E-04     9390.485    
 p177                 obsgroup      4.6000000E-04    4.5900000E-04    1.0000000E-06     1.000000        4.6000000E-04    4.5900000E-04    1.0000000E-06    1.0649077E-04     9390.485    
 p178                 obsgroup      4.7000000E-04    4.5400000E-04    1.6000000E-05     1.000000        4.7000000E-04    4.5400000E-04    1.6000000E-05    1.0649077E-04     9390.485    
 p179                 obsgroup      4.5000000E-04    4.5000000E-04     0.000000         1.000000        4.5000000E-04    4.5000000E-04     0.000000        1.0649077E-04     9390.485    
 p180                 obsgroup      4.6000000E-04    4.4500000E-04    1.5000000E-05     1.000000        4.6000000E-04    4.4500000E-04    1.5000000E-05    1.0649077E-04     9390.485    
 p181                 obsgroup      4.4000000E-04    4.4100000E-04   -1.0000000E-06     1.000000        4.4000000E-04    4.4100000E-04   -1.0000000E-06    1.0649077E-04     9390.485    
 p182                 obsgroup      4.2000000E-04    4.3700000E-04   -1.7000000E-05     1.000000        4.2000000E-04    4.3700000E-04   -1.7000000E-05    1.0649077E-04     9390.485    
 p183                 obsgroup      4.5000000E-04    4.3200000E-04    1.8000000E-05     1.000000        4.5000000E-04    4.3200000E-04    1.8000000E-05    1.0649077E-04     9390.485    
 p184                 obsgroup      4.5000000E-04    4.2400000E-04    2.6000000E-05     1.000000        4.5000000E-04    4.2400000E-04    2.6000000E-05    1.0649077E-04     9390.485    
 p185                 obsgroup      3.8000000E-04    4.2000000E-04   -4.0000000E-05     1.000000        3.8000000E-04    4.2000000E-04   -4.0000000E-05    1.0649077E-04     9390.485    
 p186                 obsgroup      3.6000000E-04    4.1600000E-04   -5.6000000E-05     1.000000        3.6000000E-04    4.1600000E-04   -5.6000000E-05    1.0649077E-04     9390.485    
 p187                 obsgroup      4.0000000E-04    4.1200000E-04   -1.2000000E-05     1.000000        4.0000000E-04    4.1200000E-04   -1.2000000E-05    1.0649077E-04     9390.485    
 p188                 obsgroup      3.7000000E-04    4.0800000E-04   -3.8000000E-05     1.000000        3.7000000E-04    4.0800000E-04   -3.8000000E-05    1.0649077E-04     9390.485    
 p189                 obsgroup      3.7000000E-04    4.0400000E-04   -3.4000000E-05     1.000000        3.7000000E-04    4.0400000E-04   -3.4000000E-05    1.0649077E-04     9390.485    
 p190                 obsgroup      3.6000000E-04    4.0000000E-04   -4.0000000E-05     1.000000        3.6000000E-04    4.0000000E-04   -4.0000000E-05    1.0649077E-04     9390.485    
 p191                 obsgroup      3.7000000E-04    3.9600000E-04   -2.6000000E-05     1.000000        3.7000000E-04    3.9600000E-04   -2.6000000E-05    1.0649077E-04     9390.485    
 p192                 obsgroup      3.2000000E-04    3.9200000E-04   -7.2000000E-05     1.000000        3.2000000E-04    3.9200000E-04   -7.2000000E-05    1.0649077E-04     9390.485    
 p193                 obsgroup      3.3000000E-04    3.8800000E-04   -5.8000000E-05     1.000000        3.3000000E-04    3.8800000E-04   -5.8000000E-05    1.0649077E-04     9390.485    
 p194                 obsgroup      3.7000000E-04    3.8500000E-04   -1.5000000E-05     1.000000        3.7000000E-04    3.8500000E-04   -1.5000000E-05    1.0649077E-04     9390.485    
 p195                 obsgroup      2.9000000E-04    3.7300000E-04   -8.3000000E-05     1.000000        2.9000000E-04    3.7300000E-04   -8.3000000E-05    1.0649077E-04     9390.485    
 p196                 obsgroup      2.9000000E-04    3.7000000E-04   -8.0000000E-05     1.000000        2.9000000E-04    3.7000000E-04   -8.0000000E-05    1.0649077E-04     9390.485    
 p197                 obsgroup      2.8000000E-04    3.6700000E-04   -8.7000000E-05     1.000000        2.8000000E-04    3.6700000E-04   -8.7000000E-05    1.0649077E-04     9390.485    
 p198                 obsgroup      2.1000000E-04    3.6400000E-04   -1.5400000E-04     1.000000        2.1000000E-04    3.6400000E-04   -1.5400000E-04    1.0649077E-04     9390.485    
 p199                 obsgroup      2.8000000E-04    3.6100000E-04   -8.1000000E-05     1.000000        2.8000000E-04    3.6100000E-04   -8.1000000E-05    1.0649077E-04     9390.485    
 p200                 obsgroup      2.4000000E-04    3.5500000E-04   -1.1500000E-04     1.000000        2.4000000E-04    3.5500000E-04   -1.1500000E-04    1.0649077E-04     9390.485    
 p201                 obsgroup      2.4000000E-04    3.5300000E-04   -1.1300000E-04     1.000000        2.4000000E-04    3.5300000E-04   -1.1300000E-04    1.0649077E-04     9390.485    
 p202                 obsgroup      2.6000000E-04    3.4700000E-04   -8.7000000E-05     1.000000        2.6000000E-04    3.4700000E-04   -8.7000000E-05    1.0649077E-04     9390.485    
 p203                 obsgroup      2.7000000E-04    3.4400000E-04   -7.4000000E-05     1.000000        2.7000000E-04    3.4400000E-04   -7.4000000E-05    1.0649077E-04     9390.485    
 p204                 obsgroup      2.3000000E-04    3.4100000E-04   -1.1100000E-04     1.000000        2.3000000E-04    3.4100000E-04   -1.1100000E-04    1.0649077E-04     9390.485    
 p205                 obsgroup      1.9000000E-04    3.3800000E-04   -1.4800000E-04     1.000000        1.9000000E-04    3.3800000E-04   -1.4800000E-04    1.0649077E-04     9390.485    
 p206                 obsgroup      1.9000000E-04    3.3600000E-04   -1.4600000E-04     1.000000        1.9000000E-04    3.3600000E-04   -1.4600000E-04    1.0649077E-04     9390.485    
 p207                 obsgroup      2.6000000E-04    3.3300000E-04   -7.3000000E-05     1.000000        2.6000000E-04    3.3300000E-04   -7.3000000E-05    1.0649077E-04     9390.485    
 p208                 obsgroup      2.6000000E-04    3.3000000E-04   -7.0000000E-05     1.000000        2.6000000E-04    3.3000000E-04   -7.0000000E-05    1.0649077E-04     9390.485    
 p209                 obsgroup      2.8000000E-04    3.2800000E-04   -4.8000000E-05     1.000000        2.8000000E-04    3.2800000E-04   -4.8000000E-05    1.0649077E-04     9390.485    
 p210                 obsgroup      2.8000000E-04    3.2500000E-04   -4.5000000E-05     1.000000        2.8000000E-04    3.2500000E-04   -4.5000000E-05    1.0649077E-04     9390.485    
 p211                 obsgroup      3.0000000E-04    3.2200000E-04   -2.2000000E-05     1.000000        3.0000000E-04    3.2200000E-04   -2.2000000E-05    1.0649077E-04     9390.485    
 p212                 obsgroup      3.3000000E-04    3.2000000E-04    1.0000000E-05     1.000000        3.3000000E-04    3.2000000E-04    1.0000000E-05    1.0649077E-04     9390.485    
 p213                 obsgroup      2.4000000E-04    3.1700000E-04   -7.7000000E-05     1.000000        2.4000000E-04    3.1700000E-04   -7.7000000E-05    1.0649077E-04     9390.485    
 p214                 obsgroup      3.1000000E-04    3.1200000E-04   -2.0000000E-06     1.000000        3.1000000E-04    3.1200000E-04   -2.0000000E-06    1.0649077E-04     9390.485    
 p215                 obsgroup      3.4000000E-04    3.1000000E-04    3.0000000E-05     1.000000        3.4000000E-04    3.1000000E-04    3.0000000E-05    1.0649077E-04     9390.485    
 p216                 obsgroup      2.6000000E-04    3.0500000E-04   -4.5000000E-05     1.000000        2.6000000E-04    3.0500000E-04   -4.5000000E-05    1.0649077E-04     9390.485    
 p217                 obsgroup      2.2000000E-04    3.0300000E-04   -8.3000000E-05     1.000000        2.2000000E-04    3.0300000E-04   -8.3000000E-05    1.0649077E-04     9390.485    
 p218                 obsgroup      2.7000000E-04    3.0000000E-04   -3.0000000E-05     1.000000        2.7000000E-04    3.0000000E-04   -3.0000000E-05    1.0649077E-04     9390.485    
 p219                 obsgroup      3.2000000E-04    2.9800000E-04    2.2000000E-05     1.000000        3.2000000E-04    2.9800000E-04    2.2000000E-05    1.0649077E-04     9390.485    
 p220                 obsgroup      2.7800000E-04    2.9500000E-04   -1.7000000E-05     1.000000        2.7800000E-04    2.9500000E-04   -1.7000000E-05    1.0649077E-04     9390.485    
 p221                 obsgroup      2.4700000E-04    2.9300000E-04   -4.6000000E-05     1.000000        2.4700000E-04    2.9300000E-04   -4.6000000E-05    1.0649077E-04     9390.485    
 p222                 obsgroup      1.9600000E-04    2.9100000E-04   -9.5000000E-05     1.000000        1.9600000E-04    2.9100000E-04   -9.5000000E-05    1.0649077E-04     9390.485    
 p223                 obsgroup      1.6500000E-04    2.8900000E-04   -1.2400000E-04     1.000000        1.6500000E-04    2.8900000E-04   -1.2400000E-04    1.0649077E-04     9390.485    
 p224                 obsgroup      2.2700000E-04    2.8600000E-04   -5.9000000E-05     1.000000        2.2700000E-04    2.8600000E-04   -5.9000000E-05    1.0649077E-04     9390.485    
 p225                 obsgroup      1.9600000E-04    2.8400000E-04   -8.8000000E-05     1.000000        1.9600000E-04    2.8400000E-04   -8.8000000E-05    1.0649077E-04     9390.485    
 p226                 obsgroup      1.6500000E-04    2.8200000E-04   -1.1700000E-04     1.000000        1.6500000E-04    2.8200000E-04   -1.1700000E-04    1.0649077E-04     9390.485    
 p227                 obsgroup      2.0600000E-04    2.8000000E-04   -7.4000000E-05     1.000000        2.0600000E-04    2.8000000E-04   -7.4000000E-05    1.0649077E-04     9390.485    
 p228                 obsgroup      3.9100000E-04    2.7700000E-04    1.1400000E-04     1.000000        3.9100000E-04    2.7700000E-04    1.1400000E-04    1.0649077E-04     9390.485    
 p229                 obsgroup      1.7500000E-04    2.7500000E-04   -1.0000000E-04     1.000000        1.7500000E-04    2.7500000E-04   -1.0000000E-04    1.0649077E-04     9390.485    
 p230                 obsgroup      1.2400000E-04    2.7300000E-04   -1.4900000E-04     1.000000        1.2400000E-04    2.7300000E-04   -1.4900000E-04    1.0649077E-04     9390.485    
 p231                 obsgroup      1.4400000E-04    2.7100000E-04   -1.2700000E-04     1.000000        1.4400000E-04    2.7100000E-04   -1.2700000E-04    1.0649077E-04     9390.485    
 p232                 obsgroup      2.7800000E-04    2.6900000E-04    9.0000000E-06     1.000000        2.7800000E-04    2.6900000E-04    9.0000000E-06    1.0649077E-04     9390.485    
 p233                 obsgroup      1.4400000E-04    2.6700000E-04   -1.2300000E-04     1.000000        1.4400000E-04    2.6700000E-04   -1.2300000E-04    1.0649077E-04     9390.485    
 p234                 obsgroup      1.6500000E-04    2.6500000E-04   -1.0000000E-04     1.000000        1.6500000E-04    2.6500000E-04   -1.0000000E-04    1.0649077E-04     9390.485    
 p235                 obsgroup      8.2000000E-05    2.6300000E-04   -1.8100000E-04     1.000000        8.2000000E-05    2.6300000E-04   -1.8100000E-04    1.0649077E-04     9390.485    
 p236                 obsgroup      8.2000000E-05    2.6100000E-04   -1.7900000E-04     1.000000        8.2000000E-05    2.6100000E-04   -1.7900000E-04    1.0649077E-04     9390.485    
 p237                 obsgroup      1.4400000E-04    2.5900000E-04   -1.1500000E-04     1.000000        1.4400000E-04    2.5900000E-04   -1.1500000E-04    1.0649077E-04     9390.485    
 p238                 obsgroup      8.2000000E-05    2.5700000E-04   -1.7500000E-04     1.000000        8.2000000E-05    2.5700000E-04   -1.7500000E-04    1.0649077E-04     9390.485    
 p239                 obsgroup      8.2000000E-05    2.5500000E-04   -1.7300000E-04     1.000000        8.2000000E-05    2.5500000E-04   -1.7300000E-04    1.0649077E-04     9390.485    
 p240                 obsgroup      5.2000000E-05    2.5300000E-04   -2.0100000E-04     1.000000        5.2000000E-05    2.5300000E-04   -2.0100000E-04    1.0649077E-04     9390.485    
 p241                 obsgroup      1.1300000E-04    2.5100000E-04   -1.3800000E-04     1.000000        1.1300000E-04    2.5100000E-04   -1.3800000E-04    1.0649077E-04     9390.485    
 p242                 obsgroup      2.1000000E-05    2.5000000E-04   -2.2900000E-04     1.000000        2.1000000E-05    2.5000000E-04   -2.2900000E-04    1.0649077E-04     9390.485    
 p243                 obsgroup      1.0300000E-04    2.4800000E-04   -1.4500000E-04     1.000000        1.0300000E-04    2.4800000E-04   -1.4500000E-04    1.0649077E-04     9390.485    
 p244                 obsgroup      9.3000000E-05    2.4600000E-04   -1.5300000E-04     1.000000        9.3000000E-05    2.4600000E-04   -1.5300000E-04    1.0649077E-04     9390.485    
 p245                 obsgroup      2.1000000E-05    2.4400000E-04   -2.2300000E-04     1.000000        2.1000000E-05    2.4400000E-04   -2.2300000E-04    1.0649077E-04     9390.485    
 p246                 obsgroup      5.2000000E-05    2.4200000E-04   -1.9000000E-04     1.000000        5.2000000E-05    2.4200000E-04   -1.9000000E-04    1.0649077E-04     9390.485    
 p247                 obsgroup      3.1000000E-05    2.4000000E-04   -2.0900000E-04     1.000000        3.1000000E-05    2.4000000E-04   -2.0900000E-04    1.0649077E-04     9390.485    
 p248                 obsgroup      4.1000000E-05    2.3800000E-04   -1.9700000E-04     1.000000        4.1000000E-05    2.3800000E-04   -1.9700000E-04    1.0649077E-04     9390.485    
 p249                 obsgroup      4.1000000E-05    2.3700000E-04   -1.9600000E-04     1.000000        4.1000000E-05    2.3700000E-04   -1.9600000E-04    1.0649077E-04     9390.485    
 p250                 obsgroup       0.000000        2.3300000E-04   -2.3300000E-04     1.000000         0.000000        2.3300000E-04   -2.3300000E-04    1.0649077E-04     9390.485    
 p251                 obsgroup      5.2000000E-05    2.3200000E-04   -1.8000000E-04     1.000000        5.2000000E-05    2.3200000E-04   -1.8000000E-04    1.0649077E-04     9390.485    
 p252                 obsgroup      3.1000000E-05    2.3000000E-04   -1.9900000E-04     1.000000        3.1000000E-05    2.3000000E-04   -1.9900000E-04    1.0649077E-04     9390.485    
 p253                 obsgroup      6.2000000E-05    2.2800000E-04   -1.6600000E-04     1.000000        6.2000000E-05    2.2800000E-04   -1.6600000E-04    1.0649077E-04     9390.485    
 p254                 obsgroup      2.1000000E-05    2.2700000E-04   -2.0600000E-04     1.000000        2.1000000E-05    2.2700000E-04   -2.0600000E-04    1.0649077E-04     9390.485    
 p255                 obsgroup      1.0000000E-05    2.2500000E-04   -2.1500000E-04     1.000000        1.0000000E-05    2.2500000E-04   -2.1500000E-04    1.0649077E-04     9390.485    
 p256                 obsgroup      7.2000000E-05    2.2300000E-04   -1.5100000E-04     1.000000        7.2000000E-05    2.2300000E-04   -1.5100000E-04    1.0649077E-04     9390.485    
 p257                 obsgroup      8.2000000E-05    2.2200000E-04   -1.4000000E-04     1.000000        8.2000000E-05    2.2200000E-04   -1.4000000E-04    1.0649077E-04     9390.485    
 p258                 obsgroup      3.1000000E-05    2.2000000E-04   -1.8900000E-04     1.000000        3.1000000E-05    2.2000000E-04   -1.8900000E-04    1.0649077E-04     9390.485    
 p259                 obsgroup      6.2000000E-05    2.1800000E-04   -1.5600000E-04     1.000000        6.2000000E-05    2.1800000E-04   -1.5600000E-04    1.0649077E-04     9390.485    
