 Name                 Group          Measured         Modelled         Residual         Weight       Weight*Measured    Weight*Modelled  Weight*Residual  Measurement_sd   Natural_weight
 p001                 obsgroup      1.0510000E-03    1.0110000E-03    4.0000000E-05     1.000000        1.0510000E-03    1.0110000E-03    4.0000000E-05    1.6141482E-04     6195.218    
 p002                 obsgroup      1.0270000E-03    1.0190000E-03    8.0000000E-06     1.000000        1.0270000E-03    1.0190000E-03    8.0000000E-06    1.6141482E-04     6195.218    
 p003                 obsgroup      9.6400000E-04    1.0320000E-03   -6.8000000E-05     1.000000        9.6400000E-04    1.0320000E-03   -6.8000000E-05    1.6141482E-04     6195.218    
 p004                 obsgroup      1.0610000E-03    1.0510000E-03    1.0000000E-05     1.000000        1.0610000E-03    1.0510000E-03    1.0000000E-05    1.6141482E-04     6195.218    
 p005                 obsgroup      1.1020000E-03    1.0780000E-03    2.4000000E-05     1.000000        1.1020000E-03    1.0780000E-03    2.4000000E-05    1.6141482E-04     6195.218    
 p006                 obsgroup      1.0290000E-03    1.1160000E-03   -8.7000000E-05     1.000000        1.0290000E-03    1.1160000E-03   -8.7000000E-05    1.6141482E-04     6195.218    
 p007                 obsgroup      1.1120000E-03    1.1680000E-03   -5.6000000E-05     1.000000        1.1120000E-03    1.1680000E-03   -5.6000000E-05    1.6141482E-04     6195.218    
 p008                 obsgroup      1.1740000E-03    1.2340000E-03   -6.0000000E-05     1.000000        1.1740000E-03    1.2340000E-03   -6.0000000E-05    1.6141482E-04     6195.218    
 p009                 obsgroup      1.2260000E-03    1.3200000E-03   -9.4000000E-05     1.000000        1.2260000E-03    1.3200000E-03   -9.4000000E-05    1.6141482E-04     6195.218    
 p010                 obsgroup      1.3290000E-03    1.4270000E-03   -9.8000000E-05     1.000000        1.3290000E-03    1.4270000E-03   -9.8000000E-05    1.6141482E-04     6195.218    
 p011                 obsgroup      1.5140000E-03    1.5570000E-03   -4.3000000E-05     1.000000        1.5140000E-03    1.5570000E-03   -4.3000000E-05    1.6141482E-04     6195.218    
 p012                 obsgroup      1.6890000E-03    1.7110000E-03   -2.2000000E-05     1.000000        1.6890000E-03    1.7110000E-03   -2.2000000E-05    1.6141482E-04     6195.218    
 p013                 obsgroup      1.9060000E-03    1.8890000E-03    1.7000000E-05     1.000000        1.9060000E-03    1.8890000E-03    1.7000000E-05    1.6141482E-04     6195.218    
 p014                 obsgroup      1.9360000E-03    2.0940000E-03   -1.5800000E-04     1.000000        1.9360000E-03    2.0940000E-03   -1.5800000E-04    1.6141482E-04     6195.218    
 p015                 obsgroup      2.3280000E-03    2.3250000E-03    3.0000000E-06     1.000000        2.3280000E-03    2.3250000E-03    3.0000000E-06    1.6141482E-04     6195.218    
 p016                 obsgroup      2.4310000E-03    2.5870000E-03   -1.5600000E-04     1.000000        2.4310000E-03    2.5870000E-03   -1.5600000E-04    1.6141482E-04     6195.218    
 p017                 obsgroup      2.9360000E-03    2.8650000E-03    7.1000000E-05     1.000000        2.9360000E-03    2.8650000E-03    7.1000000E-05    1.6141482E-04     6195.218    
 p018                 obsgroup      2.9660000E-03    3.1530000E-03   -1.8700000E-04     1.000000        2.9660000E-03    3.1530000E-03   -1.8700000E-04    1.6141482E-04     6195.218    
 p019                 obsgroup      3.4200000E-03    3.4650000E-03   -4.5000000E-05     1.000000        3.4200000E-03    3.4650000E-03   -4.5000000E-05    1.6141482E-04     6195.218    
 p020                 obsgroup      3.8010000E-03    3.7920000E-03    9.0000000E-06     1.000000        3.8010000E-03    3.7920000E-03    9.0000000E-06    1.6141482E-04     6195.218    
 p021                 obsgroup      4.1410000E-03    4.1350000E-03    6.0000000E-06     1.000000        4.1410000E-03    4.1350000E-03    6.0000000E-06    1.6141482E-04     6195.218    
 p022                 obsgroup      4.3160000E-03    4.4940000E-03   -1.7800000E-04     1.000000        4.3160000E-03    4.4940000E-03   -1.7800000E-04    1.6141482E-04     6195.218    
 p023                 obsgroup      4.8620000E-03    4.8510000E-03    1.1000000E-05     1.000000        4.8620000E-03    4.8510000E-03    1.1000000E-05    1.6141482E-04     6195.218    
 p024                 obsgroup      5.3350000E-03    5.2070000E-03    1.2800000E-04     1.000000        5.3350000E-03    5.2070000E-03    1.2800000E-04    1.6141482E-04     6195.218    
 p025                 obsgroup      5.5930000E-03    5.5720000E-03    2.1000000E-05     1.000000        5.5930000E-03    5.5720000E-03    2.1000000E-05    1.6141482E-04     6195.218    
 p026                 obsgroup      5.5930000E-03    5.9410000E-03   -3.4800000E-04     1.000000        5.5930000E-03    5.9410000E-03   -3.4800000E-04    1.6141482E-04     6195.218    
 p027                 obsgroup      6.7260000E-03    6.2970000E-03    4.2900000E-04     1.000000        6.7260000E-03    6.2970000E-03    4.2900000E-04    1.6141482E-04     6195.218    
 p028                 obsgroup      6.8800000E-03    6.6350000E-03    2.4500000E-04     1.000000        6.8800000E-03    6.6350000E-03    2.4500000E-04    1.6141482E-04     6195.218    
 p029                 obsgroup      7.1280000E-03    6.9690000E-03    1.5900000E-04     1.000000        7.1280000E-03    6.9690000E-03    1.5900000E-04    1.6141482E-04     6195.218    
 p030                 obsgroup      7.2510000E-03    7.2980000E-03   -4.7000000E-05     1.000000        7.2510000E-03    7.2980000E-03   -4.7000000E-05    1.6141482E-04     6195.218    
 p031                 obsgroup      7.6840000E-03    7.6170000E-03    6.7000000E-05     1.000000        7.6840000E-03    7.6170000E-03    6.7000000E-05    1.6141482E-04     6195.218    
 p032                 obsgroup      8.4670000E-03    7.9200000E-03    5.4700000E-04     1.000000        8.4670000E-03    7.9200000E-03    5.4700000E-04    1.6141482E-04     6195.218    
 p033                 obsgroup      8.2090000E-03    8.2110000E-03   -2.0000000E-06     1.000000        8.2090000E-03    8.2110000E-03   -2.0000000E-06    1.6141482E-04     6195.218    
 p034                 obsgroup      8.4770000E-03    8.4900000E-03   -1.3000000E-05     1.000000        8.4770000E-03    8.4900000E-03   -1.3000000E-05    1.6141482E-04     6195.218    
 p035                 obsgroup      8.5800000E-03    8.7540000E-03   -1.7400000E-04     1.000000        8.5800000E-03    8.7540000E-03   -1.7400000E-04    1.6141482E-04     6195.218    
 p036                 obsgroup      8.8580000E-03    9.0060000E-03   -1.4800000E-04     1.000000        8.8580000E-03    9.0060000E-03   -1.4800000E-04    1.6141482E-04     6195.218    
 p037                 obsgroup      9.1770000E-03    9.2440000E-03   -6.7000000E-05     1.000000        9.1770000E-03    9.2440000E-03   -6.7000000E-05    1.6141482E-04     6195.218    
 p038                 obsgroup      9.1980000E-03    9.4640000E-03   -2.6600000E-04     1.000000        9.1980000E-03    9.4640000E-03   -2.6600000E-04    1.6141482E-04     6195.218    
 p039                 obsgroup      9.3730000E-03    9.6670000E-03   -2.9400000E-04     1.000000        9.3730000E-03    9.6670000E-03   -2.9400000E-04    1.6141482E-04     6195.218    
 p040                 obsgroup      9.7440000E-03    9.8550000E-03   -1.1100000E-04     1.000000        9.7440000E-03    9.8550000E-03   -1.1100000E-04    1.6141482E-04     6195.218    
 p041                 obsgroup      1.0187000E-02    1.0027000E-02    1.6000000E-04     1.000000        1.0187000E-02    1.0027000E-02    1.6000000E-04    1.6141482E-04     6195.218    
 p042                 obsgroup      1.0043000E-02    1.0183000E-02   -1.4000000E-04     1.000000        1.0043000E-02    1.0183000E-02   -1.4000000E-04    1.6141482E-04     6195.218    
 p043                 obsgroup      1.0218000E-02    1.0321000E-02   -1.0300000E-04     1.000000        1.0218000E-02    1.0321000E-02   -1.0300000E-04    1.6141482E-04     6195.218    
 p044                 obsgroup      1.0712000E-02    1.0442000E-02    2.7000000E-04     1.000000        1.0712000E-02    1.0442000E-02    2.7000000E-04    1.6141482E-04     6195.218    
 p045                 obsgroup      1.0238000E-02    1.0550000E-02   -3.1200000E-04     1.000000        1.0238000E-02    1.0550000E-02   -3.1200000E-04    1.6141482E-04     6195.218    
 p046                 obsgroup      1.1021000E-02    1.0641000E-02    3.8000000E-04     1.000000        1.1021000E-02    1.0641000E-02    3.8000000E-04    1.6141482E-04     6195.218    
 p047                 obsgroup      1.0506000E-02    1.0717000E-02   -2.1100000E-04     1.000000        1.0506000E-02    1.0717000E-02   -2.1100000E-04    1.6141482E-04     6195.218    
 p048                 obsgroup      1.0506000E-02    1.0781000E-02   -2.7500000E-04     1.000000        1.0506000E-02    1.0781000E-02   -2.7500000E-04    1.6141482E-04     6195.218    
 p049                 obsgroup      1.1021000E-02    1.0833000E-02    1.8800000E-04     1.000000        1.1021000E-02    1.0833000E-02    1.8800000E-04    1.6141482E-04     6195.218    
 p050                 obsgroup      1.0712000E-02    1.0872000E-02   -1.6000000E-04     1.000000        1.0712000E-02    1.0872000E-02   -1.6000000E-04    1.6141482E-04     6195.218    
 p051                 obsgroup      1.0712000E-02    1.0902000E-02   -1.9000000E-04     1.000000        1.0712000E-02    1.0902000E-02   -1.9000000E-04    1.6141482E-04     6195.218    
 p052                 obsgroup      1.0712000E-02    1.0920000E-02   -2.0800000E-04     1.000000        1.0712000E-02    1.0920000E-02   -2.0800000E-04    1.6141482E-04     6195.218    
 p053                 obsgroup      1.1433000E-02    1.0929000E-02    5.0400000E-04     1.000000        1.1433000E-02    1.0929000E-02    5.0400000E-04    1.6141482E-04     6195.218    
 p054                 obsgroup      1.1330000E-02    1.0929000E-02    4.0100000E-04     1.000000        1.1330000E-02    1.0929000E-02    4.0100000E-04    1.6141482E-04     6195.218    
 p055                 obsgroup      1.1433000E-02    1.0921000E-02    5.1200000E-04     1.000000        1.1433000E-02    1.0921000E-02    5.1200000E-04    1.6141482E-04     6195.218    
 p056                 obsgroup      1.1536000E-02    1.0906000E-02    6.3000000E-04     1.000000        1.1536000E-02    1.0906000E-02    6.3000000E-04    1.6141482E-04     6195.218    
 p057                 obsgroup      1.0918000E-02    1.0883000E-02    3.5000000E-05     1.000000        1.0918000E-02    1.0883000E-02    3.5000000E-05    1.6141482E-04     6195.218    
 p058                 obsgroup      1.0815000E-02    1.0852000E-02   -3.7000000E-05     1.000000        1.0815000E-02    1.0852000E-02   -3.7000000E-05    1.6141482E-04     6195.218    
 p059                 obsgroup      1.0506000E-02    1.0814000E-02   -3.0800000E-04     1.000000        1.0506000E-02    1.0814000E-02   -3.0800000E-04    1.6141482E-04     6195.218    
 p060                 obsgroup      1.0918000E-02    1.0772000E-02    1.4600000E-04     1.000000        1.0918000E-02    1.0772000E-02    1.4600000E-04    1.6141482E-04     6195.218    
 p061                 obsgroup      1.0815000E-02    1.0726000E-02    8.9000000E-05     1.000000        1.0815000E-02    1.0726000E-02    8.9000000E-05    1.6141482E-04     6195.218    
 p062                 obsgroup      1.0506000E-02    1.0672000E-02   -1.6600000E-04     1.000000        1.0506000E-02    1.0672000E-02   -1.6600000E-04    1.6141482E-04     6195.218    
 p063                 obsgroup      1.0300000E-02    1.0613000E-02   -3.1300000E-04     1.000000        1.0300000E-02    1.0613000E-02   -3.1300000E-04    1.6141482E-04     6195.218    
 p064                 obsgroup      1.0146000E-02    1.0548000E-02   -4.0200000E-04     1.000000        1.0146000E-02    1.0548000E-02   -4.0200000E-04    1.6141482E-04     6195.218    
 p065                 obsgroup      1.0403000E-02    1.0480000E-02   -7.7000000E-05     1.000000        1.0403000E-02    1.0480000E-02   -7.7000000E-05    1.6141482E-04     6195.218    
 p066                 obsgroup      1.0166000E-02    1.0408000E-02   -2.4200000E-04     1.000000        1.0166000E-02    1.0408000E-02   -2.4200000E-04    1.6141482E-04     6195.218    
 p067                 obsgroup      9.9400000E-03    1.0332000E-02   -3.9200000E-04     1.000000        9.9400000E-03    1.0332000E-02   -3.9200000E-04    1.6141482E-04     6195.218    
 p068                 obsgroup      1.0146000E-02    1.0253000E-02   -1.0700000E-04     1.000000        1.0146000E-02    1.0253000E-02   -1.0700000E-04    1.6141482E-04     6195.218    
 p069                 obsgroup      9.7750000E-03    1.0170000E-02   -3.9500000E-04     1.000000        9.7750000E-03    1.0170000E-02   -3.9500000E-04    1.6141482E-04     6195.218    
 p070                 obsgroup      1.0156000E-02    1.0085000E-02    7.1000000E-05     1.000000        1.0156000E-02    1.0085000E-02    7.1000000E-05    1.6141482E-04     6195.218    
 p071                 obsgroup      1.0115000E-02    9.9990000E-03    1.1600000E-04     1.000000        1.0115000E-02    9.9990000E-03    1.1600000E-04    1.6141482E-04     6195.218    
 p072                 obsgroup      9.8980000E-03    9.9110000E-03   -1.3000000E-05     1.000000        9.8980000E-03    9.9110000E-03   -1.3000000E-05    1.6141482E-04     6195.218    
 p073                 obsgroup      9.6000000E-03    9.8210000E-03   -2.2100000E-04     1.000000        9.6000000E-03    9.8210000E-03   -2.2100000E-04    1.6141482E-04     6195.218    
 p074                 obsgroup      9.8160000E-03    9.7320000E-03    8.4000000E-05     1.000000        9.8160000E-03    9.7320000E-03    8.4000000E-05    1.6141482E-04     6195.218    
 p075                 obsgroup      1.0022000E-02    9.6420000E-03    3.8000000E-04     1.000000        1.0022000E-02    9.6420000E-03    3.8000000E-04    1.6141482E-04     6195.218    
 p076                 obsgroup      9.2390000E-03    9.5500000E-03   -3.1100000E-04     1.000000        9.2390000E-03    9.5500000E-03   -3.1100000E-04    1.6141482E-04     6195.218    
 p077                 obsgroup      9.7540000E-03    9.4570000E-03    2.9700000E-04     1.000000        9.7540000E-03    9.4570000E-03    2.9700000E-04    1.6141482E-04     6195.218    
 p078                 obsgroup      9.2600000E-03    9.3630000E-03   -1.0300000E-04     1.000000        9.2600000E-03    9.3630000E-03   -1.0300000E-04    1.6141482E-04     6195.218    
 p079                 obsgroup      9.3420000E-03    9.2690000E-03    7.3000000E-05     1.000000        9.3420000E-03    9.2690000E-03    7.3000000E-05    1.6141482E-04     6195.218    
 p080                 obsgroup      9.1460000E-03    9.1740000E-03   -2.8000000E-05     1.000000        9.1460000E-03    9.1740000E-03   -2.8000000E-05    1.6141482E-04     6195.218    
 p081                 obsgroup      9.1670000E-03    8.8970000E-03    2.7000000E-04     1.000000        9.1670000E-03    8.8970000E-03    2.7000000E-04    1.6141482E-04     6195.218    
 p082                 obsgroup      8.5900000E-03    8.6190000E-03   -2.9000000E-05     1.000000        8.5900000E-03    8.6190000E-03   -2.9000000E-05    1.6141482E-04     6195.218    
 p083                 obsgroup      8.3120000E-03    8.3480000E-03   -3.6000000E-05     1.000000        8.3120000E-03    8.3480000E-03   -3.6000000E-05    1.6141482E-04     6195.218    
 p084                 obsgroup      8.2500000E-03    8.0820000E-03    1.6800000E-04     1.000000        8.2500000E-03    8.0820000E-03    1.6800000E-04    1.6141482E-04     6195.218    
 p085                 obsgroup      7.8590000E-03    7.8180000E-03    4.1000000E-05     1.000000        7.8590000E-03    7.8180000E-03    4.1000000E-05    1.6141482E-04     6195.218    
 p086                 obsgroup      7.4880000E-03    7.5530000E-03   -6.5000000E-05     1.000000        7.4880000E-03    7.5530000E-03   -6.5000000E-05    1.6141482E-04     6195.218    
 p087                 obsgroup      7.4260000E-03    7.3050000E-03    1.2100000E-04     1.000000        7.4260000E-03    7.3050000E-03    1.2100000E-04    1.6141482E-04     6195.218    
 p088                 obsgroup      7.0350000E-03    7.0630000E-03   -2.8000000E-05     1.000000        7.0350000E-03    7.0630000E-03   -2.8000000E-05    1.6141482E-04     6195.218    
 p089                 obsgroup      7.0560000E-03    6.8280000E-03    2.2800000E-04     1.000000        7.0560000E-03    6.8280000E-03    2.2800000E-04    1.6141482E-04     6195.218    
 p090                 obsgroup      6.7880000E-03    6.6070000E-03    1.8100000E-04     1.000000        6.7880000E-03    6.6070000E-03    1.8100000E-04    1.6141482E-04     6195.218    
 p091                 obsgroup      6.5300000E-03    6.3920000E-03    1.3800000E-04     1.000000        6.5300000E-03    6.3920000E-03    1.3800000E-04    1.6141482E-04     6195.218    
 p092                 obsgroup      6.3240000E-03    6.1840000E-03    1.4000000E-04     1.000000        6.3240000E-03    6.1840000E-03    1.4000000E-04    1.6141482E-04     6195.218    
 p093                 obsgroup      6.0770000E-03    5.9880000E-03    8.9000000E-05     1.000000        6.0770000E-03    5.9880000E-03    8.9000000E-05    1.6141482E-04     6195.218    
 p094                 obsgroup      5.7780000E-03    5.7950000E-03   -1.7000000E-05     1.000000        5.7780000E-03    5.7950000E-03   -1.7000000E-05    1.6141482E-04     6195.218    
 p095                 obsgroup      5.5410000E-03    5.6120000E-03   -7.1000000E-05     1.000000        5.5410000E-03    5.6120000E-03   -7.1000000E-05    1.6141482E-04     6195.218    
 p096                 obsgroup      5.4280000E-03    5.4340000E-03   -6.0000000E-06     1.000000        5.4280000E-03    5.4340000E-03   -6.0000000E-06    1.6141482E-04     6195.218    
 p097                 obsgroup      5.3250000E-03    5.2620000E-03    6.3000000E-05     1.000000        5.3250000E-03    5.2620000E-03    6.3000000E-05    1.6141482E-04     6195.218    
 p098                 obsgroup      5.0260000E-03    5.1020000E-03   -7.6000000E-05     1.000000        5.0260000E-03    5.1020000E-03   -7.6000000E-05    1.6141482E-04     6195.218    
 p099                 obsgroup      5.3660000E-03    4.9490000E-03    4.1700000E-04     1.000000        5.3660000E-03    4.9490000E-03    4.1700000E-04    1.6141482E-04     6195.218    
 p100                 obsgroup      4.9960000E-03    4.8030000E-03    1.9300000E-04     1.000000        4.9960000E-03    4.8030000E-03    1.9300000E-04    1.6141482E-04     6195.218    
 p101                 obsgroup      4.6450000E-03    4.6620000E-03   -1.7000000E-05     1.000000        4.6450000E-03    4.6620000E-03   -1.7000000E-05    1.6141482E-04     6195.218    
 p102                 obsgroup      4.5220000E-03    4.5260000E-03   -4.0000000E-06     1.000000        4.5220000E-03    4.5260000E-03   -4.0000000E-06    1.6141482E-04     6195.218    
 p103                 obsgroup      4.2850000E-03    4.3960000E-03   -1.1100000E-04     1.000000        4.2850000E-03    4.3960000E-03   -1.1100000E-04    1.6141482E-04     6195.218    
 p104                 obsgroup      4.1100000E-03    4.2690000E-03   -1.5900000E-04     1.000000        4.1100000E-03    4.2690000E-03   -1.5900000E-04    1.6141482E-04     6195.218    
 p105                 obsgroup      3.9860000E-03    4.1440000E-03   -1.5800000E-04     1.000000        3.9860000E-03    4.1440000E-03   -1.5800000E-04    1.6141482E-04     6195.218    
 p106                 obsgroup      4.2540000E-03    4.0230000E-03    2.3100000E-04     1.000000        4.2540000E-03    4.0230000E-03    2.3100000E-04    1.6141482E-04     6195.218    
 p107                 obsgroup      3.8730000E-03    3.9090000E-03   -3.6000000E-05     1.000000        3.8730000E-03    3.9090000E-03   -3.6000000E-05    1.6141482E-04     6195.218    
 p108                 obsgroup      3.7490000E-03    3.8000000E-03   -5.1000000E-05     1.000000        3.7490000E-03    3.8000000E-03   -5.1000000E-05    1.6141482E-04     6195.218    
 p109                 obsgroup      4.0270000E-03    3.6940000E-03    3.3300000E-04     1.000000        4.0270000E-03    3.6940000E-03    3.3300000E-04    1.6141482E-04     6195.218    
 p110                 obsgroup      3.5330000E-03    3.5970000E-03   -6.4000000E-05     1.000000        3.5330000E-03    3.5970000E-03   -6.4000000E-05    1.6141482E-04     6195.218    
 p111                 obsgroup      3.5840000E-03    3.5020000E-03    8.2000000E-05     1.000000        3.5840000E-03    3.5020000E-03    8.2000000E-05    1.6141482E-04     6195.218    
 p112                 obsgroup      3.3480000E-03    3.4110000E-03   -6.3000000E-05     1.000000        3.3480000E-03    3.4110000E-03   -6.3000000E-05    1.6141482E-04     6195.218    
 p113                 obsgroup      3.1520000E-03    3.3230000E-03   -1.7100000E-04     1.000000        3.1520000E-03    3.3230000E-03   -1.7100000E-04    1.6141482E-04     6195.218    
 p114                 obsgroup      3.0690000E-03    3.2370000E-03   -1.6800000E-04     1.000000        3.0690000E-03    3.2370000E-03   -1.6800000E-04    1.6141482E-04     6195.218    
 p115                 obsgroup      2.9250000E-03    3.1540000E-03   -2.2900000E-04     1.000000        2.9250000E-03    3.1540000E-03   -2.2900000E-04    1.6141482E-04     6195.218    
 p116                 obsgroup      2.9770000E-03    3.0730000E-03   -9.6000000E-05     1.000000        2.9770000E-03    3.0730000E-03   -9.6000000E-05    1.6141482E-04     6195.218    
 p117                 obsgroup      2.8120000E-03    2.9920000E-03   -1.8000000E-04     1.000000        2.8120000E-03    2.9920000E-03   -1.8000000E-04    1.6141482E-04     6195.218    
 p118                 obsgroup      2.8120000E-03    2.9190000E-03   -1.0700000E-04     1.000000        2.8120000E-03    2.9190000E-03   -1.0700000E-04    1.6141482E-04     6195.218    
 p119                 obsgroup      2.8020000E-03    2.8460000E-03   -4.4000000E-05     1.000000        2.8020000E-03    2.8460000E-03   -4.4000000E-05    1.6141482E-04     6195.218    
 p120                 obsgroup      2.7090000E-03    2.7770000E-03   -6.8000000E-05     1.000000        2.7090000E-03    2.7770000E-03   -6.8000000E-05    1.6141482E-04     6195.218    
 p121                 obsgroup      2.5240000E-03    2.7100000E-03   -1.8600000E-04     1.000000        2.5240000E-03    2.7100000E-03   -1.8600000E-04    1.6141482E-04     6195.218    
 p122                 obsgroup      2.5750000E-03    2.6450000E-03   -7.0000000E-05     1.000000        2.5750000E-03    2.6450000E-03   -7.0000000E-05    1.6141482E-04     6195.218    
 p123                 obsgroup      2.5030000E-03    2.5820000E-03   -7.9000000E-05     1.000000        2.5030000E-03    2.5820000E-03   -7.9000000E-05    1.6141482E-04     6195.218    
 p124                 obsgroup      2.4210000E-03    2.5230000E-03   -1.0200000E-04     1.000000        2.4210000E-03    2.5230000E-03   -1.0200000E-04    1.6141482E-04     6195.218    
 p125                 obsgroup      2.4310000E-03    2.4660000E-03   -3.5000000E-05     1.000000        2.4310000E-03    2.4660000E-03   -3.5000000E-05    1.6141482E-04     6195.218    
 p126                 obsgroup      2.2560000E-03    2.4080000E-03   -1.5200000E-04     1.000000        2.2560000E-03    2.4080000E-03   -1.5200000E-04    1.6141482E-04     6195.218    
 p127                 obsgroup      2.2350000E-03    2.3510000E-03   -1.1600000E-04     1.000000        2.2350000E-03    2.3510000E-03   -1.1600000E-04    1.6141482E-04     6195.218    
 p128                 obsgroup      2.2040000E-03    2.2980000E-03   -9.4000000E-05     1.000000        2.2040000E-03    2.2980000E-03   -9.4000000E-05    1.6141482E-04     6195.218    
 p129                 obsgroup      2.1220000E-03    2.2460000E-03   -1.2400000E-04     1.000000        2.1220000E-03    2.2460000E-03   -1.2400000E-04    1.6141482E-04     6195.218    
 p130                 obsgroup      2.0910000E-03    2.1960000E-03   -1.0500000E-04     1.000000        2.0910000E-03    2.1960000E-03   -1.0500000E-04    1.6141482E-04     6195.218    
 p131                 obsgroup      2.1730000E-03    2.1490000E-03    2.4000000E-05     1.000000        2.1730000E-03    2.1490000E-03    2.4000000E-05    1.6141482E-04     6195.218    
 p132                 obsgroup      1.9780000E-03    2.1030000E-03   -1.2500000E-04     1.000000        1.9780000E-03    2.1030000E-03   -1.2500000E-04    1.6141482E-04     6195.218    
 p133                 obsgroup      1.9360000E-03    2.0580000E-03   -1.2200000E-04     1.000000        1.9360000E-03    2.0580000E-03   -1.2200000E-04    1.6141482E-04     6195.218    
 p134                 obsgroup      1.8750000E-03    2.0140000E-03   -1.3900000E-04     1.000000        1.8750000E-03    2.0140000E-03   -1.3900000E-04    1.6141482E-04     6195.218    
 p135                 obsgroup      2.0810000E-03    1.9730000E-03    1.0800000E-04     1.000000        2.0810000E-03    1.9730000E-03    1.0800000E-04    1.6141482E-04     6195.218    
 p136                 obsgroup      1.9260000E-03    1.9320000E-03   -6.0000000E-06     1.000000        1.9260000E-03    1.9320000E-03   -6.0000000E-06    1.6141482E-04     6195.218    
 p137                 obsgroup      1.9670000E-03    1.8920000E-03    7.5000000E-05     1.000000        1.9670000E-03    1.8920000E-03    7.5000000E-05    1.6141482E-04     6195.218    
 p138                 obsgroup      1.8950000E-03    1.8540000E-03    4.1000000E-05     1.000000        1.8950000E-03    1.8540000E-03    4.1000000E-05    1.6141482E-04     6195.218    
 p139                 obsgroup      1.8440000E-03    1.8180000E-03    2.6000000E-05     1.000000        1.8440000E-03    1.8180000E-03    2.6000000E-05    1.6141482E-04     6195.218    
 p140                 obsgroup      1.7200000E-03    1.7820000E-03   -6.2000000E-05     1.000000        1.7200000E-03    1.7820000E-03   -6.2000000E-05    1.6141482E-04     6195.218    
 p141                 obsgroup      1.7820000E-03    1.7480000E-03    3.4000000E-05     1.000000        1.7820000E-03    1.7480000E-03    3.4000000E-05    1.6141482E-04     6195.218    
 p142                 obsgroup      1.8230000E-03    1.7150000E-03    1.0800000E-04     1.000000        1.8230000E-03    1.7150000E-03    1.0800000E-04    1.6141482E-04     6195.218    
 p143                 obsgroup      1.6890000E-03    1.6820000E-03    7.0000000E-06     1.000000        1.6890000E-03    1.6820000E-03    7.0000000E-06    1.6141482E-04     6195.218    
 p144                 obsgroup      1.6170000E-03    1.6500000E-03   -3.3000000E-05     1.000000        1.6170000E-03    1.6500000E-03   -3.3000000E-05    1.6141482E-04     6195.218    
 p145                 obsgroup      1.5760000E-03    1.6180000E-03   -4.2000000E-05     1.000000        1.5760000E-03    1.6180000E-03   -4.2000000E-05    1.6141482E-04     6195.218    
 p146                 obsgroup      1.5760000E-03    1.5870000E-03   -1.1000000E-05     1.000000        1.5760000E-03    1.5870000E-03   -1.1000000E-05    1.6141482E-04     6195.218    
 p147                 obsgroup      1.6170000E-03    1.5560000E-03    6.1000000E-05     1.000000        1.6170000E-03    1.5560000E-03    6.1000000E-05    1.6141482E-04     6195.218    
 p148                 obsgroup      1.4730000E-03    1.5260000E-03   -5.3000000E-05     1.000000        1.4730000E-03    1.5260000E-03   -5.3000000E-05    1.6141482E-04     6195.218    
 p149                 obsgroup      1.4830000E-03    1.4970000E-03   -1.4000000E-05     1.000000        1.4830000E-03    1.4970000E-03   -1.4000000E-05    1.6141482E-04     6195.218    
 p150                 obsgroup      1.6170000E-03    1.4690000E-03    1.4800000E-04     1.000000        1.6170000E-03    1.4690000E-03    1.4800000E-04    1.6141482E-04     6195.218    
 p151                 obsgroup      1.4630000E-03    1.4430000E-03    2.0000000E-05     1.000000        1.4630000E-03    1.4430000E-03    2.0000000E-05    1.6141482E-04     6195.218    
 p152                 obsgroup      1.4520000E-03    1.4170000E-03    3.5000000E-05     1.000000        1.4520000E-03    1.4170000E-03    3.5000000E-05    1.6141482E-04     6195.218    
 p153                 obsgroup      1.4010000E-03    1.3830000E-03    1.8000000E-05     1.000000        1.4010000E-03    1.3830000E-03    1.8000000E-05    1.6141482E-04     6195.218    
 p154                 obsgroup      1.2880000E-03    1.3500000E-03   -6.2000000E-05     1.000000        1.2880000E-03    1.3500000E-03   -6.2000000E-05    1.6141482E-04     6195.218    
 p155                 obsgroup      1.1950000E-03    1.3170000E-03   -1.2200000E-04     1.000000        1.1950000E-03    1.3170000E-03   -1.2200000E-04    1.6141482E-04     6195.218    
 p156                 obsgroup      1.3080000E-03    1.2850000E-03    2.3000000E-05     1.000000        1.3080000E-03    1.2850000E-03    2.3000000E-05    1.6141482E-04     6195.218    
 p157                 obsgroup      1.2260000E-03    1.2550000E-03   -2.9000000E-05     1.000000        1.2260000E-03    1.2550000E-03   -2.9000000E-05    1.6141482E-04     6195.218    
 p158                 obsgroup      1.2570000E-03    1.2260000E-03    3.1000000E-05     1.000000        1.2570000E-03    1.2260000E-03    3.1000000E-05    1.6141482E-04     6195.218    
 p159                 obsgroup      1.1020000E-03    1.1970000E-03   -9.5000000E-05     1.000000        1.1020000E-03    1.1970000E-03   -9.5000000E-05    1.6141482E-04     6195.218    
 p160                 obsgroup      1.1950000E-03    1.1700000E-03    2.5000000E-05     1.000000        1.1950000E-03    1.1700000E-03    2.5000000E-05    1.6141482E-04     6195.218    
 p161                 obsgroup      1.0920000E-03    1.1430000E-03   -5.1000000E-05     1.000000        1.0920000E-03    1.1430000E-03   -5.1000000E-05    1.6141482E-04     6195.218    
 p162                 obsgroup      1.0510000E-03    1.1170000E-03   -6.6000000E-05     1.000000        1.0510000E-03    1.1170000E-03   -6.6000000E-05    1.6141482E-04     6195.218    
 p163                 obsgroup      1.0400000E-03    1.0910000E-03   -5.1000000E-05     1.000000        1.0400000E-03    1.0910000E-03   -5.1000000E-05    1.6141482E-04     6195.218    
 p164                 obsgroup      1.0240000E-03    1.0670000E-03   -4.3000000E-05     1.000000        1.0240000E-03    1.0670000E-03   -4.3000000E-05    1.6141482E-04     6195.218    
 p165                 obsgroup      1.0710000E-03    1.0430000E-03    2.8000000E-05     1.000000        1.0710000E-03    1.0430000E-03    2.8000000E-05    1.6141482E-04     6195.218    
 p166                 obsgroup      1.0250000E-03    1.0210000E-03    4.0000000E-06     1.000000        1.0250000E-03    1.0210000E-03    4.0000000E-06    1.6141482E-04     6195.218    
 p167                 obsgroup      1.0920000E-03    9.9900000E-04    9.3000000E-05     1.000000        1.0920000E-03    9.9900000E-04    9.3000000E-05    1.6141482E-04     6195.218    
 p168                 obsgroup      9.6900000E-04    9.7100000E-04   -2.0000000E-06     1.000000        9.6900000E-04    9.7100000E-04   -2.0000000E-06    1.6141482E-04     6195.218    
 p169                 obsgroup      9.8300000E-04    9.5100000E-04    3.2000000E-05     1.000000        9.8300000E-04    9.5100000E-04    3.2000000E-05    1.6141482E-04     6195.218    
 p170                 obsgroup      8.0900000E-04    9.3700000E-04   -1.2800000E-04     1.000000        8.0900000E-04    9.3700000E-04   -1.2800000E-04    1.6141482E-04     6195.218    
 p171                 obsgroup      8.3800000E-04    9.1800000E-04   -8.0000000E-05     1.000000        8.3800000E-04    9.1800000E-04   -8.0000000E-05    1.6141482E-04     6195.218    
 p172                 obsgroup      7.6100000E-04    9.0000000E-04   -1.3900000E-04     1.000000        7.6100000E-04    9.0000000E-04   -1.3900000E-04    1.6141482E-04     6195.218    
 p173                 obsgroup      6.9900000E-04    8.8200000E-04   -1.8300000E-04     1.000000        6.9900000E-04    8.8200000E-04   -1.8300000E-04    1.6141482E-04     6195.218    
 p174                 obsgroup      7.4200000E-04    8.6400000E-04   -1.2200000E-04     1.000000        7.4200000E-04    8.6400000E-04   -1.2200000E-04    1.6141482E-04     6195.218    
 p175                 obsgroup      7.5800000E-04    8.4700000E-04   -8.9000000E-05     1.000000        7.5800000E-04    8.4700000E-04   -8.9000000E-05    1.6141482E-04     6195.218    
 p176                 obsgroup      6.6800000E-04    8.3000000E-04   -1.6200000E-04     1.000000        6.6800000E-04    8.3000000E-04   -1.6200000E-04    1.6141482E-04     6195.218    
 p177                 obsgroup      7.5400000E-04    8.1300000E-04   -5.9000000E-05     1.000000        7.5400000E-04    8.1300000E-04   -5.9000000E-05    1.6141482E-04     6195.218    
 p178                 obsgroup      6.9300000E-04    7.9700000E-04   -1.0400000E-04     1.000000        6.9300000E-04    7.9700000E-04   -1.0400000E-04    1.6141482E-04     6195.218    
 p179                 obsgroup      7.5100000E-04    7.8100000E-04   -3.0000000E-05     1.000000        7.5100000E-04    7.8100000E-04   -3.0000000E-05    1.6141482E-04     6195.218    
 p180                 obsgroup      6.5300000E-04    7.6600000E-04   -1.1300000E-04     1.000000        6.5300000E-04    7.6600000E-04   -1.1300000E-04    1.6141482E-04     6195.218    
 p181                 obsgroup      7.8600000E-04    7.5200000E-04    3.4000000E-05     1.000000        7.8600000E-04    7.5200000E-04    3.4000000E-05    1.6141482E-04     6195.218    
 p182                 obsgroup      6.7900000E-04    7.4100000E-04   -6.2000000E-05     1.000000        6.7900000E-04    7.4100000E-04   -6.2000000E-05    1.6141482E-04     6195.218    
 p183                 obsgroup      6.8800000E-04    7.2500000E-04   -3.7000000E-05     1.000000        6.8800000E-04    7.2500000E-04   -3.7000000E-05    1.6141482E-04     6195.218    
 p184                 obsgroup      6.2300000E-04    7.1100000E-04   -8.8000000E-05     1.000000        6.2300000E-04    7.1100000E-04   -8.8000000E-05    1.6141482E-04     6195.218    
 p185                 obsgroup      6.8800000E-04    6.9800000E-04   -1.0000000E-05     1.000000        6.8800000E-04    6.9800000E-04   -1.0000000E-05    1.6141482E-04     6195.218    
 p186                 obsgroup      7.2700000E-04    6.8500000E-04    4.2000000E-05     1.000000        7.2700000E-04    6.8500000E-04    4.2000000E-05    1.6141482E-04     6195.218    
 p187                 obsgroup      6.3400000E-04    6.7200000E-04   -3.8000000E-05     1.000000        6.3400000E-04    6.7200000E-04   -3.8000000E-05    1.6141482E-04     6195.218    
 p188                 obsgroup      5.9400000E-04    6.6000000E-04   -6.6000000E-05     1.000000        5.9400000E-04    6.6000000E-04   -6.6000000E-05    1.6141482E-04     6195.218    
 p189                 obsgroup      6.2600000E-04    6.4800000E-04   -2.2000000E-05     1.000000        6.2600000E-04    6.4800000E-04   -2.2000000E-05    1.6141482E-04     6195.218    
 p190                 obsgroup      6.3900000E-04    6.3700000E-04    2.0000000E-06     1.000000        6.3900000E-04    6.3700000E-04    2.0000000E-06    1.6141482E-04     6195.218    
 p191                 obsgroup      6.1800000E-04    6.2600000E-04   -8.0000000E-06     1.000000        6.1800000E-04    6.2600000E-04   -8.0000000E-06    1.6141482E-04     6195.218    
 p192                 obsgroup      5.7900000E-04    6.1500000E-04   -3.6000000E-05     1.000000        5.7900000E-04    6.1500000E-04   -3.6000000E-05    1.6141482E-04     6195.218    
 p193                 obsgroup      6.8800000E-04    6.0400000E-04    8.4000000E-05     1.000000        6.8800000E-04    6.0400000E-04    8.4000000E-05    1.6141482E-04     6195.218    
 p194                 obsgroup      6.8100000E-04    5.9400000E-04    8.7000000E-05     1.000000        6.8100000E-04    5.9400000E-04    8.7000000E-05    1.6141482E-04     6195.218    
 p195                 obsgroup      5.8600000E-04    5.8400000E-04    2.0000000E-06     1.000000        5.8600000E-04    5.8400000E-04    2.0000000E-06    1.6141482E-04     6195.218    
 p196                 obsgroup      6.0500000E-04    5.7400000E-04    3.1000000E-05     1.000000        6.0500000E-04    5.7400000E-04    3.1000000E-05    1.6141482E-04     6195.218    
 p197                 obsgroup      6.0800000E-04    5.6500000E-04    4.3000000E-05     1.000000        6.0800000E-04    5.6500000E-04    4.3000000E-05    1.6141482E-04     6195.218    
 p198                 obsgroup      5.4800000E-04    5.5600000E-04   -8.0000000E-06     1.000000        5.4800000E-04    5.5600000E-04   -8.0000000E-06    1.6141482E-04     6195.218    
 p199                 obsgroup      5.6900000E-04    5.4600000E-04    2.3000000E-05     1.000000        5.6900000E-04    5.4600000E-04    2.3000000E-05    1.6141482E-04     6195.218    
 p200                 obsgroup      6.2400000E-04    5.3700000E-04    8.7000000E-05     1.000000        6.2400000E-04    5.3700000E-04    8.7000000E-05    1.6141482E-04     6195.218    
 p201                 obsgroup      4.9900000E-04    5.2900000E-04   -3.0000000E-05     1.000000        4.9900000E-04    5.2900000E-04   -3.0000000E-05    1.6141482E-04     6195.218    
 p202                 obsgroup      5.2400000E-04    5.2000000E-04    4.0000000E-06     1.000000        5.2400000E-04    5.2000000E-04    4.0000000E-06    1.6141482E-04     6195.218    
 p203                 obsgroup      5.6100000E-04    5.1200000E-04    4.9000000E-05     1.000000        5.6100000E-04    5.1200000E-04    4.9000000E-05    1.6141482E-04     6195.218    
 p204                 obsgroup      6.4000000E-04    5.0400000E-04    1.3600000E-04     1.000000        6.4000000E-04    5.0400000E-04    1.3600000E-04    1.6141482E-04     6195.218    
 p205                 obsgroup      4.5400000E-04    4.9500000E-04   -4.1000000E-05     1.000000        4.5400000E-04    4.9500000E-04   -4.1000000E-05    1.6141482E-04     6195.218    
 p206                 obsgroup      4.9400000E-04    4.8800000E-04    6.0000000E-06     1.000000        4.9400000E-04    4.8800000E-04    6.0000000E-06    1.6141482E-04     6195.218    
 p207                 obsgroup      4.9600000E-04    4.8000000E-04    1.6000000E-05     1.000000        4.9600000E-04    4.8000000E-04    1.6000000E-05    1.6141482E-04     6195.218    
 p208                 obsgroup      4.5900000E-04    4.7200000E-04   -1.3000000E-05     1.000000        4.5900000E-04    4.7200000E-04   -1.3000000E-05    1.6141482E-04     6195.218    
 p209                 obsgroup      5.0100000E-04    4.6500000E-04    3.6000000E-05     1.000000        5.0100000E-04    4.6500000E-04    3.6000000E-05    1.6141482E-04     6195.218    
 p210                 obsgroup      4.1100000E-04    4.5800000E-04   -4.7000000E-05     1.000000        4.1100000E-04    4.5800000E-04   -4.7000000E-05    1.6141482E-04     6195.218    
 p211                 obsgroup      4.7600000E-04    4.5100000E-04    2.5000000E-05     1.000000        4.7600000E-04    4.5100000E-04    2.5000000E-05    1.6141482E-04     6195.218    
 p212                 obsgroup      4.2600000E-04    4.4400000E-04   -1.8000000E-05     1.000000        4.2600000E-04    4.4400000E-04   -1.8000000E-05    1.6141482E-04     6195.218    
 p213                 obsgroup      4.7100000E-04    4.3800000E-04    3.3000000E-05     1.000000        4.7100000E-04    4.3800000E-04    3.3000000E-05    1.6141482E-04     6195.218    
 p214                 obsgroup      4.3700000E-04    4.3100000E-04    6.0000000E-06     1.000000        4.3700000E-04    4.3100000E-04    6.0000000E-06    1.6141482E-04     6195.218    
 p215                 obsgroup      4.0000000E-04    4.2400000E-04   -2.4000000E-05     1.000000        4.0000000E-04    4.2400000E-04   -2.4000000E-05    1.6141482E-04     6195.218    
 p216                 obsgroup      4.6400000E-04    4.1700000E-04    4.7000000E-05     1.000000        4.6400000E-04    4.1700000E-04    4.7000000E-05    1.6141482E-04     6195.218    
 p217                 obsgroup      5.7400000E-04    4.1100000E-04    1.6300000E-04     1.000000        5.7400000E-04    4.1100000E-04    1.6300000E-04    1.6141482E-04     6195.218    
 p218                 obsgroup      4.3800000E-04    4.0500000E-04    3.3000000E-05     1.000000        4.3800000E-04    4.0500000E-04    3.3000000E-05    1.6141482E-04     6195.218    
 p219                 obsgroup      4.5600000E-04    3.9900000E-04    5.7000000E-05     1.000000        4.5600000E-04    3.9900000E-04    5.7000000E-05    1.6141482E-04     6195.218    
 p220                 obsgroup      4.3200000E-04    3.9300000E-04    3.9000000E-05     1.000000        4.3200000E-04    3.9300000E-04    3.9000000E-05    1.6141482E-04     6195.218    
 p221                 obsgroup      5.9400000E-04    3.8800000E-04    2.0600000E-04     1.000000        5.9400000E-04    3.8800000E-04    2.0600000E-04    1.6141482E-04     6195.218    
 p222                 obsgroup      4.1400000E-04    3.8200000E-04    3.2000000E-05     1.000000        4.1400000E-04    3.8200000E-04    3.2000000E-05    1.6141482E-04     6195.218    
 p223                 obsgroup      4.2300000E-04    3.7600000E-04    4.7000000E-05     1.000000        4.2300000E-04    3.7600000E-04    4.7000000E-05    1.6141482E-04     6195.218    
 p224                 obsgroup      5.0600000E-04    3.7100000E-04    1.3500000E-04     1.000000        5.0600000E-04    3.7100000E-04    1.3500000E-04    1.6141482E-04     6195.218    
 p225                 obsgroup      4.4600000E-04    3.6500000E-04    8.1000000E-05     1.000000        4.4600000E-04    3.6500000E-04    8.1000000E-05    1.6141482E-04     6195.218    
 p226                 obsgroup      4.0800000E-04    3.6000000E-04    4.8000000E-05     1.000000        4.0800000E-04    3.6000000E-04    4.8000000E-05    1.6141482E-04     6195.218    
 p227                 obsgroup      4.3100000E-04    3.5500000E-04    7.6000000E-05     1.000000        4.3100000E-04    3.5500000E-04    7.6000000E-05    1.6141482E-04     6195.218    
 p228                 obsgroup      4.5400000E-04    3.5000000E-04    1.0400000E-04     1.000000        4.5400000E-04    3.5000000E-04    1.0400000E-04    1.6141482E-04     6195.218    
 p229                 obsgroup      4.6100000E-04    3.4500000E-04    1.1600000E-04     1.000000        4.6100000E-04    3.4500000E-04    1.1600000E-04    1.6141482E-04     6195.218    
 p230                 obsgroup      4.3300000E-04    3.4000000E-04    9.3000000E-05     1.000000        4.3300000E-04    3.4000000E-04    9.3000000E-05    1.6141482E-04     6195.218    
 p231                 obsgroup      3.8900000E-04    3.3500000E-04    5.4000000E-05     1.000000        3.8900000E-04    3.3500000E-04    5.4000000E-05    1.6141482E-04     6195.218    
 p232                 obsgroup      3.8000000E-04    3.3100000E-04    4.9000000E-05     1.000000        3.8000000E-04    3.3100000E-04    4.9000000E-05    1.6141482E-04     6195.218    
 p233                 obsgroup      4.1600000E-04    3.2600000E-04    9.0000000E-05     1.000000        4.1600000E-04    3.2600000E-04    9.0000000E-05    1.6141482E-04     6195.218    
 p234                 obsgroup      4.6500000E-04    3.2200000E-04    1.4300000E-04     1.000000        4.6500000E-04    3.2200000E-04    1.4300000E-04    1.6141482E-04     6195.218    
 p235                 obsgroup      4.1200000E-04    3.1800000E-04    9.4000000E-05     1.000000        4.1200000E-04    3.1800000E-04    9.4000000E-05    1.6141482E-04     6195.218    
 p236                 obsgroup      4.1700000E-04    3.1400000E-04    1.0300000E-04     1.000000        4.1700000E-04    3.1400000E-04    1.0300000E-04    1.6141482E-04     6195.218    
 p237                 obsgroup      3.9700000E-04    3.0900000E-04    8.8000000E-05     1.000000        3.9700000E-04    3.0900000E-04    8.8000000E-05    1.6141482E-04     6195.218    
 p238                 obsgroup      3.9400000E-04    3.0500000E-04    8.9000000E-05     1.000000        3.9400000E-04    3.0500000E-04    8.9000000E-05    1.6141482E-04     6195.218    
 p239                 obsgroup      3.6200000E-04    3.0100000E-04    6.1000000E-05     1.000000        3.6200000E-04    3.0100000E-04    6.1000000E-05    1.6141482E-04     6195.218    
 p240                 obsgroup      3.6400000E-04    2.9800000E-04    6.6000000E-05     1.000000        3.6400000E-04    2.9800000E-04    6.6000000E-05    1.6141482E-04     6195.218    
 p241                 obsgroup      3.6300000E-04    2.9400000E-04    6.9000000E-05     1.000000        3.6300000E-04    2.9400000E-04    6.9000000E-05    1.6141482E-04     6195.218    
 p242                 obsgroup      3.5700000E-04    2.9000000E-04    6.7000000E-05     1.000000        3.5700000E-04    2.9000000E-04    6.7000000E-05    1.6141482E-04     6195.218    
 p243                 obsgroup      3.7700000E-04    2.8600000E-04    9.1000000E-05     1.000000        3.7700000E-04    2.8600000E-04    9.1000000E-05    1.6141482E-04     6195.218    
 p244                 obsgroup      4.2300000E-04    2.8300000E-04    1.4000000E-04     1.000000        4.2300000E-04    2.8300000E-04    1.4000000E-04    1.6141482E-04     6195.218    
 p245                 obsgroup      3.6300000E-04    2.7900000E-04    8.4000000E-05     1.000000        3.6300000E-04    2.7900000E-04    8.4000000E-05    1.6141482E-04     6195.218    
 p246                 obsgroup      3.9800000E-04    2.7600000E-04    1.2200000E-04     1.000000        3.9800000E-04    2.7600000E-04    1.2200000E-04    1.6141482E-04     6195.218    
 p247                 obsgroup      4.5600000E-04    2.7200000E-04    1.8400000E-04     1.000000        4.5600000E-04    2.7200000E-04    1.8400000E-04    1.6141482E-04     6195.218    
 p248                 obsgroup      3.8500000E-04    2.6900000E-04    1.1600000E-04     1.000000        3.8500000E-04    2.6900000E-04    1.1600000E-04    1.6141482E-04     6195.218    
 p249                 obsgroup      3.8600000E-04    2.6600000E-04    1.2000000E-04     1.000000        3.8600000E-04    2.6600000E-04    1.2000000E-04    1.6141482E-04     6195.218    
 p250                 obsgroup      3.8400000E-04    2.6300000E-04    1.2100000E-04     1.000000        3.8400000E-04    2.6300000E-04    1.2100000E-04    1.6141482E-04     6195.218    
 p251                 obsgroup      4.0200000E-04    2.6000000E-04    1.4200000E-04     1.000000        4.0200000E-04    2.6000000E-04    1.4200000E-04    1.6141482E-04     6195.218    
 p252                 obsgroup      3.5500000E-04    2.5700000E-04    9.8000000E-05     1.000000        3.5500000E-04    2.5700000E-04    9.8000000E-05    1.6141482E-04     6195.218    
 p253                 obsgroup      3.3500000E-04    2.5400000E-04    8.1000000E-05     1.000000        3.3500000E-04    2.5400000E-04    8.1000000E-05    1.6141482E-04     6195.218    
 p254                 obsgroup      3.3300000E-04    2.5000000E-04    8.3000000E-05     1.000000        3.3300000E-04    2.5000000E-04    8.3000000E-05    1.6141482E-04     6195.218    
 p255                 obsgroup      3.7600000E-04    2.4800000E-04    1.2800000E-04     1.000000        3.7600000E-04    2.4800000E-04    1.2800000E-04    1.6141482E-04     6195.218    
 p256                 obsgroup      3.3100000E-04    2.4500000E-04    8.6000000E-05     1.000000        3.3100000E-04    2.4500000E-04    8.6000000E-05    1.6141482E-04     6195.218    
 p257                 obsgroup      4.0500000E-04    2.4200000E-04    1.6300000E-04     1.000000        4.0500000E-04    2.4200000E-04    1.6300000E-04    1.6141482E-04     6195.218    
 p258                 obsgroup      3.5400000E-04    2.3900000E-04    1.1500000E-04     1.000000        3.5400000E-04    2.3900000E-04    1.1500000E-04    1.6141482E-04     6195.218    
 p259                 obsgroup      3.3000000E-04    2.3600000E-04    9.4000000E-05     1.000000        3.3000000E-04    2.3600000E-04    9.4000000E-05    1.6141482E-04     6195.218    
 p260                 obsgroup      3.4700000E-04    2.3300000E-04    1.1400000E-04     1.000000        3.4700000E-04    2.3300000E-04    1.1400000E-04    1.6141482E-04     6195.218    
 p261                 obsgroup      3.5800000E-04    2.3000000E-04    1.2800000E-04     1.000000        3.5800000E-04    2.3000000E-04    1.2800000E-04    1.6141482E-04     6195.218    
 p262                 obsgroup      3.6600000E-04    2.2800000E-04    1.3800000E-04     1.000000        3.6600000E-04    2.2800000E-04    1.3800000E-04    1.6141482E-04     6195.218    
 p263                 obsgroup      3.5600000E-04    2.2500000E-04    1.3100000E-04     1.000000        3.5600000E-04    2.2500000E-04    1.3100000E-04    1.6141482E-04     6195.218    
 p264                 obsgroup      3.4800000E-04    2.2300000E-04    1.2500000E-04     1.000000        3.4800000E-04    2.2300000E-04    1.2500000E-04    1.6141482E-04     6195.218    
 p265                 obsgroup      3.5800000E-04    2.1900000E-04    1.3900000E-04     1.000000        3.5800000E-04    2.1900000E-04    1.3900000E-04    1.6141482E-04     6195.218    
 p266                 obsgroup      3.7200000E-04    2.1800000E-04    1.5400000E-04     1.000000        3.7200000E-04    2.1800000E-04    1.5400000E-04    1.6141482E-04     6195.218    
 p267                 obsgroup      4.1300000E-04    2.1100000E-04    2.0200000E-04     1.000000        4.1300000E-04    2.1100000E-04    2.0200000E-04    1.6141482E-04     6195.218    
 p268                 obsgroup      3.1700000E-04    2.0800000E-04    1.0900000E-04     1.000000        3.1700000E-04    2.0800000E-04    1.0900000E-04    1.6141482E-04     6195.218    
 p269                 obsgroup      3.8400000E-04    2.0600000E-04    1.7800000E-04     1.000000        3.8400000E-04    2.0600000E-04    1.7800000E-04    1.6141482E-04     6195.218    
 p270                 obsgroup      3.2400000E-04    2.0400000E-04    1.2000000E-04     1.000000        3.2400000E-04    2.0400000E-04    1.2000000E-04    1.6141482E-04     6195.218    
 p271                 obsgroup      4.3300000E-04    2.0200000E-04    2.3100000E-04     1.000000        4.3300000E-04    2.0200000E-04    2.3100000E-04    1.6141482E-04     6195.218    
 p272                 obsgroup      3.8200000E-04    1.9900000E-04    1.8300000E-04     1.000000        3.8200000E-04    1.9900000E-04    1.8300000E-04    1.6141482E-04     6195.218    
 p273                 obsgroup      4.8900000E-04    1.9700000E-04    2.9200000E-04     1.000000        4.8900000E-04    1.9700000E-04    2.9200000E-04    1.6141482E-04     6195.218    
 p274                 obsgroup      3.1900000E-04    1.9500000E-04    1.2400000E-04     1.000000        3.1900000E-04    1.9500000E-04    1.2400000E-04    1.6141482E-04     6195.218    
 p275                 obsgroup      3.5500000E-04    1.9400000E-04    1.6100000E-04     1.000000        3.5500000E-04    1.9400000E-04    1.6100000E-04    1.6141482E-04     6195.218    
 p276                 obsgroup      3.5500000E-04    1.9100000E-04    1.6400000E-04     1.000000        3.5500000E-04    1.9100000E-04    1.6400000E-04    1.6141482E-04     6195.218    
 p277                 obsgroup      3.5600000E-04    1.9000000E-04    1.6600000E-04     1.000000        3.5600000E-04    1.9000000E-04    1.6600000E-04    1.6141482E-04     6195.218    
 p278                 obsgroup      3.4500000E-04    1.8800000E-04    1.5700000E-04     1.000000        3.4500000E-04    1.8800000E-04    1.5700000E-04    1.6141482E-04     6195.218    
 p279                 obsgroup      3.7300000E-04    1.8700000E-04    1.8600000E-04     1.000000        3.7300000E-04    1.8700000E-04    1.8600000E-04    1.6141482E-04     6195.218    
 p280                 obsgroup      3.3500000E-04    1.8500000E-04    1.5000000E-04     1.000000        3.3500000E-04    1.8500000E-04    1.5000000E-04    1.6141482E-04     6195.218    
 p281                 obsgroup      3.5100000E-04    1.8400000E-04    1.6700000E-04     1.000000        3.5100000E-04    1.8400000E-04    1.6700000E-04    1.6141482E-04     6195.218    
 p282                 obsgroup      3.7000000E-04    1.8200000E-04    1.8800000E-04     1.000000        3.7000000E-04    1.8200000E-04    1.8800000E-04    1.6141482E-04     6195.218    
 p283                 obsgroup      4.8800000E-04    1.8100000E-04    3.0700000E-04     1.000000        4.8800000E-04    1.8100000E-04    3.0700000E-04    1.6141482E-04     6195.218    
 p284                 obsgroup      3.8300000E-04    1.7900000E-04    2.0400000E-04     1.000000        3.8300000E-04    1.7900000E-04    2.0400000E-04    1.6141482E-04     6195.218    
 p285                 obsgroup      4.2000000E-04    1.7800000E-04    2.4200000E-04     1.000000        4.2000000E-04    1.7800000E-04    2.4200000E-04    1.6141482E-04     6195.218    
 p286                 obsgroup      3.9000000E-04    1.7600000E-04    2.1400000E-04     1.000000        3.9000000E-04    1.7600000E-04    2.1400000E-04    1.6141482E-04     6195.218    
 p287                 obsgroup      4.1900000E-04    1.7500000E-04    2.4400000E-04     1.000000        4.1900000E-04    1.7500000E-04    2.4400000E-04    1.6141482E-04     6195.218    
 p288                 obsgroup      4.1700000E-04    1.7400000E-04    2.4300000E-04     1.000000        4.1700000E-04    1.7400000E-04    2.4300000E-04    1.6141482E-04     6195.218    
 p289                 obsgroup      5.0700000E-04    1.7200000E-04    3.3500000E-04     1.000000        5.0700000E-04    1.7200000E-04    3.3500000E-04    1.6141482E-04     6195.218    
 p290                 obsgroup      3.5600000E-04    1.7100000E-04    1.8500000E-04     1.000000        3.5600000E-04    1.7100000E-04    1.8500000E-04    1.6141482E-04     6195.218    
 p291                 obsgroup      4.0200000E-04    1.7000000E-04    2.3200000E-04     1.000000        4.0200000E-04    1.7000000E-04    2.3200000E-04    1.6141482E-04     6195.218    
 p292                 obsgroup      3.5800000E-04    1.6800000E-04    1.9000000E-04     1.000000        3.5800000E-04    1.6800000E-04    1.9000000E-04    1.6141482E-04     6195.218    
 p293                 obsgroup      5.2800000E-04    1.6700000E-04    3.6100000E-04     1.000000        5.2800000E-04    1.6700000E-04    3.6100000E-04    1.6141482E-04     6195.218    
 p294                 obsgroup      3.3200000E-04    1.6600000E-04    1.6600000E-04     1.000000        3.3200000E-04    1.6600000E-04    1.6600000E-04    1.6141482E-04     6195.218    
 p295                 obsgroup      3.5800000E-04    1.6400000E-04    1.9400000E-04     1.000000        3.5800000E-04    1.6400000E-04    1.9400000E-04    1.6141482E-04     6195.218    
 p296                 obsgroup      3.0100000E-04    1.6300000E-04    1.3800000E-04     1.000000        3.0100000E-04    1.6300000E-04    1.3800000E-04    1.6141482E-04     6195.218    
 p297                 obsgroup      3.1300000E-04    1.6200000E-04    1.5100000E-04     1.000000        3.1300000E-04    1.6200000E-04    1.5100000E-04    1.6141482E-04     6195.218    
 p298                 obsgroup      3.8000000E-04    1.6100000E-04    2.1900000E-04     1.000000        3.8000000E-04    1.6100000E-04    2.1900000E-04    1.6141482E-04     6195.218    
 p299                 obsgroup      3.6100000E-04    1.6000000E-04    2.0100000E-04     1.000000        3.6100000E-04    1.6000000E-04    2.0100000E-04    1.6141482E-04     6195.218    
 p300                 obsgroup      3.5300000E-04    1.5900000E-04    1.9400000E-04     1.000000        3.5300000E-04    1.5900000E-04    1.9400000E-04    1.6141482E-04     6195.218    
 p301                 obsgroup      3.2100000E-04    1.5700000E-04    1.6400000E-04     1.000000        3.2100000E-04    1.5700000E-04    1.6400000E-04    1.6141482E-04     6195.218    
 p302                 obsgroup      3.6800000E-04    1.5600000E-04    2.1200000E-04     1.000000        3.6800000E-04    1.5600000E-04    2.1200000E-04    1.6141482E-04     6195.218    
 p303                 obsgroup      3.2300000E-04    1.5500000E-04    1.6800000E-04     1.000000        3.2300000E-04    1.5500000E-04    1.6800000E-04    1.6141482E-04     6195.218    
 p304                 obsgroup      3.1500000E-04    1.5400000E-04    1.6100000E-04     1.000000        3.1500000E-04    1.5400000E-04    1.6100000E-04    1.6141482E-04     6195.218    
 p305                 obsgroup      3.2900000E-04    1.5300000E-04    1.7600000E-04     1.000000        3.2900000E-04    1.5300000E-04    1.7600000E-04    1.6141482E-04     6195.218    
 p306                 obsgroup      3.2500000E-04    1.5200000E-04    1.7300000E-04     1.000000        3.2500000E-04    1.5200000E-04    1.7300000E-04    1.6141482E-04     6195.218    
 p307                 obsgroup      2.9000000E-04    1.5100000E-04    1.3900000E-04     1.000000        2.9000000E-04    1.5100000E-04    1.3900000E-04    1.6141482E-04     6195.218    
 p308                 obsgroup      3.3500000E-04    1.5000000E-04    1.8500000E-04     1.000000        3.3500000E-04    1.5000000E-04    1.8500000E-04    1.6141482E-04     6195.218    
 p309                 obsgroup      3.4900000E-04    1.4900000E-04    2.0000000E-04     1.000000        3.4900000E-04    1.4900000E-04    2.0000000E-04    1.6141482E-04     6195.218    
 p310                 obsgroup      3.3200000E-04    1.4800000E-04    1.8400000E-04     1.000000        3.3200000E-04    1.4800000E-04    1.8400000E-04    1.6141482E-04     6195.218    
 p311                 obsgroup      2.8800000E-04    1.4600000E-04    1.4200000E-04     1.000000        2.8800000E-04    1.4600000E-04    1.4200000E-04    1.6141482E-04     6195.218    
 p312                 obsgroup      3.1400000E-04    1.4600000E-04    1.6800000E-04     1.000000        3.1400000E-04    1.4600000E-04    1.6800000E-04    1.6141482E-04     6195.218    
 p313                 obsgroup      3.2100000E-04    1.4500000E-04    1.7600000E-04     1.000000        3.2100000E-04    1.4500000E-04    1.7600000E-04    1.6141482E-04     6195.218    
 p314                 obsgroup      3.3500000E-04    1.4400000E-04    1.9100000E-04     1.000000        3.3500000E-04    1.4400000E-04    1.9100000E-04    1.6141482E-04     6195.218    
 p315                 obsgroup      3.2400000E-04    1.4300000E-04    1.8100000E-04     1.000000        3.2400000E-04    1.4300000E-04    1.8100000E-04    1.6141482E-04     6195.218    
 p316                 obsgroup      3.0700000E-04    1.4200000E-04    1.6500000E-04     1.000000        3.0700000E-04    1.4200000E-04    1.6500000E-04    1.6141482E-04     6195.218    
 p317                 obsgroup      3.7600000E-04    1.4100000E-04    2.3500000E-04     1.000000        3.7600000E-04    1.4100000E-04    2.3500000E-04    1.6141482E-04     6195.218    
 p318                 obsgroup      3.7100000E-04    1.4000000E-04    2.3100000E-04     1.000000        3.7100000E-04    1.4000000E-04    2.3100000E-04    1.6141482E-04     6195.218    
 p319                 obsgroup      3.4300000E-04    1.3900000E-04    2.0400000E-04     1.000000        3.4300000E-04    1.3900000E-04    2.0400000E-04    1.6141482E-04     6195.218    
 p320                 obsgroup      2.8600000E-04    1.3800000E-04    1.4800000E-04     1.000000        2.8600000E-04    1.3800000E-04    1.4800000E-04    1.6141482E-04     6195.218    
 p321                 obsgroup      3.0700000E-04    1.3700000E-04    1.7000000E-04     1.000000        3.0700000E-04    1.3700000E-04    1.7000000E-04    1.6141482E-04     6195.218    
 p322                 obsgroup      2.9500000E-04    1.3600000E-04    1.5900000E-04     1.000000        2.9500000E-04    1.3600000E-04    1.5900000E-04    1.6141482E-04     6195.218    
 p323                 obsgroup      3.0200000E-04    1.3500000E-04    1.6700000E-04     1.000000        3.0200000E-04    1.3500000E-04    1.6700000E-04    1.6141482E-04     6195.218    
 p324                 obsgroup      3.3500000E-04    1.3400000E-04    2.0100000E-04     1.000000        3.3500000E-04    1.3400000E-04    2.0100000E-04    1.6141482E-04     6195.218    
 p325                 obsgroup      3.0400000E-04    1.3300000E-04    1.7100000E-04     1.000000        3.0400000E-04    1.3300000E-04    1.7100000E-04    1.6141482E-04     6195.218    
 p326                 obsgroup      2.8000000E-04    1.3200000E-04    1.4800000E-04     1.000000        2.8000000E-04    1.3200000E-04    1.4800000E-04    1.6141482E-04     6195.218    
 p327                 obsgroup      2.9600000E-04    1.3100000E-04    1.6500000E-04     1.000000        2.9600000E-04    1.3100000E-04    1.6500000E-04    1.6141482E-04     6195.218    
 p328                 obsgroup      2.8000000E-04    1.3000000E-04    1.5000000E-04     1.000000        2.8000000E-04    1.3000000E-04    1.5000000E-04    1.6141482E-04     6195.218    
