 Name                 Group          Measured         Modelled         Residual         Weight       Weight*Measured    Weight*Modelled  Weight*Residual  Measurement_sd   Natural_weight
 p001                 obsgroup      1.0022000E-02    8.9980000E-03    1.0240000E-03     1.000000        1.0022000E-02    8.9980000E-03    1.0240000E-03    2.9061618E-03     344.0965    
 p002                 obsgroup      9.4970000E-03    8.9980000E-03    4.9900000E-04     1.000000        9.4970000E-03    8.9980000E-03    4.9900000E-04    2.9061618E-03     344.0965    
 p003                 obsgroup      1.0125000E-02    8.9980000E-03    1.1270000E-03     1.000000        1.0125000E-02    8.9980000E-03    1.1270000E-03    2.9061618E-03     344.0965    
 p004                 obsgroup      9.7950000E-03    8.9970000E-03    7.9800000E-04     1.000000        9.7950000E-03    8.9970000E-03    7.9800000E-04    2.9061618E-03     344.0965    
 p005                 obsgroup      9.9290000E-03    8.9970000E-03    9.3200000E-04     1.000000        9.9290000E-03    8.9970000E-03    9.3200000E-04    2.9061618E-03     344.0965    
 p006                 obsgroup      9.8880000E-03    8.9970000E-03    8.9100000E-04     1.000000        9.8880000E-03    8.9970000E-03    8.9100000E-04    2.9061618E-03     344.0965    
 p007                 obsgroup      9.3010000E-03    8.9960000E-03    3.0500000E-04     1.000000        9.3010000E-03    8.9960000E-03    3.0500000E-04    2.9061618E-03     344.0965    
 p008                 obsgroup      9.6510000E-03    8.9960000E-03    6.5500000E-04     1.000000        9.6510000E-03    8.9960000E-03    6.5500000E-04    2.9061618E-03     344.0965    
 p009                 obsgroup      9.5790000E-03    8.9950000E-03    5.8400000E-04     1.000000        9.5790000E-03    8.9950000E-03    5.8400000E-04    2.9061618E-03     344.0965    
 p010                 obsgroup      9.5170000E-03    8.9950000E-03    5.2200000E-04     1.000000        9.5170000E-03    8.9950000E-03    5.2200000E-04    2.9061618E-03     344.0965    
 p011                 obsgroup      9.2800000E-03    8.9950000E-03    2.8500000E-04     1.000000        9.2800000E-03    8.9950000E-03    2.8500000E-04    2.9061618E-03     344.0965    
 p012                 obsgroup      8.7340000E-03    8.9960000E-03   -2.6200000E-04     1.000000        8.7340000E-03    8.9960000E-03   -2.6200000E-04    2.9061618E-03     344.0965    
 p013                 obsgroup      9.6000000E-03    8.9980000E-03    6.0200000E-04     1.000000        9.6000000E-03    8.9980000E-03    6.0200000E-04    2.9061618E-03     344.0965    
 p014                 obsgroup      9.3730000E-03    9.0010000E-03    3.7200000E-04     1.000000        9.3730000E-03    9.0010000E-03    3.7200000E-04    2.9061618E-03     344.0965    
 p015                 obsgroup      9.1670000E-03    9.0060000E-03    1.6100000E-04     1.000000        9.1670000E-03    9.0060000E-03    1.6100000E-04    2.9061618E-03     344.0965    
 p016                 obsgroup      8.8170000E-03    9.0130000E-03   -1.9600000E-04     1.000000        8.8170000E-03    9.0130000E-03   -1.9600000E-04    2.9061618E-03     344.0965    
 p017                 obsgroup      9.1050000E-03    9.0240000E-03    8.1000000E-05     1.000000        9.1050000E-03    9.0240000E-03    8.1000000E-05    2.9061618E-03     344.0965    
 p018                 obsgroup      9.0850000E-03    9.0390000E-03    4.6000000E-05     1.000000        9.0850000E-03    9.0390000E-03    4.6000000E-05    2.9061618E-03     344.0965    
 p019                 obsgroup      8.7450000E-03    9.0600000E-03   -3.1500000E-04     1.000000        8.7450000E-03    9.0600000E-03   -3.1500000E-04    2.9061618E-03     344.0965    
 p020                 obsgroup      8.6730000E-03    9.0890000E-03   -4.1600000E-04     1.000000        8.6730000E-03    9.0890000E-03   -4.1600000E-04    2.9061618E-03     344.0965    
 p021                 obsgroup      8.9510000E-03    9.1260000E-03   -1.7500000E-04     1.000000        8.9510000E-03    9.1260000E-03   -1.7500000E-04    2.9061618E-03     344.0965    
 p022                 obsgroup      8.5280000E-03    9.1730000E-03   -6.4500000E-04     1.000000        8.5280000E-03    9.1730000E-03   -6.4500000E-04    2.9061618E-03     344.0965    
 p023                 obsgroup      8.8890000E-03    9.2330000E-03   -3.4400000E-04     1.000000        8.8890000E-03    9.2330000E-03   -3.4400000E-04    2.9061618E-03     344.0965    
 p024                 obsgroup      8.6010000E-03    9.3070000E-03   -7.0600000E-04     1.000000        8.6010000E-03    9.3070000E-03   -7.0600000E-04    2.9061618E-03     344.0965    
 p025                 obsgroup      8.2190000E-03    9.3980000E-03   -1.1790000E-03     1.000000        8.2190000E-03    9.3980000E-03   -1.1790000E-03    2.9061618E-03     344.0965    
 p026                 obsgroup      8.8070000E-03    9.5050000E-03   -6.9800000E-04     1.000000        8.8070000E-03    9.5050000E-03   -6.9800000E-04    2.9061618E-03     344.0965    
 p027                 obsgroup      9.3520000E-03    9.6230000E-03   -2.7100000E-04     1.000000        9.3520000E-03    9.6230000E-03   -2.7100000E-04    2.9061618E-03     344.0965    
 p028                 obsgroup      8.7550000E-03    9.7600000E-03   -1.0050000E-03     1.000000        8.7550000E-03    9.7600000E-03   -1.0050000E-03    2.9061618E-03     344.0965    
 p029                 obsgroup      8.9100000E-03    9.9180000E-03   -1.0080000E-03     1.000000        8.9100000E-03    9.9180000E-03   -1.0080000E-03    2.9061618E-03     344.0965    
 p030                 obsgroup      8.8370000E-03    1.0092000E-02   -1.2550000E-03     1.000000        8.8370000E-03    1.0092000E-02   -1.2550000E-03    2.9061618E-03     344.0965    
 p031                 obsgroup      8.8070000E-03    1.0291000E-02   -1.4840000E-03     1.000000        8.8070000E-03    1.0291000E-02   -1.4840000E-03    2.9061618E-03     344.0965    
 p032                 obsgroup      9.0020000E-03    1.0512000E-02   -1.5100000E-03     1.000000        9.0020000E-03    1.0512000E-02   -1.5100000E-03    2.9061618E-03     344.0965    
 p033                 obsgroup      8.8070000E-03    1.0747000E-02   -1.9400000E-03     1.000000        8.8070000E-03    1.0747000E-02   -1.9400000E-03    2.9061618E-03     344.0965    
 p034                 obsgroup      9.0640000E-03    1.0999000E-02   -1.9350000E-03     1.000000        9.0640000E-03    1.0999000E-02   -1.9350000E-03    2.9061618E-03     344.0965    
 p035                 obsgroup      8.6110000E-03    1.1287000E-02   -2.6760000E-03     1.000000        8.6110000E-03    1.1287000E-02   -2.6760000E-03    2.9061618E-03     344.0965    
 p036                 obsgroup      9.1360000E-03    1.1611000E-02   -2.4750000E-03     1.000000        9.1360000E-03    1.1611000E-02   -2.4750000E-03    2.9061618E-03     344.0965    
 p037                 obsgroup      9.2290000E-03    1.1960000E-02   -2.7310000E-03     1.000000        9.2290000E-03    1.1960000E-02   -2.7310000E-03    2.9061618E-03     344.0965    
 p038                 obsgroup      9.6000000E-03    1.2335000E-02   -2.7350000E-03     1.000000        9.6000000E-03    1.2335000E-02   -2.7350000E-03    2.9061618E-03     344.0965    
 p039                 obsgroup      9.4970000E-03    1.2733000E-02   -3.2360000E-03     1.000000        9.4970000E-03    1.2733000E-02   -3.2360000E-03    2.9061618E-03     344.0965    
 p040                 obsgroup      1.0815000E-02    1.3603000E-02   -2.7880000E-03     1.000000        1.0815000E-02    1.3603000E-02   -2.7880000E-03    2.9061618E-03     344.0965    
 p041                 obsgroup      1.1742000E-02    1.5036000E-02   -3.2940000E-03     1.000000        1.1742000E-02    1.5036000E-02   -3.2940000E-03    2.9061618E-03     344.0965    
 p042                 obsgroup      1.4523000E-02    1.6598000E-02   -2.0750000E-03     1.000000        1.4523000E-02    1.6598000E-02   -2.0750000E-03    2.9061618E-03     344.0965    
 p043                 obsgroup      1.5862000E-02    1.8328000E-02   -2.4660000E-03     1.000000        1.5862000E-02    1.8328000E-02   -2.4660000E-03    2.9061618E-03     344.0965    
 p044                 obsgroup      1.7510000E-02    2.0300000E-02   -2.7900000E-03     1.000000        1.7510000E-02    2.0300000E-02   -2.7900000E-03    2.9061618E-03     344.0965    
 p045                 obsgroup      2.0497000E-02    2.2371000E-02   -1.8740000E-03     1.000000        2.0497000E-02    2.2371000E-02   -1.8740000E-03    2.9061618E-03     344.0965    
 p046                 obsgroup      2.3896000E-02    2.4547000E-02   -6.5100000E-04     1.000000        2.3896000E-02    2.4547000E-02   -6.5100000E-04    2.9061618E-03     344.0965    
 p047                 obsgroup      2.5956000E-02    2.6730000E-02   -7.7400000E-04     1.000000        2.5956000E-02    2.6730000E-02   -7.7400000E-04    2.9061618E-03     344.0965    
 p048                 obsgroup      3.0282000E-02    2.8264000E-02    2.0180000E-03     1.000000        3.0282000E-02    2.8264000E-02    2.0180000E-03    2.9061618E-03     344.0965    
 p049                 obsgroup      3.1415000E-02    3.1540000E-02   -1.2500000E-04     1.000000        3.1415000E-02    3.1540000E-02   -1.2500000E-04    2.9061618E-03     344.0965    
 p050                 obsgroup      3.3887000E-02    3.4098000E-02   -2.1100000E-04     1.000000        3.3887000E-02    3.4098000E-02   -2.1100000E-04    2.9061618E-03     344.0965    
 p051                 obsgroup      3.6462000E-02    3.7466000E-02   -1.0040000E-03     1.000000        3.6462000E-02    3.7466000E-02   -1.0040000E-03    2.9061618E-03     344.0965    
 p052                 obsgroup      3.9758000E-02    3.9216000E-02    5.4200000E-04     1.000000        3.9758000E-02    3.9216000E-02    5.4200000E-04    2.9061618E-03     344.0965    
 p053                 obsgroup      4.3466000E-02    4.1880000E-02    1.5860000E-03     1.000000        4.3466000E-02    4.1880000E-02    1.5860000E-03    2.9061618E-03     344.0965    
 p054                 obsgroup      4.2848000E-02    4.4616000E-02   -1.7680000E-03     1.000000        4.2848000E-02    4.4616000E-02   -1.7680000E-03    2.9061618E-03     344.0965    
 p055                 obsgroup      4.9028000E-02    4.7383000E-02    1.6450000E-03     1.000000        4.9028000E-02    4.7383000E-02    1.6450000E-03    2.9061618E-03     344.0965    
 p056                 obsgroup      5.3148000E-02    4.9937000E-02    3.2110000E-03     1.000000        5.3148000E-02    4.9937000E-02    3.2110000E-03    2.9061618E-03     344.0965    
 p057                 obsgroup      5.5620000E-02    5.2413000E-02    3.2070000E-03     1.000000        5.5620000E-02    5.2413000E-02    3.2070000E-03    2.9061618E-03     344.0965    
 p058                 obsgroup      5.6135000E-02    5.4983000E-02    1.1520000E-03     1.000000        5.6135000E-02    5.4983000E-02    1.1520000E-03    2.9061618E-03     344.0965    
 p059                 obsgroup      5.8092000E-02    5.7547000E-02    5.4500000E-04     1.000000        5.8092000E-02    5.7547000E-02    5.4500000E-04    2.9061618E-03     344.0965    
 p060                 obsgroup      6.4581000E-02    6.2373000E-02    2.2080000E-03     1.000000        6.4581000E-02    6.2373000E-02    2.2080000E-03    2.9061618E-03     344.0965    
 p061                 obsgroup      6.8495000E-02    6.6725000E-02    1.7700000E-03     1.000000        6.8495000E-02    6.6725000E-02    1.7700000E-03    2.9061618E-03     344.0965    
 p062                 obsgroup      7.1173000E-02    6.9096000E-02    2.0770000E-03     1.000000        7.1173000E-02    6.9096000E-02    2.0770000E-03    2.9061618E-03     344.0965    
 p063                 obsgroup      7.5293000E-02    7.3590000E-02    1.7030000E-03     1.000000        7.5293000E-02    7.3590000E-02    1.7030000E-03    2.9061618E-03     344.0965    
 p064                 obsgroup      7.4881000E-02    7.5668000E-02   -7.8700000E-04     1.000000        7.4881000E-02    7.5668000E-02   -7.8700000E-04    2.9061618E-03     344.0965    
 p065                 obsgroup      8.3739000E-02    7.7854000E-02    5.8850000E-03     1.000000        8.3739000E-02    7.7854000E-02    5.8850000E-03    2.9061618E-03     344.0965    
 p066                 obsgroup      8.2091000E-02    7.9833000E-02    2.2580000E-03     1.000000        8.2091000E-02    7.9833000E-02    2.2580000E-03    2.9061618E-03     344.0965    
 p067                 obsgroup      8.2915000E-02    8.1951000E-02    9.6400000E-04     1.000000        8.2915000E-02    8.1951000E-02    9.6400000E-04    2.9061618E-03     344.0965    
 p068                 obsgroup      8.5593000E-02    8.3619000E-02    1.9740000E-03     1.000000        8.5593000E-02    8.3619000E-02    1.9740000E-03    2.9061618E-03     344.0965    
 p069                 obsgroup      8.4460000E-02    8.5426000E-02   -9.6600000E-04     1.000000        8.4460000E-02    8.5426000E-02   -9.6600000E-04    2.9061618E-03     344.0965    
 p070                 obsgroup      8.7756000E-02    8.8963000E-02   -1.2070000E-03     1.000000        8.7756000E-02    8.8963000E-02   -1.2070000E-03    2.9061618E-03     344.0965    
 p071                 obsgroup      8.9404000E-02    9.0651000E-02   -1.2470000E-03     1.000000        8.9404000E-02    9.0651000E-02   -1.2470000E-03    2.9061618E-03     344.0965    
 p072                 obsgroup      9.4966000E-02    9.2267000E-02    2.6990000E-03     1.000000        9.4966000E-02    9.2267000E-02    2.6990000E-03    2.9061618E-03     344.0965    
 p073                 obsgroup      9.3627000E-02    9.3838000E-02   -2.1100000E-04     1.000000        9.3627000E-02    9.3838000E-02   -2.1100000E-04    2.9061618E-03     344.0965    
 p074                 obsgroup      9.0743000E-02    9.5406000E-02   -4.6630000E-03     1.000000        9.0743000E-02    9.5406000E-02   -4.6630000E-03    2.9061618E-03     344.0965    
 p075                 obsgroup      9.4348000E-02    9.6903000E-02   -2.5550000E-03     1.000000        9.4348000E-02    9.6903000E-02   -2.5550000E-03    2.9061618E-03     344.0965    
 p076                 obsgroup      9.8056000E-02    9.8344000E-02   -2.8800000E-04     1.000000        9.8056000E-02    9.8344000E-02   -2.8800000E-04    2.9061618E-03     344.0965    
 p077                 obsgroup      0.1030000        0.1009900        2.0100000E-03     1.000000        0.1030000        0.1009900        2.0100000E-03    2.9061618E-03     344.0965    
 p078                 obsgroup      9.8056000E-02    0.1022780       -4.2220000E-03     1.000000        9.8056000E-02    0.1022780       -4.2220000E-03    2.9061618E-03     344.0965    
 p079                 obsgroup      9.6820000E-02    0.1035510       -6.7310000E-03     1.000000        9.6820000E-02    0.1035510       -6.7310000E-03    2.9061618E-03     344.0965    
 p080                 obsgroup      9.8777000E-02    0.1047830       -6.0060000E-03     1.000000        9.8777000E-02    0.1047830       -6.0060000E-03    2.9061618E-03     344.0965    
 p081                 obsgroup      0.1050600        0.1059400       -8.8000000E-04     1.000000        0.1050600        0.1059400       -8.8000000E-04    2.9061618E-03     344.0965    
 p082                 obsgroup      0.1071200        0.1070620        5.8000000E-05     1.000000        0.1071200        0.1070620        5.8000000E-05    2.9061618E-03     344.0965    
 p083                 obsgroup      0.1102100        0.1092610        9.4900000E-04     1.000000        0.1102100        0.1092610        9.4900000E-04    2.9061618E-03     344.0965    
 p084                 obsgroup      0.1060900        0.1102550       -4.1650000E-03     1.000000        0.1060900        0.1102550       -4.1650000E-03    2.9061618E-03     344.0965    
 p085                 obsgroup      0.1071200        0.1112330       -4.1130000E-03     1.000000        0.1071200        0.1112330       -4.1130000E-03    2.9061618E-03     344.0965    
 p086                 obsgroup      0.1174200        0.1149220        2.4980000E-03     1.000000        0.1174200        0.1149220        2.4980000E-03    2.9061618E-03     344.0965    
 p087                 obsgroup      0.1163900        0.1164930       -1.0300000E-04     1.000000        0.1163900        0.1164930       -1.0300000E-04    2.9061618E-03     344.0965    
 p088                 obsgroup      0.1174200        0.1172920        1.2800000E-04     1.000000        0.1174200        0.1172920        1.2800000E-04    2.9061618E-03     344.0965    
 p089                 obsgroup      0.1184500        0.1194880       -1.0380000E-03     1.000000        0.1184500        0.1194880       -1.0380000E-03    2.9061618E-03     344.0965    
 p090                 obsgroup      0.1246300        0.1201760        4.4540000E-03     1.000000        0.1246300        0.1201760        4.4540000E-03    2.9061618E-03     344.0965    
 p091                 obsgroup      0.1194800        0.1214670       -1.9870000E-03     1.000000        0.1194800        0.1214670       -1.9870000E-03    2.9061618E-03     344.0965    
 p092                 obsgroup      0.1277200        0.1220630        5.6570000E-03     1.000000        0.1277200        0.1220630        5.6570000E-03    2.9061618E-03     344.0965    
 p093                 obsgroup      0.1266900        0.1226490        4.0410000E-03     1.000000        0.1266900        0.1226490        4.0410000E-03    2.9061618E-03     344.0965    
 p094                 obsgroup      0.1225700        0.1243680       -1.7980000E-03     1.000000        0.1225700        0.1243680       -1.7980000E-03    2.9061618E-03     344.0965    
 p095                 obsgroup      0.1308100        0.1249130        5.8970000E-03     1.000000        0.1308100        0.1249130        5.8970000E-03    2.9061618E-03     344.0965    
 p096                 obsgroup      0.1308100        0.1278500        2.9600000E-03     1.000000        0.1308100        0.1278500        2.9600000E-03    2.9061618E-03     344.0965    
 p097                 obsgroup      0.1318400        0.1282740        3.5660000E-03     1.000000        0.1318400        0.1282740        3.5660000E-03    2.9061618E-03     344.0965    
 p098                 obsgroup      0.1349300        0.1291150        5.8150000E-03     1.000000        0.1349300        0.1291150        5.8150000E-03    2.9061618E-03     344.0965    
 p099                 obsgroup      0.1359600        0.1317810        4.1790000E-03     1.000000        0.1359600        0.1317810        4.1790000E-03    2.9061618E-03     344.0965    
 p100                 obsgroup      0.1349300        0.1321000        2.8300000E-03     1.000000        0.1349300        0.1321000        2.8300000E-03    2.9061618E-03     344.0965    
 p101                 obsgroup      0.1400800        0.1323300        7.7500000E-03     1.000000        0.1400800        0.1323300        7.7500000E-03    2.9061618E-03     344.0965    
 p102                 obsgroup      0.1390500        0.1328970        6.1530000E-03     1.000000        0.1390500        0.1328970        6.1530000E-03    2.9061618E-03     344.0965    
 p103                 obsgroup      0.1411100        0.1330860        8.0240000E-03     1.000000        0.1411100        0.1330860        8.0240000E-03    2.9061618E-03     344.0965    
 p104                 obsgroup      0.1400800        0.1332730        6.8070000E-03     1.000000        0.1400800        0.1332730        6.8070000E-03    2.9061618E-03     344.0965    
 p105                 obsgroup      0.1421400        0.1338240        8.3160000E-03     1.000000        0.1421400        0.1338240        8.3160000E-03    2.9061618E-03     344.0965    
 p106                 obsgroup      0.1328700        0.1341730       -1.3030000E-03     1.000000        0.1328700        0.1341730       -1.3030000E-03    2.9061618E-03     344.0965    
 p107                 obsgroup      0.1380200        0.1344990        3.5210000E-03     1.000000        0.1380200        0.1344990        3.5210000E-03    2.9061618E-03     344.0965    
 p108                 obsgroup      0.1318400        0.1346680       -2.8280000E-03     1.000000        0.1318400        0.1346680       -2.8280000E-03    2.9061618E-03     344.0965    
 p109                 obsgroup      0.1431700        0.1348450        8.3250000E-03     1.000000        0.1431700        0.1348450        8.3250000E-03    2.9061618E-03     344.0965    
 p110                 obsgroup      0.1369900        0.1349980        1.9920000E-03     1.000000        0.1369900        0.1349980        1.9920000E-03    2.9061618E-03     344.0965    
 p111                 obsgroup      0.1390500        0.1351490        3.9010000E-03     1.000000        0.1390500        0.1351490        3.9010000E-03    2.9061618E-03     344.0965    
 p112                 obsgroup      0.1287500        0.1353050       -6.5550000E-03     1.000000        0.1287500        0.1353050       -6.5550000E-03    2.9061618E-03     344.0965    
 p113                 obsgroup      0.1380200        0.1356020        2.4180000E-03     1.000000        0.1380200        0.1356020        2.4180000E-03    2.9061618E-03     344.0965    
 p114                 obsgroup      0.1328700        0.1357550       -2.8850000E-03     1.000000        0.1328700        0.1357550       -2.8850000E-03    2.9061618E-03     344.0965    
 p115                 obsgroup      0.1339000        0.1359070       -2.0070000E-03     1.000000        0.1339000        0.1359070       -2.0070000E-03    2.9061618E-03     344.0965    
 p116                 obsgroup      0.1390500        0.1364800        2.5700000E-03     1.000000        0.1390500        0.1364800        2.5700000E-03    2.9061618E-03     344.0965    
 p117                 obsgroup      0.1359600        0.1366220       -6.6200000E-04     1.000000        0.1359600        0.1366220       -6.6200000E-04    2.9061618E-03     344.0965    
 p118                 obsgroup      0.1287500        0.1367690       -8.0190000E-03     1.000000        0.1287500        0.1367690       -8.0190000E-03    2.9061618E-03     344.0965    
 p119                 obsgroup      0.1266900        0.1369220       -1.0232000E-02     1.000000        0.1266900        0.1369220       -1.0232000E-02    2.9061618E-03     344.0965    
 p120                 obsgroup      0.1328700        0.1370630       -4.1930000E-03     1.000000        0.1328700        0.1370630       -4.1930000E-03    2.9061618E-03     344.0965    
 p121                 obsgroup      0.1308100        0.1372050       -6.3950000E-03     1.000000        0.1308100        0.1372050       -6.3950000E-03    2.9061618E-03     344.0965    
 p122                 obsgroup      0.1339000        0.1373490       -3.4490000E-03     1.000000        0.1339000        0.1373490       -3.4490000E-03    2.9061618E-03     344.0965    
 p123                 obsgroup      0.1308100        0.1375030       -6.6930000E-03     1.000000        0.1308100        0.1375030       -6.6930000E-03    2.9061618E-03     344.0965    
 p124                 obsgroup      0.1400800        0.1376350        2.4450000E-03     1.000000        0.1400800        0.1376350        2.4450000E-03    2.9061618E-03     344.0965    
 p125                 obsgroup      0.1359600        0.1377360       -1.7760000E-03     1.000000        0.1359600        0.1377360       -1.7760000E-03    2.9061618E-03     344.0965    
 p126                 obsgroup      0.1277200        0.1378130       -1.0093000E-02     1.000000        0.1277200        0.1378130       -1.0093000E-02    2.9061618E-03     344.0965    
 p127                 obsgroup      0.1411100        0.1379540        3.1560000E-03     1.000000        0.1411100        0.1379540        3.1560000E-03    2.9061618E-03     344.0965    
 p128                 obsgroup      0.1328700        0.1381000       -5.2300000E-03     1.000000        0.1328700        0.1381000       -5.2300000E-03    2.9061618E-03     344.0965    
 p129                 obsgroup      0.1349300        0.1382450       -3.3150000E-03     1.000000        0.1349300        0.1382450       -3.3150000E-03    2.9061618E-03     344.0965    
 p130                 obsgroup      0.1328700        0.1383870       -5.5170000E-03     1.000000        0.1328700        0.1383870       -5.5170000E-03    2.9061618E-03     344.0965    
 p131                 obsgroup      0.1349300        0.1385380       -3.6080000E-03     1.000000        0.1349300        0.1385380       -3.6080000E-03    2.9061618E-03     344.0965    
 p132                 obsgroup      0.1390500        0.1388010        2.4900000E-04     1.000000        0.1390500        0.1388010        2.4900000E-04    2.9061618E-03     344.0965    
 p133                 obsgroup      0.1359600        0.1389390       -2.9790000E-03     1.000000        0.1359600        0.1389390       -2.9790000E-03    2.9061618E-03     344.0965    
 p134                 obsgroup      0.1421400        0.1392290        2.9110000E-03     1.000000        0.1421400        0.1392290        2.9110000E-03    2.9061618E-03     344.0965    
 p135                 obsgroup      0.1411100        0.1392990        1.8110000E-03     1.000000        0.1411100        0.1392990        1.8110000E-03    2.9061618E-03     344.0965    
 p136                 obsgroup      0.1390500        0.1394620       -4.1200000E-04     1.000000        0.1390500        0.1394620       -4.1200000E-04    2.9061618E-03     344.0965    
 p137                 obsgroup      0.1380200        0.1395070       -1.4870000E-03     1.000000        0.1380200        0.1395070       -1.4870000E-03    2.9061618E-03     344.0965    
 p138                 obsgroup      0.1400800        0.1394430        6.3700000E-04     1.000000        0.1400800        0.1394430        6.3700000E-04    2.9061618E-03     344.0965    
 p139                 obsgroup      0.1421400        0.1392690        2.8710000E-03     1.000000        0.1421400        0.1392690        2.8710000E-03    2.9061618E-03     344.0965    
 p140                 obsgroup      0.1421400        0.1390120        3.1280000E-03     1.000000        0.1421400        0.1390120        3.1280000E-03    2.9061618E-03     344.0965    
 p141                 obsgroup      0.1390500        0.1386410        4.0900000E-04     1.000000        0.1390500        0.1386410        4.0900000E-04    2.9061618E-03     344.0965    
 p142                 obsgroup      0.1369900        0.1381360       -1.1460000E-03     1.000000        0.1369900        0.1381360       -1.1460000E-03    2.9061618E-03     344.0965    
 p143                 obsgroup      0.1349300        0.1374570       -2.5270000E-03     1.000000        0.1349300        0.1374570       -2.5270000E-03    2.9061618E-03     344.0965    
 p144                 obsgroup      0.1380200        0.1366300        1.3900000E-03     1.000000        0.1380200        0.1366300        1.3900000E-03    2.9061618E-03     344.0965    
 p145                 obsgroup      0.1349300        0.1356440       -7.1400000E-04     1.000000        0.1349300        0.1356440       -7.1400000E-04    2.9061618E-03     344.0965    
 p146                 obsgroup      0.1380200        0.1344860        3.5340000E-03     1.000000        0.1380200        0.1344860        3.5340000E-03    2.9061618E-03     344.0965    
 p147                 obsgroup      0.1287500        0.1331630       -4.4130000E-03     1.000000        0.1287500        0.1331630       -4.4130000E-03    2.9061618E-03     344.0965    
 p148                 obsgroup      0.1266900        0.1315820       -4.8920000E-03     1.000000        0.1266900        0.1315820       -4.8920000E-03    2.9061618E-03     344.0965    
 p149                 obsgroup      0.1297800        0.1298270       -4.7000000E-05     1.000000        0.1297800        0.1298270       -4.7000000E-05    2.9061618E-03     344.0965    
 p150                 obsgroup      0.1277200        0.1279470       -2.2700000E-04     1.000000        0.1277200        0.1279470       -2.2700000E-04    2.9061618E-03     344.0965    
 p151                 obsgroup      0.1225700        0.1238450       -1.2750000E-03     1.000000        0.1225700        0.1238450       -1.2750000E-03    2.9061618E-03     344.0965    
 p152                 obsgroup      0.1194800        0.1189960        4.8400000E-04     1.000000        0.1194800        0.1189960        4.8400000E-04    2.9061618E-03     344.0965    
 p153                 obsgroup      0.1174200        0.1166240        7.9600000E-04     1.000000        0.1174200        0.1166240        7.9600000E-04    2.9061618E-03     344.0965    
 p154                 obsgroup      0.1102100        0.1141010       -3.8910000E-03     1.000000        0.1102100        0.1141010       -3.8910000E-03    2.9061618E-03     344.0965    
 p155                 obsgroup      0.1102100        0.1116960       -1.4860000E-03     1.000000        0.1102100        0.1116960       -1.4860000E-03    2.9061618E-03     344.0965    
 p156                 obsgroup      0.1081500        0.1089960       -8.4600000E-04     1.000000        0.1081500        0.1089960       -8.4600000E-04    2.9061618E-03     344.0965    
 p157                 obsgroup      0.1024850        0.1064870       -4.0020000E-03     1.000000        0.1024850        0.1064870       -4.0020000E-03    2.9061618E-03     344.0965    
 p158                 obsgroup      0.1002190        0.1014600       -1.2410000E-03     1.000000        0.1002190        0.1014600       -1.2410000E-03    2.9061618E-03     344.0965    
 p159                 obsgroup      9.6614000E-02    9.8911000E-02   -2.2970000E-03     1.000000        9.6614000E-02    9.8911000E-02   -2.2970000E-03    2.9061618E-03     344.0965    
 p160                 obsgroup      9.6717000E-02    9.3573000E-02    3.1440000E-03     1.000000        9.6717000E-02    9.3573000E-02    3.1440000E-03    2.9061618E-03     344.0965    
 p161                 obsgroup      9.2185000E-02    9.1293000E-02    8.9200000E-04     1.000000        9.2185000E-02    9.1293000E-02    8.9200000E-04    2.9061618E-03     344.0965    
 p162                 obsgroup      9.2906000E-02    8.8894000E-02    4.0120000E-03     1.000000        9.2906000E-02    8.8894000E-02    4.0120000E-03    2.9061618E-03     344.0965    
 p163                 obsgroup      8.1267000E-02    8.1732000E-02   -4.6500000E-04     1.000000        8.1267000E-02    8.1732000E-02   -4.6500000E-04    2.9061618E-03     344.0965    
 p164                 obsgroup      8.2915000E-02    7.9546000E-02    3.3690000E-03     1.000000        8.2915000E-02    7.9546000E-02    3.3690000E-03    2.9061618E-03     344.0965    
 p165                 obsgroup      8.2812000E-02    7.7481000E-02    5.3310000E-03     1.000000        8.2812000E-02    7.7481000E-02    5.3310000E-03    2.9061618E-03     344.0965    
 p166                 obsgroup      7.1997000E-02    7.3292000E-02   -1.2950000E-03     1.000000        7.1997000E-02    7.3292000E-02   -1.2950000E-03    2.9061618E-03     344.0965    
 p167                 obsgroup      7.4263000E-02    7.1198000E-02    3.0650000E-03     1.000000        7.4263000E-02    7.1198000E-02    3.0650000E-03    2.9061618E-03     344.0965    
 p168                 obsgroup      6.5714000E-02    6.7607000E-02   -1.8930000E-03     1.000000        6.5714000E-02    6.7607000E-02   -1.8930000E-03    2.9061618E-03     344.0965    
 p169                 obsgroup      6.1285000E-02    6.0503000E-02    7.8200000E-04     1.000000        6.1285000E-02    6.0503000E-02    7.8200000E-04    2.9061618E-03     344.0965    
 p170                 obsgroup      5.8401000E-02    5.9019000E-02   -6.1800000E-04     1.000000        5.8401000E-02    5.9019000E-02   -6.1800000E-04    2.9061618E-03     344.0965    
 p171                 obsgroup      5.4178000E-02    5.5818000E-02   -1.6400000E-03     1.000000        5.4178000E-02    5.5818000E-02   -1.6400000E-03    2.9061618E-03     344.0965    
 p172                 obsgroup      5.2942000E-02    5.4316000E-02   -1.3740000E-03     1.000000        5.2942000E-02    5.4316000E-02   -1.3740000E-03    2.9061618E-03     344.0965    
 p173                 obsgroup      4.8204000E-02    4.8946000E-02   -7.4200000E-04     1.000000        4.8204000E-02    4.8946000E-02   -7.4200000E-04    2.9061618E-03     344.0965    
 p174                 obsgroup      4.8925000E-02    4.7718000E-02    1.2070000E-03     1.000000        4.8925000E-02    4.7718000E-02    1.2070000E-03    2.9061618E-03     344.0965    
 p175                 obsgroup      4.7380000E-02    4.6535000E-02    8.4500000E-04     1.000000        4.7380000E-02    4.6535000E-02    8.4500000E-04    2.9061618E-03     344.0965    
 p176                 obsgroup      4.5320000E-02    4.5413000E-02   -9.3000000E-05     1.000000        4.5320000E-02    4.5413000E-02   -9.3000000E-05    2.9061618E-03     344.0965    
 p177                 obsgroup      4.4702000E-02    4.4231000E-02    4.7100000E-04     1.000000        4.4702000E-02    4.4231000E-02    4.7100000E-04    2.9061618E-03     344.0965    
 p178                 obsgroup      4.3054000E-02    4.2087000E-02    9.6700000E-04     1.000000        4.3054000E-02    4.2087000E-02    9.6700000E-04    2.9061618E-03     344.0965    
 p179                 obsgroup      4.2642000E-02    4.1103000E-02    1.5390000E-03     1.000000        4.2642000E-02    4.1103000E-02    1.5390000E-03    2.9061618E-03     344.0965    
 p180                 obsgroup      4.2127000E-02    3.9519000E-02    2.6080000E-03     1.000000        4.2127000E-02    3.9519000E-02    2.6080000E-03    2.9061618E-03     344.0965    
 p181                 obsgroup      4.1303000E-02    3.8619000E-02    2.6840000E-03     1.000000        4.1303000E-02    3.8619000E-02    2.6840000E-03    2.9061618E-03     344.0965    
 p182                 obsgroup      3.5741000E-02    3.6118000E-02   -3.7700000E-04     1.000000        3.5741000E-02    3.6118000E-02   -3.7700000E-04    2.9061618E-03     344.0965    
 p183                 obsgroup      3.6050000E-02    3.5306000E-02    7.4400000E-04     1.000000        3.6050000E-02    3.5306000E-02    7.4400000E-04    2.9061618E-03     344.0965    
 p184                 obsgroup      3.3063000E-02    3.1318000E-02    1.7450000E-03     1.000000        3.3063000E-02    3.1318000E-02    1.7450000E-03    2.9061618E-03     344.0965    
 p185                 obsgroup      3.2754000E-02    3.0718000E-02    2.0360000E-03     1.000000        3.2754000E-02    3.0718000E-02    2.0360000E-03    2.9061618E-03     344.0965    
 p186                 obsgroup      2.7810000E-02    2.9003000E-02   -1.1930000E-03     1.000000        2.7810000E-02    2.9003000E-02   -1.1930000E-03    2.9061618E-03     344.0965    
 p187                 obsgroup      2.7295000E-02    2.8435000E-02   -1.1400000E-03     1.000000        2.7295000E-02    2.8435000E-02   -1.1400000E-03    2.9061618E-03     344.0965    
 p188                 obsgroup      2.8531000E-02    2.7948000E-02    5.8300000E-04     1.000000        2.8531000E-02    2.7948000E-02    5.8300000E-04    2.9061618E-03     344.0965    
 p189                 obsgroup      2.5853000E-02    2.6470000E-02   -6.1700000E-04     1.000000        2.5853000E-02    2.6470000E-02   -6.1700000E-04    2.9061618E-03     344.0965    
 p190                 obsgroup      2.5544000E-02    2.6002000E-02   -4.5800000E-04     1.000000        2.5544000E-02    2.6002000E-02   -4.5800000E-04    2.9061618E-03     344.0965    
 p191                 obsgroup      2.5853000E-02    2.4709000E-02    1.1440000E-03     1.000000        2.5853000E-02    2.4709000E-02    1.1440000E-03    2.9061618E-03     344.0965    
 p192                 obsgroup      2.3381000E-02    2.4321000E-02   -9.4000000E-04     1.000000        2.3381000E-02    2.4321000E-02   -9.4000000E-04    2.9061618E-03     344.0965    
 p193                 obsgroup      2.4308000E-02    2.3945000E-02    3.6300000E-04     1.000000        2.4308000E-02    2.3945000E-02    3.6300000E-04    2.9061618E-03     344.0965    
 p194                 obsgroup      2.3587000E-02    2.3562000E-02    2.5000000E-05     1.000000        2.3587000E-02    2.3562000E-02    2.5000000E-05    2.9061618E-03     344.0965    
 p195                 obsgroup      2.4205000E-02    2.3218000E-02    9.8700000E-04     1.000000        2.4205000E-02    2.3218000E-02    9.8700000E-04    2.9061618E-03     344.0965    
 p196                 obsgroup      2.2866000E-02    2.2873000E-02   -7.0000000E-06     1.000000        2.2866000E-02    2.2873000E-02   -7.0000000E-06    2.9061618E-03     344.0965    
 p197                 obsgroup      2.3072000E-02    2.2208000E-02    8.6400000E-04     1.000000        2.3072000E-02    2.2208000E-02    8.6400000E-04    2.9061618E-03     344.0965    
 p198                 obsgroup      2.2042000E-02    2.1895000E-02    1.4700000E-04     1.000000        2.2042000E-02    2.1895000E-02    1.4700000E-04    2.9061618E-03     344.0965    
 p199                 obsgroup      2.1218000E-02    2.1342000E-02   -1.2400000E-04     1.000000        2.1218000E-02    2.1342000E-02   -1.2400000E-04    2.9061618E-03     344.0965    
 p200                 obsgroup      2.0703000E-02    2.1052000E-02   -3.4900000E-04     1.000000        2.0703000E-02    2.1052000E-02   -3.4900000E-04    2.9061618E-03     344.0965    
 p201                 obsgroup      2.0291000E-02    2.0535000E-02   -2.4400000E-04     1.000000        2.0291000E-02    2.0535000E-02   -2.4400000E-04    2.9061618E-03     344.0965    
 p202                 obsgroup      2.0703000E-02    2.0285000E-02    4.1800000E-04     1.000000        2.0703000E-02    2.0285000E-02    4.1800000E-04    2.9061618E-03     344.0965    
 p203                 obsgroup      1.9982000E-02    1.9772000E-02    2.1000000E-04     1.000000        1.9982000E-02    1.9772000E-02    2.1000000E-04    2.9061618E-03     344.0965    
 p204                 obsgroup      1.9467000E-02    1.9308000E-02    1.5900000E-04     1.000000        1.9467000E-02    1.9308000E-02    1.5900000E-04    2.9061618E-03     344.0965    
 p205                 obsgroup      1.8437000E-02    1.8452000E-02   -1.5000000E-05     1.000000        1.8437000E-02    1.8452000E-02   -1.5000000E-05    2.9061618E-03     344.0965    
 p206                 obsgroup      1.8231000E-02    1.8238000E-02   -7.0000000E-06     1.000000        1.8231000E-02    1.8238000E-02   -7.0000000E-06    2.9061618E-03     344.0965    
 p207                 obsgroup      1.9364000E-02    1.8055000E-02    1.3090000E-03     1.000000        1.9364000E-02    1.8055000E-02    1.3090000E-03    2.9061618E-03     344.0965    
 p208                 obsgroup      1.8128000E-02    1.7867000E-02    2.6100000E-04     1.000000        1.8128000E-02    1.7867000E-02    2.6100000E-04    2.9061618E-03     344.0965    
 p209                 obsgroup      1.8128000E-02    1.7671000E-02    4.5700000E-04     1.000000        1.8128000E-02    1.7671000E-02    4.5700000E-04    2.9061618E-03     344.0965    
 p210                 obsgroup      1.7716000E-02    1.7489000E-02    2.2700000E-04     1.000000        1.7716000E-02    1.7489000E-02    2.2700000E-04    2.9061618E-03     344.0965    
 p211                 obsgroup      1.7098000E-02    1.7323000E-02   -2.2500000E-04     1.000000        1.7098000E-02    1.7323000E-02   -2.2500000E-04    2.9061618E-03     344.0965    
 p212                 obsgroup      1.5965000E-02    1.7152000E-02   -1.1870000E-03     1.000000        1.5965000E-02    1.7152000E-02   -1.1870000E-03    2.9061618E-03     344.0965    
 p213                 obsgroup      1.7201000E-02    1.6980000E-02    2.2100000E-04     1.000000        1.7201000E-02    1.6980000E-02    2.2100000E-04    2.9061618E-03     344.0965    
 p214                 obsgroup      1.4626000E-02    1.6807000E-02   -2.1810000E-03     1.000000        1.4626000E-02    1.6807000E-02   -2.1810000E-03    2.9061618E-03     344.0965    
 p215                 obsgroup      1.6171000E-02    1.6495000E-02   -3.2400000E-04     1.000000        1.6171000E-02    1.6495000E-02   -3.2400000E-04    2.9061618E-03     344.0965    
 p216                 obsgroup      1.5553000E-02    1.6347000E-02   -7.9400000E-04     1.000000        1.5553000E-02    1.6347000E-02   -7.9400000E-04    2.9061618E-03     344.0965    
 p217                 obsgroup      1.5759000E-02    1.6209000E-02   -4.5000000E-04     1.000000        1.5759000E-02    1.6209000E-02   -4.5000000E-04    2.9061618E-03     344.0965    
 p218                 obsgroup      1.5450000E-02    1.6058000E-02   -6.0800000E-04     1.000000        1.5450000E-02    1.6058000E-02   -6.0800000E-04    2.9061618E-03     344.0965    
 p219                 obsgroup      1.4935000E-02    1.5794000E-02   -8.5900000E-04     1.000000        1.4935000E-02    1.5794000E-02   -8.5900000E-04    2.9061618E-03     344.0965    
