 Name                 Group          Measured         Modelled         Residual         Weight       Weight*Measured    Weight*Modelled  Weight*Residual  Measurement_sd   Natural_weight
 p001                 obsgroup      5.6550000E-04    3.0000000E-04    2.6550000E-04     1.000000        5.6550000E-04    3.0000000E-04    2.6550000E-04    5.2788956E-03     189.4336    
 p002                 obsgroup      4.0070000E-04    3.0000000E-04    1.0070000E-04     1.000000        4.0070000E-04    3.0000000E-04    1.0070000E-04    5.2788956E-03     189.4336    
 p003                 obsgroup      5.8810000E-04    3.0000000E-04    2.8810000E-04     1.000000        5.8810000E-04    3.0000000E-04    2.8810000E-04    5.2788956E-03     189.4336    
 p004                 obsgroup      4.6560000E-04    3.0000000E-04    1.6560000E-04     1.000000        4.6560000E-04    3.0000000E-04    1.6560000E-04    5.2788956E-03     189.4336    
 p005                 obsgroup      3.5020000E-04    3.0000000E-04    5.0200000E-05     1.000000        3.5020000E-04    3.0000000E-04    5.0200000E-05    5.2788956E-03     189.4336    
 p006                 obsgroup      3.3890000E-04    3.0000000E-04    3.8900000E-05     1.000000        3.3890000E-04    3.0000000E-04    3.8900000E-05    5.2788956E-03     189.4336    
 p007                 obsgroup      3.7180000E-04    3.0000000E-04    7.1800000E-05     1.000000        3.7180000E-04    3.0000000E-04    7.1800000E-05    5.2788956E-03     189.4336    
 p008                 obsgroup      5.4180000E-04    3.0000000E-04    2.4180000E-04     1.000000        5.4180000E-04    3.0000000E-04    2.4180000E-04    5.2788956E-03     189.4336    
 p009                 obsgroup      2.4820000E-04    3.0000000E-04   -5.1800000E-05     1.000000        2.4820000E-04    3.0000000E-04   -5.1800000E-05    5.2788956E-03     189.4336    
 p010                 obsgroup      3.2340000E-04    3.0000000E-04    2.3400000E-05     1.000000        3.2340000E-04    3.0000000E-04    2.3400000E-05    5.2788956E-03     189.4336    
 p011                 obsgroup      4.1710000E-04    3.0000000E-04    1.1710000E-04     1.000000        4.1710000E-04    3.0000000E-04    1.1710000E-04    5.2788956E-03     189.4336    
 p012                 obsgroup      3.2340000E-04    3.0000000E-04    2.3400000E-05     1.000000        3.2340000E-04    3.0000000E-04    2.3400000E-05    5.2788956E-03     189.4336    
 p013                 obsgroup      3.2030000E-04    3.0100000E-04    1.9300000E-05     1.000000        3.2030000E-04    3.0100000E-04    1.9300000E-05    5.2788956E-03     189.4336    
 p014                 obsgroup      2.9560000E-04    3.0300000E-04   -7.4000000E-06     1.000000        2.9560000E-04    3.0300000E-04   -7.4000000E-06    5.2788956E-03     189.4336    
 p015                 obsgroup      3.2550000E-04    3.0700000E-04    1.8500000E-05     1.000000        3.2550000E-04    3.0700000E-04    1.8500000E-05    5.2788956E-03     189.4336    
 p016                 obsgroup      3.0900000E-04    3.1500000E-04   -6.0000000E-06     1.000000        3.0900000E-04    3.1500000E-04   -6.0000000E-06    5.2788956E-03     189.4336    
 p017                 obsgroup      2.7500000E-04    3.2800000E-04   -5.3000000E-05     1.000000        2.7500000E-04    3.2800000E-04   -5.3000000E-05    5.2788956E-03     189.4336    
 p018                 obsgroup      2.9150000E-04    3.4800000E-04   -5.6500000E-05     1.000000        2.9150000E-04    3.4800000E-04   -5.6500000E-05    5.2788956E-03     189.4336    
 p019                 obsgroup      2.7400000E-04    3.7800000E-04   -1.0400000E-04     1.000000        2.7400000E-04    3.7800000E-04   -1.0400000E-04    5.2788956E-03     189.4336    
 p020                 obsgroup      3.0380000E-04    4.2000000E-04   -1.1620000E-04     1.000000        3.0380000E-04    4.2000000E-04   -1.1620000E-04    5.2788956E-03     189.4336    
 p021                 obsgroup      3.1000000E-04    4.7600000E-04   -1.6600000E-04     1.000000        3.1000000E-04    4.7600000E-04   -1.6600000E-04    5.2788956E-03     189.4336    
 p022                 obsgroup      3.0180000E-04    5.4900000E-04   -2.4720000E-04     1.000000        3.0180000E-04    5.4900000E-04   -2.4720000E-04    5.2788956E-03     189.4336    
 p023                 obsgroup      2.9770000E-04    6.4100000E-04   -3.4330000E-04     1.000000        2.9770000E-04    6.4100000E-04   -3.4330000E-04    5.2788956E-03     189.4336    
 p024                 obsgroup      2.9460000E-04    7.5400000E-04   -4.5940000E-04     1.000000        2.9460000E-04    7.5400000E-04   -4.5940000E-04    5.2788956E-03     189.4336    
 p025                 obsgroup      3.0590000E-04    8.8800000E-04   -5.8210000E-04     1.000000        3.0590000E-04    8.8800000E-04   -5.8210000E-04    5.2788956E-03     189.4336    
 p026                 obsgroup      2.3590000E-04    1.0500000E-03   -8.1410000E-04     1.000000        2.3590000E-04    1.0500000E-03   -8.1410000E-04    5.2788956E-03     189.4336    
 p027                 obsgroup      3.2030000E-04    1.2380000E-03   -9.1770000E-04     1.000000        3.2030000E-04    1.2380000E-03   -9.1770000E-04    5.2788956E-03     189.4336    
 p028                 obsgroup      2.8840000E-04    1.4550000E-03   -1.1666000E-03     1.000000        2.8840000E-04    1.4550000E-03   -1.1666000E-03    5.2788956E-03     189.4336    
 p029                 obsgroup      2.6990000E-04    1.7000000E-03   -1.4301000E-03     1.000000        2.6990000E-04    1.7000000E-03   -1.4301000E-03    5.2788956E-03     189.4336    
 p030                 obsgroup      2.9150000E-04    1.9760000E-03   -1.6845000E-03     1.000000        2.9150000E-04    1.9760000E-03   -1.6845000E-03    5.2788956E-03     189.4336    
 p031                 obsgroup      2.8220000E-04    2.2830000E-03   -2.0008000E-03     1.000000        2.8220000E-04    2.2830000E-03   -2.0008000E-03    5.2788956E-03     189.4336    
 p032                 obsgroup      3.5430000E-04    2.6210000E-03   -2.2667000E-03     1.000000        3.5430000E-04    2.6210000E-03   -2.2667000E-03    5.2788956E-03     189.4336    
 p033                 obsgroup      3.1830000E-04    2.9900000E-03   -2.6717000E-03     1.000000        3.1830000E-04    2.9900000E-03   -2.6717000E-03    5.2788956E-03     189.4336    
 p034                 obsgroup      4.1710000E-04    3.3850000E-03   -2.9679000E-03     1.000000        4.1710000E-04    3.3850000E-03   -2.9679000E-03    5.2788956E-03     189.4336    
 p035                 obsgroup      2.9870000E-04    3.8150000E-03   -3.5163000E-03     1.000000        2.9870000E-04    3.8150000E-03   -3.5163000E-03    5.2788956E-03     189.4336    
 p036                 obsgroup      3.3680000E-04    4.2710000E-03   -3.9342000E-03     1.000000        3.3680000E-04    4.2710000E-03   -3.9342000E-03    5.2788956E-03     189.4336    
 p037                 obsgroup      3.1830000E-04    4.7520000E-03   -4.4337000E-03     1.000000        3.1830000E-04    4.7520000E-03   -4.4337000E-03    5.2788956E-03     189.4336    
 p038                 obsgroup      3.0690000E-04    5.2580000E-03   -4.9511000E-03     1.000000        3.0690000E-04    5.2580000E-03   -4.9511000E-03    5.2788956E-03     189.4336    
 p039                 obsgroup      3.6570000E-04    5.7860000E-03   -5.4203000E-03     1.000000        3.6570000E-04    5.7860000E-03   -5.4203000E-03    5.2788956E-03     189.4336    
 p040                 obsgroup      4.8620000E-04    6.3370000E-03   -5.8508000E-03     1.000000        4.8620000E-04    6.3370000E-03   -5.8508000E-03    5.2788956E-03     189.4336    
 p041                 obsgroup      5.2430000E-04    6.9080000E-03   -6.3837000E-03     1.000000        5.2430000E-04    6.9080000E-03   -6.3837000E-03    5.2788956E-03     189.4336    
 p042                 obsgroup      6.2620000E-04    7.5000000E-03   -6.8738000E-03     1.000000        6.2620000E-04    7.5000000E-03   -6.8738000E-03    5.2788956E-03     189.4336    
 p043                 obsgroup      7.5190000E-04    8.1100000E-03   -7.3581000E-03     1.000000        7.5190000E-04    8.1100000E-03   -7.3581000E-03    5.2788956E-03     189.4336    
 p044                 obsgroup      9.6410000E-04    8.7370000E-03   -7.7729000E-03     1.000000        9.6410000E-04    8.7370000E-03   -7.7729000E-03    5.2788956E-03     189.4336    
 p045                 obsgroup      1.1021000E-03    9.3810000E-03   -8.2789000E-03     1.000000        1.1021000E-03    9.3810000E-03   -8.2789000E-03    5.2788956E-03     189.4336    
 p046                 obsgroup      1.2051000E-03    1.0038000E-02   -8.8329000E-03     1.000000        1.2051000E-03    1.0038000E-02   -8.8329000E-03    5.2788956E-03     189.4336    
 p047                 obsgroup      1.4626000E-03    1.0711000E-02   -9.2484000E-03     1.000000        1.4626000E-03    1.0711000E-02   -9.2484000E-03    5.2788956E-03     189.4336    
 p048                 obsgroup      1.8849000E-03    1.1397000E-02   -9.5121000E-03     1.000000        1.8849000E-03    1.1397000E-02   -9.5121000E-03    5.2788956E-03     189.4336    
 p049                 obsgroup      2.6059000E-03    1.2787000E-02   -1.0181100E-02     1.000000        2.6059000E-03    1.2787000E-02   -1.0181100E-02    5.2788956E-03     189.4336    
 p050                 obsgroup      3.6771000E-03    1.4579000E-02   -1.0901900E-02     1.000000        3.6771000E-03    1.4579000E-02   -1.0901900E-02    5.2788956E-03     189.4336    
 p051                 obsgroup      4.6762000E-03    1.6062000E-02   -1.1385800E-02     1.000000        4.6762000E-03    1.6062000E-02   -1.1385800E-02    5.2788956E-03     189.4336    
 p052                 obsgroup      5.8298000E-03    1.7652000E-02   -1.1822200E-02     1.000000        5.8298000E-03    1.7652000E-02   -1.1822200E-02    5.2788956E-03     189.4336    
 p053                 obsgroup      6.6538000E-03    1.8555000E-02   -1.1901200E-02     1.000000        6.6538000E-03    1.8555000E-02   -1.1901200E-02    5.2788956E-03     189.4336    
 p054                 obsgroup      8.1679000E-03    2.0285000E-02   -1.2117100E-02     1.000000        8.1679000E-03    2.0285000E-02   -1.2117100E-02    5.2788956E-03     189.4336    
 p055                 obsgroup      1.0063100E-02    2.2072000E-02   -1.2008900E-02     1.000000        1.0063100E-02    2.2072000E-02   -1.2008900E-02    5.2788956E-03     189.4336    
 p056                 obsgroup      1.1742000E-02    2.3919000E-02   -1.2177000E-02     1.000000        1.1742000E-02    2.3919000E-02   -1.2177000E-02    5.2788956E-03     189.4336    
 p057                 obsgroup      1.3802000E-02    2.5747000E-02   -1.1945000E-02     1.000000        1.3802000E-02    2.5747000E-02   -1.1945000E-02    5.2788956E-03     189.4336    
 p058                 obsgroup      1.5038000E-02    2.7596000E-02   -1.2558000E-02     1.000000        1.5038000E-02    2.7596000E-02   -1.2558000E-02    5.2788956E-03     189.4336    
 p059                 obsgroup      1.8128000E-02    2.9464000E-02   -1.1336000E-02     1.000000        1.8128000E-02    2.9464000E-02   -1.1336000E-02    5.2788956E-03     189.4336    
 p060                 obsgroup      2.0600000E-02    3.0398000E-02   -9.7980000E-03     1.000000        2.0600000E-02    3.0398000E-02   -9.7980000E-03    5.2788956E-03     189.4336    
 p061                 obsgroup      2.3072000E-02    3.2272000E-02   -9.2000000E-03     1.000000        2.3072000E-02    3.2272000E-02   -9.2000000E-03    5.2788956E-03     189.4336    
 p062                 obsgroup      2.9252000E-02    3.4130000E-02   -4.8780000E-03     1.000000        2.9252000E-02    3.4130000E-02   -4.8780000E-03    5.2788956E-03     189.4336    
 p063                 obsgroup      2.6677000E-02    3.4967000E-02   -8.2900000E-03     1.000000        2.6677000E-02    3.4967000E-02   -8.2900000E-03    5.2788956E-03     189.4336    
 p064                 obsgroup      3.1209000E-02    3.7642000E-02   -6.4330000E-03     1.000000        3.1209000E-02    3.7642000E-02   -6.4330000E-03    5.2788956E-03     189.4336    
 p065                 obsgroup      3.3784000E-02    4.0353000E-02   -6.5690000E-03     1.000000        3.3784000E-02    4.0353000E-02   -6.5690000E-03    5.2788956E-03     189.4336    
 p066                 obsgroup      3.7904000E-02    4.3090000E-02   -5.1860000E-03     1.000000        3.7904000E-02    4.3090000E-02   -5.1860000E-03    5.2788956E-03     189.4336    
 p067                 obsgroup      3.9964000E-02    4.5872000E-02   -5.9080000E-03     1.000000        3.9964000E-02    4.5872000E-02   -5.9080000E-03    5.2788956E-03     189.4336    
 p068                 obsgroup      4.7792000E-02    4.8663000E-02   -8.7100000E-04     1.000000        4.7792000E-02    4.8663000E-02   -8.7100000E-04    5.2788956E-03     189.4336    
 p069                 obsgroup      4.9852000E-02    5.0449000E-02   -5.9700000E-04     1.000000        4.9852000E-02    5.0449000E-02   -5.9700000E-04    5.2788956E-03     189.4336    
 p070                 obsgroup      5.4487000E-02    5.3079000E-02    1.4080000E-03     1.000000        5.4487000E-02    5.3079000E-02    1.4080000E-03    5.2788956E-03     189.4336    
 p071                 obsgroup      5.8195000E-02    5.5631000E-02    2.5640000E-03     1.000000        5.8195000E-02    5.5631000E-02    2.5640000E-03    5.2788956E-03     189.4336    
 p072                 obsgroup      6.0976000E-02    5.8162000E-02    2.8140000E-03     1.000000        6.0976000E-02    5.8162000E-02    2.8140000E-03    5.2788956E-03     189.4336    
 p073                 obsgroup      6.1903000E-02    6.0622000E-02    1.2810000E-03     1.000000        6.1903000E-02    6.0622000E-02    1.2810000E-03    5.2788956E-03     189.4336    
 p074                 obsgroup      6.6229000E-02    6.3052000E-02    3.1770000E-03     1.000000        6.6229000E-02    6.3052000E-02    3.1770000E-03    5.2788956E-03     189.4336    
 p075                 obsgroup      7.4572000E-02    6.5408000E-02    9.1640000E-03     1.000000        7.4572000E-02    6.5408000E-02    9.1640000E-03    5.2788956E-03     189.4336    
 p076                 obsgroup      7.6014000E-02    6.7702000E-02    8.3120000E-03     1.000000        7.6014000E-02    6.7702000E-02    8.3120000E-03    5.2788956E-03     189.4336    
 p077                 obsgroup      7.6632000E-02    7.0008000E-02    6.6240000E-03     1.000000        7.6632000E-02    7.0008000E-02    6.6240000E-03    5.2788956E-03     189.4336    
 p078                 obsgroup      8.0031000E-02    7.2307000E-02    7.7240000E-03     1.000000        8.0031000E-02    7.2307000E-02    7.7240000E-03    5.2788956E-03     189.4336    
 p079                 obsgroup      8.1576000E-02    7.4557000E-02    7.0190000E-03     1.000000        8.1576000E-02    7.4557000E-02    7.0190000E-03    5.2788956E-03     189.4336    
 p080                 obsgroup      8.6108000E-02    7.6733000E-02    9.3750000E-03     1.000000        8.6108000E-02    7.6733000E-02    9.3750000E-03    5.2788956E-03     189.4336    
 p081                 obsgroup      9.1155000E-02    7.8858000E-02    1.2297000E-02     1.000000        9.1155000E-02    7.8858000E-02    1.2297000E-02    5.2788956E-03     189.4336    
 p082                 obsgroup      8.6726000E-02    8.0883000E-02    5.8430000E-03     1.000000        8.6726000E-02    8.0883000E-02    5.8430000E-03    5.2788956E-03     189.4336    
 p083                 obsgroup      9.5069000E-02    8.2856000E-02    1.2213000E-02     1.000000        9.5069000E-02    8.2856000E-02    1.2213000E-02    5.2788956E-03     189.4336    
 p084                 obsgroup      9.5584000E-02    8.4805000E-02    1.0779000E-02     1.000000        9.5584000E-02    8.4805000E-02    1.0779000E-02    5.2788956E-03     189.4336    
 p085                 obsgroup      9.4348000E-02    8.6731000E-02    7.6170000E-03     1.000000        9.4348000E-02    8.6731000E-02    7.6170000E-03    5.2788956E-03     189.4336    
 p086                 obsgroup      9.5687000E-02    8.8646000E-02    7.0410000E-03     1.000000        9.5687000E-02    8.8646000E-02    7.0410000E-03    5.2788956E-03     189.4336    
 p087                 obsgroup      9.9189000E-02    9.0538000E-02    8.6510000E-03     1.000000        9.9189000E-02    9.0538000E-02    8.6510000E-03    5.2788956E-03     189.4336    
 p088                 obsgroup      9.9292000E-02    9.4134000E-02    5.1580000E-03     1.000000        9.9292000E-02    9.4134000E-02    5.1580000E-03    5.2788956E-03     189.4336    
 p089                 obsgroup      0.1050600        9.5856000E-02    9.2040000E-03     1.000000        0.1050600        9.5856000E-02    9.2040000E-03    5.2788956E-03     189.4336    
 p090                 obsgroup      0.1060900        9.7544000E-02    8.5460000E-03     1.000000        0.1060900        9.7544000E-02    8.5460000E-03    5.2788956E-03     189.4336    
 p091                 obsgroup      0.1060900        0.1007760        5.3140000E-03     1.000000        0.1060900        0.1007760        5.3140000E-03    5.2788956E-03     189.4336    
 p092                 obsgroup      0.1091800        0.1023380        6.8420000E-03     1.000000        0.1091800        0.1023380        6.8420000E-03    5.2788956E-03     189.4336    
 p093                 obsgroup      0.1081500        0.1038620        4.2880000E-03     1.000000        0.1081500        0.1038620        4.2880000E-03    5.2788956E-03     189.4336    
 p094                 obsgroup      0.1122700        0.1053910        6.8790000E-03     1.000000        0.1122700        0.1053910        6.8790000E-03    5.2788956E-03     189.4336    
 p095                 obsgroup      0.1102100        0.1068750        3.3350000E-03     1.000000        0.1102100        0.1068750        3.3350000E-03    5.2788956E-03     189.4336    
 p096                 obsgroup      0.1112400        0.1083260        2.9140000E-03     1.000000        0.1112400        0.1083260        2.9140000E-03    5.2788956E-03     189.4336    
 p097                 obsgroup      0.1225700        0.1110370        1.1533000E-02     1.000000        0.1225700        0.1110370        1.1533000E-02    5.2788956E-03     189.4336    
 p098                 obsgroup      0.1225700        0.1123100        1.0260000E-02     1.000000        0.1225700        0.1123100        1.0260000E-02    5.2788956E-03     189.4336    
 p099                 obsgroup      0.1246300        0.1135430        1.1087000E-02     1.000000        0.1246300        0.1135430        1.1087000E-02    5.2788956E-03     189.4336    
 p100                 obsgroup      0.1256600        0.1147610        1.0899000E-02     1.000000        0.1256600        0.1147610        1.0899000E-02    5.2788956E-03     189.4336    
 p101                 obsgroup      0.1266900        0.1159320        1.0758000E-02     1.000000        0.1266900        0.1159320        1.0758000E-02    5.2788956E-03     189.4336    
 p102                 obsgroup      0.1256600        0.1170800        8.5800000E-03     1.000000        0.1256600        0.1170800        8.5800000E-03    5.2788956E-03     189.4336    
 p103                 obsgroup      0.1246300        0.1182160        6.4140000E-03     1.000000        0.1246300        0.1182160        6.4140000E-03    5.2788956E-03     189.4336    
 p104                 obsgroup      0.1184500        0.1193370       -8.8700000E-04     1.000000        0.1184500        0.1193370       -8.8700000E-04    5.2788956E-03     189.4336    
 p105                 obsgroup      0.1225700        0.1204100        2.1600000E-03     1.000000        0.1225700        0.1204100        2.1600000E-03    5.2788956E-03     189.4336    
 p106                 obsgroup      0.1236000        0.1214880        2.1120000E-03     1.000000        0.1236000        0.1214880        2.1120000E-03    5.2788956E-03     189.4336    
 p107                 obsgroup      0.1246300        0.1225370        2.0930000E-03     1.000000        0.1246300        0.1225370        2.0930000E-03    5.2788956E-03     189.4336    
 p108                 obsgroup      0.1287500        0.1235610        5.1890000E-03     1.000000        0.1287500        0.1235610        5.1890000E-03    5.2788956E-03     189.4336    
 p109                 obsgroup      0.1215400        0.1245240       -2.9840000E-03     1.000000        0.1215400        0.1245240       -2.9840000E-03    5.2788956E-03     189.4336    
 p110                 obsgroup      0.1236000        0.1281230       -4.5230000E-03     1.000000        0.1236000        0.1281230       -4.5230000E-03    5.2788956E-03     189.4336    
 p111                 obsgroup      0.1266900        0.1290210       -2.3310000E-03     1.000000        0.1266900        0.1290210       -2.3310000E-03    5.2788956E-03     189.4336    
 p112                 obsgroup      0.1297800        0.1298820       -1.0200000E-04     1.000000        0.1297800        0.1298820       -1.0200000E-04    5.2788956E-03     189.4336    
 p113                 obsgroup      0.1349300        0.1306980        4.2320000E-03     1.000000        0.1349300        0.1306980        4.2320000E-03    5.2788956E-03     189.4336    
 p114                 obsgroup      0.1308100        0.1314770       -6.6700000E-04     1.000000        0.1308100        0.1314770       -6.6700000E-04    5.2788956E-03     189.4336    
 p115                 obsgroup      0.1349300        0.1322410        2.6890000E-03     1.000000        0.1349300        0.1322410        2.6890000E-03    5.2788956E-03     189.4336    
 p116                 obsgroup      0.1318400        0.1329830       -1.1430000E-03     1.000000        0.1318400        0.1329830       -1.1430000E-03    5.2788956E-03     189.4336    
 p117                 obsgroup      0.1380200        0.1343880        3.6320000E-03     1.000000        0.1380200        0.1343880        3.6320000E-03    5.2788956E-03     189.4336    
 p118                 obsgroup      0.1308100        0.1350860       -4.2760000E-03     1.000000        0.1308100        0.1350860       -4.2760000E-03    5.2788956E-03     189.4336    
 p119                 obsgroup      0.1380200        0.1357760        2.2440000E-03     1.000000        0.1380200        0.1357760        2.2440000E-03    5.2788956E-03     189.4336    
 p120                 obsgroup      0.1287500        0.1364590       -7.7090000E-03     1.000000        0.1287500        0.1364590       -7.7090000E-03    5.2788956E-03     189.4336    
 p121                 obsgroup      0.1287500        0.1371310       -8.3810000E-03     1.000000        0.1287500        0.1371310       -8.3810000E-03    5.2788956E-03     189.4336    
 p122                 obsgroup      0.1369900        0.1377680       -7.7800000E-04     1.000000        0.1369900        0.1377680       -7.7800000E-04    5.2788956E-03     189.4336    
 p123                 obsgroup      0.1349300        0.1383930       -3.4630000E-03     1.000000        0.1349300        0.1383930       -3.4630000E-03    5.2788956E-03     189.4336    
 p124                 obsgroup      0.1411100        0.1389970        2.1130000E-03     1.000000        0.1411100        0.1389970        2.1130000E-03    5.2788956E-03     189.4336    
 p125                 obsgroup      0.1359600        0.1395780       -3.6180000E-03     1.000000        0.1359600        0.1395780       -3.6180000E-03    5.2788956E-03     189.4336    
 p126                 obsgroup      0.1328700        0.1401460       -7.2760000E-03     1.000000        0.1328700        0.1401460       -7.2760000E-03    5.2788956E-03     189.4336    
 p127                 obsgroup      0.1349300        0.1407050       -5.7750000E-03     1.000000        0.1349300        0.1407050       -5.7750000E-03    5.2788956E-03     189.4336    
 p128                 obsgroup      0.1472900        0.1412480        6.0420000E-03     1.000000        0.1472900        0.1412480        6.0420000E-03    5.2788956E-03     189.4336    
 p129                 obsgroup      0.1452300        0.1422360        2.9940000E-03     1.000000        0.1452300        0.1422360        2.9940000E-03    5.2788956E-03     189.4336    
 p130                 obsgroup      0.1411100        0.1427360       -1.6260000E-03     1.000000        0.1411100        0.1427360       -1.6260000E-03    5.2788956E-03     189.4336    
 p131                 obsgroup      0.1452300        0.1436880        1.5420000E-03     1.000000        0.1452300        0.1436880        1.5420000E-03    5.2788956E-03     189.4336    
 p132                 obsgroup      0.1483200        0.1441340        4.1860000E-03     1.000000        0.1483200        0.1441340        4.1860000E-03    5.2788956E-03     189.4336    
 p133                 obsgroup      0.1483200        0.1445650        3.7550000E-03     1.000000        0.1483200        0.1445650        3.7550000E-03    5.2788956E-03     189.4336    
 p134                 obsgroup      0.1493500        0.1449810        4.3690000E-03     1.000000        0.1493500        0.1449810        4.3690000E-03    5.2788956E-03     189.4336    
 p135                 obsgroup      0.1431700        0.1453870       -2.2170000E-03     1.000000        0.1431700        0.1453870       -2.2170000E-03    5.2788956E-03     189.4336    
 p136                 obsgroup      0.1483200        0.1457840        2.5360000E-03     1.000000        0.1483200        0.1457840        2.5360000E-03    5.2788956E-03     189.4336    
 p137                 obsgroup      0.1452300        0.1461820       -9.5200000E-04     1.000000        0.1452300        0.1461820       -9.5200000E-04    5.2788956E-03     189.4336    
 p138                 obsgroup      0.1421400        0.1465790       -4.4390000E-03     1.000000        0.1421400        0.1465790       -4.4390000E-03    5.2788956E-03     189.4336    
 p139                 obsgroup      0.1400800        0.1469730       -6.8930000E-03     1.000000        0.1400800        0.1469730       -6.8930000E-03    5.2788956E-03     189.4336    
 p140                 obsgroup      0.1431700        0.1473530       -4.1830000E-03     1.000000        0.1431700        0.1473530       -4.1830000E-03    5.2788956E-03     189.4336    
 p141                 obsgroup      0.1472900        0.1477180       -4.2800000E-04     1.000000        0.1472900        0.1477180       -4.2800000E-04    5.2788956E-03     189.4336    
 p142                 obsgroup      0.1462600        0.1480670       -1.8070000E-03     1.000000        0.1462600        0.1480670       -1.8070000E-03    5.2788956E-03     189.4336    
 p143                 obsgroup      0.1431700        0.1484040       -5.2340000E-03     1.000000        0.1431700        0.1484040       -5.2340000E-03    5.2788956E-03     189.4336    
 p144                 obsgroup      0.1503800        0.1487210        1.6590000E-03     1.000000        0.1503800        0.1487210        1.6590000E-03    5.2788956E-03     189.4336    
 p145                 obsgroup      0.1493500        0.1490370        3.1300000E-04     1.000000        0.1493500        0.1490370        3.1300000E-04    5.2788956E-03     189.4336    
 p146                 obsgroup      0.1514100        0.1496240        1.7860000E-03     1.000000        0.1514100        0.1496240        1.7860000E-03    5.2788956E-03     189.4336    
 p147                 obsgroup      0.1472900        0.1499170       -2.6270000E-03     1.000000        0.1472900        0.1499170       -2.6270000E-03    5.2788956E-03     189.4336    
 p148                 obsgroup      0.1421400        0.1502090       -8.0690000E-03     1.000000        0.1421400        0.1502090       -8.0690000E-03    5.2788956E-03     189.4336    
 p149                 obsgroup      0.1503800        0.1507620       -3.8200000E-04     1.000000        0.1503800        0.1507620       -3.8200000E-04    5.2788956E-03     189.4336    
 p150                 obsgroup      0.1503800        0.1510330       -6.5300000E-04     1.000000        0.1503800        0.1510330       -6.5300000E-04    5.2788956E-03     189.4336    
 p151                 obsgroup      0.1514100        0.1523210       -9.1100000E-04     1.000000        0.1514100        0.1523210       -9.1100000E-04    5.2788956E-03     189.4336    
 p152                 obsgroup      0.1493500        0.1525880       -3.2380000E-03     1.000000        0.1493500        0.1525880       -3.2380000E-03    5.2788956E-03     189.4336    
 p153                 obsgroup      0.1431700        0.1528630       -9.6930000E-03     1.000000        0.1431700        0.1528630       -9.6930000E-03    5.2788956E-03     189.4336    
 p154                 obsgroup      0.1472900        0.1529510       -5.6610000E-03     1.000000        0.1472900        0.1529510       -5.6610000E-03    5.2788956E-03     189.4336    
 p155                 obsgroup      0.1472900        0.1531330       -5.8430000E-03     1.000000        0.1472900        0.1531330       -5.8430000E-03    5.2788956E-03     189.4336    
 p156                 obsgroup      0.1462600        0.1534080       -7.1480000E-03     1.000000        0.1462600        0.1534080       -7.1480000E-03    5.2788956E-03     189.4336    
 p157                 obsgroup      0.1483200        0.1535860       -5.2660000E-03     1.000000        0.1483200        0.1535860       -5.2660000E-03    5.2788956E-03     189.4336    
 p158                 obsgroup      0.1555300        0.1544220        1.1080000E-03     1.000000        0.1555300        0.1544220        1.1080000E-03    5.2788956E-03     189.4336    
 p159                 obsgroup      0.1442000        0.1545300       -1.0330000E-02     1.000000        0.1442000        0.1545300       -1.0330000E-02    5.2788956E-03     189.4336    
 p160                 obsgroup      0.1452300        0.1546180       -9.3880000E-03     1.000000        0.1452300        0.1546180       -9.3880000E-03    5.2788956E-03     189.4336    
 p161                 obsgroup      0.1472900        0.1546750       -7.3850000E-03     1.000000        0.1472900        0.1546750       -7.3850000E-03    5.2788956E-03     189.4336    
 p162                 obsgroup      0.1462600        0.1546990       -8.4390000E-03     1.000000        0.1462600        0.1546990       -8.4390000E-03    5.2788956E-03     189.4336    
 p163                 obsgroup      0.1503800        0.1546830       -4.3030000E-03     1.000000        0.1503800        0.1546830       -4.3030000E-03    5.2788956E-03     189.4336    
 p164                 obsgroup      0.1524400        0.1546250       -2.1850000E-03     1.000000        0.1524400        0.1546250       -2.1850000E-03    5.2788956E-03     189.4336    
 p165                 obsgroup      0.1524400        0.1545170       -2.0770000E-03     1.000000        0.1524400        0.1545170       -2.0770000E-03    5.2788956E-03     189.4336    
 p166                 obsgroup      0.1493500        0.1543550       -5.0050000E-03     1.000000        0.1493500        0.1543550       -5.0050000E-03    5.2788956E-03     189.4336    
 p167                 obsgroup      0.1545000        0.1530930        1.4070000E-03     1.000000        0.1545000        0.1530930        1.4070000E-03    5.2788956E-03     189.4336    
 p168                 obsgroup      0.1503800        0.1525790       -2.1990000E-03     1.000000        0.1503800        0.1525790       -2.1990000E-03    5.2788956E-03     189.4336    
 p169                 obsgroup      0.1472900        0.1512460       -3.9560000E-03     1.000000        0.1472900        0.1512460       -3.9560000E-03    5.2788956E-03     189.4336    
 p170                 obsgroup      0.1431700        0.1504280       -7.2580000E-03     1.000000        0.1431700        0.1504280       -7.2580000E-03    5.2788956E-03     189.4336    
 p171                 obsgroup      0.1493500        0.1495130       -1.6300000E-04     1.000000        0.1493500        0.1495130       -1.6300000E-04    5.2788956E-03     189.4336    
 p172                 obsgroup      0.1483200        0.1485290       -2.0900000E-04     1.000000        0.1483200        0.1485290       -2.0900000E-04    5.2788956E-03     189.4336    
 p173                 obsgroup      0.1493500        0.1474550        1.8950000E-03     1.000000        0.1493500        0.1474550        1.8950000E-03    5.2788956E-03     189.4336    
 p174                 obsgroup      0.1452300        0.1463040       -1.0740000E-03     1.000000        0.1452300        0.1463040       -1.0740000E-03    5.2788956E-03     189.4336    
 p175                 obsgroup      0.1442000        0.1450820       -8.8200000E-04     1.000000        0.1442000        0.1450820       -8.8200000E-04    5.2788956E-03     189.4336    
 p176                 obsgroup      0.1483200        0.1437610        4.5590000E-03     1.000000        0.1483200        0.1437610        4.5590000E-03    5.2788956E-03     189.4336    
 p177                 obsgroup      0.1483200        0.1424010        5.9190000E-03     1.000000        0.1483200        0.1424010        5.9190000E-03    5.2788956E-03     189.4336    
 p178                 obsgroup      0.1493500        0.1409790        8.3710000E-03     1.000000        0.1493500        0.1409790        8.3710000E-03    5.2788956E-03     189.4336    
 p179                 obsgroup      0.1442000        0.1395200        4.6800000E-03     1.000000        0.1442000        0.1395200        4.6800000E-03    5.2788956E-03     189.4336    
 p180                 obsgroup      0.1400800        0.1379830        2.0970000E-03     1.000000        0.1400800        0.1379830        2.0970000E-03    5.2788956E-03     189.4336    
 p181                 obsgroup      0.1421400        0.1363890        5.7510000E-03     1.000000        0.1421400        0.1363890        5.7510000E-03    5.2788956E-03     189.4336    
 p182                 obsgroup      0.1411100        0.1347550        6.3550000E-03     1.000000        0.1411100        0.1347550        6.3550000E-03    5.2788956E-03     189.4336    
 p183                 obsgroup      0.1380200        0.1330550        4.9650000E-03     1.000000        0.1380200        0.1330550        4.9650000E-03    5.2788956E-03     189.4336    
 p184                 obsgroup      0.1339000        0.1312880        2.6120000E-03     1.000000        0.1339000        0.1312880        2.6120000E-03    5.2788956E-03     189.4336    
 p185                 obsgroup      0.1297800        0.1294640        3.1600000E-04     1.000000        0.1297800        0.1294640        3.1600000E-04    5.2788956E-03     189.4336    
 p186                 obsgroup      0.1287500        0.1276230        1.1270000E-03     1.000000        0.1287500        0.1276230        1.1270000E-03    5.2788956E-03     189.4336    
 p187                 obsgroup      0.1277200        0.1258020        1.9180000E-03     1.000000        0.1277200        0.1258020        1.9180000E-03    5.2788956E-03     189.4336    
 p188                 obsgroup      0.1266900        0.1239610        2.7290000E-03     1.000000        0.1266900        0.1239610        2.7290000E-03    5.2788956E-03     189.4336    
 p189                 obsgroup      0.1236000        0.1221380        1.4620000E-03     1.000000        0.1236000        0.1221380        1.4620000E-03    5.2788956E-03     189.4336    
 p190                 obsgroup      0.1246300        0.1204470        4.1830000E-03     1.000000        0.1246300        0.1204470        4.1830000E-03    5.2788956E-03     189.4336    
 p191                 obsgroup      0.1174200        0.1136840        3.7360000E-03     1.000000        0.1174200        0.1136840        3.7360000E-03    5.2788956E-03     189.4336    
 p192                 obsgroup      0.1174200        0.1119840        5.4360000E-03     1.000000        0.1174200        0.1119840        5.4360000E-03    5.2788956E-03     189.4336    
 p193                 obsgroup      0.1133000        0.1103090        2.9910000E-03     1.000000        0.1133000        0.1103090        2.9910000E-03    5.2788956E-03     189.4336    
 p194                 obsgroup      0.1071200        0.1085860       -1.4660000E-03     1.000000        0.1071200        0.1085860       -1.4660000E-03    5.2788956E-03     189.4336    
 p195                 obsgroup      0.1060900        0.1068730       -7.8300000E-04     1.000000        0.1060900        0.1068730       -7.8300000E-04    5.2788956E-03     189.4336    
 p196                 obsgroup      0.1003220        0.1051070       -4.7850000E-03     1.000000        0.1003220        0.1051070       -4.7850000E-03    5.2788956E-03     189.4336    
 p197                 obsgroup      9.7129000E-02    0.1033490       -6.2200000E-03     1.000000        9.7129000E-02    0.1033490       -6.2200000E-03    5.2788956E-03     189.4336    
 p198                 obsgroup      9.5584000E-02    0.1016260       -6.0420000E-03     1.000000        9.5584000E-02    0.1016260       -6.0420000E-03    5.2788956E-03     189.4336    
 p199                 obsgroup      9.7747000E-02    9.9939000E-02   -2.1920000E-03     1.000000        9.7747000E-02    9.9939000E-02   -2.1920000E-03    5.2788956E-03     189.4336    
 p200                 obsgroup      9.2700000E-02    9.8257000E-02   -5.5570000E-03     1.000000        9.2700000E-02    9.8257000E-02   -5.5570000E-03    5.2788956E-03     189.4336    
 p201                 obsgroup      9.5584000E-02    9.6668000E-02   -1.0840000E-03     1.000000        9.5584000E-02    9.6668000E-02   -1.0840000E-03    5.2788956E-03     189.4336    
 p202                 obsgroup      9.2906000E-02    9.5085000E-02   -2.1790000E-03     1.000000        9.2906000E-02    9.5085000E-02   -2.1790000E-03    5.2788956E-03     189.4336    
 p203                 obsgroup      9.0228000E-02    9.3549000E-02   -3.3210000E-03     1.000000        9.0228000E-02    9.3549000E-02   -3.3210000E-03    5.2788956E-03     189.4336    
 p204                 obsgroup      9.0640000E-02    9.2051000E-02   -1.4110000E-03     1.000000        9.0640000E-02    9.2051000E-02   -1.4110000E-03    5.2788956E-03     189.4336    
 p205                 obsgroup      9.0743000E-02    8.9784000E-02    9.5900000E-04     1.000000        9.0743000E-02    8.9784000E-02    9.5900000E-04    5.2788956E-03     189.4336    
 p206                 obsgroup      8.8477000E-02    8.7653000E-02    8.2400000E-04     1.000000        8.8477000E-02    8.7653000E-02    8.2400000E-04    5.2788956E-03     189.4336    
 p207                 obsgroup      8.2091000E-02    8.5494000E-02   -3.4030000E-03     1.000000        8.2091000E-02    8.5494000E-02   -3.4030000E-03    5.2788956E-03     189.4336    
 p208                 obsgroup      7.8898000E-02    8.3354000E-02   -4.4560000E-03     1.000000        7.8898000E-02    8.3354000E-02   -4.4560000E-03    5.2788956E-03     189.4336    
 p209                 obsgroup      7.7971000E-02    8.1228000E-02   -3.2570000E-03     1.000000        7.7971000E-02    8.1228000E-02   -3.2570000E-03    5.2788956E-03     189.4336    
 p210                 obsgroup      7.0452000E-02    7.9047000E-02   -8.5950000E-03     1.000000        7.0452000E-02    7.9047000E-02   -8.5950000E-03    5.2788956E-03     189.4336    
 p211                 obsgroup      7.3851000E-02    7.7040000E-02   -3.1890000E-03     1.000000        7.3851000E-02    7.7040000E-02   -3.1890000E-03    5.2788956E-03     189.4336    
 p212                 obsgroup      7.1379000E-02    7.5104000E-02   -3.7250000E-03     1.000000        7.1379000E-02    7.5104000E-02   -3.7250000E-03    5.2788956E-03     189.4336    
 p213                 obsgroup      7.0761000E-02    7.3240000E-02   -2.4790000E-03     1.000000        7.0761000E-02    7.3240000E-02   -2.4790000E-03    5.2788956E-03     189.4336    
 p214                 obsgroup      6.2006000E-02    7.1375000E-02   -9.3690000E-03     1.000000        6.2006000E-02    7.1375000E-02   -9.3690000E-03    5.2788956E-03     189.4336    
 p215                 obsgroup      6.4478000E-02    6.7947000E-02   -3.4690000E-03     1.000000        6.4478000E-02    6.7947000E-02   -3.4690000E-03    5.2788956E-03     189.4336    
 p216                 obsgroup      6.0564000E-02    6.6231000E-02   -5.6670000E-03     1.000000        6.0564000E-02    6.6231000E-02   -5.6670000E-03    5.2788956E-03     189.4336    
 p217                 obsgroup      5.6959000E-02    6.4485000E-02   -7.5260000E-03     1.000000        5.6959000E-02    6.4485000E-02   -7.5260000E-03    5.2788956E-03     189.4336    
 p218                 obsgroup      5.6238000E-02    6.1142000E-02   -4.9040000E-03     1.000000        5.6238000E-02    6.1142000E-02   -4.9040000E-03    5.2788956E-03     189.4336    
 p219                 obsgroup      5.5311000E-02    5.9549000E-02   -4.2380000E-03     1.000000        5.5311000E-02    5.9549000E-02   -4.2380000E-03    5.2788956E-03     189.4336    
 p220                 obsgroup      5.5723000E-02    5.8073000E-02   -2.3500000E-03     1.000000        5.5723000E-02    5.8073000E-02   -2.3500000E-03    5.2788956E-03     189.4336    
 p221                 obsgroup      5.4487000E-02    5.6626000E-02   -2.1390000E-03     1.000000        5.4487000E-02    5.6626000E-02   -2.1390000E-03    5.2788956E-03     189.4336    
 p222                 obsgroup      5.1912000E-02    5.5223000E-02   -3.3110000E-03     1.000000        5.1912000E-02    5.5223000E-02   -3.3110000E-03    5.2788956E-03     189.4336    
 p223                 obsgroup      5.2427000E-02    5.3847000E-02   -1.4200000E-03     1.000000        5.2427000E-02    5.3847000E-02   -1.4200000E-03    5.2788956E-03     189.4336    
 p224                 obsgroup      4.8616000E-02    5.2508000E-02   -3.8920000E-03     1.000000        4.8616000E-02    5.2508000E-02   -3.8920000E-03    5.2788956E-03     189.4336    
 p225                 obsgroup      4.8513000E-02    5.1169000E-02   -2.6560000E-03     1.000000        4.8513000E-02    5.1169000E-02   -2.6560000E-03    5.2788956E-03     189.4336    
 p226                 obsgroup      4.9337000E-02    4.9823000E-02   -4.8600000E-04     1.000000        4.9337000E-02    4.9823000E-02   -4.8600000E-04    5.2788956E-03     189.4336    
 p227                 obsgroup      4.4290000E-02    4.8527000E-02   -4.2370000E-03     1.000000        4.4290000E-02    4.8527000E-02   -4.2370000E-03    5.2788956E-03     189.4336    
 p228                 obsgroup      4.2951000E-02    4.7252000E-02   -4.3010000E-03     1.000000        4.2951000E-02    4.7252000E-02   -4.3010000E-03    5.2788956E-03     189.4336    
 p229                 obsgroup      4.2436000E-02    4.6023000E-02   -3.5870000E-03     1.000000        4.2436000E-02    4.6023000E-02   -3.5870000E-03    5.2788956E-03     189.4336    
 p230                 obsgroup      4.3054000E-02    4.4842000E-02   -1.7880000E-03     1.000000        4.3054000E-02    4.4842000E-02   -1.7880000E-03    5.2788956E-03     189.4336    
 p231                 obsgroup      4.3054000E-02    4.3706000E-02   -6.5200000E-04     1.000000        4.3054000E-02    4.3706000E-02   -6.5200000E-04    5.2788956E-03     189.4336    
 p232                 obsgroup      4.1200000E-02    4.2649000E-02   -1.4490000E-03     1.000000        4.1200000E-02    4.2649000E-02   -1.4490000E-03    5.2788956E-03     189.4336    
 p233                 obsgroup      4.0479000E-02    4.1622000E-02   -1.1430000E-03     1.000000        4.0479000E-02    4.1622000E-02   -1.1430000E-03    5.2788956E-03     189.4336    
 p234                 obsgroup      3.9140000E-02    3.9592000E-02   -4.5200000E-04     1.000000        3.9140000E-02    3.9592000E-02   -4.5200000E-04    5.2788956E-03     189.4336    
 p235                 obsgroup      3.6359000E-02    3.8571000E-02   -2.2120000E-03     1.000000        3.6359000E-02    3.8571000E-02   -2.2120000E-03    5.2788956E-03     189.4336    
 p236                 obsgroup      3.6565000E-02    3.7570000E-02   -1.0050000E-03     1.000000        3.6565000E-02    3.7570000E-02   -1.0050000E-03    5.2788956E-03     189.4336    
 p237                 obsgroup      3.5123000E-02    3.6596000E-02   -1.4730000E-03     1.000000        3.5123000E-02    3.6596000E-02   -1.4730000E-03    5.2788956E-03     189.4336    
 p238                 obsgroup      3.3269000E-02    3.5660000E-02   -2.3910000E-03     1.000000        3.3269000E-02    3.5660000E-02   -2.3910000E-03    5.2788956E-03     189.4336    
 p239                 obsgroup      3.2960000E-02    3.4735000E-02   -1.7750000E-03     1.000000        3.2960000E-02    3.4735000E-02   -1.7750000E-03    5.2788956E-03     189.4336    
 p240                 obsgroup      3.2857000E-02    3.3828000E-02   -9.7100000E-04     1.000000        3.2857000E-02    3.3828000E-02   -9.7100000E-04    5.2788956E-03     189.4336    
 p241                 obsgroup      3.2136000E-02    3.2976000E-02   -8.4000000E-04     1.000000        3.2136000E-02    3.2976000E-02   -8.4000000E-04    5.2788956E-03     189.4336    
 p242                 obsgroup      3.2342000E-02    3.2135000E-02    2.0700000E-04     1.000000        3.2342000E-02    3.2135000E-02    2.0700000E-04    5.2788956E-03     189.4336    
 p243                 obsgroup      3.0385000E-02    3.1507000E-02   -1.1220000E-03     1.000000        3.0385000E-02    3.1507000E-02   -1.1220000E-03    5.2788956E-03     189.4336    
 p244                 obsgroup      3.0385000E-02    3.0734000E-02   -3.4900000E-04     1.000000        3.0385000E-02    3.0734000E-02   -3.4900000E-04    5.2788956E-03     189.4336    
 p245                 obsgroup      3.1415000E-02    2.9956000E-02    1.4590000E-03     1.000000        3.1415000E-02    2.9956000E-02    1.4590000E-03    5.2788956E-03     189.4336    
 p246                 obsgroup      2.8737000E-02    2.9180000E-02   -4.4300000E-04     1.000000        2.8737000E-02    2.9180000E-02   -4.4300000E-04    5.2788956E-03     189.4336    
 p247                 obsgroup      2.9355000E-02    2.8437000E-02    9.1800000E-04     1.000000        2.9355000E-02    2.8437000E-02    9.1800000E-04    5.2788956E-03     189.4336    
 p248                 obsgroup      2.7089000E-02    2.7714000E-02   -6.2500000E-04     1.000000        2.7089000E-02    2.7714000E-02   -6.2500000E-04    5.2788956E-03     189.4336    
 p249                 obsgroup      2.5338000E-02    2.6989000E-02   -1.6510000E-03     1.000000        2.5338000E-02    2.6989000E-02   -1.6510000E-03    5.2788956E-03     189.4336    
 p250                 obsgroup      2.8325000E-02    2.6551000E-02    1.7740000E-03     1.000000        2.8325000E-02    2.6551000E-02    1.7740000E-03    5.2788956E-03     189.4336    
 p251                 obsgroup      2.8428000E-02    2.6105000E-02    2.3230000E-03     1.000000        2.8428000E-02    2.6105000E-02    2.3230000E-03    5.2788956E-03     189.4336    
 p252                 obsgroup      2.5853000E-02    2.5663000E-02    1.9000000E-04     1.000000        2.5853000E-02    2.5663000E-02    1.9000000E-04    5.2788956E-03     189.4336    
 p253                 obsgroup      2.7707000E-02    2.5242000E-02    2.4650000E-03     1.000000        2.7707000E-02    2.5242000E-02    2.4650000E-03    5.2788956E-03     189.4336    
 p254                 obsgroup      2.7810000E-02    2.4818000E-02    2.9920000E-03     1.000000        2.7810000E-02    2.4818000E-02    2.9920000E-03    5.2788956E-03     189.4336    
 p255                 obsgroup      2.5132000E-02    2.4412000E-02    7.2000000E-04     1.000000        2.5132000E-02    2.4412000E-02    7.2000000E-04    5.2788956E-03     189.4336    
 p256                 obsgroup      2.5956000E-02    2.4005000E-02    1.9510000E-03     1.000000        2.5956000E-02    2.4005000E-02    1.9510000E-03    5.2788956E-03     189.4336    
 p257                 obsgroup      2.4514000E-02    2.3241000E-02    1.2730000E-03     1.000000        2.4514000E-02    2.3241000E-02    1.2730000E-03    5.2788956E-03     189.4336    
 p258                 obsgroup      2.5029000E-02    2.2852000E-02    2.1770000E-03     1.000000        2.5029000E-02    2.2852000E-02    2.1770000E-03    5.2788956E-03     189.4336    
 p259                 obsgroup      2.3484000E-02    2.2070000E-02    1.4140000E-03     1.000000        2.3484000E-02    2.2070000E-02    1.4140000E-03    5.2788956E-03     189.4336    
 p260                 obsgroup      2.3896000E-02    2.1687000E-02    2.2090000E-03     1.000000        2.3896000E-02    2.1687000E-02    2.2090000E-03    5.2788956E-03     189.4336    
 p261                 obsgroup      2.3175000E-02    2.1324000E-02    1.8510000E-03     1.000000        2.3175000E-02    2.1324000E-02    1.8510000E-03    5.2788956E-03     189.4336    
 p262                 obsgroup      2.3896000E-02    2.0626000E-02    3.2700000E-03     1.000000        2.3896000E-02    2.0626000E-02    3.2700000E-03    5.2788956E-03     189.4336    
 p263                 obsgroup      2.2145000E-02    2.0277000E-02    1.8680000E-03     1.000000        2.2145000E-02    2.0277000E-02    1.8680000E-03    5.2788956E-03     189.4336    
 p264                 obsgroup      2.2866000E-02    1.9944000E-02    2.9220000E-03     1.000000        2.2866000E-02    1.9944000E-02    2.9220000E-03    5.2788956E-03     189.4336    
 p265                 obsgroup      2.2866000E-02    1.9617000E-02    3.2490000E-03     1.000000        2.2866000E-02    1.9617000E-02    3.2490000E-03    5.2788956E-03     189.4336    
 p266                 obsgroup      2.4411000E-02    1.9306000E-02    5.1050000E-03     1.000000        2.4411000E-02    1.9306000E-02    5.1050000E-03    5.2788956E-03     189.4336    
 p267                 obsgroup      1.8643000E-02    1.8919000E-02   -2.7600000E-04     1.000000        1.8643000E-02    1.8919000E-02   -2.7600000E-04    5.2788956E-03     189.4336    
 p268                 obsgroup      2.2763000E-02    1.8400000E-02    4.3630000E-03     1.000000        2.2763000E-02    1.8400000E-02    4.3630000E-03    5.2788956E-03     189.4336    
 p269                 obsgroup      2.1527000E-02    1.8087000E-02    3.4400000E-03     1.000000        2.1527000E-02    1.8087000E-02    3.4400000E-03    5.2788956E-03     189.4336    
 p270                 obsgroup      2.0188000E-02    1.7778000E-02    2.4100000E-03     1.000000        2.0188000E-02    1.7778000E-02    2.4100000E-03    5.2788956E-03     189.4336    
 p271                 obsgroup      2.0703000E-02    1.7476000E-02    3.2270000E-03     1.000000        2.0703000E-02    1.7476000E-02    3.2270000E-03    5.2788956E-03     189.4336    
 p272                 obsgroup      2.0188000E-02    1.7173000E-02    3.0150000E-03     1.000000        2.0188000E-02    1.7173000E-02    3.0150000E-03    5.2788956E-03     189.4336    
 p273                 obsgroup      1.9158000E-02    1.6873000E-02    2.2850000E-03     1.000000        1.9158000E-02    1.6873000E-02    2.2850000E-03    5.2788956E-03     189.4336    
 p274                 obsgroup      2.0291000E-02    1.6587000E-02    3.7040000E-03     1.000000        2.0291000E-02    1.6587000E-02    3.7040000E-03    5.2788956E-03     189.4336    
 p275                 obsgroup      2.0291000E-02    1.6308000E-02    3.9830000E-03     1.000000        2.0291000E-02    1.6308000E-02    3.9830000E-03    5.2788956E-03     189.4336    
 p276                 obsgroup      1.9570000E-02    1.6041000E-02    3.5290000E-03     1.000000        1.9570000E-02    1.6041000E-02    3.5290000E-03    5.2788956E-03     189.4336    
 p277                 obsgroup      1.9364000E-02    1.5781000E-02    3.5830000E-03     1.000000        1.9364000E-02    1.5781000E-02    3.5830000E-03    5.2788956E-03     189.4336    
 p278                 obsgroup      1.9982000E-02    1.5267000E-02    4.7150000E-03     1.000000        1.9982000E-02    1.5267000E-02    4.7150000E-03    5.2788956E-03     189.4336    
 p279                 obsgroup      1.8952000E-02    1.5012000E-02    3.9400000E-03     1.000000        1.8952000E-02    1.5012000E-02    3.9400000E-03    5.2788956E-03     189.4336    
 p280                 obsgroup      1.8643000E-02    1.4763000E-02    3.8800000E-03     1.000000        1.8643000E-02    1.4763000E-02    3.8800000E-03    5.2788956E-03     189.4336    
 p281                 obsgroup      1.9055000E-02    1.4519000E-02    4.5360000E-03     1.000000        1.9055000E-02    1.4519000E-02    4.5360000E-03    5.2788956E-03     189.4336    
 p282                 obsgroup      1.9982000E-02    1.3860000E-02    6.1220000E-03     1.000000        1.9982000E-02    1.3860000E-02    6.1220000E-03    5.2788956E-03     189.4336    
 p283                 obsgroup      1.9364000E-02    1.3639000E-02    5.7250000E-03     1.000000        1.9364000E-02    1.3639000E-02    5.7250000E-03    5.2788956E-03     189.4336    
 p284                 obsgroup      1.8952000E-02    1.3419000E-02    5.5330000E-03     1.000000        1.8952000E-02    1.3419000E-02    5.5330000E-03    5.2788956E-03     189.4336    
 p285                 obsgroup      1.8334000E-02    1.3206000E-02    5.1280000E-03     1.000000        1.8334000E-02    1.3206000E-02    5.1280000E-03    5.2788956E-03     189.4336    
 p286                 obsgroup      1.9158000E-02    1.2998000E-02    6.1600000E-03     1.000000        1.9158000E-02    1.2998000E-02    6.1600000E-03    5.2788956E-03     189.4336    
 p287                 obsgroup      1.8952000E-02    1.2797000E-02    6.1550000E-03     1.000000        1.8952000E-02    1.2797000E-02    6.1550000E-03    5.2788956E-03     189.4336    
 p288                 obsgroup      1.9364000E-02    1.2602000E-02    6.7620000E-03     1.000000        1.9364000E-02    1.2602000E-02    6.7620000E-03    5.2788956E-03     189.4336    
 p289                 obsgroup      1.8643000E-02    1.2409000E-02    6.2340000E-03     1.000000        1.8643000E-02    1.2409000E-02    6.2340000E-03    5.2788956E-03     189.4336    
 p290                 obsgroup      1.7716000E-02    1.2221000E-02    5.4950000E-03     1.000000        1.7716000E-02    1.2221000E-02    5.4950000E-03    5.2788956E-03     189.4336    
 p291                 obsgroup      1.8025000E-02    1.2030000E-02    5.9950000E-03     1.000000        1.8025000E-02    1.2030000E-02    5.9950000E-03    5.2788956E-03     189.4336    
 p292                 obsgroup      1.6480000E-02    1.1843000E-02    4.6370000E-03     1.000000        1.6480000E-02    1.1843000E-02    4.6370000E-03    5.2788956E-03     189.4336    
 p293                 obsgroup      1.7407000E-02    1.1655000E-02    5.7520000E-03     1.000000        1.7407000E-02    1.1655000E-02    5.7520000E-03    5.2788956E-03     189.4336    
 p294                 obsgroup      1.6377000E-02    1.1469000E-02    4.9080000E-03     1.000000        1.6377000E-02    1.1469000E-02    4.9080000E-03    5.2788956E-03     189.4336    
 p295                 obsgroup      1.6377000E-02    1.1286000E-02    5.0910000E-03     1.000000        1.6377000E-02    1.1286000E-02    5.0910000E-03    5.2788956E-03     189.4336    
 p296                 obsgroup      1.5862000E-02    1.1102000E-02    4.7600000E-03     1.000000        1.5862000E-02    1.1102000E-02    4.7600000E-03    5.2788956E-03     189.4336    
 p297                 obsgroup      1.5965000E-02    1.0912000E-02    5.0530000E-03     1.000000        1.5965000E-02    1.0912000E-02    5.0530000E-03    5.2788956E-03     189.4336    
 p298                 obsgroup      1.3905000E-02    1.0717000E-02    3.1880000E-03     1.000000        1.3905000E-02    1.0717000E-02    3.1880000E-03    5.2788956E-03     189.4336    
 p299                 obsgroup      1.4111000E-02    1.0529000E-02    3.5820000E-03     1.000000        1.4111000E-02    1.0529000E-02    3.5820000E-03    5.2788956E-03     189.4336    
 p300                 obsgroup      1.4729000E-02    1.0351000E-02    4.3780000E-03     1.000000        1.4729000E-02    1.0351000E-02    4.3780000E-03    5.2788956E-03     189.4336    
 p301                 obsgroup      1.5553000E-02    1.0180000E-02    5.3730000E-03     1.000000        1.5553000E-02    1.0180000E-02    5.3730000E-03    5.2788956E-03     189.4336    
 p302                 obsgroup      1.5759000E-02    9.9420000E-03    5.8170000E-03     1.000000        1.5759000E-02    9.9420000E-03    5.8170000E-03    5.2788956E-03     189.4336    
 p303                 obsgroup      1.5656000E-02    9.7070000E-03    5.9490000E-03     1.000000        1.5656000E-02    9.7070000E-03    5.9490000E-03    5.2788956E-03     189.4336    
 p304                 obsgroup      1.5450000E-02    9.4800000E-03    5.9700000E-03     1.000000        1.5450000E-02    9.4800000E-03    5.9700000E-03    5.2788956E-03     189.4336    
 p305                 obsgroup      1.5038000E-02    9.2600000E-03    5.7780000E-03     1.000000        1.5038000E-02    9.2600000E-03    5.7780000E-03    5.2788956E-03     189.4336    
 p306                 obsgroup      1.4317000E-02    9.0420000E-03    5.2750000E-03     1.000000        1.4317000E-02    9.0420000E-03    5.2750000E-03    5.2788956E-03     189.4336    
 p307                 obsgroup      1.4626000E-02    8.8260000E-03    5.8000000E-03     1.000000        1.4626000E-02    8.8260000E-03    5.8000000E-03    5.2788956E-03     189.4336    
 p308                 obsgroup      1.2257000E-02    8.6010000E-03    3.6560000E-03     1.000000        1.2257000E-02    8.6010000E-03    3.6560000E-03    5.2788956E-03     189.4336    
 p309                 obsgroup      1.3802000E-02    8.3950000E-03    5.4070000E-03     1.000000        1.3802000E-02    8.3950000E-03    5.4070000E-03    5.2788956E-03     189.4336    
 p310                 obsgroup      1.3390000E-02    8.1890000E-03    5.2010000E-03     1.000000        1.3390000E-02    8.1890000E-03    5.2010000E-03    5.2788956E-03     189.4336    
 p311                 obsgroup      1.3905000E-02    7.9930000E-03    5.9120000E-03     1.000000        1.3905000E-02    7.9930000E-03    5.9120000E-03    5.2788956E-03     189.4336    
 p312                 obsgroup      1.3802000E-02    7.8060000E-03    5.9960000E-03     1.000000        1.3802000E-02    7.8060000E-03    5.9960000E-03    5.2788956E-03     189.4336    
 p313                 obsgroup      1.3699000E-02    7.6210000E-03    6.0780000E-03     1.000000        1.3699000E-02    7.6210000E-03    6.0780000E-03    5.2788956E-03     189.4336    
 p314                 obsgroup      1.0403000E-02    7.4350000E-03    2.9680000E-03     1.000000        1.0403000E-02    7.4350000E-03    2.9680000E-03    5.2788956E-03     189.4336    
 p315                 obsgroup      1.3184000E-02    7.2670000E-03    5.9170000E-03     1.000000        1.3184000E-02    7.2670000E-03    5.9170000E-03    5.2788956E-03     189.4336    
 p316                 obsgroup      1.2566000E-02    7.0900000E-03    5.4760000E-03     1.000000        1.2566000E-02    7.0900000E-03    5.4760000E-03    5.2788956E-03     189.4336    
 p317                 obsgroup      1.4008000E-02    6.9200000E-03    7.0880000E-03     1.000000        1.4008000E-02    6.9200000E-03    7.0880000E-03    5.2788956E-03     189.4336    
 p318                 obsgroup      1.2360000E-02    6.7480000E-03    5.6120000E-03     1.000000        1.2360000E-02    6.7480000E-03    5.6120000E-03    5.2788956E-03     189.4336    
 p319                 obsgroup      1.2463000E-02    6.5810000E-03    5.8820000E-03     1.000000        1.2463000E-02    6.5810000E-03    5.8820000E-03    5.2788956E-03     189.4336    
 p320                 obsgroup      1.2154000E-02    6.4170000E-03    5.7370000E-03     1.000000        1.2154000E-02    6.4170000E-03    5.7370000E-03    5.2788956E-03     189.4336    
 p321                 obsgroup      1.2566000E-02    6.2610000E-03    6.3050000E-03     1.000000        1.2566000E-02    6.2610000E-03    6.3050000E-03    5.2788956E-03     189.4336    
 p322                 obsgroup      1.1845000E-02    6.1150000E-03    5.7300000E-03     1.000000        1.1845000E-02    6.1150000E-03    5.7300000E-03    5.2788956E-03     189.4336    
 p323                 obsgroup      1.1742000E-02    5.9730000E-03    5.7690000E-03     1.000000        1.1742000E-02    5.9730000E-03    5.7690000E-03    5.2788956E-03     189.4336    
 p324                 obsgroup      1.1948000E-02    5.8350000E-03    6.1130000E-03     1.000000        1.1948000E-02    5.8350000E-03    6.1130000E-03    5.2788956E-03     189.4336    
 p325                 obsgroup      1.1742000E-02    5.7010000E-03    6.0410000E-03     1.000000        1.1742000E-02    5.7010000E-03    6.0410000E-03    5.2788956E-03     189.4336    
 p326                 obsgroup      1.2051000E-02    5.3250000E-03    6.7260000E-03     1.000000        1.2051000E-02    5.3250000E-03    6.7260000E-03    5.2788956E-03     189.4336    
 p327                 obsgroup      1.1536000E-02    5.2010000E-03    6.3350000E-03     1.000000        1.1536000E-02    5.2010000E-03    6.3350000E-03    5.2788956E-03     189.4336    
 p328                 obsgroup      1.1021000E-02    5.0810000E-03    5.9400000E-03     1.000000        1.1021000E-02    5.0810000E-03    5.9400000E-03    5.2788956E-03     189.4336    
 p329                 obsgroup      1.1330000E-02    4.9650000E-03    6.3650000E-03     1.000000        1.1330000E-02    4.9650000E-03    6.3650000E-03    5.2788956E-03     189.4336    
 p330                 obsgroup      1.0073400E-02    4.8490000E-03    5.2244000E-03     1.000000        1.0073400E-02    4.8490000E-03    5.2244000E-03    5.2788956E-03     189.4336    
 p331                 obsgroup      1.1227000E-02    4.7390000E-03    6.4880000E-03     1.000000        1.1227000E-02    4.7390000E-03    6.4880000E-03    5.2788956E-03     189.4336    
 p332                 obsgroup      1.0403000E-02    4.4990000E-03    5.9040000E-03     1.000000        1.0403000E-02    4.4990000E-03    5.9040000E-03    5.2788956E-03     189.4336    
 p333                 obsgroup      9.4348000E-03    4.3960000E-03    5.0388000E-03     1.000000        9.4348000E-03    4.3960000E-03    5.0388000E-03    5.2788956E-03     189.4336    
 p334                 obsgroup      1.0155800E-02    4.2900000E-03    5.8658000E-03     1.000000        1.0155800E-02    4.2900000E-03    5.8658000E-03    5.2788956E-03     189.4336    
 p335                 obsgroup      9.9601000E-03    4.1880000E-03    5.7721000E-03     1.000000        9.9601000E-03    4.1880000E-03    5.7721000E-03    5.2788956E-03     189.4336    
 p336                 obsgroup      9.6408000E-03    4.0880000E-03    5.5528000E-03     1.000000        9.6408000E-03    4.0880000E-03    5.5528000E-03    5.2788956E-03     189.4336    
 p337                 obsgroup      1.0712000E-02    3.9930000E-03    6.7190000E-03     1.000000        1.0712000E-02    3.9930000E-03    6.7190000E-03    5.2788956E-03     189.4336    
 p338                 obsgroup      1.0073400E-02    3.9010000E-03    6.1724000E-03     1.000000        1.0073400E-02    3.9010000E-03    6.1724000E-03    5.2788956E-03     189.4336    
 p339                 obsgroup      9.6820000E-03    3.8120000E-03    5.8700000E-03     1.000000        9.6820000E-03    3.8120000E-03    5.8700000E-03    5.2788956E-03     189.4336    
 p340                 obsgroup      1.0506000E-02    3.7260000E-03    6.7800000E-03     1.000000        1.0506000E-02    3.7260000E-03    6.7800000E-03    5.2788956E-03     189.4336    
 p341                 obsgroup      1.0073400E-02    3.6410000E-03    6.4324000E-03     1.000000        1.0073400E-02    3.6410000E-03    6.4324000E-03    5.2788956E-03     189.4336    
 p342                 obsgroup      9.8983000E-03    3.5570000E-03    6.3413000E-03     1.000000        9.8983000E-03    3.5570000E-03    6.3413000E-03    5.2788956E-03     189.4336    
 p343                 obsgroup      9.0537000E-03    3.4720000E-03    5.5817000E-03     1.000000        9.0537000E-03    3.4720000E-03    5.5817000E-03    5.2788956E-03     189.4336    
