 Name                 Group          Measured         Modelled         Residual         Weight       Weight*Measured    Weight*Modelled  Weight*Residual  Measurement_sd   Natural_weight
 p001                 obsgroup      1.1100000E-04    1.0000000E-04    1.1000000E-05     1.000000        1.1100000E-04    1.0000000E-04    1.1000000E-05    7.6647586E-04     1304.673    
 p002                 obsgroup      1.2100000E-04    1.0000000E-04    2.1000000E-05     1.000000        1.2100000E-04    1.0000000E-04    2.1000000E-05    7.6647586E-04     1304.673    
 p003                 obsgroup      1.1000000E-04    1.0000000E-04    1.0000000E-05     1.000000        1.1000000E-04    1.0000000E-04    1.0000000E-05    7.6647586E-04     1304.673    
 p004                 obsgroup      1.1100000E-04    1.0000000E-04    1.1000000E-05     1.000000        1.1100000E-04    1.0000000E-04    1.1000000E-05    7.6647586E-04     1304.673    
 p005                 obsgroup      1.1300000E-04    1.0000000E-04    1.3000000E-05     1.000000        1.1300000E-04    1.0000000E-04    1.3000000E-05    7.6647586E-04     1304.673    
 p006                 obsgroup      1.1100000E-04    1.0000000E-04    1.1000000E-05     1.000000        1.1100000E-04    1.0000000E-04    1.1000000E-05    7.6647586E-04     1304.673    
 p007                 obsgroup      1.0800000E-04    1.0000000E-04    8.0000000E-06     1.000000        1.0800000E-04    1.0000000E-04    8.0000000E-06    7.6647586E-04     1304.673    
 p008                 obsgroup      1.0600000E-04    1.0000000E-04    6.0000000E-06     1.000000        1.0600000E-04    1.0000000E-04    6.0000000E-06    7.6647586E-04     1304.673    
 p009                 obsgroup      1.0600000E-04    1.0000000E-04    6.0000000E-06     1.000000        1.0600000E-04    1.0000000E-04    6.0000000E-06    7.6647586E-04     1304.673    
 p010                 obsgroup      1.0300000E-04    1.0000000E-04    3.0000000E-06     1.000000        1.0300000E-04    1.0000000E-04    3.0000000E-06    7.6647586E-04     1304.673    
 p011                 obsgroup      1.0500000E-04    1.0000000E-04    5.0000000E-06     1.000000        1.0500000E-04    1.0000000E-04    5.0000000E-06    7.6647586E-04     1304.673    
 p012                 obsgroup      1.0500000E-04    1.0000000E-04    5.0000000E-06     1.000000        1.0500000E-04    1.0000000E-04    5.0000000E-06    7.6647586E-04     1304.673    
 p013                 obsgroup      1.0300000E-04    1.0000000E-04    3.0000000E-06     1.000000        1.0300000E-04    1.0000000E-04    3.0000000E-06    7.6647586E-04     1304.673    
 p014                 obsgroup      1.0500000E-04    1.0000000E-04    5.0000000E-06     1.000000        1.0500000E-04    1.0000000E-04    5.0000000E-06    7.6647586E-04     1304.673    
 p015                 obsgroup      1.1400000E-04    1.0000000E-04    1.4000000E-05     1.000000        1.1400000E-04    1.0000000E-04    1.4000000E-05    7.6647586E-04     1304.673    
 p016                 obsgroup      1.1900000E-04    1.0000000E-04    1.9000000E-05     1.000000        1.1900000E-04    1.0000000E-04    1.9000000E-05    7.6647586E-04     1304.673    
 p017                 obsgroup      1.1300000E-04    1.0000000E-04    1.3000000E-05     1.000000        1.1300000E-04    1.0000000E-04    1.3000000E-05    7.6647586E-04     1304.673    
 p018                 obsgroup      1.5200000E-04    1.0100000E-04    5.1000000E-05     1.000000        1.5200000E-04    1.0100000E-04    5.1000000E-05    7.6647586E-04     1304.673    
 p019                 obsgroup      1.7900000E-04    1.0100000E-04    7.8000000E-05     1.000000        1.7900000E-04    1.0100000E-04    7.8000000E-05    7.6647586E-04     1304.673    
 p020                 obsgroup      2.2700000E-04    1.0300000E-04    1.2400000E-04     1.000000        2.2700000E-04    1.0300000E-04    1.2400000E-04    7.6647586E-04     1304.673    
 p021                 obsgroup      2.6700000E-04    1.0700000E-04    1.6000000E-04     1.000000        2.6700000E-04    1.0700000E-04    1.6000000E-04    7.6647586E-04     1304.673    
 p022                 obsgroup      3.3200000E-04    1.1300000E-04    2.1900000E-04     1.000000        3.3200000E-04    1.1300000E-04    2.1900000E-04    7.6647586E-04     1304.673    
 p023                 obsgroup      4.1200000E-04    1.2200000E-04    2.9000000E-04     1.000000        4.1200000E-04    1.2200000E-04    2.9000000E-04    7.6647586E-04     1304.673    
 p024                 obsgroup      4.8000000E-04    1.3700000E-04    3.4300000E-04     1.000000        4.8000000E-04    1.3700000E-04    3.4300000E-04    7.6647586E-04     1304.673    
 p025                 obsgroup      5.4200000E-04    1.5800000E-04    3.8400000E-04     1.000000        5.4200000E-04    1.5800000E-04    3.8400000E-04    7.6647586E-04     1304.673    
 p026                 obsgroup      6.2500000E-04    1.8900000E-04    4.3600000E-04     1.000000        6.2500000E-04    1.8900000E-04    4.3600000E-04    7.6647586E-04     1304.673    
 p027                 obsgroup      7.2000000E-04    2.2800000E-04    4.9200000E-04     1.000000        7.2000000E-04    2.2800000E-04    4.9200000E-04    7.6647586E-04     1304.673    
 p028                 obsgroup      7.7600000E-04    2.7900000E-04    4.9700000E-04     1.000000        7.7600000E-04    2.7900000E-04    4.9700000E-04    7.6647586E-04     1304.673    
 p029                 obsgroup      9.1300000E-04    3.4500000E-04    5.6800000E-04     1.000000        9.1300000E-04    3.4500000E-04    5.6800000E-04    7.6647586E-04     1304.673    
 p030                 obsgroup      9.7400000E-04    4.2600000E-04    5.4800000E-04     1.000000        9.7400000E-04    4.2600000E-04    5.4800000E-04    7.6647586E-04     1304.673    
 p031                 obsgroup      1.0820000E-03    5.2500000E-04    5.5700000E-04     1.000000        1.0820000E-03    5.2500000E-04    5.5700000E-04    7.6647586E-04     1304.673    
 p032                 obsgroup      1.1950000E-03    6.4500000E-04    5.5000000E-04     1.000000        1.1950000E-03    6.4500000E-04    5.5000000E-04    7.6647586E-04     1304.673    
 p033                 obsgroup      1.3910000E-03    7.8700000E-04    6.0400000E-04     1.000000        1.3910000E-03    7.8700000E-04    6.0400000E-04    7.6647586E-04     1304.673    
 p034                 obsgroup      1.5550000E-03    9.5300000E-04    6.0200000E-04     1.000000        1.5550000E-03    9.5300000E-04    6.0200000E-04    7.6647586E-04     1304.673    
 p035                 obsgroup      1.7200000E-03    1.1410000E-03    5.7900000E-04     1.000000        1.7200000E-03    1.1410000E-03    5.7900000E-04    7.6647586E-04     1304.673    
 p036                 obsgroup      1.9360000E-03    1.3510000E-03    5.8500000E-04     1.000000        1.9360000E-03    1.3510000E-03    5.8500000E-04    7.6647586E-04     1304.673    
 p037                 obsgroup      1.9880000E-03    1.5800000E-03    4.0800000E-04     1.000000        1.9880000E-03    1.5800000E-03    4.0800000E-04    7.6647586E-04     1304.673    
 p038                 obsgroup      2.4930000E-03    1.8310000E-03    6.6200000E-04     1.000000        2.4930000E-03    1.8310000E-03    6.6200000E-04    7.6647586E-04     1304.673    
 p039                 obsgroup      2.6780000E-03    2.1060000E-03    5.7200000E-04     1.000000        2.6780000E-03    2.1060000E-03    5.7200000E-04    7.6647586E-04     1304.673    
 p040                 obsgroup      3.0390000E-03    2.3880000E-03    6.5100000E-04     1.000000        3.0390000E-03    2.3880000E-03    6.5100000E-04    7.6647586E-04     1304.673    
 p041                 obsgroup      3.3370000E-03    2.6930000E-03    6.4400000E-04     1.000000        3.3370000E-03    2.6930000E-03    6.4400000E-04    7.6647586E-04     1304.673    
 p042                 obsgroup      3.5020000E-03    3.0220000E-03    4.8000000E-04     1.000000        3.5020000E-03    3.0220000E-03    4.8000000E-04    7.6647586E-04     1304.673    
 p043                 obsgroup      3.8420000E-03    3.3760000E-03    4.6600000E-04     1.000000        3.8420000E-03    3.3760000E-03    4.6600000E-04    7.6647586E-04     1304.673    
 p044                 obsgroup      4.1300000E-03    3.7390000E-03    3.9100000E-04     1.000000        4.1300000E-03    3.7390000E-03    3.9100000E-04    7.6647586E-04     1304.673    
 p045                 obsgroup      4.7690000E-03    4.1350000E-03    6.3400000E-04     1.000000        4.7690000E-03    4.1350000E-03    6.3400000E-04    7.6647586E-04     1304.673    
 p046                 obsgroup      5.0880000E-03    4.5450000E-03    5.4300000E-04     1.000000        5.0880000E-03    4.5450000E-03    5.4300000E-04    7.6647586E-04     1304.673    
 p047                 obsgroup      5.5410000E-03    4.9730000E-03    5.6800000E-04     1.000000        5.5410000E-03    4.9730000E-03    5.6800000E-04    7.6647586E-04     1304.673    
 p048                 obsgroup      6.1180000E-03    5.4170000E-03    7.0100000E-04     1.000000        6.1180000E-03    5.4170000E-03    7.0100000E-04    7.6647586E-04     1304.673    
 p049                 obsgroup      6.3140000E-03    5.8640000E-03    4.5000000E-04     1.000000        6.3140000E-03    5.8640000E-03    4.5000000E-04    7.6647586E-04     1304.673    
 p050                 obsgroup      7.3950000E-03    7.0030000E-03    3.9200000E-04     1.000000        7.3950000E-03    7.0030000E-03    3.9200000E-04    7.6647586E-04     1304.673    
 p051                 obsgroup      8.5590000E-03    8.1630000E-03    3.9600000E-04     1.000000        8.5590000E-03    8.1630000E-03    3.9600000E-04    7.6647586E-04     1304.673    
 p052                 obsgroup      9.2190000E-03    9.3060000E-03   -8.7000000E-05     1.000000        9.2190000E-03    9.3060000E-03   -8.7000000E-05    7.6647586E-04     1304.673    
 p053                 obsgroup      9.9910000E-03    1.0414000E-02   -4.2300000E-04     1.000000        9.9910000E-03    1.0414000E-02   -4.2300000E-04    7.6647586E-04     1304.673    
 p054                 obsgroup      1.1124000E-02    1.1522000E-02   -3.9800000E-04     1.000000        1.1124000E-02    1.1522000E-02   -3.9800000E-04    7.6647586E-04     1304.673    
 p055                 obsgroup      1.2154000E-02    1.2568000E-02   -4.1400000E-04     1.000000        1.2154000E-02    1.2568000E-02   -4.1400000E-04    7.6647586E-04     1304.673    
 p056                 obsgroup      1.3287000E-02    1.3555000E-02   -2.6800000E-04     1.000000        1.3287000E-02    1.3555000E-02   -2.6800000E-04    7.6647586E-04     1304.673    
 p057                 obsgroup      1.4420000E-02    1.4457000E-02   -3.7000000E-05     1.000000        1.4420000E-02    1.4457000E-02   -3.7000000E-05    7.6647586E-04     1304.673    
 p058                 obsgroup      1.4729000E-02    1.5289000E-02   -5.6000000E-04     1.000000        1.4729000E-02    1.5289000E-02   -5.6000000E-04    7.6647586E-04     1304.673    
 p059                 obsgroup      1.5656000E-02    1.6054000E-02   -3.9800000E-04     1.000000        1.5656000E-02    1.6054000E-02   -3.9800000E-04    7.6647586E-04     1304.673    
 p060                 obsgroup      1.6480000E-02    1.6747000E-02   -2.6700000E-04     1.000000        1.6480000E-02    1.6747000E-02   -2.6700000E-04    7.6647586E-04     1304.673    
 p061                 obsgroup      1.6583000E-02    1.7376000E-02   -7.9300000E-04     1.000000        1.6583000E-02    1.7376000E-02   -7.9300000E-04    7.6647586E-04     1304.673    
 p062                 obsgroup      1.6892000E-02    1.7920000E-02   -1.0280000E-03     1.000000        1.6892000E-02    1.7920000E-02   -1.0280000E-03    7.6647586E-04     1304.673    
 p063                 obsgroup      1.7716000E-02    1.8401000E-02   -6.8500000E-04     1.000000        1.7716000E-02    1.8401000E-02   -6.8500000E-04    7.6647586E-04     1304.673    
 p064                 obsgroup      1.8540000E-02    1.8829000E-02   -2.8900000E-04     1.000000        1.8540000E-02    1.8829000E-02   -2.8900000E-04    7.6647586E-04     1304.673    
 p065                 obsgroup      1.8437000E-02    1.9209000E-02   -7.7200000E-04     1.000000        1.8437000E-02    1.9209000E-02   -7.7200000E-04    7.6647586E-04     1304.673    
 p066                 obsgroup      1.9055000E-02    1.9551000E-02   -4.9600000E-04     1.000000        1.9055000E-02    1.9551000E-02   -4.9600000E-04    7.6647586E-04     1304.673    
 p067                 obsgroup      1.9364000E-02    1.9844000E-02   -4.8000000E-04     1.000000        1.9364000E-02    1.9844000E-02   -4.8000000E-04    7.6647586E-04     1304.673    
 p068                 obsgroup      1.8025000E-02    2.0095000E-02   -2.0700000E-03     1.000000        1.8025000E-02    2.0095000E-02   -2.0700000E-03    7.6647586E-04     1304.673    
 p069                 obsgroup      2.0600000E-02    2.0306000E-02    2.9400000E-04     1.000000        2.0600000E-02    2.0306000E-02    2.9400000E-04    7.6647586E-04     1304.673    
 p070                 obsgroup      1.9570000E-02    2.0484000E-02   -9.1400000E-04     1.000000        1.9570000E-02    2.0484000E-02   -9.1400000E-04    7.6647586E-04     1304.673    
 p071                 obsgroup      2.0806000E-02    2.0640000E-02    1.6600000E-04     1.000000        2.0806000E-02    2.0640000E-02    1.6600000E-04    7.6647586E-04     1304.673    
 p072                 obsgroup      2.1012000E-02    2.0773000E-02    2.3900000E-04     1.000000        2.1012000E-02    2.0773000E-02    2.3900000E-04    7.6647586E-04     1304.673    
 p073                 obsgroup      2.1012000E-02    2.0887000E-02    1.2500000E-04     1.000000        2.1012000E-02    2.0887000E-02    1.2500000E-04    7.6647586E-04     1304.673    
 p074                 obsgroup      2.1321000E-02    2.0978000E-02    3.4300000E-04     1.000000        2.1321000E-02    2.0978000E-02    3.4300000E-04    7.6647586E-04     1304.673    
 p075                 obsgroup      2.1939000E-02    2.1052000E-02    8.8700000E-04     1.000000        2.1939000E-02    2.1052000E-02    8.8700000E-04    7.6647586E-04     1304.673    
 p076                 obsgroup      2.0806000E-02    2.1113000E-02   -3.0700000E-04     1.000000        2.0806000E-02    2.1113000E-02   -3.0700000E-04    7.6647586E-04     1304.673    
 p077                 obsgroup      2.0806000E-02    2.1161000E-02   -3.5500000E-04     1.000000        2.0806000E-02    2.1161000E-02   -3.5500000E-04    7.6647586E-04     1304.673    
 p078                 obsgroup      2.0806000E-02    2.1197000E-02   -3.9100000E-04     1.000000        2.0806000E-02    2.1197000E-02   -3.9100000E-04    7.6647586E-04     1304.673    
 p079                 obsgroup      2.0806000E-02    2.1224000E-02   -4.1800000E-04     1.000000        2.0806000E-02    2.1224000E-02   -4.1800000E-04    7.6647586E-04     1304.673    
 p080                 obsgroup      2.0703000E-02    2.1241000E-02   -5.3800000E-04     1.000000        2.0703000E-02    2.1241000E-02   -5.3800000E-04    7.6647586E-04     1304.673    
 p081                 obsgroup      2.1630000E-02    2.1251000E-02    3.7900000E-04     1.000000        2.1630000E-02    2.1251000E-02    3.7900000E-04    7.6647586E-04     1304.673    
 p082                 obsgroup      2.0703000E-02    2.1253000E-02   -5.5000000E-04     1.000000        2.0703000E-02    2.1253000E-02   -5.5000000E-04    7.6647586E-04     1304.673    
 p083                 obsgroup      2.1733000E-02    2.1248000E-02    4.8500000E-04     1.000000        2.1733000E-02    2.1248000E-02    4.8500000E-04    7.6647586E-04     1304.673    
 p084                 obsgroup      2.2248000E-02    2.1238000E-02    1.0100000E-03     1.000000        2.2248000E-02    2.1238000E-02    1.0100000E-03    7.6647586E-04     1304.673    
 p085                 obsgroup      2.2866000E-02    2.1223000E-02    1.6430000E-03     1.000000        2.2866000E-02    2.1223000E-02    1.6430000E-03    7.6647586E-04     1304.673    
 p086                 obsgroup      2.2248000E-02    2.1203000E-02    1.0450000E-03     1.000000        2.2248000E-02    2.1203000E-02    1.0450000E-03    7.6647586E-04     1304.673    
 p087                 obsgroup      2.3175000E-02    2.1178000E-02    1.9970000E-03     1.000000        2.3175000E-02    2.1178000E-02    1.9970000E-03    7.6647586E-04     1304.673    
 p088                 obsgroup      2.2145000E-02    2.1150000E-02    9.9500000E-04     1.000000        2.2145000E-02    2.1150000E-02    9.9500000E-04    7.6647586E-04     1304.673    
 p089                 obsgroup      2.3072000E-02    2.1118000E-02    1.9540000E-03     1.000000        2.3072000E-02    2.1118000E-02    1.9540000E-03    7.6647586E-04     1304.673    
 p090                 obsgroup      2.2660000E-02    2.1039000E-02    1.6210000E-03     1.000000        2.2660000E-02    2.1039000E-02    1.6210000E-03    7.6647586E-04     1304.673    
 p091                 obsgroup      2.1527000E-02    2.0946000E-02    5.8100000E-04     1.000000        2.1527000E-02    2.0946000E-02    5.8100000E-04    7.6647586E-04     1304.673    
 p092                 obsgroup      2.2454000E-02    2.0841000E-02    1.6130000E-03     1.000000        2.2454000E-02    2.0841000E-02    1.6130000E-03    7.6647586E-04     1304.673    
 p093                 obsgroup      2.1527000E-02    2.0720000E-02    8.0700000E-04     1.000000        2.1527000E-02    2.0720000E-02    8.0700000E-04    7.6647586E-04     1304.673    
 p094                 obsgroup      2.1115000E-02    2.0586000E-02    5.2900000E-04     1.000000        2.1115000E-02    2.0586000E-02    5.2900000E-04    7.6647586E-04     1304.673    
 p095                 obsgroup      2.0909000E-02    2.0441000E-02    4.6800000E-04     1.000000        2.0909000E-02    2.0441000E-02    4.6800000E-04    7.6647586E-04     1304.673    
 p096                 obsgroup      2.0600000E-02    2.0281000E-02    3.1900000E-04     1.000000        2.0600000E-02    2.0281000E-02    3.1900000E-04    7.6647586E-04     1304.673    
 p097                 obsgroup      2.0394000E-02    2.0113000E-02    2.8100000E-04     1.000000        2.0394000E-02    2.0113000E-02    2.8100000E-04    7.6647586E-04     1304.673    
 p098                 obsgroup      1.9776000E-02    1.9947000E-02   -1.7100000E-04     1.000000        1.9776000E-02    1.9947000E-02   -1.7100000E-04    7.6647586E-04     1304.673    
 p099                 obsgroup      2.0600000E-02    1.9788000E-02    8.1200000E-04     1.000000        2.0600000E-02    1.9788000E-02    8.1200000E-04    7.6647586E-04     1304.673    
 p100                 obsgroup      1.9261000E-02    1.9598000E-02   -3.3700000E-04     1.000000        1.9261000E-02    1.9598000E-02   -3.3700000E-04    7.6647586E-04     1304.673    
 p101                 obsgroup      1.9776000E-02    1.9398000E-02    3.7800000E-04     1.000000        1.9776000E-02    1.9398000E-02    3.7800000E-04    7.6647586E-04     1304.673    
 p102                 obsgroup      1.9055000E-02    1.9183000E-02   -1.2800000E-04     1.000000        1.9055000E-02    1.9183000E-02   -1.2800000E-04    7.6647586E-04     1304.673    
 p103                 obsgroup      1.9158000E-02    1.8966000E-02    1.9200000E-04     1.000000        1.9158000E-02    1.8966000E-02    1.9200000E-04    7.6647586E-04     1304.673    
 p104                 obsgroup      1.8540000E-02    1.8751000E-02   -2.1100000E-04     1.000000        1.8540000E-02    1.8751000E-02   -2.1100000E-04    7.6647586E-04     1304.673    
 p105                 obsgroup      1.8025000E-02    1.8513000E-02   -4.8800000E-04     1.000000        1.8025000E-02    1.8513000E-02   -4.8800000E-04    7.6647586E-04     1304.673    
 p106                 obsgroup      1.7407000E-02    1.8275000E-02   -8.6800000E-04     1.000000        1.7407000E-02    1.8275000E-02   -8.6800000E-04    7.6647586E-04     1304.673    
 p107                 obsgroup      1.8540000E-02    1.8039000E-02    5.0100000E-04     1.000000        1.8540000E-02    1.8039000E-02    5.0100000E-04    7.6647586E-04     1304.673    
 p108                 obsgroup      1.7407000E-02    1.7794000E-02   -3.8700000E-04     1.000000        1.7407000E-02    1.7794000E-02   -3.8700000E-04    7.6647586E-04     1304.673    
 p109                 obsgroup      1.7304000E-02    1.7548000E-02   -2.4400000E-04     1.000000        1.7304000E-02    1.7548000E-02   -2.4400000E-04    7.6647586E-04     1304.673    
 p110                 obsgroup      1.6995000E-02    1.7302000E-02   -3.0700000E-04     1.000000        1.6995000E-02    1.7302000E-02   -3.0700000E-04    7.6647586E-04     1304.673    
 p111                 obsgroup      1.6995000E-02    1.7045000E-02   -5.0000000E-05     1.000000        1.6995000E-02    1.7045000E-02   -5.0000000E-05    7.6647586E-04     1304.673    
 p112                 obsgroup      1.6480000E-02    1.6789000E-02   -3.0900000E-04     1.000000        1.6480000E-02    1.6789000E-02   -3.0900000E-04    7.6647586E-04     1304.673    
 p113                 obsgroup      1.5862000E-02    1.6527000E-02   -6.6500000E-04     1.000000        1.5862000E-02    1.6527000E-02   -6.6500000E-04    7.6647586E-04     1304.673    
 p114                 obsgroup      1.5141000E-02    1.6263000E-02   -1.1220000E-03     1.000000        1.5141000E-02    1.6263000E-02   -1.1220000E-03    7.6647586E-04     1304.673    
 p115                 obsgroup      1.5862000E-02    1.6008000E-02   -1.4600000E-04     1.000000        1.5862000E-02    1.6008000E-02   -1.4600000E-04    7.6647586E-04     1304.673    
 p116                 obsgroup      1.5553000E-02    1.5744000E-02   -1.9100000E-04     1.000000        1.5553000E-02    1.5744000E-02   -1.9100000E-04    7.6647586E-04     1304.673    
 p117                 obsgroup      1.4626000E-02    1.5466000E-02   -8.4000000E-04     1.000000        1.4626000E-02    1.5466000E-02   -8.4000000E-04    7.6647586E-04     1304.673    
 p118                 obsgroup      1.4420000E-02    1.5191000E-02   -7.7100000E-04     1.000000        1.4420000E-02    1.5191000E-02   -7.7100000E-04    7.6647586E-04     1304.673    
 p119                 obsgroup      1.4317000E-02    1.4934000E-02   -6.1700000E-04     1.000000        1.4317000E-02    1.4934000E-02   -6.1700000E-04    7.6647586E-04     1304.673    
 p120                 obsgroup      1.3802000E-02    1.4652000E-02   -8.5000000E-04     1.000000        1.3802000E-02    1.4652000E-02   -8.5000000E-04    7.6647586E-04     1304.673    
 p121                 obsgroup      1.3287000E-02    1.4373000E-02   -1.0860000E-03     1.000000        1.3287000E-02    1.4373000E-02   -1.0860000E-03    7.6647586E-04     1304.673    
 p122                 obsgroup      1.2772000E-02    1.4110000E-02   -1.3380000E-03     1.000000        1.2772000E-02    1.4110000E-02   -1.3380000E-03    7.6647586E-04     1304.673    
 p123                 obsgroup      1.3081000E-02    1.3836000E-02   -7.5500000E-04     1.000000        1.3081000E-02    1.3836000E-02   -7.5500000E-04    7.6647586E-04     1304.673    
 p124                 obsgroup      1.2154000E-02    1.3566000E-02   -1.4120000E-03     1.000000        1.2154000E-02    1.3566000E-02   -1.4120000E-03    7.6647586E-04     1304.673    
 p125                 obsgroup      1.2360000E-02    1.3438000E-02   -1.0780000E-03     1.000000        1.2360000E-02    1.3438000E-02   -1.0780000E-03    7.6647586E-04     1304.673    
 p126                 obsgroup      1.2566000E-02    1.3309000E-02   -7.4300000E-04     1.000000        1.2566000E-02    1.3309000E-02   -7.4300000E-04    7.6647586E-04     1304.673    
 p127                 obsgroup      1.2051000E-02    1.3176000E-02   -1.1250000E-03     1.000000        1.2051000E-02    1.3176000E-02   -1.1250000E-03    7.6647586E-04     1304.673    
 p128                 obsgroup      1.2051000E-02    1.3040000E-02   -9.8900000E-04     1.000000        1.2051000E-02    1.3040000E-02   -9.8900000E-04    7.6647586E-04     1304.673    
 p129                 obsgroup      1.1845000E-02    1.2914000E-02   -1.0690000E-03     1.000000        1.1845000E-02    1.2914000E-02   -1.0690000E-03    7.6647586E-04     1304.673    
 p130                 obsgroup      1.1845000E-02    1.2787000E-02   -9.4200000E-04     1.000000        1.1845000E-02    1.2787000E-02   -9.4200000E-04    7.6647586E-04     1304.673    
 p131                 obsgroup      1.1948000E-02    1.2659000E-02   -7.1100000E-04     1.000000        1.1948000E-02    1.2659000E-02   -7.1100000E-04    7.6647586E-04     1304.673    
 p132                 obsgroup      1.1948000E-02    1.2532000E-02   -5.8400000E-04     1.000000        1.1948000E-02    1.2532000E-02   -5.8400000E-04    7.6647586E-04     1304.673    
 p133                 obsgroup      1.2154000E-02    1.2409000E-02   -2.5500000E-04     1.000000        1.2154000E-02    1.2409000E-02   -2.5500000E-04    7.6647586E-04     1304.673    
 p134                 obsgroup      1.2154000E-02    1.2282000E-02   -1.2800000E-04     1.000000        1.2154000E-02    1.2282000E-02   -1.2800000E-04    7.6647586E-04     1304.673    
 p135                 obsgroup      1.1742000E-02    1.2157000E-02   -4.1500000E-04     1.000000        1.1742000E-02    1.2157000E-02   -4.1500000E-04    7.6647586E-04     1304.673    
 p136                 obsgroup      1.1742000E-02    1.2039000E-02   -2.9700000E-04     1.000000        1.1742000E-02    1.2039000E-02   -2.9700000E-04    7.6647586E-04     1304.673    
 p137                 obsgroup      1.1742000E-02    1.1919000E-02   -1.7700000E-04     1.000000        1.1742000E-02    1.1919000E-02   -1.7700000E-04    7.6647586E-04     1304.673    
 p138                 obsgroup      1.1639000E-02    1.1801000E-02   -1.6200000E-04     1.000000        1.1639000E-02    1.1801000E-02   -1.6200000E-04    7.6647586E-04     1304.673    
 p139                 obsgroup      1.1124000E-02    1.1679000E-02   -5.5500000E-04     1.000000        1.1124000E-02    1.1679000E-02   -5.5500000E-04    7.6647586E-04     1304.673    
 p140                 obsgroup      1.1227000E-02    1.1555000E-02   -3.2800000E-04     1.000000        1.1227000E-02    1.1555000E-02   -3.2800000E-04    7.6647586E-04     1304.673    
 p141                 obsgroup      1.0815000E-02    1.1426000E-02   -6.1100000E-04     1.000000        1.0815000E-02    1.1426000E-02   -6.1100000E-04    7.6647586E-04     1304.673    
 p142                 obsgroup      1.1021000E-02    1.1313000E-02   -2.9200000E-04     1.000000        1.1021000E-02    1.1313000E-02   -2.9200000E-04    7.6647586E-04     1304.673    
 p143                 obsgroup      1.0609000E-02    1.1193000E-02   -5.8400000E-04     1.000000        1.0609000E-02    1.1193000E-02   -5.8400000E-04    7.6647586E-04     1304.673    
 p144                 obsgroup      1.0815000E-02    1.1075000E-02   -2.6000000E-04     1.000000        1.0815000E-02    1.1075000E-02   -2.6000000E-04    7.6647586E-04     1304.673    
 p145                 obsgroup      1.0176000E-02    1.0950000E-02   -7.7400000E-04     1.000000        1.0176000E-02    1.0950000E-02   -7.7400000E-04    7.6647586E-04     1304.673    
 p146                 obsgroup      1.0403000E-02    1.0829000E-02   -4.2600000E-04     1.000000        1.0403000E-02    1.0829000E-02   -4.2600000E-04    7.6647586E-04     1304.673    
 p147                 obsgroup      1.0084000E-02    1.0710000E-02   -6.2600000E-04     1.000000        1.0084000E-02    1.0710000E-02   -6.2600000E-04    7.6647586E-04     1304.673    
 p148                 obsgroup      9.9810000E-03    1.0592000E-02   -6.1100000E-04     1.000000        9.9810000E-03    1.0592000E-02   -6.1100000E-04    7.6647586E-04     1304.673    
 p149                 obsgroup      9.9810000E-03    1.0475000E-02   -4.9400000E-04     1.000000        9.9810000E-03    1.0475000E-02   -4.9400000E-04    7.6647586E-04     1304.673    
 p150                 obsgroup      1.0259000E-02    1.0360000E-02   -1.0100000E-04     1.000000        1.0259000E-02    1.0360000E-02   -1.0100000E-04    7.6647586E-04     1304.673    
 p151                 obsgroup      1.0403000E-02    1.0239000E-02    1.6400000E-04     1.000000        1.0403000E-02    1.0239000E-02    1.6400000E-04    7.6647586E-04     1304.673    
 p152                 obsgroup      1.0403000E-02    1.0158000E-02    2.4500000E-04     1.000000        1.0403000E-02    1.0158000E-02    2.4500000E-04    7.6647586E-04     1304.673    
 p153                 obsgroup      1.0022000E-02    1.0078000E-02   -5.6000000E-05     1.000000        1.0022000E-02    1.0078000E-02   -5.6000000E-05    7.6647586E-04     1304.673    
 p154                 obsgroup      1.0166000E-02    9.9460000E-03    2.2000000E-04     1.000000        1.0166000E-02    9.9460000E-03    2.2000000E-04    7.6647586E-04     1304.673    
 p155                 obsgroup      9.7750000E-03    9.8570000E-03   -8.2000000E-05     1.000000        9.7750000E-03    9.8570000E-03   -8.2000000E-05    7.6647586E-04     1304.673    
 p156                 obsgroup      9.6720000E-03    9.7460000E-03   -7.4000000E-05     1.000000        9.6720000E-03    9.7460000E-03   -7.4000000E-05    7.6647586E-04     1304.673    
 p157                 obsgroup      9.7030000E-03    9.6350000E-03    6.8000000E-05     1.000000        9.7030000E-03    9.6350000E-03    6.8000000E-05    7.6647586E-04     1304.673    
 p158                 obsgroup      1.0012000E-02    9.4830000E-03    5.2900000E-04     1.000000        1.0012000E-02    9.4830000E-03    5.2900000E-04    7.6647586E-04     1304.673    
 p159                 obsgroup      9.7750000E-03    9.4190000E-03    3.5600000E-04     1.000000        9.7750000E-03    9.4190000E-03    3.5600000E-04    7.6647586E-04     1304.673    
 p160                 obsgroup      9.7340000E-03    9.2040000E-03    5.3000000E-04     1.000000        9.7340000E-03    9.2040000E-03    5.3000000E-04    7.6647586E-04     1304.673    
 p161                 obsgroup      9.6100000E-03    8.9860000E-03    6.2400000E-04     1.000000        9.6100000E-03    8.9860000E-03    6.2400000E-04    7.6647586E-04     1304.673    
 p162                 obsgroup      9.4040000E-03    8.7670000E-03    6.3700000E-04     1.000000        9.4040000E-03    8.7670000E-03    6.3700000E-04    7.6647586E-04     1304.673    
 p163                 obsgroup      8.9820000E-03    8.5610000E-03    4.2100000E-04     1.000000        8.9820000E-03    8.5610000E-03    4.2100000E-04    7.6647586E-04     1304.673    
 p164                 obsgroup      8.9920000E-03    8.3570000E-03    6.3500000E-04     1.000000        8.9920000E-03    8.3570000E-03    6.3500000E-04    7.6647586E-04     1304.673    
 p165                 obsgroup      8.6520000E-03    8.1550000E-03    4.9700000E-04     1.000000        8.6520000E-03    8.1550000E-03    4.9700000E-04    7.6647586E-04     1304.673    
 p166                 obsgroup      9.1770000E-03    7.9580000E-03    1.2190000E-03     1.000000        9.1770000E-03    7.9580000E-03    1.2190000E-03    7.6647586E-04     1304.673    
 p167                 obsgroup      9.4660000E-03    7.7790000E-03    1.6870000E-03     1.000000        9.4660000E-03    7.7790000E-03    1.6870000E-03    7.6647586E-04     1304.673    
 p168                 obsgroup      9.0540000E-03    7.5950000E-03    1.4590000E-03     1.000000        9.0540000E-03    7.5950000E-03    1.4590000E-03    7.6647586E-04     1304.673    
 p169                 obsgroup      9.0020000E-03    7.4180000E-03    1.5840000E-03     1.000000        9.0020000E-03    7.4180000E-03    1.5840000E-03    7.6647586E-04     1304.673    
 p170                 obsgroup      8.6930000E-03    7.2400000E-03    1.4530000E-03     1.000000        8.6930000E-03    7.2400000E-03    1.4530000E-03    7.6647586E-04     1304.673    
 p171                 obsgroup      8.7040000E-03    7.0770000E-03    1.6270000E-03     1.000000        8.7040000E-03    7.0770000E-03    1.6270000E-03    7.6647586E-04     1304.673    
 p172                 obsgroup      8.8480000E-03    6.9230000E-03    1.9250000E-03     1.000000        8.8480000E-03    6.9230000E-03    1.9250000E-03    7.6647586E-04     1304.673    
 p173                 obsgroup      8.7860000E-03    6.7710000E-03    2.0150000E-03     1.000000        8.7860000E-03    6.7710000E-03    2.0150000E-03    7.6647586E-04     1304.673    
 p174                 obsgroup      8.5590000E-03    6.6130000E-03    1.9460000E-03     1.000000        8.5590000E-03    6.6130000E-03    1.9460000E-03    7.6647586E-04     1304.673    
 p175                 obsgroup      8.5700000E-03    6.4450000E-03    2.1250000E-03     1.000000        8.5700000E-03    6.4450000E-03    2.1250000E-03    7.6647586E-04     1304.673    
 p176                 obsgroup      8.6520000E-03    6.3620000E-03    2.2900000E-03     1.000000        8.6520000E-03    6.3620000E-03    2.2900000E-03    7.6647586E-04     1304.673    
