 Name                 Group          Measured         Modelled         Residual         Weight       Weight*Measured    Weight*Modelled  Weight*Residual  Measurement_sd   Natural_weight
 p001                 obsgroup      6.2830000E-04    2.0000000E-04    4.2830000E-04     1.000000        6.2830000E-04    2.0000000E-04    4.2830000E-04    3.3692395E-04     2968.029    
 p002                 obsgroup      6.6950000E-04    2.0000000E-04    4.6950000E-04     1.000000        6.6950000E-04    2.0000000E-04    4.6950000E-04    3.3692395E-04     2968.029    
 p003                 obsgroup      6.4890000E-04    2.0100000E-04    4.4790000E-04     1.000000        6.4890000E-04    2.0100000E-04    4.4790000E-04    3.3692395E-04     2968.029    
 p004                 obsgroup      7.8280000E-04    2.0600000E-04    5.7680000E-04     1.000000        7.8280000E-04    2.0600000E-04    5.7680000E-04    3.3692395E-04     2968.029    
 p005                 obsgroup      7.9310000E-04    2.1300000E-04    5.8010000E-04     1.000000        7.9310000E-04    2.1300000E-04    5.8010000E-04    3.3692395E-04     2968.029    
 p006                 obsgroup      8.4460000E-04    2.2700000E-04    6.1760000E-04     1.000000        8.4460000E-04    2.2700000E-04    6.1760000E-04    3.3692395E-04     2968.029    
 p007                 obsgroup      9.2700000E-04    2.4800000E-04    6.7900000E-04     1.000000        9.2700000E-04    2.4800000E-04    6.7900000E-04    3.3692395E-04     2968.029    
 p008                 obsgroup      9.0640000E-04    2.8100000E-04    6.2540000E-04     1.000000        9.0640000E-04    2.8100000E-04    6.2540000E-04    3.3692395E-04     2968.029    
 p009                 obsgroup      9.7850000E-04    3.2600000E-04    6.5250000E-04     1.000000        9.7850000E-04    3.2600000E-04    6.5250000E-04    3.3692395E-04     2968.029    
 p010                 obsgroup      9.0640000E-04    3.8400000E-04    5.2240000E-04     1.000000        9.0640000E-04    3.8400000E-04    5.2240000E-04    3.3692395E-04     2968.029    
 p011                 obsgroup      9.0640000E-04    4.5500000E-04    4.5140000E-04     1.000000        9.0640000E-04    4.5500000E-04    4.5140000E-04    3.3692395E-04     2968.029    
 p012                 obsgroup      9.7850000E-04    5.4000000E-04    4.3850000E-04     1.000000        9.7850000E-04    5.4000000E-04    4.3850000E-04    3.3692395E-04     2968.029    
 p013                 obsgroup      9.0640000E-04    6.3700000E-04    2.6940000E-04     1.000000        9.0640000E-04    6.3700000E-04    2.6940000E-04    3.3692395E-04     2968.029    
 p014                 obsgroup      1.1639000E-03    7.4600000E-04    4.1790000E-04     1.000000        1.1639000E-03    7.4600000E-04    4.1790000E-04    3.3692395E-04     2968.029    
 p015                 obsgroup      1.1948000E-03    8.6400000E-04    3.3080000E-04     1.000000        1.1948000E-03    8.6400000E-04    3.3080000E-04    3.3692395E-04     2968.029    
 p016                 obsgroup      1.1227000E-03    9.8900000E-04    1.3370000E-04     1.000000        1.1227000E-03    9.8900000E-04    1.3370000E-04    3.3692395E-04     2968.029    
 p017                 obsgroup      1.2566000E-03    1.1240000E-03    1.3260000E-04     1.000000        1.2566000E-03    1.1240000E-03    1.3260000E-04    3.3692395E-04     2968.029    
 p018                 obsgroup      1.5759000E-03    1.2540000E-03    3.2190000E-04     1.000000        1.5759000E-03    1.2540000E-03    3.2190000E-04    3.3692395E-04     2968.029    
 p019                 obsgroup      1.6377000E-03    1.3940000E-03    2.4370000E-04     1.000000        1.6377000E-03    1.3940000E-03    2.4370000E-04    3.3692395E-04     2968.029    
 p020                 obsgroup      1.5656000E-03    1.5360000E-03    2.9600000E-05     1.000000        1.5656000E-03    1.5360000E-03    2.9600000E-05    3.3692395E-04     2968.029    
 p021                 obsgroup      1.8334000E-03    1.6770000E-03    1.5640000E-04     1.000000        1.8334000E-03    1.6770000E-03    1.5640000E-04    3.3692395E-04     2968.029    
 p022                 obsgroup      2.0806000E-03    1.8220000E-03    2.5860000E-04     1.000000        2.0806000E-03    1.8220000E-03    2.5860000E-04    3.3692395E-04     2968.029    
 p023                 obsgroup      2.2969000E-03    1.9620000E-03    3.3490000E-04     1.000000        2.2969000E-03    1.9620000E-03    3.3490000E-04    3.3692395E-04     2968.029    
 p024                 obsgroup      2.1836000E-03    2.1040000E-03    7.9600000E-05     1.000000        2.1836000E-03    2.1040000E-03    7.9600000E-05    3.3692395E-04     2968.029    
 p025                 obsgroup      2.5853000E-03    2.2420000E-03    3.4330000E-04     1.000000        2.5853000E-03    2.2420000E-03    3.4330000E-04    3.3692395E-04     2968.029    
 p026                 obsgroup      2.6883000E-03    2.3820000E-03    3.0630000E-04     1.000000        2.6883000E-03    2.3820000E-03    3.0630000E-04    3.3692395E-04     2968.029    
 p027                 obsgroup      2.8943000E-03    2.5190000E-03    3.7530000E-04     1.000000        2.8943000E-03    2.5190000E-03    3.7530000E-04    3.3692395E-04     2968.029    
 p028                 obsgroup      2.8943000E-03    2.6510000E-03    2.4330000E-04     1.000000        2.8943000E-03    2.6510000E-03    2.4330000E-04    3.3692395E-04     2968.029    
 p029                 obsgroup      2.9973000E-03    2.8480000E-03    1.4930000E-04     1.000000        2.9973000E-03    2.8480000E-03    1.4930000E-04    3.3692395E-04     2968.029    
 p030                 obsgroup      3.2033000E-03    3.2220000E-03   -1.8700000E-05     1.000000        3.2033000E-03    3.2220000E-03   -1.8700000E-05    3.3692395E-04     2968.029    
 p031                 obsgroup      3.3063000E-03    3.4010000E-03   -9.4700000E-05     1.000000        3.3063000E-03    3.4010000E-03   -9.4700000E-05    3.3692395E-04     2968.029    
 p032                 obsgroup      3.2033000E-03    3.5720000E-03   -3.6870000E-04     1.000000        3.2033000E-03    3.5720000E-03   -3.6870000E-04    3.3692395E-04     2968.029    
 p033                 obsgroup      3.5123000E-03    3.7340000E-03   -2.2170000E-04     1.000000        3.5123000E-03    3.7340000E-03   -2.2170000E-04    3.3692395E-04     2968.029    
 p034                 obsgroup      3.9243000E-03    3.8880000E-03    3.6300000E-05     1.000000        3.9243000E-03    3.8880000E-03    3.6300000E-05    3.3692395E-04     2968.029    
 p035                 obsgroup      4.1303000E-03    4.0370000E-03    9.3300000E-05     1.000000        4.1303000E-03    4.0370000E-03    9.3300000E-05    3.3692395E-04     2968.029    
 p036                 obsgroup      3.7183000E-03    4.1780000E-03   -4.5970000E-04     1.000000        3.7183000E-03    4.1780000E-03   -4.5970000E-04    3.3692395E-04     2968.029    
 p037                 obsgroup      3.9243000E-03    4.3140000E-03   -3.8970000E-04     1.000000        3.9243000E-03    4.3140000E-03   -3.8970000E-04    3.3692395E-04     2968.029    
 p038                 obsgroup      4.2333000E-03    4.4440000E-03   -2.1070000E-04     1.000000        4.2333000E-03    4.4440000E-03   -2.1070000E-04    3.3692395E-04     2968.029    
 p039                 obsgroup      4.4393000E-03    4.5660000E-03   -1.2670000E-04     1.000000        4.4393000E-03    4.5660000E-03   -1.2670000E-04    3.3692395E-04     2968.029    
 p040                 obsgroup      4.2333000E-03    4.6820000E-03   -4.4870000E-04     1.000000        4.2333000E-03    4.6820000E-03   -4.4870000E-04    3.3692395E-04     2968.029    
 p041                 obsgroup      4.5423000E-03    4.7930000E-03   -2.5070000E-04     1.000000        4.5423000E-03    4.7930000E-03   -2.5070000E-04    3.3692395E-04     2968.029    
 p042                 obsgroup      5.0573000E-03    4.8990000E-03    1.5830000E-04     1.000000        5.0573000E-03    4.8990000E-03    1.5830000E-04    3.3692395E-04     2968.029    
 p043                 obsgroup      5.0573000E-03    5.0900000E-03   -3.2700000E-05     1.000000        5.0573000E-03    5.0900000E-03   -3.2700000E-05    3.3692395E-04     2968.029    
 p044                 obsgroup      4.9543000E-03    5.1790000E-03   -2.2470000E-04     1.000000        4.9543000E-03    5.1790000E-03   -2.2470000E-04    3.3692395E-04     2968.029    
 p045                 obsgroup      4.7483000E-03    5.2620000E-03   -5.1370000E-04     1.000000        4.7483000E-03    5.2620000E-03   -5.1370000E-04    3.3692395E-04     2968.029    
 p046                 obsgroup      4.9543000E-03    5.3400000E-03   -3.8570000E-04     1.000000        4.9543000E-03    5.3400000E-03   -3.8570000E-04    3.3692395E-04     2968.029    
 p047                 obsgroup      4.8513000E-03    5.4120000E-03   -5.6070000E-04     1.000000        4.8513000E-03    5.4120000E-03   -5.6070000E-04    3.3692395E-04     2968.029    
 p048                 obsgroup      5.0573000E-03    5.4790000E-03   -4.2170000E-04     1.000000        5.0573000E-03    5.4790000E-03   -4.2170000E-04    3.3692395E-04     2968.029    
 p049                 obsgroup      5.5723000E-03    5.5410000E-03    3.1300000E-05     1.000000        5.5723000E-03    5.5410000E-03    3.1300000E-05    3.3692395E-04     2968.029    
 p050                 obsgroup      5.2633000E-03    5.5990000E-03   -3.3570000E-04     1.000000        5.2633000E-03    5.5990000E-03   -3.3570000E-04    3.3692395E-04     2968.029    
 p051                 obsgroup      5.4693000E-03    5.6520000E-03   -1.8270000E-04     1.000000        5.4693000E-03    5.6520000E-03   -1.8270000E-04    3.3692395E-04     2968.029    
 p052                 obsgroup      5.6753000E-03    5.7020000E-03   -2.6700000E-05     1.000000        5.6753000E-03    5.7020000E-03   -2.6700000E-05    3.3692395E-04     2968.029    
 p053                 obsgroup      5.4693000E-03    5.7470000E-03   -2.7770000E-04     1.000000        5.4693000E-03    5.7470000E-03   -2.7770000E-04    3.3692395E-04     2968.029    
 p054                 obsgroup      5.4693000E-03    5.7880000E-03   -3.1870000E-04     1.000000        5.4693000E-03    5.7880000E-03   -3.1870000E-04    3.3692395E-04     2968.029    
 p055                 obsgroup      5.7783000E-03    5.8260000E-03   -4.7700000E-05     1.000000        5.7783000E-03    5.8260000E-03   -4.7700000E-05    3.3692395E-04     2968.029    
 p056                 obsgroup      5.6753000E-03    5.8600000E-03   -1.8470000E-04     1.000000        5.6753000E-03    5.8600000E-03   -1.8470000E-04    3.3692395E-04     2968.029    
 p057                 obsgroup      5.7783000E-03    5.8910000E-03   -1.1270000E-04     1.000000        5.7783000E-03    5.8910000E-03   -1.1270000E-04    3.3692395E-04     2968.029    
 p058                 obsgroup      6.0873000E-03    5.9180000E-03    1.6930000E-04     1.000000        6.0873000E-03    5.9180000E-03    1.6930000E-04    3.3692395E-04     2968.029    
 p059                 obsgroup      5.7783000E-03    5.9420000E-03   -1.6370000E-04     1.000000        5.7783000E-03    5.9420000E-03   -1.6370000E-04    3.3692395E-04     2968.029    
 p060                 obsgroup      5.9843000E-03    5.9630000E-03    2.1300000E-05     1.000000        5.9843000E-03    5.9630000E-03    2.1300000E-05    3.3692395E-04     2968.029    
 p061                 obsgroup      5.9843000E-03    5.9960000E-03   -1.1700000E-05     1.000000        5.9843000E-03    5.9960000E-03   -1.1700000E-05    3.3692395E-04     2968.029    
 p062                 obsgroup      6.0873000E-03    6.0080000E-03    7.9300000E-05     1.000000        6.0873000E-03    6.0080000E-03    7.9300000E-05    3.3692395E-04     2968.029    
 p063                 obsgroup      6.2933000E-03    6.0180000E-03    2.7530000E-04     1.000000        6.2933000E-03    6.0180000E-03    2.7530000E-04    3.3692395E-04     2968.029    
 p064                 obsgroup      5.8813000E-03    6.0260000E-03   -1.4470000E-04     1.000000        5.8813000E-03    6.0260000E-03   -1.4470000E-04    3.3692395E-04     2968.029    
 p065                 obsgroup      6.2933000E-03    6.0310000E-03    2.6230000E-04     1.000000        6.2933000E-03    6.0310000E-03    2.6230000E-04    3.3692395E-04     2968.029    
 p066                 obsgroup      5.8813000E-03    6.0340000E-03   -1.5270000E-04     1.000000        5.8813000E-03    6.0340000E-03   -1.5270000E-04    3.3692395E-04     2968.029    
 p067                 obsgroup      6.0873000E-03    6.0350000E-03    5.2300000E-05     1.000000        6.0873000E-03    6.0350000E-03    5.2300000E-05    3.3692395E-04     2968.029    
 p068                 obsgroup      6.1903000E-03    6.0330000E-03    1.5730000E-04     1.000000        6.1903000E-03    6.0330000E-03    1.5730000E-04    3.3692395E-04     2968.029    
 p069                 obsgroup      6.6023000E-03    6.0300000E-03    5.7230000E-04     1.000000        6.6023000E-03    6.0300000E-03    5.7230000E-04    3.3692395E-04     2968.029    
 p070                 obsgroup      6.4993000E-03    6.0250000E-03    4.7430000E-04     1.000000        6.4993000E-03    6.0250000E-03    4.7430000E-04    3.3692395E-04     2968.029    
 p071                 obsgroup      6.0873000E-03    6.0180000E-03    6.9300000E-05     1.000000        6.0873000E-03    6.0180000E-03    6.9300000E-05    3.3692395E-04     2968.029    
 p072                 obsgroup      6.3963000E-03    6.0090000E-03    3.8730000E-04     1.000000        6.3963000E-03    6.0090000E-03    3.8730000E-04    3.3692395E-04     2968.029    
 p073                 obsgroup      6.4993000E-03    5.9990000E-03    5.0030000E-04     1.000000        6.4993000E-03    5.9990000E-03    5.0030000E-04    3.3692395E-04     2968.029    
 p074                 obsgroup      6.4993000E-03    5.9870000E-03    5.1230000E-04     1.000000        6.4993000E-03    5.9870000E-03    5.1230000E-04    3.3692395E-04     2968.029    
 p075                 obsgroup      6.1903000E-03    5.9740000E-03    2.1630000E-04     1.000000        6.1903000E-03    5.9740000E-03    2.1630000E-04    3.3692395E-04     2968.029    
 p076                 obsgroup      6.3963000E-03    5.9580000E-03    4.3830000E-04     1.000000        6.3963000E-03    5.9580000E-03    4.3830000E-04    3.3692395E-04     2968.029    
 p077                 obsgroup      6.3963000E-03    5.9420000E-03    4.5430000E-04     1.000000        6.3963000E-03    5.9420000E-03    4.5430000E-04    3.3692395E-04     2968.029    
 p078                 obsgroup      6.2933000E-03    5.9250000E-03    3.6830000E-04     1.000000        6.2933000E-03    5.9250000E-03    3.6830000E-04    3.3692395E-04     2968.029    
 p079                 obsgroup      6.3963000E-03    5.9060000E-03    4.9030000E-04     1.000000        6.3963000E-03    5.9060000E-03    4.9030000E-04    3.3692395E-04     2968.029    
 p080                 obsgroup      6.6023000E-03    5.8850000E-03    7.1730000E-04     1.000000        6.6023000E-03    5.8850000E-03    7.1730000E-04    3.3692395E-04     2968.029    
 p081                 obsgroup      6.4993000E-03    5.8640000E-03    6.3530000E-04     1.000000        6.4993000E-03    5.8640000E-03    6.3530000E-04    3.3692395E-04     2968.029    
 p082                 obsgroup      5.7783000E-03    5.8410000E-03   -6.2700000E-05     1.000000        5.7783000E-03    5.8410000E-03   -6.2700000E-05    3.3692395E-04     2968.029    
 p083                 obsgroup      6.3963000E-03    5.8180000E-03    5.7830000E-04     1.000000        6.3963000E-03    5.8180000E-03    5.7830000E-04    3.3692395E-04     2968.029    
 p084                 obsgroup      5.7783000E-03    5.7950000E-03   -1.6700000E-05     1.000000        5.7783000E-03    5.7950000E-03   -1.6700000E-05    3.3692395E-04     2968.029    
 p085                 obsgroup      6.0873000E-03    5.7700000E-03    3.1730000E-04     1.000000        6.0873000E-03    5.7700000E-03    3.1730000E-04    3.3692395E-04     2968.029    
 p086                 obsgroup      6.1903000E-03    5.6940000E-03    4.9630000E-04     1.000000        6.1903000E-03    5.6940000E-03    4.9630000E-04    3.3692395E-04     2968.029    
 p087                 obsgroup      5.9843000E-03    5.6660000E-03    3.1830000E-04     1.000000        5.9843000E-03    5.6660000E-03    3.1830000E-04    3.3692395E-04     2968.029    
 p088                 obsgroup      5.6753000E-03    5.6370000E-03    3.8300000E-05     1.000000        5.6753000E-03    5.6370000E-03    3.8300000E-05    3.3692395E-04     2968.029    
 p089                 obsgroup      5.9843000E-03    5.6070000E-03    3.7730000E-04     1.000000        5.9843000E-03    5.6070000E-03    3.7730000E-04    3.3692395E-04     2968.029    
 p090                 obsgroup      5.6753000E-03    5.5760000E-03    9.9300000E-05     1.000000        5.6753000E-03    5.5760000E-03    9.9300000E-05    3.3692395E-04     2968.029    
 p091                 obsgroup      5.8813000E-03    5.5470000E-03    3.3430000E-04     1.000000        5.8813000E-03    5.5470000E-03    3.3430000E-04    3.3692395E-04     2968.029    
 p092                 obsgroup      5.6753000E-03    5.5150000E-03    1.6030000E-04     1.000000        5.6753000E-03    5.5150000E-03    1.6030000E-04    3.3692395E-04     2968.029    
 p093                 obsgroup      5.7783000E-03    5.4840000E-03    2.9430000E-04     1.000000        5.7783000E-03    5.4840000E-03    2.9430000E-04    3.3692395E-04     2968.029    
 p094                 obsgroup      5.5723000E-03    5.4500000E-03    1.2230000E-04     1.000000        5.5723000E-03    5.4500000E-03    1.2230000E-04    3.3692395E-04     2968.029    
 p095                 obsgroup      5.4693000E-03    5.4170000E-03    5.2300000E-05     1.000000        5.4693000E-03    5.4170000E-03    5.2300000E-05    3.3692395E-04     2968.029    
 p096                 obsgroup      5.5723000E-03    5.3830000E-03    1.8930000E-04     1.000000        5.5723000E-03    5.3830000E-03    1.8930000E-04    3.3692395E-04     2968.029    
 p097                 obsgroup      5.2633000E-03    5.3490000E-03   -8.5700000E-05     1.000000        5.2633000E-03    5.3490000E-03   -8.5700000E-05    3.3692395E-04     2968.029    
 p098                 obsgroup      5.5723000E-03    5.3150000E-03    2.5730000E-04     1.000000        5.5723000E-03    5.3150000E-03    2.5730000E-04    3.3692395E-04     2968.029    
 p099                 obsgroup      5.4693000E-03    5.2920000E-03    1.7730000E-04     1.000000        5.4693000E-03    5.2920000E-03    1.7730000E-04    3.3692395E-04     2968.029    
 p100                 obsgroup      5.2633000E-03    5.2570000E-03    6.3000000E-06     1.000000        5.2633000E-03    5.2570000E-03    6.3000000E-06    3.3692395E-04     2968.029    
 p101                 obsgroup      5.3663000E-03    5.2230000E-03    1.4330000E-04     1.000000        5.3663000E-03    5.2230000E-03    1.4330000E-04    3.3692395E-04     2968.029    
 p102                 obsgroup      5.5723000E-03    5.1880000E-03    3.8430000E-04     1.000000        5.5723000E-03    5.1880000E-03    3.8430000E-04    3.3692395E-04     2968.029    
 p103                 obsgroup      5.0573000E-03    5.1530000E-03   -9.5700000E-05     1.000000        5.0573000E-03    5.1530000E-03   -9.5700000E-05    3.3692395E-04     2968.029    
 p104                 obsgroup      5.2633000E-03    5.0850000E-03    1.7830000E-04     1.000000        5.2633000E-03    5.0850000E-03    1.7830000E-04    3.3692395E-04     2968.029    
 p105                 obsgroup      5.1603000E-03    5.0490000E-03    1.1130000E-04     1.000000        5.1603000E-03    5.0490000E-03    1.1130000E-04    3.3692395E-04     2968.029    
 p106                 obsgroup      5.4693000E-03    5.0130000E-03    4.5630000E-04     1.000000        5.4693000E-03    5.0130000E-03    4.5630000E-04    3.3692395E-04     2968.029    
 p107                 obsgroup      5.1603000E-03    4.9760000E-03    1.8430000E-04     1.000000        5.1603000E-03    4.9760000E-03    1.8430000E-04    3.3692395E-04     2968.029    
 p108                 obsgroup      5.0573000E-03    4.9400000E-03    1.1730000E-04     1.000000        5.0573000E-03    4.9400000E-03    1.1730000E-04    3.3692395E-04     2968.029    
 p109                 obsgroup      4.9543000E-03    4.9030000E-03    5.1300000E-05     1.000000        4.9543000E-03    4.9030000E-03    5.1300000E-05    3.3692395E-04     2968.029    
 p110                 obsgroup      5.0573000E-03    4.8660000E-03    1.9130000E-04     1.000000        5.0573000E-03    4.8660000E-03    1.9130000E-04    3.3692395E-04     2968.029    
 p111                 obsgroup      4.6453000E-03    4.8310000E-03   -1.8570000E-04     1.000000        4.6453000E-03    4.8310000E-03   -1.8570000E-04    3.3692395E-04     2968.029    
 p112                 obsgroup      4.5423000E-03    4.7940000E-03   -2.5170000E-04     1.000000        4.5423000E-03    4.7940000E-03   -2.5170000E-04    3.3692395E-04     2968.029    
 p113                 obsgroup      4.6453000E-03    4.7570000E-03   -1.1170000E-04     1.000000        4.6453000E-03    4.7570000E-03   -1.1170000E-04    3.3692395E-04     2968.029    
 p114                 obsgroup      4.7483000E-03    4.7200000E-03    2.8300000E-05     1.000000        4.7483000E-03    4.7200000E-03    2.8300000E-05    3.3692395E-04     2968.029    
 p115                 obsgroup      4.6453000E-03    4.6830000E-03   -3.7700000E-05     1.000000        4.6453000E-03    4.6830000E-03   -3.7700000E-05    3.3692395E-04     2968.029    
 p116                 obsgroup      4.6453000E-03    4.6460000E-03   -7.0000000E-07     1.000000        4.6453000E-03    4.6460000E-03   -7.0000000E-07    3.3692395E-04     2968.029    
 p117                 obsgroup      4.3363000E-03    4.5730000E-03   -2.3670000E-04     1.000000        4.3363000E-03    4.5730000E-03   -2.3670000E-04    3.3692395E-04     2968.029    
 p118                 obsgroup      4.4393000E-03    4.5000000E-03   -6.0700000E-05     1.000000        4.4393000E-03    4.5000000E-03   -6.0700000E-05    3.3692395E-04     2968.029    
 p119                 obsgroup      4.1303000E-03    4.4640000E-03   -3.3370000E-04     1.000000        4.1303000E-03    4.4640000E-03   -3.3370000E-04    3.3692395E-04     2968.029    
 p120                 obsgroup      4.0273000E-03    4.4280000E-03   -4.0070000E-04     1.000000        4.0273000E-03    4.4280000E-03   -4.0070000E-04    3.3692395E-04     2968.029    
 p121                 obsgroup      3.8213000E-03    4.3560000E-03   -5.3470000E-04     1.000000        3.8213000E-03    4.3560000E-03   -5.3470000E-04    3.3692395E-04     2968.029    
 p122                 obsgroup      3.8213000E-03    4.3200000E-03   -4.9870000E-04     1.000000        3.8213000E-03    4.3200000E-03   -4.9870000E-04    3.3692395E-04     2968.029    
 p123                 obsgroup      3.7183000E-03    4.2830000E-03   -5.6470000E-04     1.000000        3.7183000E-03    4.2830000E-03   -5.6470000E-04    3.3692395E-04     2968.029    
 p124                 obsgroup      3.5123000E-03    4.2470000E-03   -7.3470000E-04     1.000000        3.5123000E-03    4.2470000E-03   -7.3470000E-04    3.3692395E-04     2968.029    
 p125                 obsgroup      3.7183000E-03    4.2110000E-03   -4.9270000E-04     1.000000        3.7183000E-03    4.2110000E-03   -4.9270000E-04    3.3692395E-04     2968.029    
 p126                 obsgroup      3.3063000E-03    4.1760000E-03   -8.6970000E-04     1.000000        3.3063000E-03    4.1760000E-03   -8.6970000E-04    3.3692395E-04     2968.029    
 p127                 obsgroup      3.4093000E-03    4.1400000E-03   -7.3070000E-04     1.000000        3.4093000E-03    4.1400000E-03   -7.3070000E-04    3.3692395E-04     2968.029    
 p128                 obsgroup      3.5123000E-03    4.1040000E-03   -5.9170000E-04     1.000000        3.5123000E-03    4.1040000E-03   -5.9170000E-04    3.3692395E-04     2968.029    
 p129                 obsgroup      3.5123000E-03    4.0680000E-03   -5.5570000E-04     1.000000        3.5123000E-03    4.0680000E-03   -5.5570000E-04    3.3692395E-04     2968.029    
 p130                 obsgroup      3.3063000E-03    4.0330000E-03   -7.2670000E-04     1.000000        3.3063000E-03    4.0330000E-03   -7.2670000E-04    3.3692395E-04     2968.029    
 p131                 obsgroup      3.1003000E-03    3.9970000E-03   -8.9670000E-04     1.000000        3.1003000E-03    3.9970000E-03   -8.9670000E-04    3.3692395E-04     2968.029    
 p132                 obsgroup      3.3063000E-03    3.9630000E-03   -6.5670000E-04     1.000000        3.3063000E-03    3.9630000E-03   -6.5670000E-04    3.3692395E-04     2968.029    
 p133                 obsgroup      2.9973000E-03    3.9280000E-03   -9.3070000E-04     1.000000        2.9973000E-03    3.9280000E-03   -9.3070000E-04    3.3692395E-04     2968.029    
 p134                 obsgroup      3.3063000E-03    3.8980000E-03   -5.9170000E-04     1.000000        3.3063000E-03    3.8980000E-03   -5.9170000E-04    3.3692395E-04     2968.029    
 p135                 obsgroup      3.2033000E-03    3.8210000E-03   -6.1770000E-04     1.000000        3.2033000E-03    3.8210000E-03   -6.1770000E-04    3.3692395E-04     2968.029    
 p136                 obsgroup      3.1003000E-03    3.7850000E-03   -6.8470000E-04     1.000000        3.1003000E-03    3.7850000E-03   -6.8470000E-04    3.3692395E-04     2968.029    
 p137                 obsgroup      3.3063000E-03    3.5900000E-03   -2.8370000E-04     1.000000        3.3063000E-03    3.5900000E-03   -2.8370000E-04    3.3692395E-04     2968.029    
 p138                 obsgroup      2.9973000E-03    3.4390000E-03   -4.4170000E-04     1.000000        2.9973000E-03    3.4390000E-03   -4.4170000E-04    3.3692395E-04     2968.029    
 p139                 obsgroup      2.9973000E-03    3.3280000E-03   -3.3070000E-04     1.000000        2.9973000E-03    3.3280000E-03   -3.3070000E-04    3.3692395E-04     2968.029    
 p140                 obsgroup      2.9973000E-03    3.2920000E-03   -2.9470000E-04     1.000000        2.9973000E-03    3.2920000E-03   -2.9470000E-04    3.3692395E-04     2968.029    
 p141                 obsgroup      3.1003000E-03    3.1500000E-03   -4.9700000E-05     1.000000        3.1003000E-03    3.1500000E-03   -4.9700000E-05    3.3692395E-04     2968.029    
 p142                 obsgroup      2.9973000E-03    3.1160000E-03   -1.1870000E-04     1.000000        2.9973000E-03    3.1160000E-03   -1.1870000E-04    3.3692395E-04     2968.029    
 p143                 obsgroup      2.8943000E-03    3.0810000E-03   -1.8670000E-04     1.000000        2.8943000E-03    3.0810000E-03   -1.8670000E-04    3.3692395E-04     2968.029    
 p144                 obsgroup      2.8943000E-03    3.0480000E-03   -1.5370000E-04     1.000000        2.8943000E-03    3.0480000E-03   -1.5370000E-04    3.3692395E-04     2968.029    
 p145                 obsgroup      2.7913000E-03    2.9160000E-03   -1.2470000E-04     1.000000        2.7913000E-03    2.9160000E-03   -1.2470000E-04    3.3692395E-04     2968.029    
 p146                 obsgroup      2.5853000E-03    2.8840000E-03   -2.9870000E-04     1.000000        2.5853000E-03    2.8840000E-03   -2.9870000E-04    3.3692395E-04     2968.029    
 p147                 obsgroup      2.7913000E-03    2.8520000E-03   -6.0700000E-05     1.000000        2.7913000E-03    2.8520000E-03   -6.0700000E-05    3.3692395E-04     2968.029    
 p148                 obsgroup      2.7913000E-03    2.7580000E-03    3.3300000E-05     1.000000        2.7913000E-03    2.7580000E-03    3.3300000E-05    3.3692395E-04     2968.029    
 p149                 obsgroup      2.6883000E-03    2.5170000E-03    1.7130000E-04     1.000000        2.6883000E-03    2.5170000E-03    1.7130000E-04    3.3692395E-04     2968.029    
 p150                 obsgroup      2.5853000E-03    2.3200000E-03    2.6530000E-04     1.000000        2.5853000E-03    2.3200000E-03    2.6530000E-04    3.3692395E-04     2968.029    
 p151                 obsgroup      2.6883000E-03    2.2930000E-03    3.9530000E-04     1.000000        2.6883000E-03    2.2930000E-03    3.9530000E-04    3.3692395E-04     2968.029    
 p152                 obsgroup      2.6883000E-03    2.2590000E-03    4.2930000E-04     1.000000        2.6883000E-03    2.2590000E-03    4.2930000E-04    3.3692395E-04     2968.029    
 p153                 obsgroup      2.6883000E-03    2.2100000E-03    4.7830000E-04     1.000000        2.6883000E-03    2.2100000E-03    4.7830000E-04    3.3692395E-04     2968.029    
 p154                 obsgroup      2.5853000E-03    2.1860000E-03    3.9930000E-04     1.000000        2.5853000E-03    2.1860000E-03    3.9930000E-04    3.3692395E-04     2968.029    
 p155                 obsgroup      2.3175000E-03    2.1620000E-03    1.5550000E-04     1.000000        2.3175000E-03    2.1620000E-03    1.5550000E-04    3.3692395E-04     2968.029    
 p156                 obsgroup      2.2351000E-03    2.1370000E-03    9.8100000E-05     1.000000        2.2351000E-03    2.1370000E-03    9.8100000E-05    3.3692395E-04     2968.029    
 p157                 obsgroup      2.2454000E-03    2.1140000E-03    1.3140000E-04     1.000000        2.2454000E-03    2.1140000E-03    1.3140000E-04    3.3692395E-04     2968.029    
 p158                 obsgroup      2.4823000E-03    2.0910000E-03    3.9130000E-04     1.000000        2.4823000E-03    2.0910000E-03    3.9130000E-04    3.3692395E-04     2968.029    
 p159                 obsgroup      2.4823000E-03    2.0680000E-03    4.1430000E-04     1.000000        2.4823000E-03    2.0680000E-03    4.1430000E-04    3.3692395E-04     2968.029    
 p160                 obsgroup      2.3072000E-03    2.0250000E-03    2.8220000E-04     1.000000        2.3072000E-03    2.0250000E-03    2.8220000E-04    3.3692395E-04     2968.029    
 p161                 obsgroup      2.1527000E-03    2.0030000E-03    1.4970000E-04     1.000000        2.1527000E-03    2.0030000E-03    1.4970000E-04    3.3692395E-04     2968.029    
 p162                 obsgroup      2.2866000E-03    1.9590000E-03    3.2760000E-04     1.000000        2.2866000E-03    1.9590000E-03    3.2760000E-04    3.3692395E-04     2968.029    
 p163                 obsgroup      2.1115000E-03    1.9380000E-03    1.7350000E-04     1.000000        2.1115000E-03    1.9380000E-03    1.7350000E-04    3.3692395E-04     2968.029    
 p164                 obsgroup      2.0291000E-03    1.9170000E-03    1.1210000E-04     1.000000        2.0291000E-03    1.9170000E-03    1.1210000E-04    3.3692395E-04     2968.029    
 p165                 obsgroup      2.1012000E-03    1.8970000E-03    2.0420000E-04     1.000000        2.1012000E-03    1.8970000E-03    2.0420000E-04    3.3692395E-04     2968.029    
 p166                 obsgroup      2.2866000E-03    1.8760000E-03    4.1060000E-04     1.000000        2.2866000E-03    1.8760000E-03    4.1060000E-04    3.3692395E-04     2968.029    
 p167                 obsgroup      2.2660000E-03    1.8360000E-03    4.3000000E-04     1.000000        2.2660000E-03    1.8360000E-03    4.3000000E-04    3.3692395E-04     2968.029    
 p168                 obsgroup      2.2454000E-03    1.8150000E-03    4.3040000E-04     1.000000        2.2454000E-03    1.8150000E-03    4.3040000E-04    3.3692395E-04     2968.029    
 p169                 obsgroup      2.2248000E-03    1.7950000E-03    4.2980000E-04     1.000000        2.2248000E-03    1.7950000E-03    4.2980000E-04    3.3692395E-04     2968.029    
 p170                 obsgroup      2.1630000E-03    1.7760000E-03    3.8700000E-04     1.000000        2.1630000E-03    1.7760000E-03    3.8700000E-04    3.3692395E-04     2968.029    
 p171                 obsgroup      2.1321000E-03    1.7560000E-03    3.7610000E-04     1.000000        2.1321000E-03    1.7560000E-03    3.7610000E-04    3.3692395E-04     2968.029    
 p172                 obsgroup      2.0291000E-03    1.7370000E-03    2.9210000E-04     1.000000        2.0291000E-03    1.7370000E-03    2.9210000E-04    3.3692395E-04     2968.029    
 p173                 obsgroup      1.9879000E-03    1.7180000E-03    2.6990000E-04     1.000000        1.9879000E-03    1.7180000E-03    2.6990000E-04    3.3692395E-04     2968.029    
 p174                 obsgroup      2.0600000E-03    1.6990000E-03    3.6100000E-04     1.000000        2.0600000E-03    1.6990000E-03    3.6100000E-04    3.3692395E-04     2968.029    
 p175                 obsgroup      1.9673000E-03    1.6440000E-03    3.2330000E-04     1.000000        1.9673000E-03    1.6440000E-03    3.2330000E-04    3.3692395E-04     2968.029    
 p176                 obsgroup      1.8952000E-03    1.6250000E-03    2.7020000E-04     1.000000        1.8952000E-03    1.6250000E-03    2.7020000E-04    3.3692395E-04     2968.029    
 p177                 obsgroup      1.6995000E-03    1.6070000E-03    9.2500000E-05     1.000000        1.6995000E-03    1.6070000E-03    9.2500000E-05    3.3692395E-04     2968.029    
 p178                 obsgroup      1.8128000E-03    1.5890000E-03    2.2380000E-04     1.000000        1.8128000E-03    1.5890000E-03    2.2380000E-04    3.3692395E-04     2968.029    
 p179                 obsgroup      1.9467000E-03    1.5720000E-03    3.7470000E-04     1.000000        1.9467000E-03    1.5720000E-03    3.7470000E-04    3.3692395E-04     2968.029    
 p180                 obsgroup      2.0291000E-03    1.5540000E-03    4.7510000E-04     1.000000        2.0291000E-03    1.5540000E-03    4.7510000E-04    3.3692395E-04     2968.029    
 p181                 obsgroup      1.8952000E-03    1.5370000E-03    3.5820000E-04     1.000000        1.8952000E-03    1.5370000E-03    3.5820000E-04    3.3692395E-04     2968.029    
 p182                 obsgroup      1.7819000E-03    1.5190000E-03    2.6290000E-04     1.000000        1.7819000E-03    1.5190000E-03    2.6290000E-04    3.3692395E-04     2968.029    
 p183                 obsgroup      1.7613000E-03    1.5020000E-03    2.5930000E-04     1.000000        1.7613000E-03    1.5020000E-03    2.5930000E-04    3.3692395E-04     2968.029    
 p184                 obsgroup      1.6377000E-03    1.4690000E-03    1.6870000E-04     1.000000        1.6377000E-03    1.4690000E-03    1.6870000E-04    3.3692395E-04     2968.029    
 p185                 obsgroup      1.6789000E-03    1.4520000E-03    2.2690000E-04     1.000000        1.6789000E-03    1.4520000E-03    2.2690000E-04    3.3692395E-04     2968.029    
 p186                 obsgroup      1.7407000E-03    1.4360000E-03    3.0470000E-04     1.000000        1.7407000E-03    1.4360000E-03    3.0470000E-04    3.3692395E-04     2968.029    
 p187                 obsgroup      1.4832000E-03    1.4200000E-03    6.3200000E-05     1.000000        1.4832000E-03    1.4200000E-03    6.3200000E-05    3.3692395E-04     2968.029    
 p188                 obsgroup      1.3184000E-03    1.4040000E-03   -8.5600000E-05     1.000000        1.3184000E-03    1.4040000E-03   -8.5600000E-05    3.3692395E-04     2968.029    
 p189                 obsgroup      1.4420000E-03    1.3880000E-03    5.4000000E-05     1.000000        1.4420000E-03    1.3880000E-03    5.4000000E-05    3.3692395E-04     2968.029    
 p190                 obsgroup      1.6068000E-03    1.3720000E-03    2.3480000E-04     1.000000        1.6068000E-03    1.3720000E-03    2.3480000E-04    3.3692395E-04     2968.029    
 p191                 obsgroup      1.4420000E-03    1.3570000E-03    8.5000000E-05     1.000000        1.4420000E-03    1.3570000E-03    8.5000000E-05    3.3692395E-04     2968.029    
 p192                 obsgroup      1.4317000E-03    1.3420000E-03    8.9700000E-05     1.000000        1.4317000E-03    1.3420000E-03    8.9700000E-05    3.3692395E-04     2968.029    
 p193                 obsgroup      1.1948000E-03    1.3260000E-03   -1.3120000E-04     1.000000        1.1948000E-03    1.3260000E-03   -1.3120000E-04    3.3692395E-04     2968.029    
 p194                 obsgroup      1.1227000E-03    1.3110000E-03   -1.8830000E-04     1.000000        1.1227000E-03    1.3110000E-03   -1.8830000E-04    3.3692395E-04     2968.029    
 p195                 obsgroup      1.3493000E-03    1.2650000E-03    8.4300000E-05     1.000000        1.3493000E-03    1.2650000E-03    8.4300000E-05    3.3692395E-04     2968.029    
 p196                 obsgroup      1.4111000E-03    1.2520000E-03    1.5910000E-04     1.000000        1.4111000E-03    1.2520000E-03    1.5910000E-04    3.3692395E-04     2968.029    
 p197                 obsgroup      1.2360000E-03    1.2400000E-03   -4.0000000E-06     1.000000        1.2360000E-03    1.2400000E-03   -4.0000000E-06    3.3692395E-04     2968.029    
 p198                 obsgroup      1.2875000E-03    1.2280000E-03    5.9500000E-05     1.000000        1.2875000E-03    1.2280000E-03    5.9500000E-05    3.3692395E-04     2968.029    
 p199                 obsgroup      1.2463000E-03    1.2170000E-03    2.9300000E-05     1.000000        1.2463000E-03    1.2170000E-03    2.9300000E-05    3.3692395E-04     2968.029    
 p200                 obsgroup      1.1433000E-03    1.1930000E-03   -4.9700000E-05     1.000000        1.1433000E-03    1.1930000E-03   -4.9700000E-05    3.3692395E-04     2968.029    
 p201                 obsgroup      1.0197000E-03    1.1820000E-03   -1.6230000E-04     1.000000        1.0197000E-03    1.1820000E-03   -1.6230000E-04    3.3692395E-04     2968.029    
 p202                 obsgroup      1.1021000E-03    1.1590000E-03   -5.6900000E-05     1.000000        1.1021000E-03    1.1590000E-03   -5.6900000E-05    3.3692395E-04     2968.029    
 p203                 obsgroup      1.1639000E-03    1.1470000E-03    1.6900000E-05     1.000000        1.1639000E-03    1.1470000E-03    1.6900000E-05    3.3692395E-04     2968.029    
 p204                 obsgroup      1.1124000E-03    1.1360000E-03   -2.3600000E-05     1.000000        1.1124000E-03    1.1360000E-03   -2.3600000E-05    3.3692395E-04     2968.029    
 p205                 obsgroup      1.1433000E-03    1.1250000E-03    1.8300000E-05     1.000000        1.1433000E-03    1.1250000E-03    1.8300000E-05    3.3692395E-04     2968.029    
 p206                 obsgroup      9.0640000E-04    1.1140000E-03   -2.0760000E-04     1.000000        9.0640000E-04    1.1140000E-03   -2.0760000E-04    3.3692395E-04     2968.029    
 p207                 obsgroup      8.3430000E-04    1.1030000E-03   -2.6870000E-04     1.000000        8.3430000E-04    1.1030000E-03   -2.6870000E-04    3.3692395E-04     2968.029    
 p208                 obsgroup      9.8880000E-04    1.0920000E-03   -1.0320000E-04     1.000000        9.8880000E-04    1.0920000E-03   -1.0320000E-04    3.3692395E-04     2968.029    
 p209                 obsgroup      8.9610000E-04    1.0820000E-03   -1.8590000E-04     1.000000        8.9610000E-04    1.0820000E-03   -1.8590000E-04    3.3692395E-04     2968.029    
 p210                 obsgroup      1.1536000E-03    1.0710000E-03    8.2600000E-05     1.000000        1.1536000E-03    1.0710000E-03    8.2600000E-05    3.3692395E-04     2968.029    
 p211                 obsgroup      8.5490000E-04    1.0610000E-03   -2.0610000E-04     1.000000        8.5490000E-04    1.0610000E-03   -2.0610000E-04    3.3692395E-04     2968.029    
 p212                 obsgroup      9.5790000E-04    1.0500000E-03   -9.2100000E-05     1.000000        9.5790000E-04    1.0500000E-03   -9.2100000E-05    3.3692395E-04     2968.029    
 p213                 obsgroup      6.3860000E-04    1.0400000E-03   -4.0140000E-04     1.000000        6.3860000E-04    1.0400000E-03   -4.0140000E-04    3.3692395E-04     2968.029    
 p214                 obsgroup      9.5790000E-04    1.0200000E-03   -6.2100000E-05     1.000000        9.5790000E-04    1.0200000E-03   -6.2100000E-05    3.3692395E-04     2968.029    
 p215                 obsgroup      9.6820000E-04    1.0100000E-03   -4.1800000E-05     1.000000        9.6820000E-04    1.0100000E-03   -4.1800000E-05    3.3692395E-04     2968.029    
 p216                 obsgroup      7.6220000E-04    9.9100000E-04   -2.2880000E-04     1.000000        7.6220000E-04    9.9100000E-04   -2.2880000E-04    3.3692395E-04     2968.029    
 p217                 obsgroup      8.6520000E-04    9.8100000E-04   -1.1580000E-04     1.000000        8.6520000E-04    9.8100000E-04   -1.1580000E-04    3.3692395E-04     2968.029    
 p218                 obsgroup      7.5190000E-04    9.7100000E-04   -2.1910000E-04     1.000000        7.5190000E-04    9.7100000E-04   -2.1910000E-04    3.3692395E-04     2968.029    
 p219                 obsgroup      8.0340000E-04    9.6100000E-04   -1.5760000E-04     1.000000        8.0340000E-04    9.6100000E-04   -1.5760000E-04    3.3692395E-04     2968.029    
 p220                 obsgroup      8.0340000E-04    9.5200000E-04   -1.4860000E-04     1.000000        8.0340000E-04    9.5200000E-04   -1.4860000E-04    3.3692395E-04     2968.029    
 p221                 obsgroup      6.2830000E-04    9.4300000E-04   -3.1470000E-04     1.000000        6.2830000E-04    9.4300000E-04   -3.1470000E-04    3.3692395E-04     2968.029    
 p222                 obsgroup      8.5490000E-04    9.3300000E-04   -7.8100000E-05     1.000000        8.5490000E-04    9.3300000E-04   -7.8100000E-05    3.3692395E-04     2968.029    
 p223                 obsgroup      8.5490000E-04    9.2400000E-04   -6.9100000E-05     1.000000        8.5490000E-04    9.2400000E-04   -6.9100000E-05    3.3692395E-04     2968.029    
 p224                 obsgroup      8.9610000E-04    9.1500000E-04   -1.8900000E-05     1.000000        8.9610000E-04    9.1500000E-04   -1.8900000E-05    3.3692395E-04     2968.029    
 p225                 obsgroup      6.3860000E-04    9.0600000E-04   -2.6740000E-04     1.000000        6.3860000E-04    9.0600000E-04   -2.6740000E-04    3.3692395E-04     2968.029    
 p226                 obsgroup      6.3860000E-04    8.9800000E-04   -2.5940000E-04     1.000000        6.3860000E-04    8.9800000E-04   -2.5940000E-04    3.3692395E-04     2968.029    
 p227                 obsgroup      7.9310000E-04    8.8900000E-04   -9.5900000E-05     1.000000        7.9310000E-04    8.8900000E-04   -9.5900000E-05    3.3692395E-04     2968.029    
 p228                 obsgroup      9.0640000E-04    8.8000000E-04    2.6400000E-05     1.000000        9.0640000E-04    8.8000000E-04    2.6400000E-05    3.3692395E-04     2968.029    
 p229                 obsgroup      7.1070000E-04    8.7200000E-04   -1.6130000E-04     1.000000        7.1070000E-04    8.7200000E-04   -1.6130000E-04    3.3692395E-04     2968.029    
 p230                 obsgroup      7.3130000E-04    8.6300000E-04   -1.3170000E-04     1.000000        7.3130000E-04    8.6300000E-04   -1.3170000E-04    3.3692395E-04     2968.029    
