 Name                 Group          Measured         Modelled         Residual         Weight       Weight*Measured    Weight*Modelled  Weight*Residual  Measurement_sd   Natural_weight
 p001                 obsgroup      5.6550000E-04    3.0000000E-04    2.6550000E-04     1.000000        5.6550000E-04    3.0000000E-04    2.6550000E-04    2.6697602E-03     374.5655    
 p002                 obsgroup      4.0070000E-04    3.0000000E-04    1.0070000E-04     1.000000        4.0070000E-04    3.0000000E-04    1.0070000E-04    2.6697602E-03     374.5655    
 p003                 obsgroup      5.8810000E-04    3.0000000E-04    2.8810000E-04     1.000000        5.8810000E-04    3.0000000E-04    2.8810000E-04    2.6697602E-03     374.5655    
 p004                 obsgroup      4.6560000E-04    3.0000000E-04    1.6560000E-04     1.000000        4.6560000E-04    3.0000000E-04    1.6560000E-04    2.6697602E-03     374.5655    
 p005                 obsgroup      3.5020000E-04    3.0000000E-04    5.0200000E-05     1.000000        3.5020000E-04    3.0000000E-04    5.0200000E-05    2.6697602E-03     374.5655    
 p006                 obsgroup      3.3890000E-04    3.0000000E-04    3.8900000E-05     1.000000        3.3890000E-04    3.0000000E-04    3.8900000E-05    2.6697602E-03     374.5655    
 p007                 obsgroup      3.7180000E-04    3.0000000E-04    7.1800000E-05     1.000000        3.7180000E-04    3.0000000E-04    7.1800000E-05    2.6697602E-03     374.5655    
 p008                 obsgroup      5.4180000E-04    3.0000000E-04    2.4180000E-04     1.000000        5.4180000E-04    3.0000000E-04    2.4180000E-04    2.6697602E-03     374.5655    
 p009                 obsgroup      2.4820000E-04    3.0000000E-04   -5.1800000E-05     1.000000        2.4820000E-04    3.0000000E-04   -5.1800000E-05    2.6697602E-03     374.5655    
 p010                 obsgroup      3.2340000E-04    3.0000000E-04    2.3400000E-05     1.000000        3.2340000E-04    3.0000000E-04    2.3400000E-05    2.6697602E-03     374.5655    
 p011                 obsgroup      4.1710000E-04    3.0000000E-04    1.1710000E-04     1.000000        4.1710000E-04    3.0000000E-04    1.1710000E-04    2.6697602E-03     374.5655    
 p012                 obsgroup      3.2340000E-04    3.0000000E-04    2.3400000E-05     1.000000        3.2340000E-04    3.0000000E-04    2.3400000E-05    2.6697602E-03     374.5655    
 p013                 obsgroup      3.2030000E-04    3.0000000E-04    2.0300000E-05     1.000000        3.2030000E-04    3.0000000E-04    2.0300000E-05    2.6697602E-03     374.5655    
 p014                 obsgroup      2.9560000E-04    3.0000000E-04   -4.4000000E-06     1.000000        2.9560000E-04    3.0000000E-04   -4.4000000E-06    2.6697602E-03     374.5655    
 p015                 obsgroup      3.2550000E-04    3.0000000E-04    2.5500000E-05     1.000000        3.2550000E-04    3.0000000E-04    2.5500000E-05    2.6697602E-03     374.5655    
 p016                 obsgroup      3.0900000E-04    3.0000000E-04    9.0000000E-06     1.000000        3.0900000E-04    3.0000000E-04    9.0000000E-06    2.6697602E-03     374.5655    
 p017                 obsgroup      2.7500000E-04    3.0000000E-04   -2.5000000E-05     1.000000        2.7500000E-04    3.0000000E-04   -2.5000000E-05    2.6697602E-03     374.5655    
 p018                 obsgroup      2.9150000E-04    3.0000000E-04   -8.5000000E-06     1.000000        2.9150000E-04    3.0000000E-04   -8.5000000E-06    2.6697602E-03     374.5655    
 p019                 obsgroup      2.7400000E-04    3.0000000E-04   -2.6000000E-05     1.000000        2.7400000E-04    3.0000000E-04   -2.6000000E-05    2.6697602E-03     374.5655    
 p020                 obsgroup      3.0380000E-04    3.0000000E-04    3.8000000E-06     1.000000        3.0380000E-04    3.0000000E-04    3.8000000E-06    2.6697602E-03     374.5655    
 p021                 obsgroup      3.1000000E-04    3.0000000E-04    1.0000000E-05     1.000000        3.1000000E-04    3.0000000E-04    1.0000000E-05    2.6697602E-03     374.5655    
 p022                 obsgroup      3.0180000E-04    3.0000000E-04    1.8000000E-06     1.000000        3.0180000E-04    3.0000000E-04    1.8000000E-06    2.6697602E-03     374.5655    
 p023                 obsgroup      2.9770000E-04    3.0000000E-04   -2.3000000E-06     1.000000        2.9770000E-04    3.0000000E-04   -2.3000000E-06    2.6697602E-03     374.5655    
 p024                 obsgroup      2.9460000E-04    3.0000000E-04   -5.4000000E-06     1.000000        2.9460000E-04    3.0000000E-04   -5.4000000E-06    2.6697602E-03     374.5655    
 p025                 obsgroup      3.0590000E-04    3.0100000E-04    4.9000000E-06     1.000000        3.0590000E-04    3.0100000E-04    4.9000000E-06    2.6697602E-03     374.5655    
 p026                 obsgroup      2.3590000E-04    3.0200000E-04   -6.6100000E-05     1.000000        2.3590000E-04    3.0200000E-04   -6.6100000E-05    2.6697602E-03     374.5655    
 p027                 obsgroup      3.2030000E-04    3.0400000E-04    1.6300000E-05     1.000000        3.2030000E-04    3.0400000E-04    1.6300000E-05    2.6697602E-03     374.5655    
 p028                 obsgroup      2.8840000E-04    3.0700000E-04   -1.8600000E-05     1.000000        2.8840000E-04    3.0700000E-04   -1.8600000E-05    2.6697602E-03     374.5655    
 p029                 obsgroup      2.6990000E-04    3.1200000E-04   -4.2100000E-05     1.000000        2.6990000E-04    3.1200000E-04   -4.2100000E-05    2.6697602E-03     374.5655    
 p030                 obsgroup      2.9150000E-04    3.2000000E-04   -2.8500000E-05     1.000000        2.9150000E-04    3.2000000E-04   -2.8500000E-05    2.6697602E-03     374.5655    
 p031                 obsgroup      2.8220000E-04    3.3200000E-04   -4.9800000E-05     1.000000        2.8220000E-04    3.3200000E-04   -4.9800000E-05    2.6697602E-03     374.5655    
 p032                 obsgroup      3.5430000E-04    3.5000000E-04    4.3000000E-06     1.000000        3.5430000E-04    3.5000000E-04    4.3000000E-06    2.6697602E-03     374.5655    
 p033                 obsgroup      3.1830000E-04    3.7500000E-04   -5.6700000E-05     1.000000        3.1830000E-04    3.7500000E-04   -5.6700000E-05    2.6697602E-03     374.5655    
 p034                 obsgroup      4.1710000E-04    4.1000000E-04    7.1000000E-06     1.000000        4.1710000E-04    4.1000000E-04    7.1000000E-06    2.6697602E-03     374.5655    
 p035                 obsgroup      2.9870000E-04    4.5600000E-04   -1.5730000E-04     1.000000        2.9870000E-04    4.5600000E-04   -1.5730000E-04    2.6697602E-03     374.5655    
 p036                 obsgroup      3.3680000E-04    5.1600000E-04   -1.7920000E-04     1.000000        3.3680000E-04    5.1600000E-04   -1.7920000E-04    2.6697602E-03     374.5655    
 p037                 obsgroup      3.1830000E-04    5.9300000E-04   -2.7470000E-04     1.000000        3.1830000E-04    5.9300000E-04   -2.7470000E-04    2.6697602E-03     374.5655    
 p038                 obsgroup      3.0690000E-04    6.8800000E-04   -3.8110000E-04     1.000000        3.0690000E-04    6.8800000E-04   -3.8110000E-04    2.6697602E-03     374.5655    
 p039                 obsgroup      3.6570000E-04    8.0400000E-04   -4.3830000E-04     1.000000        3.6570000E-04    8.0400000E-04   -4.3830000E-04    2.6697602E-03     374.5655    
 p040                 obsgroup      4.8620000E-04    9.4300000E-04   -4.5680000E-04     1.000000        4.8620000E-04    9.4300000E-04   -4.5680000E-04    2.6697602E-03     374.5655    
 p041                 obsgroup      5.2430000E-04    1.1080000E-03   -5.8370000E-04     1.000000        5.2430000E-04    1.1080000E-03   -5.8370000E-04    2.6697602E-03     374.5655    
 p042                 obsgroup      6.2620000E-04    1.3000000E-03   -6.7380000E-04     1.000000        6.2620000E-04    1.3000000E-03   -6.7380000E-04    2.6697602E-03     374.5655    
 p043                 obsgroup      7.5190000E-04    1.5220000E-03   -7.7010000E-04     1.000000        7.5190000E-04    1.5220000E-03   -7.7010000E-04    2.6697602E-03     374.5655    
 p044                 obsgroup      9.6410000E-04    1.7760000E-03   -8.1190000E-04     1.000000        9.6410000E-04    1.7760000E-03   -8.1190000E-04    2.6697602E-03     374.5655    
 p045                 obsgroup      1.1021000E-03    2.0620000E-03   -9.5990000E-04     1.000000        1.1021000E-03    2.0620000E-03   -9.5990000E-04    2.6697602E-03     374.5655    
 p046                 obsgroup      1.2051000E-03    2.3800000E-03   -1.1749000E-03     1.000000        1.2051000E-03    2.3800000E-03   -1.1749000E-03    2.6697602E-03     374.5655    
 p047                 obsgroup      1.4626000E-03    2.7350000E-03   -1.2724000E-03     1.000000        1.4626000E-03    2.7350000E-03   -1.2724000E-03    2.6697602E-03     374.5655    
 p048                 obsgroup      1.8849000E-03    3.1250000E-03   -1.2401000E-03     1.000000        1.8849000E-03    3.1250000E-03   -1.2401000E-03    2.6697602E-03     374.5655    
 p049                 obsgroup      2.6059000E-03    4.0010000E-03   -1.3951000E-03     1.000000        2.6059000E-03    4.0010000E-03   -1.3951000E-03    2.6697602E-03     374.5655    
 p050                 obsgroup      3.6771000E-03    5.2910000E-03   -1.6139000E-03     1.000000        3.6771000E-03    5.2910000E-03   -1.6139000E-03    2.6697602E-03     374.5655    
 p051                 obsgroup      4.6762000E-03    6.4890000E-03   -1.8128000E-03     1.000000        4.6762000E-03    6.4890000E-03   -1.8128000E-03    2.6697602E-03     374.5655    
 p052                 obsgroup      5.8298000E-03    7.8940000E-03   -2.0642000E-03     1.000000        5.8298000E-03    7.8940000E-03   -2.0642000E-03    2.6697602E-03     374.5655    
 p053                 obsgroup      6.6538000E-03    8.7430000E-03   -2.0892000E-03     1.000000        6.6538000E-03    8.7430000E-03   -2.0892000E-03    2.6697602E-03     374.5655    
 p054                 obsgroup      8.1679000E-03    1.0465000E-02   -2.2971000E-03     1.000000        8.1679000E-03    1.0465000E-02   -2.2971000E-03    2.6697602E-03     374.5655    
 p055                 obsgroup      1.0063100E-02    1.2364000E-02   -2.3009000E-03     1.000000        1.0063100E-02    1.2364000E-02   -2.3009000E-03    2.6697602E-03     374.5655    
 p056                 obsgroup      1.1742000E-02    1.4443000E-02   -2.7010000E-03     1.000000        1.1742000E-02    1.4443000E-02   -2.7010000E-03    2.6697602E-03     374.5655    
 p057                 obsgroup      1.3802000E-02    1.6598000E-02   -2.7960000E-03     1.000000        1.3802000E-02    1.6598000E-02   -2.7960000E-03    2.6697602E-03     374.5655    
 p058                 obsgroup      1.5038000E-02    1.8866000E-02   -3.8280000E-03     1.000000        1.5038000E-02    1.8866000E-02   -3.8280000E-03    2.6697602E-03     374.5655    
 p059                 obsgroup      1.8128000E-02    2.1232000E-02   -3.1040000E-03     1.000000        1.8128000E-02    2.1232000E-02   -3.1040000E-03    2.6697602E-03     374.5655    
 p060                 obsgroup      2.0600000E-02    2.2438000E-02   -1.8380000E-03     1.000000        2.0600000E-02    2.2438000E-02   -1.8380000E-03    2.6697602E-03     374.5655    
 p061                 obsgroup      2.3072000E-02    2.4902000E-02   -1.8300000E-03     1.000000        2.3072000E-02    2.4902000E-02   -1.8300000E-03    2.6697602E-03     374.5655    
 p062                 obsgroup      2.9252000E-02    2.7391000E-02    1.8610000E-03     1.000000        2.9252000E-02    2.7391000E-02    1.8610000E-03    2.6697602E-03     374.5655    
 p063                 obsgroup      2.6677000E-02    2.8524000E-02   -1.8470000E-03     1.000000        2.6677000E-02    2.8524000E-02   -1.8470000E-03    2.6697602E-03     374.5655    
 p064                 obsgroup      3.1209000E-02    3.2183000E-02   -9.7400000E-04     1.000000        3.1209000E-02    3.2183000E-02   -9.7400000E-04    2.6697602E-03     374.5655    
 p065                 obsgroup      3.3784000E-02    3.5930000E-02   -2.1460000E-03     1.000000        3.3784000E-02    3.5930000E-02   -2.1460000E-03    2.6697602E-03     374.5655    
 p066                 obsgroup      3.7904000E-02    3.9728000E-02   -1.8240000E-03     1.000000        3.7904000E-02    3.9728000E-02   -1.8240000E-03    2.6697602E-03     374.5655    
 p067                 obsgroup      3.9964000E-02    4.3584000E-02   -3.6200000E-03     1.000000        3.9964000E-02    4.3584000E-02   -3.6200000E-03    2.6697602E-03     374.5655    
 p068                 obsgroup      4.7792000E-02    4.7429000E-02    3.6300000E-04     1.000000        4.7792000E-02    4.7429000E-02    3.6300000E-04    2.6697602E-03     374.5655    
 p069                 obsgroup      4.9852000E-02    4.9870000E-02   -1.8000000E-05     1.000000        4.9852000E-02    4.9870000E-02   -1.8000000E-05    2.6697602E-03     374.5655    
 p070                 obsgroup      5.4487000E-02    5.3430000E-02    1.0570000E-03     1.000000        5.4487000E-02    5.3430000E-02    1.0570000E-03    2.6697602E-03     374.5655    
 p071                 obsgroup      5.8195000E-02    5.6836000E-02    1.3590000E-03     1.000000        5.8195000E-02    5.6836000E-02    1.3590000E-03    2.6697602E-03     374.5655    
 p072                 obsgroup      6.0976000E-02    6.0161000E-02    8.1500000E-04     1.000000        6.0976000E-02    6.0161000E-02    8.1500000E-04    2.6697602E-03     374.5655    
 p073                 obsgroup      6.1903000E-02    6.3337000E-02   -1.4340000E-03     1.000000        6.1903000E-02    6.3337000E-02   -1.4340000E-03    2.6697602E-03     374.5655    
 p074                 obsgroup      6.6229000E-02    6.6415000E-02   -1.8600000E-04     1.000000        6.6229000E-02    6.6415000E-02   -1.8600000E-04    2.6697602E-03     374.5655    
 p075                 obsgroup      7.4572000E-02    6.9343000E-02    5.2290000E-03     1.000000        7.4572000E-02    6.9343000E-02    5.2290000E-03    2.6697602E-03     374.5655    
 p076                 obsgroup      7.6014000E-02    7.2139000E-02    3.8750000E-03     1.000000        7.6014000E-02    7.2139000E-02    3.8750000E-03    2.6697602E-03     374.5655    
 p077                 obsgroup      7.6632000E-02    7.4892000E-02    1.7400000E-03     1.000000        7.6632000E-02    7.4892000E-02    1.7400000E-03    2.6697602E-03     374.5655    
 p078                 obsgroup      8.0031000E-02    7.7580000E-02    2.4510000E-03     1.000000        8.0031000E-02    7.7580000E-02    2.4510000E-03    2.6697602E-03     374.5655    
 p079                 obsgroup      8.1576000E-02    8.0157000E-02    1.4190000E-03     1.000000        8.1576000E-02    8.0157000E-02    1.4190000E-03    2.6697602E-03     374.5655    
 p080                 obsgroup      8.6108000E-02    8.2598000E-02    3.5100000E-03     1.000000        8.6108000E-02    8.2598000E-02    3.5100000E-03    2.6697602E-03     374.5655    
 p081                 obsgroup      9.1155000E-02    8.4933000E-02    6.2220000E-03     1.000000        9.1155000E-02    8.4933000E-02    6.2220000E-03    2.6697602E-03     374.5655    
 p082                 obsgroup      8.6726000E-02    8.7115000E-02   -3.8900000E-04     1.000000        8.6726000E-02    8.7115000E-02   -3.8900000E-04    2.6697602E-03     374.5655    
 p083                 obsgroup      9.5069000E-02    8.9201000E-02    5.8680000E-03     1.000000        9.5069000E-02    8.9201000E-02    5.8680000E-03    2.6697602E-03     374.5655    
 p084                 obsgroup      9.5584000E-02    9.1224000E-02    4.3600000E-03     1.000000        9.5584000E-02    9.1224000E-02    4.3600000E-03    2.6697602E-03     374.5655    
 p085                 obsgroup      9.4348000E-02    9.3186000E-02    1.1620000E-03     1.000000        9.4348000E-02    9.3186000E-02    1.1620000E-03    2.6697602E-03     374.5655    
 p086                 obsgroup      9.5687000E-02    9.5104000E-02    5.8300000E-04     1.000000        9.5687000E-02    9.5104000E-02    5.8300000E-04    2.6697602E-03     374.5655    
 p087                 obsgroup      9.9189000E-02    9.6964000E-02    2.2250000E-03     1.000000        9.9189000E-02    9.6964000E-02    2.2250000E-03    2.6697602E-03     374.5655    
 p088                 obsgroup      9.9292000E-02    0.1004150       -1.1230000E-03     1.000000        9.9292000E-02    0.1004150       -1.1230000E-03    2.6697602E-03     374.5655    
 p089                 obsgroup      0.1050600        0.1020290        3.0310000E-03     1.000000        0.1050600        0.1020290        3.0310000E-03    2.6697602E-03     374.5655    
 p090                 obsgroup      0.1060900        0.1035890        2.5010000E-03     1.000000        0.1060900        0.1035890        2.5010000E-03    2.6697602E-03     374.5655    
 p091                 obsgroup      0.1060900        0.1065150       -4.2500000E-04     1.000000        0.1060900        0.1065150       -4.2500000E-04    2.6697602E-03     374.5655    
 p092                 obsgroup      0.1091800        0.1079020        1.2780000E-03     1.000000        0.1091800        0.1079020        1.2780000E-03    2.6697602E-03     374.5655    
 p093                 obsgroup      0.1081500        0.1092390       -1.0890000E-03     1.000000        0.1081500        0.1092390       -1.0890000E-03    2.6697602E-03     374.5655    
 p094                 obsgroup      0.1122700        0.1105660        1.7040000E-03     1.000000        0.1122700        0.1105660        1.7040000E-03    2.6697602E-03     374.5655    
 p095                 obsgroup      0.1102100        0.1118400       -1.6300000E-03     1.000000        0.1102100        0.1118400       -1.6300000E-03    2.6697602E-03     374.5655    
 p096                 obsgroup      0.1112400        0.1130730       -1.8330000E-03     1.000000        0.1112400        0.1130730       -1.8330000E-03    2.6697602E-03     374.5655    
 p097                 obsgroup      0.1225700        0.1153460        7.2240000E-03     1.000000        0.1225700        0.1153460        7.2240000E-03    2.6697602E-03     374.5655    
 p098                 obsgroup      0.1225700        0.1164000        6.1700000E-03     1.000000        0.1225700        0.1164000        6.1700000E-03    2.6697602E-03     374.5655    
 p099                 obsgroup      0.1246300        0.1174140        7.2160000E-03     1.000000        0.1246300        0.1174140        7.2160000E-03    2.6697602E-03     374.5655    
 p100                 obsgroup      0.1256600        0.1184080        7.2520000E-03     1.000000        0.1256600        0.1184080        7.2520000E-03    2.6697602E-03     374.5655    
 p101                 obsgroup      0.1266900        0.1193590        7.3310000E-03     1.000000        0.1266900        0.1193590        7.3310000E-03    2.6697602E-03     374.5655    
 p102                 obsgroup      0.1256600        0.1202850        5.3750000E-03     1.000000        0.1256600        0.1202850        5.3750000E-03    2.6697602E-03     374.5655    
 p103                 obsgroup      0.1246300        0.1211970        3.4330000E-03     1.000000        0.1246300        0.1211970        3.4330000E-03    2.6697602E-03     374.5655    
 p104                 obsgroup      0.1184500        0.1220920       -3.6420000E-03     1.000000        0.1184500        0.1220920       -3.6420000E-03    2.6697602E-03     374.5655    
 p105                 obsgroup      0.1225700        0.1229460       -3.7600000E-04     1.000000        0.1225700        0.1229460       -3.7600000E-04    2.6697602E-03     374.5655    
 p106                 obsgroup      0.1236000        0.1238000       -2.0000000E-04     1.000000        0.1236000        0.1238000       -2.0000000E-04    2.6697602E-03     374.5655    
 p107                 obsgroup      0.1246300        0.1246270        3.0000000E-06     1.000000        0.1246300        0.1246270        3.0000000E-06    2.6697602E-03     374.5655    
 p108                 obsgroup      0.1287500        0.1254330        3.3170000E-03     1.000000        0.1287500        0.1254330        3.3170000E-03    2.6697602E-03     374.5655    
 p109                 obsgroup      0.1215400        0.1261890       -4.6490000E-03     1.000000        0.1215400        0.1261890       -4.6490000E-03    2.6697602E-03     374.5655    
 p110                 obsgroup      0.1236000        0.1290010       -5.4010000E-03     1.000000        0.1236000        0.1290010       -5.4010000E-03    2.6697602E-03     374.5655    
 p111                 obsgroup      0.1266900        0.1297000       -3.0100000E-03     1.000000        0.1266900        0.1297000       -3.0100000E-03    2.6697602E-03     374.5655    
 p112                 obsgroup      0.1297800        0.1303710       -5.9100000E-04     1.000000        0.1297800        0.1303710       -5.9100000E-04    2.6697602E-03     374.5655    
 p113                 obsgroup      0.1349300        0.1310050        3.9250000E-03     1.000000        0.1349300        0.1310050        3.9250000E-03    2.6697602E-03     374.5655    
 p114                 obsgroup      0.1308100        0.1316120       -8.0200000E-04     1.000000        0.1308100        0.1316120       -8.0200000E-04    2.6697602E-03     374.5655    
 p115                 obsgroup      0.1349300        0.1322070        2.7230000E-03     1.000000        0.1349300        0.1322070        2.7230000E-03    2.6697602E-03     374.5655    
 p116                 obsgroup      0.1318400        0.1327850       -9.4500000E-04     1.000000        0.1318400        0.1327850       -9.4500000E-04    2.6697602E-03     374.5655    
 p117                 obsgroup      0.1380200        0.1338870        4.1330000E-03     1.000000        0.1380200        0.1338870        4.1330000E-03    2.6697602E-03     374.5655    
 p118                 obsgroup      0.1308100        0.1344330       -3.6230000E-03     1.000000        0.1308100        0.1344330       -3.6230000E-03    2.6697602E-03     374.5655    
 p119                 obsgroup      0.1380200        0.1349740        3.0460000E-03     1.000000        0.1380200        0.1349740        3.0460000E-03    2.6697602E-03     374.5655    
 p120                 obsgroup      0.1287500        0.1355100       -6.7600000E-03     1.000000        0.1287500        0.1355100       -6.7600000E-03    2.6697602E-03     374.5655    
 p121                 obsgroup      0.1287500        0.1360400       -7.2900000E-03     1.000000        0.1287500        0.1360400       -7.2900000E-03    2.6697602E-03     374.5655    
 p122                 obsgroup      0.1369900        0.1365440        4.4600000E-04     1.000000        0.1369900        0.1365440        4.4600000E-04    2.6697602E-03     374.5655    
 p123                 obsgroup      0.1349300        0.1370400       -2.1100000E-03     1.000000        0.1349300        0.1370400       -2.1100000E-03    2.6697602E-03     374.5655    
 p124                 obsgroup      0.1411100        0.1375200        3.5900000E-03     1.000000        0.1411100        0.1375200        3.5900000E-03    2.6697602E-03     374.5655    
 p125                 obsgroup      0.1359600        0.1379840       -2.0240000E-03     1.000000        0.1359600        0.1379840       -2.0240000E-03    2.6697602E-03     374.5655    
 p126                 obsgroup      0.1328700        0.1384400       -5.5700000E-03     1.000000        0.1328700        0.1384400       -5.5700000E-03    2.6697602E-03     374.5655    
 p127                 obsgroup      0.1349300        0.1388890       -3.9590000E-03     1.000000        0.1349300        0.1388890       -3.9590000E-03    2.6697602E-03     374.5655    
 p128                 obsgroup      0.1472900        0.1393280        7.9620000E-03     1.000000        0.1472900        0.1393280        7.9620000E-03    2.6697602E-03     374.5655    
 p129                 obsgroup      0.1452300        0.1401310        5.0990000E-03     1.000000        0.1452300        0.1401310        5.0990000E-03    2.6697602E-03     374.5655    
 p130                 obsgroup      0.1411100        0.1405410        5.6900000E-04     1.000000        0.1411100        0.1405410        5.6900000E-04    2.6697602E-03     374.5655    
 p131                 obsgroup      0.1452300        0.1413250        3.9050000E-03     1.000000        0.1452300        0.1413250        3.9050000E-03    2.6697602E-03     374.5655    
 p132                 obsgroup      0.1483200        0.1416960        6.6240000E-03     1.000000        0.1483200        0.1416960        6.6240000E-03    2.6697602E-03     374.5655    
 p133                 obsgroup      0.1483200        0.1420560        6.2640000E-03     1.000000        0.1483200        0.1420560        6.2640000E-03    2.6697602E-03     374.5655    
 p134                 obsgroup      0.1493500        0.1424060        6.9440000E-03     1.000000        0.1493500        0.1424060        6.9440000E-03    2.6697602E-03     374.5655    
 p135                 obsgroup      0.1431700        0.1427500        4.2000000E-04     1.000000        0.1431700        0.1427500        4.2000000E-04    2.6697602E-03     374.5655    
 p136                 obsgroup      0.1483200        0.1430880        5.2320000E-03     1.000000        0.1483200        0.1430880        5.2320000E-03    2.6697602E-03     374.5655    
 p137                 obsgroup      0.1452300        0.1434300        1.8000000E-03     1.000000        0.1452300        0.1434300        1.8000000E-03    2.6697602E-03     374.5655    
 p138                 obsgroup      0.1421400        0.1437740       -1.6340000E-03     1.000000        0.1421400        0.1437740       -1.6340000E-03    2.6697602E-03     374.5655    
 p139                 obsgroup      0.1400800        0.1441180       -4.0380000E-03     1.000000        0.1400800        0.1441180       -4.0380000E-03    2.6697602E-03     374.5655    
 p140                 obsgroup      0.1431700        0.1444520       -1.2820000E-03     1.000000        0.1431700        0.1444520       -1.2820000E-03    2.6697602E-03     374.5655    
 p141                 obsgroup      0.1472900        0.1447760        2.5140000E-03     1.000000        0.1472900        0.1447760        2.5140000E-03    2.6697602E-03     374.5655    
 p142                 obsgroup      0.1462600        0.1450880        1.1720000E-03     1.000000        0.1462600        0.1450880        1.1720000E-03    2.6697602E-03     374.5655    
 p143                 obsgroup      0.1431700        0.1453910       -2.2210000E-03     1.000000        0.1431700        0.1453910       -2.2210000E-03    2.6697602E-03     374.5655    
 p144                 obsgroup      0.1503800        0.1456780        4.7020000E-03     1.000000        0.1503800        0.1456780        4.7020000E-03    2.6697602E-03     374.5655    
 p145                 obsgroup      0.1493500        0.1459650        3.3850000E-03     1.000000        0.1493500        0.1459650        3.3850000E-03    2.6697602E-03     374.5655    
 p146                 obsgroup      0.1514100        0.1465040        4.9060000E-03     1.000000        0.1514100        0.1465040        4.9060000E-03    2.6697602E-03     374.5655    
 p147                 obsgroup      0.1472900        0.1467730        5.1700000E-04     1.000000        0.1472900        0.1467730        5.1700000E-04    2.6697602E-03     374.5655    
 p148                 obsgroup      0.1421400        0.1470430       -4.9030000E-03     1.000000        0.1421400        0.1470430       -4.9030000E-03    2.6697602E-03     374.5655    
 p149                 obsgroup      0.1503800        0.1475540        2.8260000E-03     1.000000        0.1503800        0.1475540        2.8260000E-03    2.6697602E-03     374.5655    
 p150                 obsgroup      0.1503800        0.1478030        2.5770000E-03     1.000000        0.1503800        0.1478030        2.5770000E-03    2.6697602E-03     374.5655    
 p151                 obsgroup      0.1514100        0.1489860        2.4240000E-03     1.000000        0.1514100        0.1489860        2.4240000E-03    2.6697602E-03     374.5655    
 p152                 obsgroup      0.1493500        0.1492310        1.1900000E-04     1.000000        0.1493500        0.1492310        1.1900000E-04    2.6697602E-03     374.5655    
 p153                 obsgroup      0.1431700        0.1494850       -6.3150000E-03     1.000000        0.1431700        0.1494850       -6.3150000E-03    2.6697602E-03     374.5655    
 p154                 obsgroup      0.1472900        0.1495680       -2.2780000E-03     1.000000        0.1472900        0.1495680       -2.2780000E-03    2.6697602E-03     374.5655    
 p155                 obsgroup      0.1472900        0.1497390       -2.4490000E-03     1.000000        0.1472900        0.1497390       -2.4490000E-03    2.6697602E-03     374.5655    
 p156                 obsgroup      0.1462600        0.1500040       -3.7440000E-03     1.000000        0.1462600        0.1500040       -3.7440000E-03    2.6697602E-03     374.5655    
 p157                 obsgroup      0.1483200        0.1501810       -1.8610000E-03     1.000000        0.1483200        0.1501810       -1.8610000E-03    2.6697602E-03     374.5655    
 p158                 obsgroup      0.1555300        0.1511750        4.3550000E-03     1.000000        0.1555300        0.1511750        4.3550000E-03    2.6697602E-03     374.5655    
 p159                 obsgroup      0.1442000        0.1513610       -7.1610000E-03     1.000000        0.1442000        0.1513610       -7.1610000E-03    2.6697602E-03     374.5655    
 p160                 obsgroup      0.1452300        0.1515520       -6.3220000E-03     1.000000        0.1452300        0.1515520       -6.3220000E-03    2.6697602E-03     374.5655    
 p161                 obsgroup      0.1472900        0.1517380       -4.4480000E-03     1.000000        0.1472900        0.1517380       -4.4480000E-03    2.6697602E-03     374.5655    
 p162                 obsgroup      0.1462600        0.1519180       -5.6580000E-03     1.000000        0.1462600        0.1519180       -5.6580000E-03    2.6697602E-03     374.5655    
 p163                 obsgroup      0.1503800        0.1520890       -1.7090000E-03     1.000000        0.1503800        0.1520890       -1.7090000E-03    2.6697602E-03     374.5655    
 p164                 obsgroup      0.1524400        0.1522490        1.9100000E-04     1.000000        0.1524400        0.1522490        1.9100000E-04    2.6697602E-03     374.5655    
 p165                 obsgroup      0.1524400        0.1524000        4.0000000E-05     1.000000        0.1524400        0.1524000        4.0000000E-05    2.6697602E-03     374.5655    
 p166                 obsgroup      0.1493500        0.1525330       -3.1830000E-03     1.000000        0.1493500        0.1525330       -3.1830000E-03    2.6697602E-03     374.5655    
 p167                 obsgroup      0.1545000        0.1528140        1.6860000E-03     1.000000        0.1545000        0.1528140        1.6860000E-03    2.6697602E-03     374.5655    
 p168                 obsgroup      0.1503800        0.1527950       -2.4150000E-03     1.000000        0.1503800        0.1527950       -2.4150000E-03    2.6697602E-03     374.5655    
 p169                 obsgroup      0.1472900        0.1525860       -5.2960000E-03     1.000000        0.1472900        0.1525860       -5.2960000E-03    2.6697602E-03     374.5655    
 p170                 obsgroup      0.1431700        0.1523730       -9.2030000E-03     1.000000        0.1431700        0.1523730       -9.2030000E-03    2.6697602E-03     374.5655    
 p171                 obsgroup      0.1493500        0.1520750       -2.7250000E-03     1.000000        0.1493500        0.1520750       -2.7250000E-03    2.6697602E-03     374.5655    
 p172                 obsgroup      0.1483200        0.1516920       -3.3720000E-03     1.000000        0.1483200        0.1516920       -3.3720000E-03    2.6697602E-03     374.5655    
 p173                 obsgroup      0.1493500        0.1512110       -1.8610000E-03     1.000000        0.1493500        0.1512110       -1.8610000E-03    2.6697602E-03     374.5655    
 p174                 obsgroup      0.1452300        0.1506250       -5.3950000E-03     1.000000        0.1452300        0.1506250       -5.3950000E-03    2.6697602E-03     374.5655    
 p175                 obsgroup      0.1442000        0.1499310       -5.7310000E-03     1.000000        0.1442000        0.1499310       -5.7310000E-03    2.6697602E-03     374.5655    
 p176                 obsgroup      0.1483200        0.1491010       -7.8100000E-04     1.000000        0.1483200        0.1491010       -7.8100000E-04    2.6697602E-03     374.5655    
 p177                 obsgroup      0.1483200        0.1481660        1.5400000E-04     1.000000        0.1483200        0.1481660        1.5400000E-04    2.6697602E-03     374.5655    
 p178                 obsgroup      0.1493500        0.1471050        2.2450000E-03     1.000000        0.1493500        0.1471050        2.2450000E-03    2.6697602E-03     374.5655    
 p179                 obsgroup      0.1442000        0.1459300       -1.7300000E-03     1.000000        0.1442000        0.1459300       -1.7300000E-03    2.6697602E-03     374.5655    
 p180                 obsgroup      0.1400800        0.1446050       -4.5250000E-03     1.000000        0.1400800        0.1446050       -4.5250000E-03    2.6697602E-03     374.5655    
 p181                 obsgroup      0.1421400        0.1431400       -1.0000000E-03     1.000000        0.1421400        0.1431400       -1.0000000E-03    2.6697602E-03     374.5655    
 p182                 obsgroup      0.1411100        0.1415470       -4.3700000E-04     1.000000        0.1411100        0.1415470       -4.3700000E-04    2.6697602E-03     374.5655    
 p183                 obsgroup      0.1380200        0.1398000       -1.7800000E-03     1.000000        0.1380200        0.1398000       -1.7800000E-03    2.6697602E-03     374.5655    
 p184                 obsgroup      0.1339000        0.1378910       -3.9910000E-03     1.000000        0.1339000        0.1378910       -3.9910000E-03    2.6697602E-03     374.5655    
 p185                 obsgroup      0.1297800        0.1358320       -6.0520000E-03     1.000000        0.1297800        0.1358320       -6.0520000E-03    2.6697602E-03     374.5655    
 p186                 obsgroup      0.1287500        0.1336690       -4.9190000E-03     1.000000        0.1287500        0.1336690       -4.9190000E-03    2.6697602E-03     374.5655    
 p187                 obsgroup      0.1277200        0.1314560       -3.7360000E-03     1.000000        0.1277200        0.1314560       -3.7360000E-03    2.6697602E-03     374.5655    
 p188                 obsgroup      0.1266900        0.1291530       -2.4630000E-03     1.000000        0.1266900        0.1291530       -2.4630000E-03    2.6697602E-03     374.5655    
 p189                 obsgroup      0.1236000        0.1268150       -3.2150000E-03     1.000000        0.1236000        0.1268150       -3.2150000E-03    2.6697602E-03     374.5655    
 p190                 obsgroup      0.1246300        0.1246070        2.3000000E-05     1.000000        0.1246300        0.1246070        2.3000000E-05    2.6697602E-03     374.5655    
 p191                 obsgroup      0.1174200        0.1155020        1.9180000E-03     1.000000        0.1174200        0.1155020        1.9180000E-03    2.6697602E-03     374.5655    
 p192                 obsgroup      0.1174200        0.1131790        4.2410000E-03     1.000000        0.1174200        0.1131790        4.2410000E-03    2.6697602E-03     374.5655    
 p193                 obsgroup      0.1133000        0.1108890        2.4110000E-03     1.000000        0.1133000        0.1108890        2.4110000E-03    2.6697602E-03     374.5655    
 p194                 obsgroup      0.1071200        0.1085340       -1.4140000E-03     1.000000        0.1071200        0.1085340       -1.4140000E-03    2.6697602E-03     374.5655    
 p195                 obsgroup      0.1060900        0.1062030       -1.1300000E-04     1.000000        0.1060900        0.1062030       -1.1300000E-04    2.6697602E-03     374.5655    
 p196                 obsgroup      0.1003220        0.1038140       -3.4920000E-03     1.000000        0.1003220        0.1038140       -3.4920000E-03    2.6697602E-03     374.5655    
 p197                 obsgroup      9.7129000E-02    0.1014520       -4.3230000E-03     1.000000        9.7129000E-02    0.1014520       -4.3230000E-03    2.6697602E-03     374.5655    
 p198                 obsgroup      9.5584000E-02    9.9159000E-02   -3.5750000E-03     1.000000        9.5584000E-02    9.9159000E-02   -3.5750000E-03    2.6697602E-03     374.5655    
 p199                 obsgroup      9.7747000E-02    9.6936000E-02    8.1100000E-04     1.000000        9.7747000E-02    9.6936000E-02    8.1100000E-04    2.6697602E-03     374.5655    
 p200                 obsgroup      9.2700000E-02    9.4747000E-02   -2.0470000E-03     1.000000        9.2700000E-02    9.4747000E-02   -2.0470000E-03    2.6697602E-03     374.5655    
 p201                 obsgroup      9.5584000E-02    9.2704000E-02    2.8800000E-03     1.000000        9.5584000E-02    9.2704000E-02    2.8800000E-03    2.6697602E-03     374.5655    
 p202                 obsgroup      9.2906000E-02    9.0695000E-02    2.2110000E-03     1.000000        9.2906000E-02    9.0695000E-02    2.2110000E-03    2.6697602E-03     374.5655    
 p203                 obsgroup      9.0228000E-02    8.8771000E-02    1.4570000E-03     1.000000        9.0228000E-02    8.8771000E-02    1.4570000E-03    2.6697602E-03     374.5655    
 p204                 obsgroup      9.0640000E-02    8.6921000E-02    3.7190000E-03     1.000000        9.0640000E-02    8.6921000E-02    3.7190000E-03    2.6697602E-03     374.5655    
 p205                 obsgroup      9.0743000E-02    8.4171000E-02    6.5720000E-03     1.000000        9.0743000E-02    8.4171000E-02    6.5720000E-03    2.6697602E-03     374.5655    
 p206                 obsgroup      8.8477000E-02    8.1642000E-02    6.8350000E-03     1.000000        8.8477000E-02    8.1642000E-02    6.8350000E-03    2.6697602E-03     374.5655    
 p207                 obsgroup      8.2091000E-02    7.9138000E-02    2.9530000E-03     1.000000        8.2091000E-02    7.9138000E-02    2.9530000E-03    2.6697602E-03     374.5655    
 p208                 obsgroup      7.8898000E-02    7.6710000E-02    2.1880000E-03     1.000000        7.8898000E-02    7.6710000E-02    2.1880000E-03    2.6697602E-03     374.5655    
 p209                 obsgroup      7.7971000E-02    7.4354000E-02    3.6170000E-03     1.000000        7.7971000E-02    7.4354000E-02    3.6170000E-03    2.6697602E-03     374.5655    
 p210                 obsgroup      7.0452000E-02    7.1994000E-02   -1.5420000E-03     1.000000        7.0452000E-02    7.1994000E-02   -1.5420000E-03    2.6697602E-03     374.5655    
 p211                 obsgroup      7.3851000E-02    6.9871000E-02    3.9800000E-03     1.000000        7.3851000E-02    6.9871000E-02    3.9800000E-03    2.6697602E-03     374.5655    
 p212                 obsgroup      7.1379000E-02    6.7868000E-02    3.5110000E-03     1.000000        7.1379000E-02    6.7868000E-02    3.5110000E-03    2.6697602E-03     374.5655    
 p213                 obsgroup      7.0761000E-02    6.5979000E-02    4.7820000E-03     1.000000        7.0761000E-02    6.5979000E-02    4.7820000E-03    2.6697602E-03     374.5655    
 p214                 obsgroup      6.2006000E-02    6.4128000E-02   -2.1220000E-03     1.000000        6.2006000E-02    6.4128000E-02   -2.1220000E-03    2.6697602E-03     374.5655    
 p215                 obsgroup      6.4478000E-02    6.0821000E-02    3.6570000E-03     1.000000        6.4478000E-02    6.0821000E-02    3.6570000E-03    2.6697602E-03     374.5655    
 p216                 obsgroup      6.0564000E-02    5.9210000E-02    1.3540000E-03     1.000000        6.0564000E-02    5.9210000E-02    1.3540000E-03    2.6697602E-03     374.5655    
 p217                 obsgroup      5.6959000E-02    5.7601000E-02   -6.4200000E-04     1.000000        5.6959000E-02    5.7601000E-02   -6.4200000E-04    2.6697602E-03     374.5655    
 p218                 obsgroup      5.6238000E-02    5.4598000E-02    1.6400000E-03     1.000000        5.6238000E-02    5.4598000E-02    1.6400000E-03    2.6697602E-03     374.5655    
 p219                 obsgroup      5.5311000E-02    5.3202000E-02    2.1090000E-03     1.000000        5.5311000E-02    5.3202000E-02    2.1090000E-03    2.6697602E-03     374.5655    
 p220                 obsgroup      5.5723000E-02    5.1927000E-02    3.7960000E-03     1.000000        5.5723000E-02    5.1927000E-02    3.7960000E-03    2.6697602E-03     374.5655    
 p221                 obsgroup      5.4487000E-02    5.0694000E-02    3.7930000E-03     1.000000        5.4487000E-02    5.0694000E-02    3.7930000E-03    2.6697602E-03     374.5655    
 p222                 obsgroup      5.1912000E-02    4.9514000E-02    2.3980000E-03     1.000000        5.1912000E-02    4.9514000E-02    2.3980000E-03    2.6697602E-03     374.5655    
 p223                 obsgroup      5.2427000E-02    4.8371000E-02    4.0560000E-03     1.000000        5.2427000E-02    4.8371000E-02    4.0560000E-03    2.6697602E-03     374.5655    
 p224                 obsgroup      4.8616000E-02    4.7272000E-02    1.3440000E-03     1.000000        4.8616000E-02    4.7272000E-02    1.3440000E-03    2.6697602E-03     374.5655    
 p225                 obsgroup      4.8513000E-02    4.6185000E-02    2.3280000E-03     1.000000        4.8513000E-02    4.6185000E-02    2.3280000E-03    2.6697602E-03     374.5655    
 p226                 obsgroup      4.9337000E-02    4.5104000E-02    4.2330000E-03     1.000000        4.9337000E-02    4.5104000E-02    4.2330000E-03    2.6697602E-03     374.5655    
 p227                 obsgroup      4.4290000E-02    4.4074000E-02    2.1600000E-04     1.000000        4.4290000E-02    4.4074000E-02    2.1600000E-04    2.6697602E-03     374.5655    
 p228                 obsgroup      4.2951000E-02    4.3071000E-02   -1.2000000E-04     1.000000        4.2951000E-02    4.3071000E-02   -1.2000000E-04    2.6697602E-03     374.5655    
 p229                 obsgroup      4.2436000E-02    4.2113000E-02    3.2300000E-04     1.000000        4.2436000E-02    4.2113000E-02    3.2300000E-04    2.6697602E-03     374.5655    
 p230                 obsgroup      4.3054000E-02    4.1200000E-02    1.8540000E-03     1.000000        4.3054000E-02    4.1200000E-02    1.8540000E-03    2.6697602E-03     374.5655    
 p231                 obsgroup      4.3054000E-02    4.0329000E-02    2.7250000E-03     1.000000        4.3054000E-02    4.0329000E-02    2.7250000E-03    2.6697602E-03     374.5655    
 p232                 obsgroup      4.1200000E-02    3.9523000E-02    1.6770000E-03     1.000000        4.1200000E-02    3.9523000E-02    1.6770000E-03    2.6697602E-03     374.5655    
 p233                 obsgroup      4.0479000E-02    3.8747000E-02    1.7320000E-03     1.000000        4.0479000E-02    3.8747000E-02    1.7320000E-03    2.6697602E-03     374.5655    
 p234                 obsgroup      3.9140000E-02    3.7224000E-02    1.9160000E-03     1.000000        3.9140000E-02    3.7224000E-02    1.9160000E-03    2.6697602E-03     374.5655    
 p235                 obsgroup      3.6359000E-02    3.6465000E-02   -1.0600000E-04     1.000000        3.6359000E-02    3.6465000E-02   -1.0600000E-04    2.6697602E-03     374.5655    
 p236                 obsgroup      3.6565000E-02    3.5725000E-02    8.4000000E-04     1.000000        3.6565000E-02    3.5725000E-02    8.4000000E-04    2.6697602E-03     374.5655    
 p237                 obsgroup      3.5123000E-02    3.5008000E-02    1.1500000E-04     1.000000        3.5123000E-02    3.5008000E-02    1.1500000E-04    2.6697602E-03     374.5655    
 p238                 obsgroup      3.3269000E-02    3.4322000E-02   -1.0530000E-03     1.000000        3.3269000E-02    3.4322000E-02   -1.0530000E-03    2.6697602E-03     374.5655    
 p239                 obsgroup      3.2960000E-02    3.3647000E-02   -6.8700000E-04     1.000000        3.2960000E-02    3.3647000E-02   -6.8700000E-04    2.6697602E-03     374.5655    
 p240                 obsgroup      3.2857000E-02    3.2987000E-02   -1.3000000E-04     1.000000        3.2857000E-02    3.2987000E-02   -1.3000000E-04    2.6697602E-03     374.5655    
 p241                 obsgroup      3.2136000E-02    3.2369000E-02   -2.3300000E-04     1.000000        3.2136000E-02    3.2369000E-02   -2.3300000E-04    2.6697602E-03     374.5655    
 p242                 obsgroup      3.2342000E-02    3.1760000E-02    5.8200000E-04     1.000000        3.2342000E-02    3.1760000E-02    5.8200000E-04    2.6697602E-03     374.5655    
 p243                 obsgroup      3.0385000E-02    3.1307000E-02   -9.2200000E-04     1.000000        3.0385000E-02    3.1307000E-02   -9.2200000E-04    2.6697602E-03     374.5655    
 p244                 obsgroup      3.0385000E-02    3.0750000E-02   -3.6500000E-04     1.000000        3.0385000E-02    3.0750000E-02   -3.6500000E-04    2.6697602E-03     374.5655    
 p245                 obsgroup      3.1415000E-02    3.0190000E-02    1.2250000E-03     1.000000        3.1415000E-02    3.0190000E-02    1.2250000E-03    2.6697602E-03     374.5655    
 p246                 obsgroup      2.8737000E-02    2.9634000E-02   -8.9700000E-04     1.000000        2.8737000E-02    2.9634000E-02   -8.9700000E-04    2.6697602E-03     374.5655    
 p247                 obsgroup      2.9355000E-02    2.9101000E-02    2.5400000E-04     1.000000        2.9355000E-02    2.9101000E-02    2.5400000E-04    2.6697602E-03     374.5655    
 p248                 obsgroup      2.7089000E-02    2.8583000E-02   -1.4940000E-03     1.000000        2.7089000E-02    2.8583000E-02   -1.4940000E-03    2.6697602E-03     374.5655    
 p249                 obsgroup      2.5338000E-02    2.8063000E-02   -2.7250000E-03     1.000000        2.5338000E-02    2.8063000E-02   -2.7250000E-03    2.6697602E-03     374.5655    
 p250                 obsgroup      2.8325000E-02    2.7750000E-02    5.7500000E-04     1.000000        2.8325000E-02    2.7750000E-02    5.7500000E-04    2.6697602E-03     374.5655    
 p251                 obsgroup      2.8428000E-02    2.7431000E-02    9.9700000E-04     1.000000        2.8428000E-02    2.7431000E-02    9.9700000E-04    2.6697602E-03     374.5655    
 p252                 obsgroup      2.5853000E-02    2.7115000E-02   -1.2620000E-03     1.000000        2.5853000E-02    2.7115000E-02   -1.2620000E-03    2.6697602E-03     374.5655    
 p253                 obsgroup      2.7707000E-02    2.6813000E-02    8.9400000E-04     1.000000        2.7707000E-02    2.6813000E-02    8.9400000E-04    2.6697602E-03     374.5655    
 p254                 obsgroup      2.7810000E-02    2.6510000E-02    1.3000000E-03     1.000000        2.7810000E-02    2.6510000E-02    1.3000000E-03    2.6697602E-03     374.5655    
 p255                 obsgroup      2.5132000E-02    2.6219000E-02   -1.0870000E-03     1.000000        2.5132000E-02    2.6219000E-02   -1.0870000E-03    2.6697602E-03     374.5655    
 p256                 obsgroup      2.5956000E-02    2.5927000E-02    2.9000000E-05     1.000000        2.5956000E-02    2.5927000E-02    2.9000000E-05    2.6697602E-03     374.5655    
 p257                 obsgroup      2.4514000E-02    2.5379000E-02   -8.6500000E-04     1.000000        2.4514000E-02    2.5379000E-02   -8.6500000E-04    2.6697602E-03     374.5655    
 p258                 obsgroup      2.5029000E-02    2.5100000E-02   -7.1000000E-05     1.000000        2.5029000E-02    2.5100000E-02   -7.1000000E-05    2.6697602E-03     374.5655    
 p259                 obsgroup      2.3484000E-02    2.4538000E-02   -1.0540000E-03     1.000000        2.3484000E-02    2.4538000E-02   -1.0540000E-03    2.6697602E-03     374.5655    
 p260                 obsgroup      2.3896000E-02    2.4262000E-02   -3.6600000E-04     1.000000        2.3896000E-02    2.4262000E-02   -3.6600000E-04    2.6697602E-03     374.5655    
 p261                 obsgroup      2.3175000E-02    2.4000000E-02   -8.2500000E-04     1.000000        2.3175000E-02    2.4000000E-02   -8.2500000E-04    2.6697602E-03     374.5655    
 p262                 obsgroup      2.3896000E-02    2.3496000E-02    4.0000000E-04     1.000000        2.3896000E-02    2.3496000E-02    4.0000000E-04    2.6697602E-03     374.5655    
 p263                 obsgroup      2.2145000E-02    2.3244000E-02   -1.0990000E-03     1.000000        2.2145000E-02    2.3244000E-02   -1.0990000E-03    2.6697602E-03     374.5655    
 p264                 obsgroup      2.2866000E-02    2.3002000E-02   -1.3600000E-04     1.000000        2.2866000E-02    2.3002000E-02   -1.3600000E-04    2.6697602E-03     374.5655    
 p265                 obsgroup      2.2866000E-02    2.2765000E-02    1.0100000E-04     1.000000        2.2866000E-02    2.2765000E-02    1.0100000E-04    2.6697602E-03     374.5655    
 p266                 obsgroup      2.4411000E-02    2.2539000E-02    1.8720000E-03     1.000000        2.4411000E-02    2.2539000E-02    1.8720000E-03    2.6697602E-03     374.5655    
 p267                 obsgroup      1.8643000E-02    2.2257000E-02   -3.6140000E-03     1.000000        1.8643000E-02    2.2257000E-02   -3.6140000E-03    2.6697602E-03     374.5655    
 p268                 obsgroup      2.2763000E-02    2.1878000E-02    8.8500000E-04     1.000000        2.2763000E-02    2.1878000E-02    8.8500000E-04    2.6697602E-03     374.5655    
 p269                 obsgroup      2.1527000E-02    2.1648000E-02   -1.2100000E-04     1.000000        2.1527000E-02    2.1648000E-02   -1.2100000E-04    2.6697602E-03     374.5655    
 p270                 obsgroup      2.0188000E-02    2.1422000E-02   -1.2340000E-03     1.000000        2.0188000E-02    2.1422000E-02   -1.2340000E-03    2.6697602E-03     374.5655    
 p271                 obsgroup      2.0703000E-02    2.1200000E-02   -4.9700000E-04     1.000000        2.0703000E-02    2.1200000E-02   -4.9700000E-04    2.6697602E-03     374.5655    
 p272                 obsgroup      2.0188000E-02    2.0976000E-02   -7.8800000E-04     1.000000        2.0188000E-02    2.0976000E-02   -7.8800000E-04    2.6697602E-03     374.5655    
 p273                 obsgroup      1.9158000E-02    2.0754000E-02   -1.5960000E-03     1.000000        1.9158000E-02    2.0754000E-02   -1.5960000E-03    2.6697602E-03     374.5655    
 p274                 obsgroup      2.0291000E-02    2.0543000E-02   -2.5200000E-04     1.000000        2.0291000E-02    2.0543000E-02   -2.5200000E-04    2.6697602E-03     374.5655    
 p275                 obsgroup      2.0291000E-02    2.0336000E-02   -4.5000000E-05     1.000000        2.0291000E-02    2.0336000E-02   -4.5000000E-05    2.6697602E-03     374.5655    
 p276                 obsgroup      1.9570000E-02    2.0136000E-02   -5.6600000E-04     1.000000        1.9570000E-02    2.0136000E-02   -5.6600000E-04    2.6697602E-03     374.5655    
 p277                 obsgroup      1.9364000E-02    1.9942000E-02   -5.7800000E-04     1.000000        1.9364000E-02    1.9942000E-02   -5.7800000E-04    2.6697602E-03     374.5655    
 p278                 obsgroup      1.9982000E-02    1.9557000E-02    4.2500000E-04     1.000000        1.9982000E-02    1.9557000E-02    4.2500000E-04    2.6697602E-03     374.5655    
 p279                 obsgroup      1.8952000E-02    1.9365000E-02   -4.1300000E-04     1.000000        1.8952000E-02    1.9365000E-02   -4.1300000E-04    2.6697602E-03     374.5655    
 p280                 obsgroup      1.8643000E-02    1.9177000E-02   -5.3400000E-04     1.000000        1.8643000E-02    1.9177000E-02   -5.3400000E-04    2.6697602E-03     374.5655    
 p281                 obsgroup      1.9055000E-02    1.8992000E-02    6.3000000E-05     1.000000        1.9055000E-02    1.8992000E-02    6.3000000E-05    2.6697602E-03     374.5655    
 p282                 obsgroup      1.9982000E-02    1.8491000E-02    1.4910000E-03     1.000000        1.9982000E-02    1.8491000E-02    1.4910000E-03    2.6697602E-03     374.5655    
 p283                 obsgroup      1.9364000E-02    1.8322000E-02    1.0420000E-03     1.000000        1.9364000E-02    1.8322000E-02    1.0420000E-03    2.6697602E-03     374.5655    
 p284                 obsgroup      1.8952000E-02    1.8152000E-02    8.0000000E-04     1.000000        1.8952000E-02    1.8152000E-02    8.0000000E-04    2.6697602E-03     374.5655    
 p285                 obsgroup      1.8334000E-02    1.7988000E-02    3.4600000E-04     1.000000        1.8334000E-02    1.7988000E-02    3.4600000E-04    2.6697602E-03     374.5655    
 p286                 obsgroup      1.9158000E-02    1.7828000E-02    1.3300000E-03     1.000000        1.9158000E-02    1.7828000E-02    1.3300000E-03    2.6697602E-03     374.5655    
 p287                 obsgroup      1.8952000E-02    1.7671000E-02    1.2810000E-03     1.000000        1.8952000E-02    1.7671000E-02    1.2810000E-03    2.6697602E-03     374.5655    
 p288                 obsgroup      1.9364000E-02    1.7519000E-02    1.8450000E-03     1.000000        1.9364000E-02    1.7519000E-02    1.8450000E-03    2.6697602E-03     374.5655    
 p289                 obsgroup      1.8643000E-02    1.7369000E-02    1.2740000E-03     1.000000        1.8643000E-02    1.7369000E-02    1.2740000E-03    2.6697602E-03     374.5655    
 p290                 obsgroup      1.7716000E-02    1.7222000E-02    4.9400000E-04     1.000000        1.7716000E-02    1.7222000E-02    4.9400000E-04    2.6697602E-03     374.5655    
 p291                 obsgroup      1.8025000E-02    1.7072000E-02    9.5300000E-04     1.000000        1.8025000E-02    1.7072000E-02    9.5300000E-04    2.6697602E-03     374.5655    
 p292                 obsgroup      1.6480000E-02    1.6924000E-02   -4.4400000E-04     1.000000        1.6480000E-02    1.6924000E-02   -4.4400000E-04    2.6697602E-03     374.5655    
 p293                 obsgroup      1.7407000E-02    1.6776000E-02    6.3100000E-04     1.000000        1.7407000E-02    1.6776000E-02    6.3100000E-04    2.6697602E-03     374.5655    
 p294                 obsgroup      1.6377000E-02    1.6628000E-02   -2.5100000E-04     1.000000        1.6377000E-02    1.6628000E-02   -2.5100000E-04    2.6697602E-03     374.5655    
 p295                 obsgroup      1.6377000E-02    1.6482000E-02   -1.0500000E-04     1.000000        1.6377000E-02    1.6482000E-02   -1.0500000E-04    2.6697602E-03     374.5655    
 p296                 obsgroup      1.5862000E-02    1.6335000E-02   -4.7300000E-04     1.000000        1.5862000E-02    1.6335000E-02   -4.7300000E-04    2.6697602E-03     374.5655    
 p297                 obsgroup      1.5965000E-02    1.6182000E-02   -2.1700000E-04     1.000000        1.5965000E-02    1.6182000E-02   -2.1700000E-04    2.6697602E-03     374.5655    
 p298                 obsgroup      1.3905000E-02    1.6025000E-02   -2.1200000E-03     1.000000        1.3905000E-02    1.6025000E-02   -2.1200000E-03    2.6697602E-03     374.5655    
 p299                 obsgroup      1.4111000E-02    1.5872000E-02   -1.7610000E-03     1.000000        1.4111000E-02    1.5872000E-02   -1.7610000E-03    2.6697602E-03     374.5655    
 p300                 obsgroup      1.4729000E-02    1.5727000E-02   -9.9800000E-04     1.000000        1.4729000E-02    1.5727000E-02   -9.9800000E-04    2.6697602E-03     374.5655    
 p301                 obsgroup      1.5553000E-02    1.5587000E-02   -3.4000000E-05     1.000000        1.5553000E-02    1.5587000E-02   -3.4000000E-05    2.6697602E-03     374.5655    
 p302                 obsgroup      1.5759000E-02    1.5391000E-02    3.6800000E-04     1.000000        1.5759000E-02    1.5391000E-02    3.6800000E-04    2.6697602E-03     374.5655    
 p303                 obsgroup      1.5656000E-02    1.5197000E-02    4.5900000E-04     1.000000        1.5656000E-02    1.5197000E-02    4.5900000E-04    2.6697602E-03     374.5655    
 p304                 obsgroup      1.5450000E-02    1.5008000E-02    4.4200000E-04     1.000000        1.5450000E-02    1.5008000E-02    4.4200000E-04    2.6697602E-03     374.5655    
 p305                 obsgroup      1.5038000E-02    1.4824000E-02    2.1400000E-04     1.000000        1.5038000E-02    1.4824000E-02    2.1400000E-04    2.6697602E-03     374.5655    
 p306                 obsgroup      1.4317000E-02    1.4640000E-02   -3.2300000E-04     1.000000        1.4317000E-02    1.4640000E-02   -3.2300000E-04    2.6697602E-03     374.5655    
 p307                 obsgroup      1.4626000E-02    1.4457000E-02    1.6900000E-04     1.000000        1.4626000E-02    1.4457000E-02    1.6900000E-04    2.6697602E-03     374.5655    
 p308                 obsgroup      1.2257000E-02    1.4265000E-02   -2.0080000E-03     1.000000        1.2257000E-02    1.4265000E-02   -2.0080000E-03    2.6697602E-03     374.5655    
 p309                 obsgroup      1.3802000E-02    1.4088000E-02   -2.8600000E-04     1.000000        1.3802000E-02    1.4088000E-02   -2.8600000E-04    2.6697602E-03     374.5655    
 p310                 obsgroup      1.3390000E-02    1.3909000E-02   -5.1900000E-04     1.000000        1.3390000E-02    1.3909000E-02   -5.1900000E-04    2.6697602E-03     374.5655    
 p311                 obsgroup      1.3905000E-02    1.3738000E-02    1.6700000E-04     1.000000        1.3905000E-02    1.3738000E-02    1.6700000E-04    2.6697602E-03     374.5655    
 p312                 obsgroup      1.3802000E-02    1.3573000E-02    2.2900000E-04     1.000000        1.3802000E-02    1.3573000E-02    2.2900000E-04    2.6697602E-03     374.5655    
 p313                 obsgroup      1.3699000E-02    1.3410000E-02    2.8900000E-04     1.000000        1.3699000E-02    1.3410000E-02    2.8900000E-04    2.6697602E-03     374.5655    
 p314                 obsgroup      1.0403000E-02    1.3244000E-02   -2.8410000E-03     1.000000        1.0403000E-02    1.3244000E-02   -2.8410000E-03    2.6697602E-03     374.5655    
 p315                 obsgroup      1.3184000E-02    1.3093000E-02    9.1000000E-05     1.000000        1.3184000E-02    1.3093000E-02    9.1000000E-05    2.6697602E-03     374.5655    
 p316                 obsgroup      1.2566000E-02    1.2933000E-02   -3.6700000E-04     1.000000        1.2566000E-02    1.2933000E-02   -3.6700000E-04    2.6697602E-03     374.5655    
 p317                 obsgroup      1.4008000E-02    1.2777000E-02    1.2310000E-03     1.000000        1.4008000E-02    1.2777000E-02    1.2310000E-03    2.6697602E-03     374.5655    
 p318                 obsgroup      1.2360000E-02    1.2620000E-02   -2.6000000E-04     1.000000        1.2360000E-02    1.2620000E-02   -2.6000000E-04    2.6697602E-03     374.5655    
 p319                 obsgroup      1.2463000E-02    1.2465000E-02   -2.0000000E-06     1.000000        1.2463000E-02    1.2465000E-02   -2.0000000E-06    2.6697602E-03     374.5655    
 p320                 obsgroup      1.2154000E-02    1.2312000E-02   -1.5800000E-04     1.000000        1.2154000E-02    1.2312000E-02   -1.5800000E-04    2.6697602E-03     374.5655    
 p321                 obsgroup      1.2566000E-02    1.2165000E-02    4.0100000E-04     1.000000        1.2566000E-02    1.2165000E-02    4.0100000E-04    2.6697602E-03     374.5655    
 p322                 obsgroup      1.1845000E-02    1.2026000E-02   -1.8100000E-04     1.000000        1.1845000E-02    1.2026000E-02   -1.8100000E-04    2.6697602E-03     374.5655    
 p323                 obsgroup      1.1742000E-02    1.1891000E-02   -1.4900000E-04     1.000000        1.1742000E-02    1.1891000E-02   -1.4900000E-04    2.6697602E-03     374.5655    
 p324                 obsgroup      1.1948000E-02    1.1757000E-02    1.9100000E-04     1.000000        1.1948000E-02    1.1757000E-02    1.9100000E-04    2.6697602E-03     374.5655    
 p325                 obsgroup      1.1742000E-02    1.1628000E-02    1.1400000E-04     1.000000        1.1742000E-02    1.1628000E-02    1.1400000E-04    2.6697602E-03     374.5655    
 p326                 obsgroup      1.2051000E-02    1.1256000E-02    7.9500000E-04     1.000000        1.2051000E-02    1.1256000E-02    7.9500000E-04    2.6697602E-03     374.5655    
 p327                 obsgroup      1.1536000E-02    1.1131000E-02    4.0500000E-04     1.000000        1.1536000E-02    1.1131000E-02    4.0500000E-04    2.6697602E-03     374.5655    
 p328                 obsgroup      1.1021000E-02    1.1010000E-02    1.1000000E-05     1.000000        1.1021000E-02    1.1010000E-02    1.1000000E-05    2.6697602E-03     374.5655    
 p329                 obsgroup      1.1330000E-02    1.0892000E-02    4.3800000E-04     1.000000        1.1330000E-02    1.0892000E-02    4.3800000E-04    2.6697602E-03     374.5655    
 p330                 obsgroup      1.0073400E-02    1.0772000E-02   -6.9860000E-04     1.000000        1.0073400E-02    1.0772000E-02   -6.9860000E-04    2.6697602E-03     374.5655    
 p331                 obsgroup      1.1227000E-02    1.0658000E-02    5.6900000E-04     1.000000        1.1227000E-02    1.0658000E-02    5.6900000E-04    2.6697602E-03     374.5655    
 p332                 obsgroup      1.0403000E-02    1.0405000E-02   -2.0000000E-06     1.000000        1.0403000E-02    1.0405000E-02   -2.0000000E-06    2.6697602E-03     374.5655    
 p333                 obsgroup      9.4348000E-03    1.0295000E-02   -8.6020000E-04     1.000000        9.4348000E-03    1.0295000E-02   -8.6020000E-04    2.6697602E-03     374.5655    
 p334                 obsgroup      1.0155800E-02    1.0181000E-02   -2.5200000E-05     1.000000        1.0155800E-02    1.0181000E-02   -2.5200000E-05    2.6697602E-03     374.5655    
 p335                 obsgroup      9.9601000E-03    1.0070000E-02   -1.0990000E-04     1.000000        9.9601000E-03    1.0070000E-02   -1.0990000E-04    2.6697602E-03     374.5655    
 p336                 obsgroup      9.6408000E-03    9.9610000E-03   -3.2020000E-04     1.000000        9.6408000E-03    9.9610000E-03   -3.2020000E-04    2.6697602E-03     374.5655    
 p337                 obsgroup      1.0712000E-02    9.8550000E-03    8.5700000E-04     1.000000        1.0712000E-02    9.8550000E-03    8.5700000E-04    2.6697602E-03     374.5655    
 p338                 obsgroup      1.0073400E-02    9.7530000E-03    3.2040000E-04     1.000000        1.0073400E-02    9.7530000E-03    3.2040000E-04    2.6697602E-03     374.5655    
 p339                 obsgroup      9.6820000E-03    9.6520000E-03    3.0000000E-05     1.000000        9.6820000E-03    9.6520000E-03    3.0000000E-05    2.6697602E-03     374.5655    
 p340                 obsgroup      1.0506000E-02    9.5540000E-03    9.5200000E-04     1.000000        1.0506000E-02    9.5540000E-03    9.5200000E-04    2.6697602E-03     374.5655    
 p341                 obsgroup      1.0073400E-02    9.4570000E-03    6.1640000E-04     1.000000        1.0073400E-02    9.4570000E-03    6.1640000E-04    2.6697602E-03     374.5655    
 p342                 obsgroup      9.8983000E-03    9.3590000E-03    5.3930000E-04     1.000000        9.8983000E-03    9.3590000E-03    5.3930000E-04    2.6697602E-03     374.5655    
 p343                 obsgroup      9.0537000E-03    9.2600000E-03   -2.0630000E-04     1.000000        9.0537000E-03    9.2600000E-03   -2.0630000E-04    2.6697602E-03     374.5655    
