 Name                 Group          Measured         Modelled         Residual         Weight       Weight*Measured    Weight*Modelled  Weight*Residual  Measurement_sd   Natural_weight
 p001                 obsgroup      5.4380000E-04    5.0000000E-04    4.3800000E-05     1.000000        5.4380000E-04    5.0000000E-04    4.3800000E-05    1.3291424E-03     752.3648    
 p002                 obsgroup      6.0250000E-04    5.0000000E-04    1.0250000E-04     1.000000        6.0250000E-04    5.0000000E-04    1.0250000E-04    1.3291424E-03     752.3648    
 p003                 obsgroup      5.5830000E-04    5.0000000E-04    5.8300000E-05     1.000000        5.5830000E-04    5.0000000E-04    5.8300000E-05    1.3291424E-03     752.3648    
 p004                 obsgroup      5.0370000E-04    5.0000000E-04    3.7000000E-06     1.000000        5.0370000E-04    5.0000000E-04    3.7000000E-06    1.3291424E-03     752.3648    
 p005                 obsgroup      5.4900000E-04    5.0000000E-04    4.9000000E-05     1.000000        5.4900000E-04    5.0000000E-04    4.9000000E-05    1.3291424E-03     752.3648    
 p006                 obsgroup      5.2530000E-04    5.0000000E-04    2.5300000E-05     1.000000        5.2530000E-04    5.0000000E-04    2.5300000E-05    1.3291424E-03     752.3648    
 p007                 obsgroup      5.4690000E-04    5.0000000E-04    4.6900000E-05     1.000000        5.4690000E-04    5.0000000E-04    4.6900000E-05    1.3291424E-03     752.3648    
 p008                 obsgroup      4.9750000E-04    5.0000000E-04   -2.5000000E-06     1.000000        4.9750000E-04    5.0000000E-04   -2.5000000E-06    1.3291424E-03     752.3648    
 p009                 obsgroup      4.9130000E-04    5.0000000E-04   -8.7000000E-06     1.000000        4.9130000E-04    5.0000000E-04   -8.7000000E-06    1.3291424E-03     752.3648    
 p010                 obsgroup      5.2120000E-04    5.0000000E-04    2.1200000E-05     1.000000        5.2120000E-04    5.0000000E-04    2.1200000E-05    1.3291424E-03     752.3648    
 p011                 obsgroup      5.2220000E-04    5.0000000E-04    2.2200000E-05     1.000000        5.2220000E-04    5.0000000E-04    2.2200000E-05    1.3291424E-03     752.3648    
 p012                 obsgroup      5.4490000E-04    5.0000000E-04    4.4900000E-05     1.000000        5.4490000E-04    5.0000000E-04    4.4900000E-05    1.3291424E-03     752.3648    
 p013                 obsgroup      5.2940000E-04    5.0000000E-04    2.9400000E-05     1.000000        5.2940000E-04    5.0000000E-04    2.9400000E-05    1.3291424E-03     752.3648    
 p014                 obsgroup      5.1810000E-04    5.0000000E-04    1.8100000E-05     1.000000        5.1810000E-04    5.0000000E-04    1.8100000E-05    1.3291424E-03     752.3648    
 p015                 obsgroup      4.9750000E-04    5.0100000E-04   -3.5000000E-06     1.000000        4.9750000E-04    5.0100000E-04   -3.5000000E-06    1.3291424E-03     752.3648    
 p016                 obsgroup      5.7580000E-04    5.0300000E-04    7.2800000E-05     1.000000        5.7580000E-04    5.0300000E-04    7.2800000E-05    1.3291424E-03     752.3648    
 p017                 obsgroup      5.1090000E-04    5.0500000E-04    5.9000000E-06     1.000000        5.1090000E-04    5.0500000E-04    5.9000000E-06    1.3291424E-03     752.3648    
 p018                 obsgroup      4.9950000E-04    5.0800000E-04   -8.5000000E-06     1.000000        4.9950000E-04    5.0800000E-04   -8.5000000E-06    1.3291424E-03     752.3648    
 p019                 obsgroup      5.2430000E-04    5.1300000E-04    1.1300000E-05     1.000000        5.2430000E-04    5.1300000E-04    1.1300000E-05    1.3291424E-03     752.3648    
 p020                 obsgroup      4.1510000E-04    5.2000000E-04   -1.0490000E-04     1.000000        4.1510000E-04    5.2000000E-04   -1.0490000E-04    1.3291424E-03     752.3648    
 p021                 obsgroup      5.3150000E-04    5.3100000E-04    5.0000000E-07     1.000000        5.3150000E-04    5.3100000E-04    5.0000000E-07    1.3291424E-03     752.3648    
 p022                 obsgroup      5.5310000E-04    5.4500000E-04    8.1000000E-06     1.000000        5.5310000E-04    5.4500000E-04    8.1000000E-06    1.3291424E-03     752.3648    
 p023                 obsgroup      5.4490000E-04    5.6300000E-04   -1.8100000E-05     1.000000        5.4490000E-04    5.6300000E-04   -1.8100000E-05    1.3291424E-03     752.3648    
 p024                 obsgroup      5.4690000E-04    5.8800000E-04   -4.1100000E-05     1.000000        5.4690000E-04    5.8800000E-04   -4.1100000E-05    1.3291424E-03     752.3648    
 p025                 obsgroup      5.4590000E-04    6.1800000E-04   -7.2100000E-05     1.000000        5.4590000E-04    6.1800000E-04   -7.2100000E-05    1.3291424E-03     752.3648    
 p026                 obsgroup      6.0670000E-04    6.5600000E-04   -4.9300000E-05     1.000000        6.0670000E-04    6.5600000E-04   -4.9300000E-05    1.3291424E-03     752.3648    
 p027                 obsgroup      5.9640000E-04    7.0200000E-04   -1.0560000E-04     1.000000        5.9640000E-04    7.0200000E-04   -1.0560000E-04    1.3291424E-03     752.3648    
 p028                 obsgroup      6.0670000E-04    7.5800000E-04   -1.5130000E-04     1.000000        6.0670000E-04    7.5800000E-04   -1.5130000E-04    1.3291424E-03     752.3648    
 p029                 obsgroup      6.1490000E-04    8.2600000E-04   -2.1110000E-04     1.000000        6.1490000E-04    8.2600000E-04   -2.1110000E-04    1.3291424E-03     752.3648    
 p030                 obsgroup      6.8390000E-04    9.0500000E-04   -2.2110000E-04     1.000000        6.8390000E-04    9.0500000E-04   -2.2110000E-04    1.3291424E-03     752.3648    
 p031                 obsgroup      7.0860000E-04    9.9700000E-04   -2.8840000E-04     1.000000        7.0860000E-04    9.9700000E-04   -2.8840000E-04    1.3291424E-03     752.3648    
 p032                 obsgroup      7.4880000E-04    1.1050000E-03   -3.5620000E-04     1.000000        7.4880000E-04    1.1050000E-03   -3.5620000E-04    1.3291424E-03     752.3648    
 p033                 obsgroup      8.6730000E-04    1.2250000E-03   -3.5770000E-04     1.000000        8.6730000E-04    1.2250000E-03   -3.5770000E-04    1.3291424E-03     752.3648    
 p034                 obsgroup      8.7140000E-04    1.3580000E-03   -4.8660000E-04     1.000000        8.7140000E-04    1.3580000E-03   -4.8660000E-04    1.3291424E-03     752.3648    
 p035                 obsgroup      9.9500000E-04    1.5110000E-03   -5.1600000E-04     1.000000        9.9500000E-04    1.5110000E-03   -5.1600000E-04    1.3291424E-03     752.3648    
 p036                 obsgroup      1.0300000E-03    1.6790000E-03   -6.4900000E-04     1.000000        1.0300000E-03    1.6790000E-03   -6.4900000E-04    1.3291424E-03     752.3648    
 p037                 obsgroup      1.2051000E-03    1.8680000E-03   -6.6290000E-04     1.000000        1.2051000E-03    1.8680000E-03   -6.6290000E-04    1.3291424E-03     752.3648    
 p038                 obsgroup      1.4111000E-03    2.0750000E-03   -6.6390000E-04     1.000000        1.4111000E-03    2.0750000E-03   -6.6390000E-04    1.3291424E-03     752.3648    
 p039                 obsgroup      1.5656000E-03    2.3000000E-03   -7.3440000E-04     1.000000        1.5656000E-03    2.3000000E-03   -7.3440000E-04    1.3291424E-03     752.3648    
 p040                 obsgroup      1.7201000E-03    2.5470000E-03   -8.2690000E-04     1.000000        1.7201000E-03    2.5470000E-03   -8.2690000E-04    1.3291424E-03     752.3648    
 p041                 obsgroup      1.9261000E-03    2.8130000E-03   -8.8690000E-04     1.000000        1.9261000E-03    2.8130000E-03   -8.8690000E-04    1.3291424E-03     752.3648    
 p042                 obsgroup      2.2557000E-03    3.1000000E-03   -8.4430000E-04     1.000000        2.2557000E-03    3.1000000E-03   -8.4430000E-04    1.3291424E-03     752.3648    
 p043                 obsgroup      2.5029000E-03    3.4040000E-03   -9.0110000E-04     1.000000        2.5029000E-03    3.4040000E-03   -9.0110000E-04    1.3291424E-03     752.3648    
 p044                 obsgroup      2.8428000E-03    3.7260000E-03   -8.8320000E-04     1.000000        2.8428000E-03    3.7260000E-03   -8.8320000E-04    1.3291424E-03     752.3648    
 p045                 obsgroup      3.0797000E-03    4.0690000E-03   -9.8930000E-04     1.000000        3.0797000E-03    4.0690000E-03   -9.8930000E-04    1.3291424E-03     752.3648    
 p046                 obsgroup      3.5123000E-03    4.4340000E-03   -9.2170000E-04     1.000000        3.5123000E-03    4.4340000E-03   -9.2170000E-04    1.3291424E-03     752.3648    
 p047                 obsgroup      3.7286000E-03    4.8220000E-03   -1.0934000E-03     1.000000        3.7286000E-03    4.8220000E-03   -1.0934000E-03    1.3291424E-03     752.3648    
 p048                 obsgroup      4.2333000E-03    5.2240000E-03   -9.9070000E-04     1.000000        4.2333000E-03    5.2240000E-03   -9.9070000E-04    1.3291424E-03     752.3648    
 p049                 obsgroup      4.7174000E-03    5.6420000E-03   -9.2460000E-04     1.000000        4.7174000E-03    5.6420000E-03   -9.2460000E-04    1.3291424E-03     752.3648    
 p050                 obsgroup      4.9543000E-03    6.0890000E-03   -1.1347000E-03     1.000000        4.9543000E-03    6.0890000E-03   -1.1347000E-03    1.3291424E-03     752.3648    
 p051                 obsgroup      5.5414000E-03    6.5590000E-03   -1.0176000E-03     1.000000        5.5414000E-03    6.5590000E-03   -1.0176000E-03    1.3291424E-03     752.3648    
 p052                 obsgroup      5.8195000E-03    7.0510000E-03   -1.2315000E-03     1.000000        5.8195000E-03    7.0510000E-03   -1.2315000E-03    1.3291424E-03     752.3648    
 p053                 obsgroup      6.5817000E-03    7.5580000E-03   -9.7630000E-04     1.000000        6.5817000E-03    7.5580000E-03   -9.7630000E-04    1.3291424E-03     752.3648    
 p054                 obsgroup      7.2718000E-03    8.0740000E-03   -8.0220000E-04     1.000000        7.2718000E-03    8.0740000E-03   -8.0220000E-04    1.3291424E-03     752.3648    
 p055                 obsgroup      7.4469000E-03    8.6080000E-03   -1.1611000E-03     1.000000        7.4469000E-03    8.6080000E-03   -1.1611000E-03    1.3291424E-03     752.3648    
 p056                 obsgroup      8.2915000E-03    9.1650000E-03   -8.7350000E-04     1.000000        8.2915000E-03    9.1650000E-03   -8.7350000E-04    1.3291424E-03     752.3648    
 p057                 obsgroup      8.9507000E-03    9.7360000E-03   -7.8530000E-04     1.000000        8.9507000E-03    9.7360000E-03   -7.8530000E-04    1.3291424E-03     752.3648    
 p058                 obsgroup      9.0434000E-03    1.0324000E-02   -1.2806000E-03     1.000000        9.0434000E-03    1.0324000E-02   -1.2806000E-03    1.3291424E-03     752.3648    
 p059                 obsgroup      9.6305000E-03    1.0934000E-02   -1.3035000E-03     1.000000        9.6305000E-03    1.0934000E-02   -1.3035000E-03    1.3291424E-03     752.3648    
 p060                 obsgroup      1.0609000E-02    1.1551000E-02   -9.4200000E-04     1.000000        1.0609000E-02    1.1551000E-02   -9.4200000E-04    1.3291424E-03     752.3648    
 p061                 obsgroup      1.1433000E-02    1.2175000E-02   -7.4200000E-04     1.000000        1.1433000E-02    1.2175000E-02   -7.4200000E-04    1.3291424E-03     752.3648    
 p062                 obsgroup      1.2257000E-02    1.2820000E-02   -5.6300000E-04     1.000000        1.2257000E-02    1.2820000E-02   -5.6300000E-04    1.3291424E-03     752.3648    
 p063                 obsgroup      1.2772000E-02    1.3483000E-02   -7.1100000E-04     1.000000        1.2772000E-02    1.3483000E-02   -7.1100000E-04    1.3291424E-03     752.3648    
 p064                 obsgroup      1.2875000E-02    1.4156000E-02   -1.2810000E-03     1.000000        1.2875000E-02    1.4156000E-02   -1.2810000E-03    1.3291424E-03     752.3648    
 p065                 obsgroup      1.4214000E-02    1.4838000E-02   -6.2400000E-04     1.000000        1.4214000E-02    1.4838000E-02   -6.2400000E-04    1.3291424E-03     752.3648    
 p066                 obsgroup      1.6583000E-02    1.6952000E-02   -3.6900000E-04     1.000000        1.6583000E-02    1.6952000E-02   -3.6900000E-04    1.3291424E-03     752.3648    
 p067                 obsgroup      2.1321000E-02    2.1398000E-02   -7.7000000E-05     1.000000        2.1321000E-02    2.1398000E-02   -7.7000000E-05    1.3291424E-03     752.3648    
 p068                 obsgroup      2.3484000E-02    2.3727000E-02   -2.4300000E-04     1.000000        2.3484000E-02    2.3727000E-02   -2.4300000E-04    1.3291424E-03     752.3648    
 p069                 obsgroup      2.7295000E-02    2.6068000E-02    1.2270000E-03     1.000000        2.7295000E-02    2.6068000E-02    1.2270000E-03    1.3291424E-03     752.3648    
 p070                 obsgroup      3.0179000E-02    2.8466000E-02    1.7130000E-03     1.000000        3.0179000E-02    2.8466000E-02    1.7130000E-03    1.3291424E-03     752.3648    
 p071                 obsgroup      3.1209000E-02    3.0856000E-02    3.5300000E-04     1.000000        3.1209000E-02    3.0856000E-02    3.5300000E-04    1.3291424E-03     752.3648    
 p072                 obsgroup      3.3475000E-02    3.3230000E-02    2.4500000E-04     1.000000        3.3475000E-02    3.3230000E-02    2.4500000E-04    1.3291424E-03     752.3648    
 p073                 obsgroup      3.6153000E-02    3.5616000E-02    5.3700000E-04     1.000000        3.6153000E-02    3.5616000E-02    5.3700000E-04    1.3291424E-03     752.3648    
 p074                 obsgroup      4.0273000E-02    3.7965000E-02    2.3080000E-03     1.000000        4.0273000E-02    3.7965000E-02    2.3080000E-03    1.3291424E-03     752.3648    
 p075                 obsgroup      4.2333000E-02    4.0277000E-02    2.0560000E-03     1.000000        4.2333000E-02    4.0277000E-02    2.0560000E-03    1.3291424E-03     752.3648    
 p076                 obsgroup      4.3466000E-02    4.2596000E-02    8.7000000E-04     1.000000        4.3466000E-02    4.2596000E-02    8.7000000E-04    1.3291424E-03     752.3648    
 p077                 obsgroup      4.9131000E-02    4.7018000E-02    2.1130000E-03     1.000000        4.9131000E-02    4.7018000E-02    2.1130000E-03    1.3291424E-03     752.3648    
 p078                 obsgroup      5.2839000E-02    5.1573000E-02    1.2660000E-03     1.000000        5.2839000E-02    5.1573000E-02    1.2660000E-03    1.3291424E-03     752.3648    
 p079                 obsgroup      5.4796000E-02    5.3628000E-02    1.1680000E-03     1.000000        5.4796000E-02    5.3628000E-02    1.1680000E-03    1.3291424E-03     752.3648    
 p080                 obsgroup      5.5105000E-02    5.5628000E-02   -5.2300000E-04     1.000000        5.5105000E-02    5.5628000E-02   -5.2300000E-04    1.3291424E-03     752.3648    
 p081                 obsgroup      5.9122000E-02    5.7490000E-02    1.6320000E-03     1.000000        5.9122000E-02    5.7490000E-02    1.6320000E-03    1.3291424E-03     752.3648    
 p082                 obsgroup      6.1697000E-02    5.9341000E-02    2.3560000E-03     1.000000        6.1697000E-02    5.9341000E-02    2.3560000E-03    1.3291424E-03     752.3648    
 p083                 obsgroup      6.1903000E-02    6.1160000E-02    7.4300000E-04     1.000000        6.1903000E-02    6.1160000E-02    7.4300000E-04    1.3291424E-03     752.3648    
 p084                 obsgroup      6.5508000E-02    6.2890000E-02    2.6180000E-03     1.000000        6.5508000E-02    6.2890000E-02    2.6180000E-03    1.3291424E-03     752.3648    
 p085                 obsgroup      6.5199000E-02    6.4565000E-02    6.3400000E-04     1.000000        6.5199000E-02    6.4565000E-02    6.3400000E-04    1.3291424E-03     752.3648    
 p086                 obsgroup      6.5199000E-02    6.6197000E-02   -9.9800000E-04     1.000000        6.5199000E-02    6.6197000E-02   -9.9800000E-04    1.3291424E-03     752.3648    
 p087                 obsgroup      7.0452000E-02    6.7750000E-02    2.7020000E-03     1.000000        7.0452000E-02    6.7750000E-02    2.7020000E-03    1.3291424E-03     752.3648    
 p088                 obsgroup      6.9319000E-02    6.9251000E-02    6.8000000E-05     1.000000        6.9319000E-02    6.9251000E-02    6.8000000E-05    1.3291424E-03     752.3648    
 p089                 obsgroup      7.1997000E-02    7.0684000E-02    1.3130000E-03     1.000000        7.1997000E-02    7.0684000E-02    1.3130000E-03    1.3291424E-03     752.3648    
 p090                 obsgroup      7.1585000E-02    7.2078000E-02   -4.9300000E-04     1.000000        7.1585000E-02    7.2078000E-02   -4.9300000E-04    1.3291424E-03     752.3648    
 p091                 obsgroup      7.4675000E-02    7.3425000E-02    1.2500000E-03     1.000000        7.4675000E-02    7.3425000E-02    1.2500000E-03    1.3291424E-03     752.3648    
 p092                 obsgroup      7.3954000E-02    7.4702000E-02   -7.4800000E-04     1.000000        7.3954000E-02    7.4702000E-02   -7.4800000E-04    1.3291424E-03     752.3648    
 p093                 obsgroup      7.4984000E-02    7.5936000E-02   -9.5200000E-04     1.000000        7.4984000E-02    7.5936000E-02   -9.5200000E-04    1.3291424E-03     752.3648    
 p094                 obsgroup      7.7456000E-02    7.7110000E-02    3.4600000E-04     1.000000        7.7456000E-02    7.7110000E-02    3.4600000E-04    1.3291424E-03     752.3648    
 p095                 obsgroup      7.6220000E-02    7.8251000E-02   -2.0310000E-03     1.000000        7.6220000E-02    7.8251000E-02   -2.0310000E-03    1.3291424E-03     752.3648    
 p096                 obsgroup      8.1370000E-02    7.9435000E-02    1.9350000E-03     1.000000        8.1370000E-02    7.9435000E-02    1.9350000E-03    1.3291424E-03     752.3648    
 p097                 obsgroup      8.1164000E-02    8.0470000E-02    6.9400000E-04     1.000000        8.1164000E-02    8.0470000E-02    6.9400000E-04    1.3291424E-03     752.3648    
 p098                 obsgroup      8.2297000E-02    8.1459000E-02    8.3800000E-04     1.000000        8.2297000E-02    8.1459000E-02    8.3800000E-04    1.3291424E-03     752.3648    
 p099                 obsgroup      8.1885000E-02    8.2426000E-02   -5.4100000E-04     1.000000        8.1885000E-02    8.2426000E-02   -5.4100000E-04    1.3291424E-03     752.3648    
 p100                 obsgroup      8.1576000E-02    8.3352000E-02   -1.7760000E-03     1.000000        8.1576000E-02    8.3352000E-02   -1.7760000E-03    1.3291424E-03     752.3648    
 p101                 obsgroup      8.2606000E-02    8.4245000E-02   -1.6390000E-03     1.000000        8.2606000E-02    8.4245000E-02   -1.6390000E-03    1.3291424E-03     752.3648    
 p102                 obsgroup      8.4975000E-02    8.5100000E-02   -1.2500000E-04     1.000000        8.4975000E-02    8.5100000E-02   -1.2500000E-04    1.3291424E-03     752.3648    
 p103                 obsgroup      8.6005000E-02    8.5921000E-02    8.4000000E-05     1.000000        8.6005000E-02    8.5921000E-02    8.4000000E-05    1.3291424E-03     752.3648    
 p104                 obsgroup      8.0443000E-02    8.6714000E-02   -6.2710000E-03     1.000000        8.0443000E-02    8.6714000E-02   -6.2710000E-03    1.3291424E-03     752.3648    
 p105                 obsgroup      8.6211000E-02    8.7455000E-02   -1.2440000E-03     1.000000        8.6211000E-02    8.7455000E-02   -1.2440000E-03    1.3291424E-03     752.3648    
 p106                 obsgroup      8.7138000E-02    8.8176000E-02   -1.0380000E-03     1.000000        8.7138000E-02    8.8176000E-02   -1.0380000E-03    1.3291424E-03     752.3648    
 p107                 obsgroup      8.8889000E-02    8.8870000E-02    1.9000000E-05     1.000000        8.8889000E-02    8.8870000E-02    1.9000000E-05    1.3291424E-03     752.3648    
 p108                 obsgroup      9.0537000E-02    8.9535000E-02    1.0020000E-03     1.000000        9.0537000E-02    8.9535000E-02    1.0020000E-03    1.3291424E-03     752.3648    
 p109                 obsgroup      8.8992000E-02    9.0171000E-02   -1.1790000E-03     1.000000        8.8992000E-02    9.0171000E-02   -1.1790000E-03    1.3291424E-03     752.3648    
 p110                 obsgroup      9.0228000E-02    9.0785000E-02   -5.5700000E-04     1.000000        9.0228000E-02    9.0785000E-02   -5.5700000E-04    1.3291424E-03     752.3648    
 p111                 obsgroup      8.9816000E-02    9.1380000E-02   -1.5640000E-03     1.000000        8.9816000E-02    9.1380000E-02   -1.5640000E-03    1.3291424E-03     752.3648    
 p112                 obsgroup      9.1361000E-02    9.1950000E-02   -5.8900000E-04     1.000000        9.1361000E-02    9.1950000E-02   -5.8900000E-04    1.3291424E-03     752.3648    
 p113                 obsgroup      9.2803000E-02    9.2497000E-02    3.0600000E-04     1.000000        9.2803000E-02    9.2497000E-02    3.0600000E-04    1.3291424E-03     752.3648    
 p114                 obsgroup      9.1773000E-02    9.3020000E-02   -1.2470000E-03     1.000000        9.1773000E-02    9.3020000E-02   -1.2470000E-03    1.3291424E-03     752.3648    
 p115                 obsgroup      9.3112000E-02    9.3531000E-02   -4.1900000E-04     1.000000        9.3112000E-02    9.3531000E-02   -4.1900000E-04    1.3291424E-03     752.3648    
 p116                 obsgroup      9.3730000E-02    9.4023000E-02   -2.9300000E-04     1.000000        9.3730000E-02    9.4023000E-02   -2.9300000E-04    1.3291424E-03     752.3648    
 p117                 obsgroup      9.5069000E-02    9.4958000E-02    1.1100000E-04     1.000000        9.5069000E-02    9.4958000E-02    1.1100000E-04    1.3291424E-03     752.3648    
 p118                 obsgroup      9.3627000E-02    9.5401000E-02   -1.7740000E-03     1.000000        9.3627000E-02    9.5401000E-02   -1.7740000E-03    1.3291424E-03     752.3648    
 p119                 obsgroup      9.4451000E-02    9.5830000E-02   -1.3790000E-03     1.000000        9.4451000E-02    9.5830000E-02   -1.3790000E-03    1.3291424E-03     752.3648    
 p120                 obsgroup      9.2082000E-02    9.6251000E-02   -4.1690000E-03     1.000000        9.2082000E-02    9.6251000E-02   -4.1690000E-03    1.3291424E-03     752.3648    
 p121                 obsgroup      9.7438000E-02    9.6639000E-02    7.9900000E-04     1.000000        9.7438000E-02    9.6639000E-02    7.9900000E-04    1.3291424E-03     752.3648    
 p122                 obsgroup      9.4966000E-02    9.7027000E-02   -2.0610000E-03     1.000000        9.4966000E-02    9.7027000E-02   -2.0610000E-03    1.3291424E-03     752.3648    
 p123                 obsgroup      9.7747000E-02    9.7402000E-02    3.4500000E-04     1.000000        9.7747000E-02    9.7402000E-02    3.4500000E-04    1.3291424E-03     752.3648    
 p124                 obsgroup      9.6614000E-02    9.7769000E-02   -1.1550000E-03     1.000000        9.6614000E-02    9.7769000E-02   -1.1550000E-03    1.3291424E-03     752.3648    
 p125                 obsgroup      9.7747000E-02    9.8126000E-02   -3.7900000E-04     1.000000        9.7747000E-02    9.8126000E-02   -3.7900000E-04    1.3291424E-03     752.3648    
 p126                 obsgroup      0.1006310        9.8465000E-02    2.1660000E-03     1.000000        0.1006310        9.8465000E-02    2.1660000E-03    1.3291424E-03     752.3648    
 p127                 obsgroup      9.8056000E-02    9.8752000E-02   -6.9600000E-04     1.000000        9.8056000E-02    9.8752000E-02   -6.9600000E-04    1.3291424E-03     752.3648    
 p128                 obsgroup      9.9498000E-02    9.9078000E-02    4.2000000E-04     1.000000        9.9498000E-02    9.9078000E-02    4.2000000E-04    1.3291424E-03     752.3648    
 p129                 obsgroup      9.8983000E-02    9.9392000E-02   -4.0900000E-04     1.000000        9.8983000E-02    9.9392000E-02   -4.0900000E-04    1.3291424E-03     752.3648    
 p130                 obsgroup      0.1025880        9.9702000E-02    2.8860000E-03     1.000000        0.1025880        9.9702000E-02    2.8860000E-03    1.3291424E-03     752.3648    
 p131                 obsgroup      0.1000130        0.1000000        1.3000000E-05     1.000000        0.1000130        0.1000000        1.3000000E-05    1.3291424E-03     752.3648    
 p132                 obsgroup      0.1006310        0.1002910        3.4000000E-04     1.000000        0.1006310        0.1002910        3.4000000E-04    1.3291424E-03     752.3648    
 p133                 obsgroup      9.9910000E-02    0.1005770       -6.6700000E-04     1.000000        9.9910000E-02    0.1005770       -6.6700000E-04    1.3291424E-03     752.3648    
 p134                 obsgroup      0.1005280        0.1008530       -3.2500000E-04     1.000000        0.1005280        0.1008530       -3.2500000E-04    1.3291424E-03     752.3648    
 p135                 obsgroup      0.1027940        0.1011270        1.6670000E-03     1.000000        0.1027940        0.1011270        1.6670000E-03    1.3291424E-03     752.3648    
 p136                 obsgroup      0.1028970        0.1013890        1.5080000E-03     1.000000        0.1028970        0.1013890        1.5080000E-03    1.3291424E-03     752.3648    
 p137                 obsgroup      9.9498000E-02    0.1016530       -2.1550000E-03     1.000000        9.9498000E-02    0.1016530       -2.1550000E-03    1.3291424E-03     752.3648    
 p138                 obsgroup      0.1040300        0.1019030        2.1270000E-03     1.000000        0.1040300        0.1019030        2.1270000E-03    1.3291424E-03     752.3648    
 p139                 obsgroup      0.1017640        0.1021510       -3.8700000E-04     1.000000        0.1017640        0.1021510       -3.8700000E-04    1.3291424E-03     752.3648    
 p140                 obsgroup      0.1004250        0.1023970       -1.9720000E-03     1.000000        0.1004250        0.1023970       -1.9720000E-03    1.3291424E-03     752.3648    
 p141                 obsgroup      9.8571000E-02    0.1026410       -4.0700000E-03     1.000000        9.8571000E-02    0.1026410       -4.0700000E-03    1.3291424E-03     752.3648    
 p142                 obsgroup      0.1016610        0.1028650       -1.2040000E-03     1.000000        0.1016610        0.1028650       -1.2040000E-03    1.3291424E-03     752.3648    
 p143                 obsgroup      0.1040300        0.1030940        9.3600000E-04     1.000000        0.1040300        0.1030940        9.3600000E-04    1.3291424E-03     752.3648    
 p144                 obsgroup      0.1030000        0.1033200       -3.2000000E-04     1.000000        0.1030000        0.1033200       -3.2000000E-04    1.3291424E-03     752.3648    
 p145                 obsgroup      0.1030000        0.1035410       -5.4100000E-04     1.000000        0.1030000        0.1035410       -5.4100000E-04    1.3291424E-03     752.3648    
 p146                 obsgroup      0.1040300        0.1037590        2.7100000E-04     1.000000        0.1040300        0.1037590        2.7100000E-04    1.3291424E-03     752.3648    
 p147                 obsgroup      0.1030000        0.1039730       -9.7300000E-04     1.000000        0.1030000        0.1039730       -9.7300000E-04    1.3291424E-03     752.3648    
 p148                 obsgroup      0.1060900        0.1041830        1.9070000E-03     1.000000        0.1060900        0.1041830        1.9070000E-03    1.3291424E-03     752.3648    
 p149                 obsgroup      0.1050600        0.1043900        6.7000000E-04     1.000000        0.1050600        0.1043900        6.7000000E-04    1.3291424E-03     752.3648    
 p150                 obsgroup      0.1081500        0.1045930        3.5570000E-03     1.000000        0.1081500        0.1045930        3.5570000E-03    1.3291424E-03     752.3648    
 p151                 obsgroup      0.1071200        0.1047900        2.3300000E-03     1.000000        0.1071200        0.1047900        2.3300000E-03    1.3291424E-03     752.3648    
 p152                 obsgroup      0.1050600        0.1049850        7.5000000E-05     1.000000        0.1050600        0.1049850        7.5000000E-05    1.3291424E-03     752.3648    
 p153                 obsgroup      0.1060900        0.1051770        9.1300000E-04     1.000000        0.1060900        0.1051770        9.1300000E-04    1.3291424E-03     752.3648    
 p154                 obsgroup      0.1050600        0.1053660       -3.0600000E-04     1.000000        0.1050600        0.1053660       -3.0600000E-04    1.3291424E-03     752.3648    
 p155                 obsgroup      0.1071200        0.1055500        1.5700000E-03     1.000000        0.1071200        0.1055500        1.5700000E-03    1.3291424E-03     752.3648    
 p156                 obsgroup      0.1026910        0.1057370       -3.0460000E-03     1.000000        0.1026910        0.1057370       -3.0460000E-03    1.3291424E-03     752.3648    
 p157                 obsgroup      0.1050600        0.1059080       -8.4800000E-04     1.000000        0.1050600        0.1059080       -8.4800000E-04    1.3291424E-03     752.3648    
 p158                 obsgroup      0.1071200        0.1060860        1.0340000E-03     1.000000        0.1071200        0.1060860        1.0340000E-03    1.3291424E-03     752.3648    
 p159                 obsgroup      0.1081500        0.1062560        1.8940000E-03     1.000000        0.1081500        0.1062560        1.8940000E-03    1.3291424E-03     752.3648    
 p160                 obsgroup      0.1050600        0.1064280       -1.3680000E-03     1.000000        0.1050600        0.1064280       -1.3680000E-03    1.3291424E-03     752.3648    
 p161                 obsgroup      0.1081500        0.1066000        1.5500000E-03     1.000000        0.1081500        0.1066000        1.5500000E-03    1.3291424E-03     752.3648    
 p162                 obsgroup      0.1060900        0.1067710       -6.8100000E-04     1.000000        0.1060900        0.1067710       -6.8100000E-04    1.3291424E-03     752.3648    
 p163                 obsgroup      0.1102100        0.1069400        3.2700000E-03     1.000000        0.1102100        0.1069400        3.2700000E-03    1.3291424E-03     752.3648    
 p164                 obsgroup      0.1060900        0.1071100       -1.0200000E-03     1.000000        0.1060900        0.1071100       -1.0200000E-03    1.3291424E-03     752.3648    
 p165                 obsgroup      0.1050600        0.1072800       -2.2200000E-03     1.000000        0.1050600        0.1072800       -2.2200000E-03    1.3291424E-03     752.3648    
 p166                 obsgroup      0.1060900        0.1074520       -1.3620000E-03     1.000000        0.1060900        0.1074520       -1.3620000E-03    1.3291424E-03     752.3648    
 p167                 obsgroup      0.1091800        0.1076260        1.5540000E-03     1.000000        0.1091800        0.1076260        1.5540000E-03    1.3291424E-03     752.3648    
 p168                 obsgroup      0.1081500        0.1077990        3.5100000E-04     1.000000        0.1081500        0.1077990        3.5100000E-04    1.3291424E-03     752.3648    
 p169                 obsgroup      0.1071200        0.1079760       -8.5600000E-04     1.000000        0.1071200        0.1079760       -8.5600000E-04    1.3291424E-03     752.3648    
 p170                 obsgroup      0.1102100        0.1081550        2.0550000E-03     1.000000        0.1102100        0.1081550        2.0550000E-03    1.3291424E-03     752.3648    
 p171                 obsgroup      0.1081500        0.1083380       -1.8800000E-04     1.000000        0.1081500        0.1083380       -1.8800000E-04    1.3291424E-03     752.3648    
 p172                 obsgroup      0.1112400        0.1085250        2.7150000E-03     1.000000        0.1112400        0.1085250        2.7150000E-03    1.3291424E-03     752.3648    
 p173                 obsgroup      0.1102100        0.1088400        1.3700000E-03     1.000000        0.1102100        0.1088400        1.3700000E-03    1.3291424E-03     752.3648    
 p174                 obsgroup      0.1112400        0.1094350        1.8050000E-03     1.000000        0.1112400        0.1094350        1.8050000E-03    1.3291424E-03     752.3648    
 p175                 obsgroup      0.1081500        0.1096060       -1.4560000E-03     1.000000        0.1081500        0.1096060       -1.4560000E-03    1.3291424E-03     752.3648    
 p176                 obsgroup      0.1122700        0.1097670        2.5030000E-03     1.000000        0.1122700        0.1097670        2.5030000E-03    1.3291424E-03     752.3648    
 p177                 obsgroup      0.1102100        0.1099090        3.0100000E-04     1.000000        0.1102100        0.1099090        3.0100000E-04    1.3291424E-03     752.3648    
 p178                 obsgroup      0.1081500        0.1100260       -1.8760000E-03     1.000000        0.1081500        0.1100260       -1.8760000E-03    1.3291424E-03     752.3648    
 p179                 obsgroup      0.1071200        0.1101090       -2.9890000E-03     1.000000        0.1071200        0.1101090       -2.9890000E-03    1.3291424E-03     752.3648    
 p180                 obsgroup      0.1102100        0.1101470        6.3000000E-05     1.000000        0.1102100        0.1101470        6.3000000E-05    1.3291424E-03     752.3648    
 p181                 obsgroup      0.1091800        0.1101300       -9.5000000E-04     1.000000        0.1091800        0.1101300       -9.5000000E-04    1.3291424E-03     752.3648    
 p182                 obsgroup      0.1091800        0.1100450       -8.6500000E-04     1.000000        0.1091800        0.1100450       -8.6500000E-04    1.3291424E-03     752.3648    
 p183                 obsgroup      0.1091800        0.1098780       -6.9800000E-04     1.000000        0.1091800        0.1098780       -6.9800000E-04    1.3291424E-03     752.3648    
 p184                 obsgroup      0.1102100        0.1096180        5.9200000E-04     1.000000        0.1102100        0.1096180        5.9200000E-04    1.3291424E-03     752.3648    
 p185                 obsgroup      0.1071200        0.1081920       -1.0720000E-03     1.000000        0.1071200        0.1081920       -1.0720000E-03    1.3291424E-03     752.3648    
 p186                 obsgroup      0.1081500        0.1074490        7.0100000E-04     1.000000        0.1081500        0.1074490        7.0100000E-04    1.3291424E-03     752.3648    
 p187                 obsgroup      0.1060900        0.1065740       -4.8400000E-04     1.000000        0.1060900        0.1065740       -4.8400000E-04    1.3291424E-03     752.3648    
 p188                 obsgroup      0.1071200        0.1055530        1.5670000E-03     1.000000        0.1071200        0.1055530        1.5670000E-03    1.3291424E-03     752.3648    
 p189                 obsgroup      0.1050600        0.1030780        1.9820000E-03     1.000000        0.1050600        0.1030780        1.9820000E-03    1.3291424E-03     752.3648    
 p190                 obsgroup      0.1013520        0.1016050       -2.5300000E-04     1.000000        0.1013520        0.1016050       -2.5300000E-04    1.3291424E-03     752.3648    
 p191                 obsgroup      0.1050600        0.1000640        4.9960000E-03     1.000000        0.1050600        0.1000640        4.9960000E-03    1.3291424E-03     752.3648    
 p192                 obsgroup      9.9601000E-02    9.8368000E-02    1.2330000E-03     1.000000        9.9601000E-02    9.8368000E-02    1.2330000E-03    1.3291424E-03     752.3648    
 p193                 obsgroup      9.7953000E-02    9.6541000E-02    1.4120000E-03     1.000000        9.7953000E-02    9.6541000E-02    1.4120000E-03    1.3291424E-03     752.3648    
 p194                 obsgroup      9.5378000E-02    9.4658000E-02    7.2000000E-04     1.000000        9.5378000E-02    9.4658000E-02    7.2000000E-04    1.3291424E-03     752.3648    
 p195                 obsgroup      9.0846000E-02    9.2617000E-02   -1.7710000E-03     1.000000        9.0846000E-02    9.2617000E-02   -1.7710000E-03    1.3291424E-03     752.3648    
 p196                 obsgroup      8.9507000E-02    9.0505000E-02   -9.9800000E-04     1.000000        8.9507000E-02    9.0505000E-02   -9.9800000E-04    1.3291424E-03     752.3648    
 p197                 obsgroup      8.7550000E-02    8.8383000E-02   -8.3300000E-04     1.000000        8.7550000E-02    8.8383000E-02   -8.3300000E-04    1.3291424E-03     752.3648    
 p198                 obsgroup      8.2709000E-02    8.3969000E-02   -1.2600000E-03     1.000000        8.2709000E-02    8.3969000E-02   -1.2600000E-03    1.3291424E-03     752.3648    
 p199                 obsgroup      8.0855000E-02    8.1714000E-02   -8.5900000E-04     1.000000        8.0855000E-02    8.1714000E-02   -8.5900000E-04    1.3291424E-03     752.3648    
 p200                 obsgroup      7.9001000E-02    7.9482000E-02   -4.8100000E-04     1.000000        7.9001000E-02    7.9482000E-02   -4.8100000E-04    1.3291424E-03     752.3648    
 p201                 obsgroup      7.6632000E-02    7.7219000E-02   -5.8700000E-04     1.000000        7.6632000E-02    7.7219000E-02   -5.8700000E-04    1.3291424E-03     752.3648    
 p202                 obsgroup      7.4881000E-02    7.4961000E-02   -8.0000000E-05     1.000000        7.4881000E-02    7.4961000E-02   -8.0000000E-05    1.3291424E-03     752.3648    
 p203                 obsgroup      6.9834000E-02    7.2737000E-02   -2.9030000E-03     1.000000        6.9834000E-02    7.2737000E-02   -2.9030000E-03    1.3291424E-03     752.3648    
 p204                 obsgroup      7.0452000E-02    7.0541000E-02   -8.9000000E-05     1.000000        7.0452000E-02    7.0541000E-02   -8.9000000E-05    1.3291424E-03     752.3648    
 p205                 obsgroup      6.8186000E-02    6.8366000E-02   -1.8000000E-04     1.000000        6.8186000E-02    6.8366000E-02   -1.8000000E-04    1.3291424E-03     752.3648    
 p206                 obsgroup      6.5405000E-02    6.6241000E-02   -8.3600000E-04     1.000000        6.5405000E-02    6.6241000E-02   -8.3600000E-04    1.3291424E-03     752.3648    
 p207                 obsgroup      6.3654000E-02    6.4156000E-02   -5.0200000E-04     1.000000        6.3654000E-02    6.4156000E-02   -5.0200000E-04    1.3291424E-03     752.3648    
 p208                 obsgroup      6.0770000E-02    6.2118000E-02   -1.3480000E-03     1.000000        6.0770000E-02    6.2118000E-02   -1.3480000E-03    1.3291424E-03     752.3648    
 p209                 obsgroup      5.9225000E-02    6.0142000E-02   -9.1700000E-04     1.000000        5.9225000E-02    6.0142000E-02   -9.1700000E-04    1.3291424E-03     752.3648    
 p210                 obsgroup      5.7371000E-02    5.8238000E-02   -8.6700000E-04     1.000000        5.7371000E-02    5.8238000E-02   -8.6700000E-04    1.3291424E-03     752.3648    
 p211                 obsgroup      5.5723000E-02    5.6389000E-02   -6.6600000E-04     1.000000        5.5723000E-02    5.6389000E-02   -6.6600000E-04    1.3291424E-03     752.3648    
 p212                 obsgroup      5.3560000E-02    5.4576000E-02   -1.0160000E-03     1.000000        5.3560000E-02    5.4576000E-02   -1.0160000E-03    1.3291424E-03     752.3648    
 p213                 obsgroup      5.2942000E-02    5.2832000E-02    1.1000000E-04     1.000000        5.2942000E-02    5.2832000E-02    1.1000000E-04    1.3291424E-03     752.3648    
 p214                 obsgroup      5.1397000E-02    5.1164000E-02    2.3300000E-04     1.000000        5.1397000E-02    5.1164000E-02    2.3300000E-04    1.3291424E-03     752.3648    
 p215                 obsgroup      4.9337000E-02    4.9557000E-02   -2.2000000E-04     1.000000        4.9337000E-02    4.9557000E-02   -2.2000000E-04    1.3291424E-03     752.3648    
 p216                 obsgroup      4.8616000E-02    4.8000000E-02    6.1600000E-04     1.000000        4.8616000E-02    4.8000000E-02    6.1600000E-04    1.3291424E-03     752.3648    
 p217                 obsgroup      4.7895000E-02    4.6517000E-02    1.3780000E-03     1.000000        4.7895000E-02    4.6517000E-02    1.3780000E-03    1.3291424E-03     752.3648    
 p218                 obsgroup      4.5835000E-02    4.5112000E-02    7.2300000E-04     1.000000        4.5835000E-02    4.5112000E-02    7.2300000E-04    1.3291424E-03     752.3648    
 p219                 obsgroup      4.5423000E-02    4.3797000E-02    1.6260000E-03     1.000000        4.5423000E-02    4.3797000E-02    1.6260000E-03    1.3291424E-03     752.3648    
 p220                 obsgroup      4.2230000E-02    4.2557000E-02   -3.2700000E-04     1.000000        4.2230000E-02    4.2557000E-02   -3.2700000E-04    1.3291424E-03     752.3648    
 p221                 obsgroup      4.2333000E-02    4.1415000E-02    9.1800000E-04     1.000000        4.2333000E-02    4.1415000E-02    9.1800000E-04    1.3291424E-03     752.3648    
 p222                 obsgroup      4.1303000E-02    4.0364000E-02    9.3900000E-04     1.000000        4.1303000E-02    4.0364000E-02    9.3900000E-04    1.3291424E-03     752.3648    
 p223                 obsgroup      4.1097000E-02    3.9374000E-02    1.7230000E-03     1.000000        4.1097000E-02    3.9374000E-02    1.7230000E-03    1.3291424E-03     752.3648    
 p224                 obsgroup      4.0067000E-02    3.8393000E-02    1.6740000E-03     1.000000        4.0067000E-02    3.8393000E-02    1.6740000E-03    1.3291424E-03     752.3648    
 p225                 obsgroup      3.6771000E-02    3.7418000E-02   -6.4700000E-04     1.000000        3.6771000E-02    3.7418000E-02   -6.4700000E-04    1.3291424E-03     752.3648    
 p226                 obsgroup      3.7595000E-02    3.6480000E-02    1.1150000E-03     1.000000        3.7595000E-02    3.6480000E-02    1.1150000E-03    1.3291424E-03     752.3648    
 p227                 obsgroup      3.7595000E-02    3.5558000E-02    2.0370000E-03     1.000000        3.7595000E-02    3.5558000E-02    2.0370000E-03    1.3291424E-03     752.3648    
 p228                 obsgroup      3.4608000E-02    3.4684000E-02   -7.6000000E-05     1.000000        3.4608000E-02    3.4684000E-02   -7.6000000E-05    1.3291424E-03     752.3648    
 p229                 obsgroup      3.5432000E-02    3.3840000E-02    1.5920000E-03     1.000000        3.5432000E-02    3.3840000E-02    1.5920000E-03    1.3291424E-03     752.3648    
 p230                 obsgroup      3.5535000E-02    3.3031000E-02    2.5040000E-03     1.000000        3.5535000E-02    3.3031000E-02    2.5040000E-03    1.3291424E-03     752.3648    
 p231                 obsgroup      3.2857000E-02    3.2246000E-02    6.1100000E-04     1.000000        3.2857000E-02    3.2246000E-02    6.1100000E-04    1.3291424E-03     752.3648    
 p232                 obsgroup      3.2857000E-02    3.1510000E-02    1.3470000E-03     1.000000        3.2857000E-02    3.1510000E-02    1.3470000E-03    1.3291424E-03     752.3648    
 p233                 obsgroup      3.1930000E-02    3.0801000E-02    1.1290000E-03     1.000000        3.1930000E-02    3.0801000E-02    1.1290000E-03    1.3291424E-03     752.3648    
 p234                 obsgroup      3.0179000E-02    3.0126000E-02    5.3000000E-05     1.000000        3.0179000E-02    3.0126000E-02    5.3000000E-05    1.3291424E-03     752.3648    
 p235                 obsgroup      3.0179000E-02    2.9479000E-02    7.0000000E-04     1.000000        3.0179000E-02    2.9479000E-02    7.0000000E-04    1.3291424E-03     752.3648    
 p236                 obsgroup      3.0179000E-02    2.8868000E-02    1.3110000E-03     1.000000        3.0179000E-02    2.8868000E-02    1.3110000E-03    1.3291424E-03     752.3648    
 p237                 obsgroup      2.8840000E-02    2.8275000E-02    5.6500000E-04     1.000000        2.8840000E-02    2.8275000E-02    5.6500000E-04    1.3291424E-03     752.3648    
 p238                 obsgroup      2.8531000E-02    2.7744000E-02    7.8700000E-04     1.000000        2.8531000E-02    2.7744000E-02    7.8700000E-04    1.3291424E-03     752.3648    
 p239                 obsgroup      2.7913000E-02    2.7216000E-02    6.9700000E-04     1.000000        2.7913000E-02    2.7216000E-02    6.9700000E-04    1.3291424E-03     752.3648    
 p240                 obsgroup      2.6780000E-02    2.6707000E-02    7.3000000E-05     1.000000        2.6780000E-02    2.6707000E-02    7.3000000E-05    1.3291424E-03     752.3648    
 p241                 obsgroup      2.6986000E-02    2.6225000E-02    7.6100000E-04     1.000000        2.6986000E-02    2.6225000E-02    7.6100000E-04    1.3291424E-03     752.3648    
 p242                 obsgroup      2.6574000E-02    2.5763000E-02    8.1100000E-04     1.000000        2.6574000E-02    2.5763000E-02    8.1100000E-04    1.3291424E-03     752.3648    
 p243                 obsgroup      2.6059000E-02    2.5323000E-02    7.3600000E-04     1.000000        2.6059000E-02    2.5323000E-02    7.3600000E-04    1.3291424E-03     752.3648    
 p244                 obsgroup      2.5338000E-02    2.4899000E-02    4.3900000E-04     1.000000        2.5338000E-02    2.4899000E-02    4.3900000E-04    1.3291424E-03     752.3648    
 p245                 obsgroup      2.4823000E-02    2.4492000E-02    3.3100000E-04     1.000000        2.4823000E-02    2.4492000E-02    3.3100000E-04    1.3291424E-03     752.3648    
 p246                 obsgroup      2.4102000E-02    2.4102000E-02     0.000000         1.000000        2.4102000E-02    2.4102000E-02     0.000000        1.3291424E-03     752.3648    
 p247                 obsgroup      2.2969000E-02    2.3725000E-02   -7.5600000E-04     1.000000        2.2969000E-02    2.3725000E-02   -7.5600000E-04    1.3291424E-03     752.3648    
 p248                 obsgroup      2.2969000E-02    2.3376000E-02   -4.0700000E-04     1.000000        2.2969000E-02    2.3376000E-02   -4.0700000E-04    1.3291424E-03     752.3648    
 p249                 obsgroup      2.2557000E-02    2.3033000E-02   -4.7600000E-04     1.000000        2.2557000E-02    2.3033000E-02   -4.7600000E-04    1.3291424E-03     752.3648    
 p250                 obsgroup      2.2454000E-02    2.2711000E-02   -2.5700000E-04     1.000000        2.2454000E-02    2.2711000E-02   -2.5700000E-04    1.3291424E-03     752.3648    
 p251                 obsgroup      2.2660000E-02    2.2395000E-02    2.6500000E-04     1.000000        2.2660000E-02    2.2395000E-02    2.6500000E-04    1.3291424E-03     752.3648    
 p252                 obsgroup      2.1733000E-02    2.2089000E-02   -3.5600000E-04     1.000000        2.1733000E-02    2.2089000E-02   -3.5600000E-04    1.3291424E-03     752.3648    
 p253                 obsgroup      2.1115000E-02    2.1792000E-02   -6.7700000E-04     1.000000        2.1115000E-02    2.1792000E-02   -6.7700000E-04    1.3291424E-03     752.3648    
 p254                 obsgroup      2.1115000E-02    2.1505000E-02   -3.9000000E-04     1.000000        2.1115000E-02    2.1505000E-02   -3.9000000E-04    1.3291424E-03     752.3648    
 p255                 obsgroup      2.0703000E-02    2.1231000E-02   -5.2800000E-04     1.000000        2.0703000E-02    2.1231000E-02   -5.2800000E-04    1.3291424E-03     752.3648    
 p256                 obsgroup      2.0085000E-02    2.0967000E-02   -8.8200000E-04     1.000000        2.0085000E-02    2.0967000E-02   -8.8200000E-04    1.3291424E-03     752.3648    
 p257                 obsgroup      2.0188000E-02    2.0711000E-02   -5.2300000E-04     1.000000        2.0188000E-02    2.0711000E-02   -5.2300000E-04    1.3291424E-03     752.3648    
 p258                 obsgroup      1.9776000E-02    2.0460000E-02   -6.8400000E-04     1.000000        1.9776000E-02    2.0460000E-02   -6.8400000E-04    1.3291424E-03     752.3648    
 p259                 obsgroup      1.8849000E-02    2.0221000E-02   -1.3720000E-03     1.000000        1.8849000E-02    2.0221000E-02   -1.3720000E-03    1.3291424E-03     752.3648    
 p260                 obsgroup      1.9055000E-02    1.9991000E-02   -9.3600000E-04     1.000000        1.9055000E-02    1.9991000E-02   -9.3600000E-04    1.3291424E-03     752.3648    
 p261                 obsgroup      1.8540000E-02    1.9767000E-02   -1.2270000E-03     1.000000        1.8540000E-02    1.9767000E-02   -1.2270000E-03    1.3291424E-03     752.3648    
 p262                 obsgroup      1.8128000E-02    1.9550000E-02   -1.4220000E-03     1.000000        1.8128000E-02    1.9550000E-02   -1.4220000E-03    1.3291424E-03     752.3648    
 p263                 obsgroup      1.7819000E-02    1.9339000E-02   -1.5200000E-03     1.000000        1.7819000E-02    1.9339000E-02   -1.5200000E-03    1.3291424E-03     752.3648    
 p264                 obsgroup      1.7819000E-02    1.9135000E-02   -1.3160000E-03     1.000000        1.7819000E-02    1.9135000E-02   -1.3160000E-03    1.3291424E-03     752.3648    
 p265                 obsgroup      1.6892000E-02    1.8937000E-02   -2.0450000E-03     1.000000        1.6892000E-02    1.8937000E-02   -2.0450000E-03    1.3291424E-03     752.3648    
 p266                 obsgroup      1.6480000E-02    1.8746000E-02   -2.2660000E-03     1.000000        1.6480000E-02    1.8746000E-02   -2.2660000E-03    1.3291424E-03     752.3648    
 p267                 obsgroup      1.6686000E-02    1.8562000E-02   -1.8760000E-03     1.000000        1.6686000E-02    1.8562000E-02   -1.8760000E-03    1.3291424E-03     752.3648    
 p268                 obsgroup      1.6171000E-02    1.8381000E-02   -2.2100000E-03     1.000000        1.6171000E-02    1.8381000E-02   -2.2100000E-03    1.3291424E-03     752.3648    
 p269                 obsgroup      1.5965000E-02    1.8206000E-02   -2.2410000E-03     1.000000        1.5965000E-02    1.8206000E-02   -2.2410000E-03    1.3291424E-03     752.3648    
