 Name                 Group          Measured         Modelled         Residual         Weight       Weight*Measured    Weight*Modelled  Weight*Residual  Measurement_sd   Natural_weight
 p001                 obsgroup      2.3700000E-05    2.5000000E-05   -1.3000000E-06     1.000000        2.3700000E-05    2.5000000E-05   -1.3000000E-06    1.7662981E-04     5661.559    
 p002                 obsgroup      5.8300000E-05    2.5000000E-05    3.3300000E-05     1.000000        5.8300000E-05    2.5000000E-05    3.3300000E-05    1.7662981E-04     5661.559    
 p003                 obsgroup      2.7200000E-05    2.5000000E-05    2.2000000E-06     1.000000        2.7200000E-05    2.5000000E-05    2.2000000E-06    1.7662981E-04     5661.559    
 p004                 obsgroup      2.2800000E-05    2.5000000E-05   -2.2000000E-06     1.000000        2.2800000E-05    2.5000000E-05   -2.2000000E-06    1.7662981E-04     5661.559    
 p005                 obsgroup      6.6400000E-05    2.5000000E-05    4.1400000E-05     1.000000        6.6400000E-05    2.5000000E-05    4.1400000E-05    1.7662981E-04     5661.559    
 p006                 obsgroup      3.1000000E-05    2.5000000E-05    6.0000000E-06     1.000000        3.1000000E-05    2.5000000E-05    6.0000000E-06    1.7662981E-04     5661.559    
 p007                 obsgroup      2.7600000E-05    2.5000000E-05    2.6000000E-06     1.000000        2.7600000E-05    2.5000000E-05    2.6000000E-06    1.7662981E-04     5661.559    
 p008                 obsgroup      2.4800000E-05    2.5000000E-05   -2.0000000E-07     1.000000        2.4800000E-05    2.5000000E-05   -2.0000000E-07    1.7662981E-04     5661.559    
 p009                 obsgroup      2.7900000E-05    2.5000000E-05    2.9000000E-06     1.000000        2.7900000E-05    2.5000000E-05    2.9000000E-06    1.7662981E-04     5661.559    
 p010                 obsgroup      2.9700000E-05    2.5000000E-05    4.7000000E-06     1.000000        2.9700000E-05    2.5000000E-05    4.7000000E-06    1.7662981E-04     5661.559    
 p011                 obsgroup      2.7400000E-05    2.5000000E-05    2.4000000E-06     1.000000        2.7400000E-05    2.5000000E-05    2.4000000E-06    1.7662981E-04     5661.559    
 p012                 obsgroup      2.9600000E-05    2.5000000E-05    4.6000000E-06     1.000000        2.9600000E-05    2.5000000E-05    4.6000000E-06    1.7662981E-04     5661.559    
 p013                 obsgroup      2.7600000E-05    2.5000000E-05    2.6000000E-06     1.000000        2.7600000E-05    2.5000000E-05    2.6000000E-06    1.7662981E-04     5661.559    
 p014                 obsgroup      2.7600000E-05    2.5000000E-05    2.6000000E-06     1.000000        2.7600000E-05    2.5000000E-05    2.6000000E-06    1.7662981E-04     5661.559    
 p015                 obsgroup      2.5800000E-05    2.5000000E-05    8.0000000E-07     1.000000        2.5800000E-05    2.5000000E-05    8.0000000E-07    1.7662981E-04     5661.559    
 p016                 obsgroup      2.8400000E-05    2.5000000E-05    3.4000000E-06     1.000000        2.8400000E-05    2.5000000E-05    3.4000000E-06    1.7662981E-04     5661.559    
 p017                 obsgroup      2.4600000E-05    2.5000000E-05   -4.0000000E-07     1.000000        2.4600000E-05    2.5000000E-05   -4.0000000E-07    1.7662981E-04     5661.559    
 p018                 obsgroup      2.9600000E-05    2.5000000E-05    4.6000000E-06     1.000000        2.9600000E-05    2.5000000E-05    4.6000000E-06    1.7662981E-04     5661.559    
 p019                 obsgroup      2.1000000E-05    2.5000000E-05   -4.0000000E-06     1.000000        2.1000000E-05    2.5000000E-05   -4.0000000E-06    1.7662981E-04     5661.559    
 p020                 obsgroup      2.9500000E-05    2.5000000E-05    4.5000000E-06     1.000000        2.9500000E-05    2.5000000E-05    4.5000000E-06    1.7662981E-04     5661.559    
 p021                 obsgroup      2.2900000E-05    2.5000000E-05   -2.1000000E-06     1.000000        2.2900000E-05    2.5000000E-05   -2.1000000E-06    1.7662981E-04     5661.559    
 p022                 obsgroup      2.6900000E-05    2.5000000E-05    1.9000000E-06     1.000000        2.6900000E-05    2.5000000E-05    1.9000000E-06    1.7662981E-04     5661.559    
 p023                 obsgroup      2.8100000E-05    2.5000000E-05    3.1000000E-06     1.000000        2.8100000E-05    2.5000000E-05    3.1000000E-06    1.7662981E-04     5661.559    
 p024                 obsgroup      2.0000000E-05    2.5000000E-05   -5.0000000E-06     1.000000        2.0000000E-05    2.5000000E-05   -5.0000000E-06    1.7662981E-04     5661.559    
 p025                 obsgroup      2.8300000E-05    2.5000000E-05    3.3000000E-06     1.000000        2.8300000E-05    2.5000000E-05    3.3000000E-06    1.7662981E-04     5661.559    
 p026                 obsgroup      3.1800000E-05    2.5000000E-05    6.8000000E-06     1.000000        3.1800000E-05    2.5000000E-05    6.8000000E-06    1.7662981E-04     5661.559    
 p027                 obsgroup      5.4400000E-05    2.5000000E-05    2.9400000E-05     1.000000        5.4400000E-05    2.5000000E-05    2.9400000E-05    1.7662981E-04     5661.559    
 p028                 obsgroup      3.4600000E-05    2.6000000E-05    8.6000000E-06     1.000000        3.4600000E-05    2.6000000E-05    8.6000000E-06    1.7662981E-04     5661.559    
 p029                 obsgroup      2.8400000E-05    2.7000000E-05    1.4000000E-06     1.000000        2.8400000E-05    2.7000000E-05    1.4000000E-06    1.7662981E-04     5661.559    
 p030                 obsgroup      6.1400000E-05    2.8000000E-05    3.3400000E-05     1.000000        6.1400000E-05    2.8000000E-05    3.3400000E-05    1.7662981E-04     5661.559    
 p031                 obsgroup      1.8850000E-04    3.1000000E-05    1.5750000E-04     1.000000        1.8850000E-04    3.1000000E-05    1.5750000E-04    1.7662981E-04     5661.559    
 p032                 obsgroup      5.7600000E-05    6.6000000E-05   -8.4000000E-06     1.000000        5.7600000E-05    6.6000000E-05   -8.4000000E-06    1.7662981E-04     5661.559    
 p033                 obsgroup      8.0200000E-05    8.5000000E-05   -4.8000000E-06     1.000000        8.0200000E-05    8.5000000E-05   -4.8000000E-06    1.7662981E-04     5661.559    
 p034                 obsgroup      8.0200000E-05    1.1300000E-04   -3.2800000E-05     1.000000        8.0200000E-05    1.1300000E-04   -3.2800000E-05    1.7662981E-04     5661.559    
 p035                 obsgroup      1.0300000E-04    1.5000000E-04   -4.7000000E-05     1.000000        1.0300000E-04    1.5000000E-04   -4.7000000E-05    1.7662981E-04     5661.559    
 p036                 obsgroup      1.4730000E-04    1.9900000E-04   -5.1700000E-05     1.000000        1.4730000E-04    1.9900000E-04   -5.1700000E-05    1.7662981E-04     5661.559    
 p037                 obsgroup      2.1320000E-04    2.6000000E-04   -4.6800000E-05     1.000000        2.1320000E-04    2.6000000E-04   -4.6800000E-05    1.7662981E-04     5661.559    
 p038                 obsgroup      2.5030000E-04    3.3700000E-04   -8.6700000E-05     1.000000        2.5030000E-04    3.3700000E-04   -8.6700000E-05    1.7662981E-04     5661.559    
 p039                 obsgroup      3.6670000E-04    4.3300000E-04   -6.6300000E-05     1.000000        3.6670000E-04    4.3300000E-04   -6.6300000E-05    1.7662981E-04     5661.559    
 p040                 obsgroup      4.9540000E-04    5.4600000E-04   -5.0600000E-05     1.000000        4.9540000E-04    5.4600000E-04   -5.0600000E-05    1.7662981E-04     5661.559    
 p041                 obsgroup      5.7680000E-04    6.8100000E-04   -1.0420000E-04     1.000000        5.7680000E-04    6.8100000E-04   -1.0420000E-04    1.7662981E-04     5661.559    
 p042                 obsgroup      8.0860000E-04    8.3800000E-04   -2.9400000E-05     1.000000        8.0860000E-04    8.3800000E-04   -2.9400000E-05    1.7662981E-04     5661.559    
 p043                 obsgroup      9.8160000E-04    1.0190000E-03   -3.7400000E-05     1.000000        9.8160000E-04    1.0190000E-03   -3.7400000E-05    1.7662981E-04     5661.559    
 p044                 obsgroup      1.0815000E-03    1.2220000E-03   -1.4050000E-04     1.000000        1.0815000E-03    1.2220000E-03   -1.4050000E-04    1.7662981E-04     5661.559    
 p045                 obsgroup      1.4008000E-03    1.4420000E-03   -4.1200000E-05     1.000000        1.4008000E-03    1.4420000E-03   -4.1200000E-05    1.7662981E-04     5661.559    
 p046                 obsgroup      1.6583000E-03    1.6990000E-03   -4.0700000E-05     1.000000        1.6583000E-03    1.6990000E-03   -4.0700000E-05    1.7662981E-04     5661.559    
 p047                 obsgroup      1.9158000E-03    1.9870000E-03   -7.1200000E-05     1.000000        1.9158000E-03    1.9870000E-03   -7.1200000E-05    1.7662981E-04     5661.559    
 p048                 obsgroup      2.3072000E-03    2.2870000E-03    2.0200000E-05     1.000000        2.3072000E-03    2.2870000E-03    2.0200000E-05    1.7662981E-04     5661.559    
 p049                 obsgroup      2.4617000E-03    2.6110000E-03   -1.4930000E-04     1.000000        2.4617000E-03    2.6110000E-03   -1.4930000E-04    1.7662981E-04     5661.559    
 p050                 obsgroup      2.8840000E-03    2.9530000E-03   -6.9000000E-05     1.000000        2.8840000E-03    2.9530000E-03   -6.9000000E-05    1.7662981E-04     5661.559    
 p051                 obsgroup      3.0900000E-03    3.2990000E-03   -2.0900000E-04     1.000000        3.0900000E-03    3.2990000E-03   -2.0900000E-04    1.7662981E-04     5661.559    
 p052                 obsgroup      3.6359000E-03    3.6560000E-03   -2.0100000E-05     1.000000        3.6359000E-03    3.6560000E-03   -2.0100000E-05    1.7662981E-04     5661.559    
 p053                 obsgroup      3.9346000E-03    4.0570000E-03   -1.2240000E-04     1.000000        3.9346000E-03    4.0570000E-03   -1.2240000E-04    1.7662981E-04     5661.559    
 p054                 obsgroup      5.0470000E-03    4.4810000E-03    5.6600000E-04     1.000000        5.0470000E-03    4.4810000E-03    5.6600000E-04    1.7662981E-04     5661.559    
 p055                 obsgroup      5.2530000E-03    4.9000000E-03    3.5300000E-04     1.000000        5.2530000E-03    4.9000000E-03    3.5300000E-04    1.7662981E-04     5661.559    
 p056                 obsgroup      5.5826000E-03    5.3130000E-03    2.6960000E-04     1.000000        5.5826000E-03    5.3130000E-03    2.6960000E-04    1.7662981E-04     5661.559    
 p057                 obsgroup      5.8504000E-03    5.7280000E-03    1.2240000E-04     1.000000        5.8504000E-03    5.7280000E-03    1.2240000E-04    1.7662981E-04     5661.559    
 p058                 obsgroup      6.4787000E-03    6.1380000E-03    3.4070000E-04     1.000000        6.4787000E-03    6.1380000E-03    3.4070000E-04    1.7662981E-04     5661.559    
 p059                 obsgroup      6.6744000E-03    6.5430000E-03    1.3140000E-04     1.000000        6.6744000E-03    6.5430000E-03    1.3140000E-04    1.7662981E-04     5661.559    
 p060                 obsgroup      7.1688000E-03    6.9560000E-03    2.1280000E-04     1.000000        7.1688000E-03    6.9560000E-03    2.1280000E-04    1.7662981E-04     5661.559    
 p061                 obsgroup      7.3645000E-03    7.3750000E-03   -1.0500000E-05     1.000000        7.3645000E-03    7.3750000E-03   -1.0500000E-05    1.7662981E-04     5661.559    
 p062                 obsgroup      7.5396000E-03    7.7900000E-03   -2.5040000E-04     1.000000        7.5396000E-03    7.7900000E-03   -2.5040000E-04    1.7662981E-04     5661.559    
 p063                 obsgroup      8.2606000E-03    8.1840000E-03    7.6600000E-05     1.000000        8.2606000E-03    8.1840000E-03    7.6600000E-05    1.7662981E-04     5661.559    
 p064                 obsgroup      8.3739000E-03    8.5480000E-03   -1.7410000E-04     1.000000        8.3739000E-03    8.5480000E-03   -1.7410000E-04    1.7662981E-04     5661.559    
 p065                 obsgroup      8.7447000E-03    8.8950000E-03   -1.5030000E-04     1.000000        8.7447000E-03    8.8950000E-03   -1.5030000E-04    1.7662981E-04     5661.559    
 p066                 obsgroup      9.1155000E-03    9.2270000E-03   -1.1150000E-04     1.000000        9.1155000E-03    9.2270000E-03   -1.1150000E-04    1.7662981E-04     5661.559    
 p067                 obsgroup      9.5069000E-03    9.5410000E-03   -3.4100000E-05     1.000000        9.5069000E-03    9.5410000E-03   -3.4100000E-05    1.7662981E-04     5661.559    
 p068                 obsgroup      9.5893000E-03    9.8330000E-03   -2.4370000E-04     1.000000        9.5893000E-03    9.8330000E-03   -2.4370000E-04    1.7662981E-04     5661.559    
 p069                 obsgroup      9.8777000E-03    1.0102000E-02   -2.2430000E-04     1.000000        9.8777000E-03    1.0102000E-02   -2.2430000E-04    1.7662981E-04     5661.559    
 p070                 obsgroup      1.0186700E-02    1.0348000E-02   -1.6130000E-04     1.000000        1.0186700E-02    1.0348000E-02   -1.6130000E-04    1.7662981E-04     5661.559    
 p071                 obsgroup      1.0403000E-02    1.0575000E-02   -1.7200000E-04     1.000000        1.0403000E-02    1.0575000E-02   -1.7200000E-04    1.7662981E-04     5661.559    
 p072                 obsgroup      1.0918000E-02    1.0789000E-02    1.2900000E-04     1.000000        1.0918000E-02    1.0789000E-02    1.2900000E-04    1.7662981E-04     5661.559    
 p073                 obsgroup      1.1021000E-02    1.0982000E-02    3.9000000E-05     1.000000        1.1021000E-02    1.0982000E-02    3.9000000E-05    1.7662981E-04     5661.559    
 p074                 obsgroup      1.1021000E-02    1.1153000E-02   -1.3200000E-04     1.000000        1.1021000E-02    1.1153000E-02   -1.3200000E-04    1.7662981E-04     5661.559    
 p075                 obsgroup      1.1330000E-02    1.1305000E-02    2.5000000E-05     1.000000        1.1330000E-02    1.1305000E-02    2.5000000E-05    1.7662981E-04     5661.559    
 p076                 obsgroup      1.1433000E-02    1.1438000E-02   -5.0000000E-06     1.000000        1.1433000E-02    1.1438000E-02   -5.0000000E-06    1.7662981E-04     5661.559    
 p077                 obsgroup      1.1742000E-02    1.1553000E-02    1.8900000E-04     1.000000        1.1742000E-02    1.1553000E-02    1.8900000E-04    1.7662981E-04     5661.559    
 p078                 obsgroup      1.1227000E-02    1.1647000E-02   -4.2000000E-04     1.000000        1.1227000E-02    1.1647000E-02   -4.2000000E-04    1.7662981E-04     5661.559    
 p079                 obsgroup      1.1845000E-02    1.1725000E-02    1.2000000E-04     1.000000        1.1845000E-02    1.1725000E-02    1.2000000E-04    1.7662981E-04     5661.559    
 p080                 obsgroup      1.1742000E-02    1.1788000E-02   -4.6000000E-05     1.000000        1.1742000E-02    1.1788000E-02   -4.6000000E-05    1.7662981E-04     5661.559    
 p081                 obsgroup      1.2154000E-02    1.1834000E-02    3.2000000E-04     1.000000        1.2154000E-02    1.1834000E-02    3.2000000E-04    1.7662981E-04     5661.559    
 p082                 obsgroup      1.1536000E-02    1.1867000E-02   -3.3100000E-04     1.000000        1.1536000E-02    1.1867000E-02   -3.3100000E-04    1.7662981E-04     5661.559    
 p083                 obsgroup      1.1639000E-02    1.1887000E-02   -2.4800000E-04     1.000000        1.1639000E-02    1.1887000E-02   -2.4800000E-04    1.7662981E-04     5661.559    
 p084                 obsgroup      1.1639000E-02    1.1894000E-02   -2.5500000E-04     1.000000        1.1639000E-02    1.1894000E-02   -2.5500000E-04    1.7662981E-04     5661.559    
 p085                 obsgroup      1.1639000E-02    1.1888000E-02   -2.4900000E-04     1.000000        1.1639000E-02    1.1888000E-02   -2.4900000E-04    1.7662981E-04     5661.559    
 p086                 obsgroup      1.2154000E-02    1.1871000E-02    2.8300000E-04     1.000000        1.2154000E-02    1.1871000E-02    2.8300000E-04    1.7662981E-04     5661.559    
 p087                 obsgroup      1.2257000E-02    1.1844000E-02    4.1300000E-04     1.000000        1.2257000E-02    1.1844000E-02    4.1300000E-04    1.7662981E-04     5661.559    
 p088                 obsgroup      1.1948000E-02    1.1808000E-02    1.4000000E-04     1.000000        1.1948000E-02    1.1808000E-02    1.4000000E-04    1.7662981E-04     5661.559    
 p089                 obsgroup      1.2154000E-02    1.1764000E-02    3.9000000E-04     1.000000        1.2154000E-02    1.1764000E-02    3.9000000E-04    1.7662981E-04     5661.559    
 p090                 obsgroup      1.1845000E-02    1.1711000E-02    1.3400000E-04     1.000000        1.1845000E-02    1.1711000E-02    1.3400000E-04    1.7662981E-04     5661.559    
 p091                 obsgroup      1.1639000E-02    1.1655000E-02   -1.6000000E-05     1.000000        1.1639000E-02    1.1655000E-02   -1.6000000E-05    1.7662981E-04     5661.559    
 p092                 obsgroup      1.1536000E-02    1.1590000E-02   -5.4000000E-05     1.000000        1.1536000E-02    1.1590000E-02   -5.4000000E-05    1.7662981E-04     5661.559    
 p093                 obsgroup      1.1639000E-02    1.1516000E-02    1.2300000E-04     1.000000        1.1639000E-02    1.1516000E-02    1.2300000E-04    1.7662981E-04     5661.559    
 p094                 obsgroup      1.1639000E-02    1.1438000E-02    2.0100000E-04     1.000000        1.1639000E-02    1.1438000E-02    2.0100000E-04    1.7662981E-04     5661.559    
 p095                 obsgroup      1.1330000E-02    1.1358000E-02   -2.8000000E-05     1.000000        1.1330000E-02    1.1358000E-02   -2.8000000E-05    1.7662981E-04     5661.559    
 p096                 obsgroup      1.1021000E-02    1.1276000E-02   -2.5500000E-04     1.000000        1.1021000E-02    1.1276000E-02   -2.5500000E-04    1.7662981E-04     5661.559    
 p097                 obsgroup      1.1433000E-02    1.1195000E-02    2.3800000E-04     1.000000        1.1433000E-02    1.1195000E-02    2.3800000E-04    1.7662981E-04     5661.559    
 p098                 obsgroup      1.1330000E-02    1.1110000E-02    2.2000000E-04     1.000000        1.1330000E-02    1.1110000E-02    2.2000000E-04    1.7662981E-04     5661.559    
 p099                 obsgroup      1.1124000E-02    1.1020000E-02    1.0400000E-04     1.000000        1.1124000E-02    1.1020000E-02    1.0400000E-04    1.7662981E-04     5661.559    
 p100                 obsgroup      1.1124000E-02    1.0929000E-02    1.9500000E-04     1.000000        1.1124000E-02    1.0929000E-02    1.9500000E-04    1.7662981E-04     5661.559    
 p101                 obsgroup      1.0815000E-02    1.0836000E-02   -2.1000000E-05     1.000000        1.0815000E-02    1.0836000E-02   -2.1000000E-05    1.7662981E-04     5661.559    
 p102                 obsgroup      1.0815000E-02    1.0744000E-02    7.1000000E-05     1.000000        1.0815000E-02    1.0744000E-02    7.1000000E-05    1.7662981E-04     5661.559    
 p103                 obsgroup      1.0815000E-02    1.0651000E-02    1.6400000E-04     1.000000        1.0815000E-02    1.0651000E-02    1.6400000E-04    1.7662981E-04     5661.559    
 p104                 obsgroup      1.0712000E-02    1.0556000E-02    1.5600000E-04     1.000000        1.0712000E-02    1.0556000E-02    1.5600000E-04    1.7662981E-04     5661.559    
 p105                 obsgroup      1.0403000E-02    1.0463000E-02   -6.0000000E-05     1.000000        1.0403000E-02    1.0463000E-02   -6.0000000E-05    1.7662981E-04     5661.559    
 p106                 obsgroup      1.0609000E-02    1.0369000E-02    2.4000000E-04     1.000000        1.0609000E-02    1.0369000E-02    2.4000000E-04    1.7662981E-04     5661.559    
 p107                 obsgroup      1.0403000E-02    1.0276000E-02    1.2700000E-04     1.000000        1.0403000E-02    1.0276000E-02    1.2700000E-04    1.7662981E-04     5661.559    
 p108                 obsgroup      1.0094000E-02    1.0184000E-02   -9.0000000E-05     1.000000        1.0094000E-02    1.0184000E-02   -9.0000000E-05    1.7662981E-04     5661.559    
 p109                 obsgroup      1.0403000E-02    1.0093000E-02    3.1000000E-04     1.000000        1.0403000E-02    1.0093000E-02    3.1000000E-04    1.7662981E-04     5661.559    
 p110                 obsgroup      9.6614000E-03    1.0001000E-02   -3.3960000E-04     1.000000        9.6614000E-03    1.0001000E-02   -3.3960000E-04    1.7662981E-04     5661.559    
 p111                 obsgroup      9.7438000E-03    9.9090000E-03   -1.6520000E-04     1.000000        9.7438000E-03    9.9090000E-03   -1.6520000E-04    1.7662981E-04     5661.559    
 p112                 obsgroup      9.4245000E-03    9.8240000E-03   -3.9950000E-04     1.000000        9.4245000E-03    9.8240000E-03   -3.9950000E-04    1.7662981E-04     5661.559    
 p113                 obsgroup      9.3318000E-03    9.7410000E-03   -4.0920000E-04     1.000000        9.3318000E-03    9.7410000E-03   -4.0920000E-04    1.7662981E-04     5661.559    
 p114                 obsgroup      9.7026000E-03    9.6540000E-03    4.8600000E-05     1.000000        9.7026000E-03    9.6540000E-03    4.8600000E-05    1.7662981E-04     5661.559    
 p115                 obsgroup      9.4142000E-03    9.5670000E-03   -1.5280000E-04     1.000000        9.4142000E-03    9.5670000E-03   -1.5280000E-04    1.7662981E-04     5661.559    
 p116                 obsgroup      9.7232000E-03    9.4800000E-03    2.4320000E-04     1.000000        9.7232000E-03    9.4800000E-03    2.4320000E-04    1.7662981E-04     5661.559    
 p117                 obsgroup      9.3421000E-03    9.3950000E-03   -5.2900000E-05     1.000000        9.3421000E-03    9.3950000E-03   -5.2900000E-05    1.7662981E-04     5661.559    
 p118                 obsgroup      9.4554000E-03    9.3120000E-03    1.4340000E-04     1.000000        9.4554000E-03    9.3120000E-03    1.4340000E-04    1.7662981E-04     5661.559    
 p119                 obsgroup      9.3421000E-03    9.2300000E-03    1.1210000E-04     1.000000        9.3421000E-03    9.2300000E-03    1.1210000E-04    1.7662981E-04     5661.559    
 p120                 obsgroup      9.2082000E-03    9.1490000E-03    5.9200000E-05     1.000000        9.2082000E-03    9.1490000E-03    5.9200000E-05    1.7662981E-04     5661.559    
 p121                 obsgroup      9.1876000E-03    9.0670000E-03    1.2060000E-04     1.000000        9.1876000E-03    9.0670000E-03    1.2060000E-04    1.7662981E-04     5661.559    
 p122                 obsgroup      8.8065000E-03    8.9850000E-03   -1.7850000E-04     1.000000        8.8065000E-03    8.9850000E-03   -1.7850000E-04    1.7662981E-04     5661.559    
 p123                 obsgroup      8.7344000E-03    8.8240000E-03   -8.9600000E-05     1.000000        8.7344000E-03    8.8240000E-03   -8.9600000E-05    1.7662981E-04     5661.559    
 p124                 obsgroup      8.4872000E-03    8.6730000E-03   -1.8580000E-04     1.000000        8.4872000E-03    8.6730000E-03   -1.8580000E-04    1.7662981E-04     5661.559    
 p125                 obsgroup      8.2709000E-03    8.5280000E-03   -2.5710000E-04     1.000000        8.2709000E-03    8.5280000E-03   -2.5710000E-04    1.7662981E-04     5661.559    
 p126                 obsgroup      8.3842000E-03    8.3860000E-03   -1.8000000E-06     1.000000        8.3842000E-03    8.3860000E-03   -1.8000000E-06    1.7662981E-04     5661.559    
 p127                 obsgroup      8.2091000E-03    8.2510000E-03   -4.1900000E-05     1.000000        8.2091000E-03    8.2510000E-03   -4.1900000E-05    1.7662981E-04     5661.559    
 p128                 obsgroup      8.3739000E-03    8.1880000E-03    1.8590000E-04     1.000000        8.3739000E-03    8.1880000E-03    1.8590000E-04    1.7662981E-04     5661.559    
 p129                 obsgroup      7.8589000E-03    8.0630000E-03   -2.0410000E-04     1.000000        7.8589000E-03    8.0630000E-03   -2.0410000E-04    1.7662981E-04     5661.559    
 p130                 obsgroup      7.6529000E-03    7.9410000E-03   -2.8810000E-04     1.000000        7.6529000E-03    7.9410000E-03   -2.8810000E-04    1.7662981E-04     5661.559    
 p131                 obsgroup      7.5808000E-03    7.8210000E-03   -2.4020000E-04     1.000000        7.5808000E-03    7.8210000E-03   -2.4020000E-04    1.7662981E-04     5661.559    
 p132                 obsgroup      7.4881000E-03    7.7090000E-03   -2.2090000E-04     1.000000        7.4881000E-03    7.7090000E-03   -2.2090000E-04    1.7662981E-04     5661.559    
 p133                 obsgroup      7.4984000E-03    7.5980000E-03   -9.9600000E-05     1.000000        7.4984000E-03    7.5980000E-03   -9.9600000E-05    1.7662981E-04     5661.559    
 p134                 obsgroup      7.1688000E-03    7.4870000E-03   -3.1820000E-04     1.000000        7.1688000E-03    7.4870000E-03   -3.1820000E-04    1.7662981E-04     5661.559    
 p135                 obsgroup      7.3542000E-03    7.2790000E-03    7.5200000E-05     1.000000        7.3542000E-03    7.2790000E-03    7.5200000E-05    1.7662981E-04     5661.559    
 p136                 obsgroup      6.9216000E-03    7.1780000E-03   -2.5640000E-04     1.000000        6.9216000E-03    7.1780000E-03   -2.5640000E-04    1.7662981E-04     5661.559    
 p137                 obsgroup      7.0040000E-03    7.0700000E-03   -6.6000000E-05     1.000000        7.0040000E-03    7.0700000E-03   -6.6000000E-05    1.7662981E-04     5661.559    
 p138                 obsgroup      6.6332000E-03    6.9720000E-03   -3.3880000E-04     1.000000        6.6332000E-03    6.9720000E-03   -3.3880000E-04    1.7662981E-04     5661.559    
 p139                 obsgroup      6.8289000E-03    6.8770000E-03   -4.8100000E-05     1.000000        6.8289000E-03    6.8770000E-03   -4.8100000E-05    1.7662981E-04     5661.559    
 p140                 obsgroup      6.2727000E-03    6.7830000E-03   -5.1030000E-04     1.000000        6.2727000E-03    6.7830000E-03   -5.1030000E-04    1.7662981E-04     5661.559    
 p141                 obsgroup      6.6744000E-03    6.6940000E-03   -1.9600000E-05     1.000000        6.6744000E-03    6.6940000E-03   -1.9600000E-05    1.7662981E-04     5661.559    
 p142                 obsgroup      6.5405000E-03    6.6500000E-03   -1.0950000E-04     1.000000        6.5405000E-03    6.6500000E-03   -1.0950000E-04    1.7662981E-04     5661.559    
 p143                 obsgroup      6.3345000E-03    6.5630000E-03   -2.2850000E-04     1.000000        6.3345000E-03    6.5630000E-03   -2.2850000E-04    1.7662981E-04     5661.559    
 p144                 obsgroup      6.6435000E-03    6.4790000E-03    1.6450000E-04     1.000000        6.6435000E-03    6.4790000E-03    1.6450000E-04    1.7662981E-04     5661.559    
 p145                 obsgroup      6.2624000E-03    6.4370000E-03   -1.7460000E-04     1.000000        6.2624000E-03    6.4370000E-03   -1.7460000E-04    1.7662981E-04     5661.559    
 p146                 obsgroup      6.4169000E-03    6.2840000E-03    1.3290000E-04     1.000000        6.4169000E-03    6.2840000E-03    1.3290000E-04    1.7662981E-04     5661.559    
 p147                 obsgroup      6.3139000E-03    6.2040000E-03    1.0990000E-04     1.000000        6.3139000E-03    6.2040000E-03    1.0990000E-04    1.7662981E-04     5661.559    
 p148                 obsgroup      5.9122000E-03    6.1270000E-03   -2.1480000E-04     1.000000        5.9122000E-03    6.1270000E-03   -2.1480000E-04    1.7662981E-04     5661.559    
 p149                 obsgroup      6.3757000E-03    6.0490000E-03    3.2670000E-04     1.000000        6.3757000E-03    6.0490000E-03    3.2670000E-04    1.7662981E-04     5661.559    
 p150                 obsgroup      6.1697000E-03    5.8070000E-03    3.6270000E-04     1.000000        6.1697000E-03    5.8070000E-03    3.6270000E-04    1.7662981E-04     5661.559    
 p151                 obsgroup      5.9019000E-03    5.7360000E-03    1.6590000E-04     1.000000        5.9019000E-03    5.7360000E-03    1.6590000E-04    1.7662981E-04     5661.559    
 p152                 obsgroup      5.8504000E-03    5.6660000E-03    1.8440000E-04     1.000000        5.8504000E-03    5.6660000E-03    1.8440000E-04    1.7662981E-04     5661.559    
 p153                 obsgroup      5.8092000E-03    5.5980000E-03    2.1120000E-04     1.000000        5.8092000E-03    5.5980000E-03    2.1120000E-04    1.7662981E-04     5661.559    
 p154                 obsgroup      5.7062000E-03    5.5330000E-03    1.7320000E-04     1.000000        5.7062000E-03    5.5330000E-03    1.7320000E-04    1.7662981E-04     5661.559    
 p155                 obsgroup      5.3045000E-03    5.4680000E-03   -1.6350000E-04     1.000000        5.3045000E-03    5.4680000E-03   -1.6350000E-04    1.7662981E-04     5661.559    
 p156                 obsgroup      5.7371000E-03    5.4050000E-03    3.3210000E-04     1.000000        5.7371000E-03    5.4050000E-03    3.3210000E-04    1.7662981E-04     5661.559    
 p157                 obsgroup      5.5620000E-03    5.3430000E-03    2.1900000E-04     1.000000        5.5620000E-03    5.3430000E-03    2.1900000E-04    1.7662981E-04     5661.559    
 p158                 obsgroup      5.3766000E-03    5.2820000E-03    9.4600000E-05     1.000000        5.3766000E-03    5.2820000E-03    9.4600000E-05    1.7662981E-04     5661.559    
 p159                 obsgroup      5.4178000E-03    5.2210000E-03    1.9680000E-04     1.000000        5.4178000E-03    5.2210000E-03    1.9680000E-04    1.7662981E-04     5661.559    
 p160                 obsgroup      5.3663000E-03    5.1610000E-03    2.0530000E-04     1.000000        5.3663000E-03    5.1610000E-03    2.0530000E-04    1.7662981E-04     5661.559    
 p161                 obsgroup      5.2118000E-03    5.1020000E-03    1.0980000E-04     1.000000        5.2118000E-03    5.1020000E-03    1.0980000E-04    1.7662981E-04     5661.559    
 p162                 obsgroup      5.0058000E-03    5.0430000E-03   -3.7200000E-05     1.000000        5.0058000E-03    5.0430000E-03   -3.7200000E-05    1.7662981E-04     5661.559    
 p163                 obsgroup      5.1397000E-03    5.0140000E-03    1.2570000E-04     1.000000        5.1397000E-03    5.0140000E-03    1.2570000E-04    1.7662981E-04     5661.559    
 p164                 obsgroup      4.9543000E-03    4.9550000E-03   -7.0000000E-07     1.000000        4.9543000E-03    4.9550000E-03   -7.0000000E-07    1.7662981E-04     5661.559    
 p165                 obsgroup      4.8616000E-03    4.8960000E-03   -3.4400000E-05     1.000000        4.8616000E-03    4.8960000E-03   -3.4400000E-05    1.7662981E-04     5661.559    
 p166                 obsgroup      5.1397000E-03    4.8670000E-03    2.7270000E-04     1.000000        5.1397000E-03    4.8670000E-03    2.7270000E-04    1.7662981E-04     5661.559    
 p167                 obsgroup      4.7174000E-03    4.8090000E-03   -9.1600000E-05     1.000000        4.7174000E-03    4.8090000E-03   -9.1600000E-05    1.7662981E-04     5661.559    
 p168                 obsgroup      5.0161000E-03    4.7520000E-03    2.6410000E-04     1.000000        5.0161000E-03    4.7520000E-03    2.6410000E-04    1.7662981E-04     5661.559    
 p169                 obsgroup      4.7483000E-03    4.7240000E-03    2.4300000E-05     1.000000        4.7483000E-03    4.7240000E-03    2.4300000E-05    1.7662981E-04     5661.559    
 p170                 obsgroup      4.7895000E-03    4.6680000E-03    1.2150000E-04     1.000000        4.7895000E-03    4.6680000E-03    1.2150000E-04    1.7662981E-04     5661.559    
 p171                 obsgroup      4.7174000E-03    4.6140000E-03    1.0340000E-04     1.000000        4.7174000E-03    4.6140000E-03    1.0340000E-04    1.7662981E-04     5661.559    
 p172                 obsgroup      4.6659000E-03    4.5890000E-03    7.6900000E-05     1.000000        4.6659000E-03    4.5890000E-03    7.6900000E-05    1.7662981E-04     5661.559    
 p173                 obsgroup      4.6968000E-03    4.5380000E-03    1.5880000E-04     1.000000        4.6968000E-03    4.5380000E-03    1.5880000E-04    1.7662981E-04     5661.559    
 p174                 obsgroup      4.5938000E-03    4.4870000E-03    1.0680000E-04     1.000000        4.5938000E-03    4.4870000E-03    1.0680000E-04    1.7662981E-04     5661.559    
 p175                 obsgroup      4.4187000E-03    4.4610000E-03   -4.2300000E-05     1.000000        4.4187000E-03    4.4610000E-03   -4.2300000E-05    1.7662981E-04     5661.559    
 p176                 obsgroup      4.4496000E-03    4.4120000E-03    3.7600000E-05     1.000000        4.4496000E-03    4.4120000E-03    3.7600000E-05    1.7662981E-04     5661.559    
 p177                 obsgroup      4.5320000E-03    4.3620000E-03    1.7000000E-04     1.000000        4.5320000E-03    4.3620000E-03    1.7000000E-04    1.7662981E-04     5661.559    
 p178                 obsgroup      4.4290000E-03    4.3380000E-03    9.1000000E-05     1.000000        4.4290000E-03    4.3380000E-03    9.1000000E-05    1.7662981E-04     5661.559    
 p179                 obsgroup      4.3878000E-03    4.2890000E-03    9.8800000E-05     1.000000        4.3878000E-03    4.2890000E-03    9.8800000E-05    1.7662981E-04     5661.559    
 p180                 obsgroup      4.4496000E-03    4.2400000E-03    2.0960000E-04     1.000000        4.4496000E-03    4.2400000E-03    2.0960000E-04    1.7662981E-04     5661.559    
 p181                 obsgroup      4.3260000E-03    4.2160000E-03    1.1000000E-04     1.000000        4.3260000E-03    4.2160000E-03    1.1000000E-04    1.7662981E-04     5661.559    
 p182                 obsgroup      4.0891000E-03    4.1700000E-03   -8.0900000E-05     1.000000        4.0891000E-03    4.1700000E-03   -8.0900000E-05    1.7662981E-04     5661.559    
 p183                 obsgroup      4.4496000E-03    4.1220000E-03    3.2760000E-04     1.000000        4.4496000E-03    4.1220000E-03    3.2760000E-04    1.7662981E-04     5661.559    
 p184                 obsgroup      4.1921000E-03    4.0990000E-03    9.3100000E-05     1.000000        4.1921000E-03    4.0990000E-03    9.3100000E-05    1.7662981E-04     5661.559    
 p185                 obsgroup      4.1200000E-03    4.0530000E-03    6.7000000E-05     1.000000        4.1200000E-03    4.0530000E-03    6.7000000E-05    1.7662981E-04     5661.559    
 p186                 obsgroup      4.0685000E-03    4.0070000E-03    6.1500000E-05     1.000000        4.0685000E-03    4.0070000E-03    6.1500000E-05    1.7662981E-04     5661.559    
 p187                 obsgroup      3.9449000E-03    3.9620000E-03   -1.7100000E-05     1.000000        3.9449000E-03    3.9620000E-03   -1.7100000E-05    1.7662981E-04     5661.559    
 p188                 obsgroup      3.8934000E-03    3.9180000E-03   -2.4600000E-05     1.000000        3.8934000E-03    3.9180000E-03   -2.4600000E-05    1.7662981E-04     5661.559    
 p189                 obsgroup      4.0479000E-03    3.8760000E-03    1.7190000E-04     1.000000        4.0479000E-03    3.8760000E-03    1.7190000E-04    1.7662981E-04     5661.559    
 p190                 obsgroup      4.0273000E-03    3.8350000E-03    1.9230000E-04     1.000000        4.0273000E-03    3.8350000E-03    1.9230000E-04    1.7662981E-04     5661.559    
 p191                 obsgroup      3.7698000E-03    3.7940000E-03   -2.4200000E-05     1.000000        3.7698000E-03    3.7940000E-03   -2.4200000E-05    1.7662981E-04     5661.559    
 p192                 obsgroup      3.7389000E-03    3.7540000E-03   -1.5100000E-05     1.000000        3.7389000E-03    3.7540000E-03   -1.5100000E-05    1.7662981E-04     5661.559    
 p193                 obsgroup      3.7080000E-03    3.7330000E-03   -2.5000000E-05     1.000000        3.7080000E-03    3.7330000E-03   -2.5000000E-05    1.7662981E-04     5661.559    
 p194                 obsgroup      3.6977000E-03    3.6930000E-03    4.7000000E-06     1.000000        3.6977000E-03    3.6930000E-03    4.7000000E-06    1.7662981E-04     5661.559    
 p195                 obsgroup      3.6565000E-03    3.6540000E-03    2.5000000E-06     1.000000        3.6565000E-03    3.6540000E-03    2.5000000E-06    1.7662981E-04     5661.559    
 p196                 obsgroup      3.6977000E-03    3.6340000E-03    6.3700000E-05     1.000000        3.6977000E-03    3.6340000E-03    6.3700000E-05    1.7662981E-04     5661.559    
 p197                 obsgroup      3.7492000E-03    3.5970000E-03    1.5220000E-04     1.000000        3.7492000E-03    3.5970000E-03    1.5220000E-04    1.7662981E-04     5661.559    
 p198                 obsgroup      3.6874000E-03    3.5600000E-03    1.2740000E-04     1.000000        3.6874000E-03    3.5600000E-03    1.2740000E-04    1.7662981E-04     5661.559    
 p199                 obsgroup      3.6771000E-03    3.5230000E-03    1.5410000E-04     1.000000        3.6771000E-03    3.5230000E-03    1.5410000E-04    1.7662981E-04     5661.559    
 p200                 obsgroup      3.5432000E-03    3.4850000E-03    5.8200000E-05     1.000000        3.5432000E-03    3.4850000E-03    5.8200000E-05    1.7662981E-04     5661.559    
 p201                 obsgroup      3.3578000E-03    3.4480000E-03   -9.0200000E-05     1.000000        3.3578000E-03    3.4480000E-03   -9.0200000E-05    1.7662981E-04     5661.559    
 p202                 obsgroup      3.3990000E-03    3.4290000E-03   -3.0000000E-05     1.000000        3.3990000E-03    3.4290000E-03   -3.0000000E-05    1.7662981E-04     5661.559    
 p203                 obsgroup      3.3372000E-03    3.3930000E-03   -5.5800000E-05     1.000000        3.3372000E-03    3.3930000E-03   -5.5800000E-05    1.7662981E-04     5661.559    
 p204                 obsgroup      3.3269000E-03    3.3570000E-03   -3.0100000E-05     1.000000        3.3269000E-03    3.3570000E-03   -3.0100000E-05    1.7662981E-04     5661.559    
 p205                 obsgroup      3.4093000E-03    3.3220000E-03    8.7300000E-05     1.000000        3.4093000E-03    3.3220000E-03    8.7300000E-05    1.7662981E-04     5661.559    
 p206                 obsgroup      3.2136000E-03    3.2880000E-03   -7.4400000E-05     1.000000        3.2136000E-03    3.2880000E-03   -7.4400000E-05    1.7662981E-04     5661.559    
 p207                 obsgroup      3.2651000E-03    3.2540000E-03    1.1100000E-05     1.000000        3.2651000E-03    3.2540000E-03    1.1100000E-05    1.7662981E-04     5661.559    
 p208                 obsgroup      3.2033000E-03    3.2220000E-03   -1.8700000E-05     1.000000        3.2033000E-03    3.2220000E-03   -1.8700000E-05    1.7662981E-04     5661.559    
 p209                 obsgroup      3.2754000E-03    3.1890000E-03    8.6400000E-05     1.000000        3.2754000E-03    3.1890000E-03    8.6400000E-05    1.7662981E-04     5661.559    
 p210                 obsgroup      3.2239000E-03    3.1600000E-03    6.3900000E-05     1.000000        3.2239000E-03    3.1600000E-03    6.3900000E-05    1.7662981E-04     5661.559    
 p211                 obsgroup      2.9767000E-03    3.1300000E-03   -1.5330000E-04     1.000000        2.9767000E-03    3.1300000E-03   -1.5330000E-04    1.7662981E-04     5661.559    
 p212                 obsgroup      3.1724000E-03    3.1000000E-03    7.2400000E-05     1.000000        3.1724000E-03    3.1000000E-03    7.2400000E-05    1.7662981E-04     5661.559    
 p213                 obsgroup      3.1209000E-03    3.0690000E-03    5.1900000E-05     1.000000        3.1209000E-03    3.0690000E-03    5.1900000E-05    1.7662981E-04     5661.559    
 p214                 obsgroup      3.0797000E-03    3.0390000E-03    4.0700000E-05     1.000000        3.0797000E-03    3.0390000E-03    4.0700000E-05    1.7662981E-04     5661.559    
 p215                 obsgroup      2.9767000E-03    3.0080000E-03   -3.1300000E-05     1.000000        2.9767000E-03    3.0080000E-03   -3.1300000E-05    1.7662981E-04     5661.559    
 p216                 obsgroup      2.8737000E-03    2.9770000E-03   -1.0330000E-04     1.000000        2.8737000E-03    2.9770000E-03   -1.0330000E-04    1.7662981E-04     5661.559    
 p217                 obsgroup      2.9252000E-03    2.9460000E-03   -2.0800000E-05     1.000000        2.9252000E-03    2.9460000E-03   -2.0800000E-05    1.7662981E-04     5661.559    
 p218                 obsgroup      2.8634000E-03    2.9150000E-03   -5.1600000E-05     1.000000        2.8634000E-03    2.9150000E-03   -5.1600000E-05    1.7662981E-04     5661.559    
 p219                 obsgroup      2.9355000E-03    2.8870000E-03    4.8500000E-05     1.000000        2.9355000E-03    2.8870000E-03    4.8500000E-05    1.7662981E-04     5661.559    
 p220                 obsgroup      2.7398000E-03    2.8720000E-03   -1.3220000E-04     1.000000        2.7398000E-03    2.8720000E-03   -1.3220000E-04    1.7662981E-04     5661.559    
 p221                 obsgroup      2.8840000E-03    2.8450000E-03    3.9000000E-05     1.000000        2.8840000E-03    2.8450000E-03    3.9000000E-05    1.7662981E-04     5661.559    
 p222                 obsgroup      2.8119000E-03    2.8160000E-03   -4.1000000E-06     1.000000        2.8119000E-03    2.8160000E-03   -4.1000000E-06    1.7662981E-04     5661.559    
 p223                 obsgroup      2.7501000E-03    2.7880000E-03   -3.7900000E-05     1.000000        2.7501000E-03    2.7880000E-03   -3.7900000E-05    1.7662981E-04     5661.559    
 p224                 obsgroup      2.7398000E-03    2.7600000E-03   -2.0200000E-05     1.000000        2.7398000E-03    2.7600000E-03   -2.0200000E-05    1.7662981E-04     5661.559    
 p225                 obsgroup      2.6162000E-03    2.7340000E-03   -1.1780000E-04     1.000000        2.6162000E-03    2.7340000E-03   -1.1780000E-04    1.7662981E-04     5661.559    
 p226                 obsgroup      2.7295000E-03    2.7070000E-03    2.2500000E-05     1.000000        2.7295000E-03    2.7070000E-03    2.2500000E-05    1.7662981E-04     5661.559    
 p227                 obsgroup      2.5132000E-03    2.6810000E-03   -1.6780000E-04     1.000000        2.5132000E-03    2.6810000E-03   -1.6780000E-04    1.7662981E-04     5661.559    
 p228                 obsgroup      2.5647000E-03    2.6550000E-03   -9.0300000E-05     1.000000        2.5647000E-03    2.6550000E-03   -9.0300000E-05    1.7662981E-04     5661.559    
 p229                 obsgroup      2.5132000E-03    2.6300000E-03   -1.1680000E-04     1.000000        2.5132000E-03    2.6300000E-03   -1.1680000E-04    1.7662981E-04     5661.559    
 p230                 obsgroup      2.5235000E-03    2.6040000E-03   -8.0500000E-05     1.000000        2.5235000E-03    2.6040000E-03   -8.0500000E-05    1.7662981E-04     5661.559    
 p231                 obsgroup      2.4411000E-03    2.5790000E-03   -1.3790000E-04     1.000000        2.4411000E-03    2.5790000E-03   -1.3790000E-04    1.7662981E-04     5661.559    
 p232                 obsgroup      2.6059000E-03    2.5530000E-03    5.2900000E-05     1.000000        2.6059000E-03    2.5530000E-03    5.2900000E-05    1.7662981E-04     5661.559    
 p233                 obsgroup      2.5029000E-03    2.5280000E-03   -2.5100000E-05     1.000000        2.5029000E-03    2.5280000E-03   -2.5100000E-05    1.7662981E-04     5661.559    
 p234                 obsgroup      2.4720000E-03    2.3990000E-03    7.3000000E-05     1.000000        2.4720000E-03    2.3990000E-03    7.3000000E-05    1.7662981E-04     5661.559    
 p235                 obsgroup      2.5029000E-03    2.3770000E-03    1.2590000E-04     1.000000        2.5029000E-03    2.3770000E-03    1.2590000E-04    1.7662981E-04     5661.559    
 p236                 obsgroup      2.4205000E-03    2.3540000E-03    6.6500000E-05     1.000000        2.4205000E-03    2.3540000E-03    6.6500000E-05    1.7662981E-04     5661.559    
 p237                 obsgroup      2.4308000E-03    2.3320000E-03    9.8800000E-05     1.000000        2.4308000E-03    2.3320000E-03    9.8800000E-05    1.7662981E-04     5661.559    
 p238                 obsgroup      2.4205000E-03    2.3000000E-03    1.2050000E-04     1.000000        2.4205000E-03    2.3000000E-03    1.2050000E-04    1.7662981E-04     5661.559    
 p239                 obsgroup      2.1424000E-03    2.2770000E-03   -1.3460000E-04     1.000000        2.1424000E-03    2.2770000E-03   -1.3460000E-04    1.7662981E-04     5661.559    
 p240                 obsgroup      2.3072000E-03    2.2550000E-03    5.2200000E-05     1.000000        2.3072000E-03    2.2550000E-03    5.2200000E-05    1.7662981E-04     5661.559    
 p241                 obsgroup      2.1836000E-03    2.2440000E-03   -6.0400000E-05     1.000000        2.1836000E-03    2.2440000E-03   -6.0400000E-05    1.7662981E-04     5661.559    
 p242                 obsgroup      2.3484000E-03    2.2230000E-03    1.2540000E-04     1.000000        2.3484000E-03    2.2230000E-03    1.2540000E-04    1.7662981E-04     5661.559    
 p243                 obsgroup      2.3072000E-03    2.2010000E-03    1.0620000E-04     1.000000        2.3072000E-03    2.2010000E-03    1.0620000E-04    1.7662981E-04     5661.559    
 p244                 obsgroup      2.2042000E-03    2.1600000E-03    4.4200000E-05     1.000000        2.2042000E-03    2.1600000E-03    4.4200000E-05    1.7662981E-04     5661.559    
 p245                 obsgroup      2.1424000E-03    2.0880000E-03    5.4400000E-05     1.000000        2.1424000E-03    2.0880000E-03    5.4400000E-05    1.7662981E-04     5661.559    
 p246                 obsgroup      2.1218000E-03    2.0780000E-03    4.3800000E-05     1.000000        2.1218000E-03    2.0780000E-03    4.3800000E-05    1.7662981E-04     5661.559    
 p247                 obsgroup      2.2145000E-03    2.0580000E-03    1.5650000E-04     1.000000        2.2145000E-03    2.0580000E-03    1.5650000E-04    1.7662981E-04     5661.559    
 p248                 obsgroup      2.1424000E-03    2.0390000E-03    1.0340000E-04     1.000000        2.1424000E-03    2.0390000E-03    1.0340000E-04    1.7662981E-04     5661.559    
 p249                 obsgroup      1.9673000E-03    2.0190000E-03   -5.1700000E-05     1.000000        1.9673000E-03    2.0190000E-03   -5.1700000E-05    1.7662981E-04     5661.559    
 p250                 obsgroup      1.9570000E-03    2.0000000E-03   -4.3000000E-05     1.000000        1.9570000E-03    2.0000000E-03   -4.3000000E-05    1.7662981E-04     5661.559    
 p251                 obsgroup      1.9673000E-03    1.9810000E-03   -1.3700000E-05     1.000000        1.9673000E-03    1.9810000E-03   -1.3700000E-05    1.7662981E-04     5661.559    
 p252                 obsgroup      2.0085000E-03    1.9600000E-03    4.8500000E-05     1.000000        2.0085000E-03    1.9600000E-03    4.8500000E-05    1.7662981E-04     5661.559    
 p253                 obsgroup      1.8128000E-03    1.9300000E-03   -1.1720000E-04     1.000000        1.8128000E-03    1.9300000E-03   -1.1720000E-04    1.7662981E-04     5661.559    
 p254                 obsgroup      1.7098000E-03    1.9020000E-03   -1.9220000E-04     1.000000        1.7098000E-03    1.9020000E-03   -1.9220000E-04    1.7662981E-04     5661.559    
 p255                 obsgroup      1.6789000E-03    1.8740000E-03   -1.9510000E-04     1.000000        1.6789000E-03    1.8740000E-03   -1.9510000E-04    1.7662981E-04     5661.559    
 p256                 obsgroup      1.4832000E-03    1.8480000E-03   -3.6480000E-04     1.000000        1.4832000E-03    1.8480000E-03   -3.6480000E-04    1.7662981E-04     5661.559    
 p257                 obsgroup      1.4935000E-03    1.8210000E-03   -3.2750000E-04     1.000000        1.4935000E-03    1.8210000E-03   -3.2750000E-04    1.7662981E-04     5661.559    
 p258                 obsgroup      1.5038000E-03    1.8040000E-03   -3.0020000E-04     1.000000        1.5038000E-03    1.8040000E-03   -3.0020000E-04    1.7662981E-04     5661.559    
 p259                 obsgroup      1.5141000E-03    1.7790000E-03   -2.6490000E-04     1.000000        1.5141000E-03    1.7790000E-03   -2.6490000E-04    1.7662981E-04     5661.559    
 p260                 obsgroup      1.4626000E-03    1.7630000E-03   -3.0040000E-04     1.000000        1.4626000E-03    1.7630000E-03   -3.0040000E-04    1.7662981E-04     5661.559    
 p261                 obsgroup      1.3596000E-03    1.7390000E-03   -3.7940000E-04     1.000000        1.3596000E-03    1.7390000E-03   -3.7940000E-04    1.7662981E-04     5661.559    
 p262                 obsgroup      1.3081000E-03    1.7150000E-03   -4.0690000E-04     1.000000        1.3081000E-03    1.7150000E-03   -4.0690000E-04    1.7662981E-04     5661.559    
 p263                 obsgroup      1.2978000E-03    1.6920000E-03   -3.9420000E-04     1.000000        1.2978000E-03    1.6920000E-03   -3.9420000E-04    1.7662981E-04     5661.559    
 p264                 obsgroup      1.2669000E-03    1.6680000E-03   -4.0110000E-04     1.000000        1.2669000E-03    1.6680000E-03   -4.0110000E-04    1.7662981E-04     5661.559    
 p265                 obsgroup      1.2669000E-03    1.6460000E-03   -3.7910000E-04     1.000000        1.2669000E-03    1.6460000E-03   -3.7910000E-04    1.7662981E-04     5661.559    
 p266                 obsgroup      1.1948000E-03    1.6230000E-03   -4.2820000E-04     1.000000        1.1948000E-03    1.6230000E-03   -4.2820000E-04    1.7662981E-04     5661.559    
 p267                 obsgroup      1.0815000E-03    1.6000000E-03   -5.1850000E-04     1.000000        1.0815000E-03    1.6000000E-03   -5.1850000E-04    1.7662981E-04     5661.559    
 p268                 obsgroup      1.1536000E-03    1.5780000E-03   -4.2440000E-04     1.000000        1.1536000E-03    1.5780000E-03   -4.2440000E-04    1.7662981E-04     5661.559    
