 Name                 Group          Measured         Modelled         Residual         Weight       Weight*Measured    Weight*Modelled  Weight*Residual  Measurement_sd   Natural_weight
 p001                 obsgroup      1.1100000E-04    1.0000000E-04    1.1000000E-05     1.000000        1.1100000E-04    1.0000000E-04    1.1000000E-05    4.7608092E-04     2100.483    
 p002                 obsgroup      1.2100000E-04    1.0000000E-04    2.1000000E-05     1.000000        1.2100000E-04    1.0000000E-04    2.1000000E-05    4.7608092E-04     2100.483    
 p003                 obsgroup      1.1000000E-04    1.0000000E-04    1.0000000E-05     1.000000        1.1000000E-04    1.0000000E-04    1.0000000E-05    4.7608092E-04     2100.483    
 p004                 obsgroup      1.1100000E-04    1.0000000E-04    1.1000000E-05     1.000000        1.1100000E-04    1.0000000E-04    1.1000000E-05    4.7608092E-04     2100.483    
 p005                 obsgroup      1.1300000E-04    1.0000000E-04    1.3000000E-05     1.000000        1.1300000E-04    1.0000000E-04    1.3000000E-05    4.7608092E-04     2100.483    
 p006                 obsgroup      1.1100000E-04    1.0000000E-04    1.1000000E-05     1.000000        1.1100000E-04    1.0000000E-04    1.1000000E-05    4.7608092E-04     2100.483    
 p007                 obsgroup      1.0800000E-04    1.0000000E-04    8.0000000E-06     1.000000        1.0800000E-04    1.0000000E-04    8.0000000E-06    4.7608092E-04     2100.483    
 p008                 obsgroup      1.0600000E-04    1.0000000E-04    6.0000000E-06     1.000000        1.0600000E-04    1.0000000E-04    6.0000000E-06    4.7608092E-04     2100.483    
 p009                 obsgroup      1.0600000E-04    1.0000000E-04    6.0000000E-06     1.000000        1.0600000E-04    1.0000000E-04    6.0000000E-06    4.7608092E-04     2100.483    
 p010                 obsgroup      1.0300000E-04    1.0000000E-04    3.0000000E-06     1.000000        1.0300000E-04    1.0000000E-04    3.0000000E-06    4.7608092E-04     2100.483    
 p011                 obsgroup      1.0500000E-04    1.0000000E-04    5.0000000E-06     1.000000        1.0500000E-04    1.0000000E-04    5.0000000E-06    4.7608092E-04     2100.483    
 p012                 obsgroup      1.0500000E-04    1.0000000E-04    5.0000000E-06     1.000000        1.0500000E-04    1.0000000E-04    5.0000000E-06    4.7608092E-04     2100.483    
 p013                 obsgroup      1.0300000E-04    1.0000000E-04    3.0000000E-06     1.000000        1.0300000E-04    1.0000000E-04    3.0000000E-06    4.7608092E-04     2100.483    
 p014                 obsgroup      1.0500000E-04    1.0000000E-04    5.0000000E-06     1.000000        1.0500000E-04    1.0000000E-04    5.0000000E-06    4.7608092E-04     2100.483    
 p015                 obsgroup      1.1400000E-04    1.0000000E-04    1.4000000E-05     1.000000        1.1400000E-04    1.0000000E-04    1.4000000E-05    4.7608092E-04     2100.483    
 p016                 obsgroup      1.1900000E-04    1.0000000E-04    1.9000000E-05     1.000000        1.1900000E-04    1.0000000E-04    1.9000000E-05    4.7608092E-04     2100.483    
 p017                 obsgroup      1.1300000E-04    1.0000000E-04    1.3000000E-05     1.000000        1.1300000E-04    1.0000000E-04    1.3000000E-05    4.7608092E-04     2100.483    
 p018                 obsgroup      1.5200000E-04    1.0100000E-04    5.1000000E-05     1.000000        1.5200000E-04    1.0100000E-04    5.1000000E-05    4.7608092E-04     2100.483    
 p019                 obsgroup      1.7900000E-04    1.0300000E-04    7.6000000E-05     1.000000        1.7900000E-04    1.0300000E-04    7.6000000E-05    4.7608092E-04     2100.483    
 p020                 obsgroup      2.2700000E-04    1.0700000E-04    1.2000000E-04     1.000000        2.2700000E-04    1.0700000E-04    1.2000000E-04    4.7608092E-04     2100.483    
 p021                 obsgroup      2.6700000E-04    1.1400000E-04    1.5300000E-04     1.000000        2.6700000E-04    1.1400000E-04    1.5300000E-04    4.7608092E-04     2100.483    
 p022                 obsgroup      3.3200000E-04    1.2700000E-04    2.0500000E-04     1.000000        3.3200000E-04    1.2700000E-04    2.0500000E-04    4.7608092E-04     2100.483    
 p023                 obsgroup      4.1200000E-04    1.4600000E-04    2.6600000E-04     1.000000        4.1200000E-04    1.4600000E-04    2.6600000E-04    4.7608092E-04     2100.483    
 p024                 obsgroup      4.8000000E-04    1.7600000E-04    3.0400000E-04     1.000000        4.8000000E-04    1.7600000E-04    3.0400000E-04    4.7608092E-04     2100.483    
 p025                 obsgroup      5.4200000E-04    2.1700000E-04    3.2500000E-04     1.000000        5.4200000E-04    2.1700000E-04    3.2500000E-04    4.7608092E-04     2100.483    
 p026                 obsgroup      6.2500000E-04    2.7300000E-04    3.5200000E-04     1.000000        6.2500000E-04    2.7300000E-04    3.5200000E-04    4.7608092E-04     2100.483    
 p027                 obsgroup      7.2000000E-04    3.4400000E-04    3.7600000E-04     1.000000        7.2000000E-04    3.4400000E-04    3.7600000E-04    4.7608092E-04     2100.483    
 p028                 obsgroup      7.7600000E-04    4.3200000E-04    3.4400000E-04     1.000000        7.7600000E-04    4.3200000E-04    3.4400000E-04    4.7608092E-04     2100.483    
 p029                 obsgroup      9.1300000E-04    5.3900000E-04    3.7400000E-04     1.000000        9.1300000E-04    5.3900000E-04    3.7400000E-04    4.7608092E-04     2100.483    
 p030                 obsgroup      9.7400000E-04    6.6600000E-04    3.0800000E-04     1.000000        9.7400000E-04    6.6600000E-04    3.0800000E-04    4.7608092E-04     2100.483    
 p031                 obsgroup      1.0820000E-03    8.1600000E-04    2.6600000E-04     1.000000        1.0820000E-03    8.1600000E-04    2.6600000E-04    4.7608092E-04     2100.483    
 p032                 obsgroup      1.1950000E-03    9.9000000E-04    2.0500000E-04     1.000000        1.1950000E-03    9.9000000E-04    2.0500000E-04    4.7608092E-04     2100.483    
 p033                 obsgroup      1.3910000E-03    1.1870000E-03    2.0400000E-04     1.000000        1.3910000E-03    1.1870000E-03    2.0400000E-04    4.7608092E-04     2100.483    
 p034                 obsgroup      1.5550000E-03    1.4070000E-03    1.4800000E-04     1.000000        1.5550000E-03    1.4070000E-03    1.4800000E-04    4.7608092E-04     2100.483    
 p035                 obsgroup      1.7200000E-03    1.6470000E-03    7.3000000E-05     1.000000        1.7200000E-03    1.6470000E-03    7.3000000E-05    4.7608092E-04     2100.483    
 p036                 obsgroup      1.9360000E-03    1.9060000E-03    3.0000000E-05     1.000000        1.9360000E-03    1.9060000E-03    3.0000000E-05    4.7608092E-04     2100.483    
 p037                 obsgroup      1.9880000E-03    2.1780000E-03   -1.9000000E-04     1.000000        1.9880000E-03    2.1780000E-03   -1.9000000E-04    4.7608092E-04     2100.483    
 p038                 obsgroup      2.4930000E-03    2.4660000E-03    2.7000000E-05     1.000000        2.4930000E-03    2.4660000E-03    2.7000000E-05    4.7608092E-04     2100.483    
 p039                 obsgroup      2.6780000E-03    2.7720000E-03   -9.4000000E-05     1.000000        2.6780000E-03    2.7720000E-03   -9.4000000E-05    4.7608092E-04     2100.483    
 p040                 obsgroup      3.0390000E-03    3.0770000E-03   -3.8000000E-05     1.000000        3.0390000E-03    3.0770000E-03   -3.8000000E-05    4.7608092E-04     2100.483    
 p041                 obsgroup      3.3370000E-03    3.3960000E-03   -5.9000000E-05     1.000000        3.3370000E-03    3.3960000E-03   -5.9000000E-05    4.7608092E-04     2100.483    
 p042                 obsgroup      3.5020000E-03    3.7340000E-03   -2.3200000E-04     1.000000        3.5020000E-03    3.7340000E-03   -2.3200000E-04    4.7608092E-04     2100.483    
 p043                 obsgroup      3.8420000E-03    4.0870000E-03   -2.4500000E-04     1.000000        3.8420000E-03    4.0870000E-03   -2.4500000E-04    4.7608092E-04     2100.483    
 p044                 obsgroup      4.1300000E-03    4.4400000E-03   -3.1000000E-04     1.000000        4.1300000E-03    4.4400000E-03   -3.1000000E-04    4.7608092E-04     2100.483    
 p045                 obsgroup      4.7690000E-03    4.8190000E-03   -5.0000000E-05     1.000000        4.7690000E-03    4.8190000E-03   -5.0000000E-05    4.7608092E-04     2100.483    
 p046                 obsgroup      5.0880000E-03    5.2020000E-03   -1.1400000E-04     1.000000        5.0880000E-03    5.2020000E-03   -1.1400000E-04    4.7608092E-04     2100.483    
 p047                 obsgroup      5.5410000E-03    5.5960000E-03   -5.5000000E-05     1.000000        5.5410000E-03    5.5960000E-03   -5.5000000E-05    4.7608092E-04     2100.483    
 p048                 obsgroup      6.1180000E-03    5.9970000E-03    1.2100000E-04     1.000000        6.1180000E-03    5.9970000E-03    1.2100000E-04    4.7608092E-04     2100.483    
 p049                 obsgroup      6.3140000E-03    6.3950000E-03   -8.1000000E-05     1.000000        6.3140000E-03    6.3950000E-03   -8.1000000E-05    4.7608092E-04     2100.483    
 p050                 obsgroup      7.3950000E-03    7.3860000E-03    9.0000000E-06     1.000000        7.3950000E-03    7.3860000E-03    9.0000000E-06    4.7608092E-04     2100.483    
 p051                 obsgroup      8.5590000E-03    8.3750000E-03    1.8400000E-04     1.000000        8.5590000E-03    8.3750000E-03    1.8400000E-04    4.7608092E-04     2100.483    
 p052                 obsgroup      9.2190000E-03    9.3350000E-03   -1.1600000E-04     1.000000        9.2190000E-03    9.3350000E-03   -1.1600000E-04    4.7608092E-04     2100.483    
 p053                 obsgroup      9.9910000E-03    1.0263000E-02   -2.7200000E-04     1.000000        9.9910000E-03    1.0263000E-02   -2.7200000E-04    4.7608092E-04     2100.483    
 p054                 obsgroup      1.1124000E-02    1.1192000E-02   -6.8000000E-05     1.000000        1.1124000E-02    1.1192000E-02   -6.8000000E-05    4.7608092E-04     2100.483    
 p055                 obsgroup      1.2154000E-02    1.2078000E-02    7.6000000E-05     1.000000        1.2154000E-02    1.2078000E-02    7.6000000E-05    4.7608092E-04     2100.483    
 p056                 obsgroup      1.3287000E-02    1.2928000E-02    3.5900000E-04     1.000000        1.3287000E-02    1.2928000E-02    3.5900000E-04    4.7608092E-04     2100.483    
 p057                 obsgroup      1.4420000E-02    1.3722000E-02    6.9800000E-04     1.000000        1.4420000E-02    1.3722000E-02    6.9800000E-04    4.7608092E-04     2100.483    
 p058                 obsgroup      1.4729000E-02    1.4475000E-02    2.5400000E-04     1.000000        1.4729000E-02    1.4475000E-02    2.5400000E-04    4.7608092E-04     2100.483    
 p059                 obsgroup      1.5656000E-02    1.5189000E-02    4.6700000E-04     1.000000        1.5656000E-02    1.5189000E-02    4.6700000E-04    4.7608092E-04     2100.483    
 p060                 obsgroup      1.6480000E-02    1.5860000E-02    6.2000000E-04     1.000000        1.6480000E-02    1.5860000E-02    6.2000000E-04    4.7608092E-04     2100.483    
 p061                 obsgroup      1.6583000E-02    1.6493000E-02    9.0000000E-05     1.000000        1.6583000E-02    1.6493000E-02    9.0000000E-05    4.7608092E-04     2100.483    
 p062                 obsgroup      1.6892000E-02    1.7064000E-02   -1.7200000E-04     1.000000        1.6892000E-02    1.7064000E-02   -1.7200000E-04    4.7608092E-04     2100.483    
 p063                 obsgroup      1.7716000E-02    1.7593000E-02    1.2300000E-04     1.000000        1.7716000E-02    1.7593000E-02    1.2300000E-04    4.7608092E-04     2100.483    
 p064                 obsgroup      1.8540000E-02    1.8085000E-02    4.5500000E-04     1.000000        1.8540000E-02    1.8085000E-02    4.5500000E-04    4.7608092E-04     2100.483    
 p065                 obsgroup      1.8437000E-02    1.8544000E-02   -1.0700000E-04     1.000000        1.8437000E-02    1.8544000E-02   -1.0700000E-04    4.7608092E-04     2100.483    
 p066                 obsgroup      1.9055000E-02    1.8979000E-02    7.6000000E-05     1.000000        1.9055000E-02    1.8979000E-02    7.6000000E-05    4.7608092E-04     2100.483    
 p067                 obsgroup      1.9364000E-02    1.9372000E-02   -8.0000000E-06     1.000000        1.9364000E-02    1.9372000E-02   -8.0000000E-06    4.7608092E-04     2100.483    
 p068                 obsgroup      1.8025000E-02    1.9728000E-02   -1.7030000E-03     1.000000        1.8025000E-02    1.9728000E-02   -1.7030000E-03    4.7608092E-04     2100.483    
 p069                 obsgroup      2.0600000E-02    2.0043000E-02    5.5700000E-04     1.000000        2.0600000E-02    2.0043000E-02    5.5700000E-04    4.7608092E-04     2100.483    
 p070                 obsgroup      1.9570000E-02    2.0325000E-02   -7.5500000E-04     1.000000        1.9570000E-02    2.0325000E-02   -7.5500000E-04    4.7608092E-04     2100.483    
 p071                 obsgroup      2.0806000E-02    2.0585000E-02    2.2100000E-04     1.000000        2.0806000E-02    2.0585000E-02    2.2100000E-04    4.7608092E-04     2100.483    
 p072                 obsgroup      2.1012000E-02    2.0819000E-02    1.9300000E-04     1.000000        2.1012000E-02    2.0819000E-02    1.9300000E-04    4.7608092E-04     2100.483    
 p073                 obsgroup      2.1012000E-02    2.1034000E-02   -2.2000000E-05     1.000000        2.1012000E-02    2.1034000E-02   -2.2000000E-05    4.7608092E-04     2100.483    
 p074                 obsgroup      2.1321000E-02    2.1215000E-02    1.0600000E-04     1.000000        2.1321000E-02    2.1215000E-02    1.0600000E-04    4.7608092E-04     2100.483    
 p075                 obsgroup      2.1939000E-02    2.1374000E-02    5.6500000E-04     1.000000        2.1939000E-02    2.1374000E-02    5.6500000E-04    4.7608092E-04     2100.483    
 p076                 obsgroup      2.0806000E-02    2.1513000E-02   -7.0700000E-04     1.000000        2.0806000E-02    2.1513000E-02   -7.0700000E-04    4.7608092E-04     2100.483    
 p077                 obsgroup      2.0806000E-02    2.1630000E-02   -8.2400000E-04     1.000000        2.0806000E-02    2.1630000E-02   -8.2400000E-04    4.7608092E-04     2100.483    
 p078                 obsgroup      2.0806000E-02    2.1728000E-02   -9.2200000E-04     1.000000        2.0806000E-02    2.1728000E-02   -9.2200000E-04    4.7608092E-04     2100.483    
 p079                 obsgroup      2.0806000E-02    2.1812000E-02   -1.0060000E-03     1.000000        2.0806000E-02    2.1812000E-02   -1.0060000E-03    4.7608092E-04     2100.483    
 p080                 obsgroup      2.0703000E-02    2.1876000E-02   -1.1730000E-03     1.000000        2.0703000E-02    2.1876000E-02   -1.1730000E-03    4.7608092E-04     2100.483    
 p081                 obsgroup      2.1630000E-02    2.1924000E-02   -2.9400000E-04     1.000000        2.1630000E-02    2.1924000E-02   -2.9400000E-04    4.7608092E-04     2100.483    
 p082                 obsgroup      2.0703000E-02    2.1958000E-02   -1.2550000E-03     1.000000        2.0703000E-02    2.1958000E-02   -1.2550000E-03    4.7608092E-04     2100.483    
 p083                 obsgroup      2.1733000E-02    2.1978000E-02   -2.4500000E-04     1.000000        2.1733000E-02    2.1978000E-02   -2.4500000E-04    4.7608092E-04     2100.483    
 p084                 obsgroup      2.2248000E-02    2.1985000E-02    2.6300000E-04     1.000000        2.2248000E-02    2.1985000E-02    2.6300000E-04    4.7608092E-04     2100.483    
 p085                 obsgroup      2.2866000E-02    2.1981000E-02    8.8500000E-04     1.000000        2.2866000E-02    2.1981000E-02    8.8500000E-04    4.7608092E-04     2100.483    
 p086                 obsgroup      2.2248000E-02    2.1966000E-02    2.8200000E-04     1.000000        2.2248000E-02    2.1966000E-02    2.8200000E-04    4.7608092E-04     2100.483    
 p087                 obsgroup      2.3175000E-02    2.1942000E-02    1.2330000E-03     1.000000        2.3175000E-02    2.1942000E-02    1.2330000E-03    4.7608092E-04     2100.483    
 p088                 obsgroup      2.2145000E-02    2.1909000E-02    2.3600000E-04     1.000000        2.2145000E-02    2.1909000E-02    2.3600000E-04    4.7608092E-04     2100.483    
 p089                 obsgroup      2.3072000E-02    2.1866000E-02    1.2060000E-03     1.000000        2.3072000E-02    2.1866000E-02    1.2060000E-03    4.7608092E-04     2100.483    
 p090                 obsgroup      2.2660000E-02    2.1754000E-02    9.0600000E-04     1.000000        2.2660000E-02    2.1754000E-02    9.0600000E-04    4.7608092E-04     2100.483    
 p091                 obsgroup      2.1527000E-02    2.1613000E-02   -8.6000000E-05     1.000000        2.1527000E-02    2.1613000E-02   -8.6000000E-05    4.7608092E-04     2100.483    
 p092                 obsgroup      2.2454000E-02    2.1448000E-02    1.0060000E-03     1.000000        2.2454000E-02    2.1448000E-02    1.0060000E-03    4.7608092E-04     2100.483    
 p093                 obsgroup      2.1527000E-02    2.1255000E-02    2.7200000E-04     1.000000        2.1527000E-02    2.1255000E-02    2.7200000E-04    4.7608092E-04     2100.483    
 p094                 obsgroup      2.1115000E-02    2.1044000E-02    7.1000000E-05     1.000000        2.1115000E-02    2.1044000E-02    7.1000000E-05    4.7608092E-04     2100.483    
 p095                 obsgroup      2.0909000E-02    2.0816000E-02    9.3000000E-05     1.000000        2.0909000E-02    2.0816000E-02    9.3000000E-05    4.7608092E-04     2100.483    
 p096                 obsgroup      2.0600000E-02    2.0568000E-02    3.2000000E-05     1.000000        2.0600000E-02    2.0568000E-02    3.2000000E-05    4.7608092E-04     2100.483    
 p097                 obsgroup      2.0394000E-02    2.0314000E-02    8.0000000E-05     1.000000        2.0394000E-02    2.0314000E-02    8.0000000E-05    4.7608092E-04     2100.483    
 p098                 obsgroup      1.9776000E-02    2.0069000E-02   -2.9300000E-04     1.000000        1.9776000E-02    2.0069000E-02   -2.9300000E-04    4.7608092E-04     2100.483    
 p099                 obsgroup      2.0600000E-02    1.9837000E-02    7.6300000E-04     1.000000        2.0600000E-02    1.9837000E-02    7.6300000E-04    4.7608092E-04     2100.483    
 p100                 obsgroup      1.9261000E-02    1.9568000E-02   -3.0700000E-04     1.000000        1.9261000E-02    1.9568000E-02   -3.0700000E-04    4.7608092E-04     2100.483    
 p101                 obsgroup      1.9776000E-02    1.9291000E-02    4.8500000E-04     1.000000        1.9776000E-02    1.9291000E-02    4.8500000E-04    4.7608092E-04     2100.483    
 p102                 obsgroup      1.9055000E-02    1.9000000E-02    5.5000000E-05     1.000000        1.9055000E-02    1.9000000E-02    5.5000000E-05    4.7608092E-04     2100.483    
 p103                 obsgroup      1.9158000E-02    1.8715000E-02    4.4300000E-04     1.000000        1.9158000E-02    1.8715000E-02    4.4300000E-04    4.7608092E-04     2100.483    
 p104                 obsgroup      1.8540000E-02    1.8439000E-02    1.0100000E-04     1.000000        1.8540000E-02    1.8439000E-02    1.0100000E-04    4.7608092E-04     2100.483    
 p105                 obsgroup      1.8025000E-02    1.8142000E-02   -1.1700000E-04     1.000000        1.8025000E-02    1.8142000E-02   -1.1700000E-04    4.7608092E-04     2100.483    
 p106                 obsgroup      1.7407000E-02    1.7851000E-02   -4.4400000E-04     1.000000        1.7407000E-02    1.7851000E-02   -4.4400000E-04    4.7608092E-04     2100.483    
 p107                 obsgroup      1.8540000E-02    1.7570000E-02    9.7000000E-04     1.000000        1.8540000E-02    1.7570000E-02    9.7000000E-04    4.7608092E-04     2100.483    
 p108                 obsgroup      1.7407000E-02    1.7285000E-02    1.2200000E-04     1.000000        1.7407000E-02    1.7285000E-02    1.2200000E-04    4.7608092E-04     2100.483    
 p109                 obsgroup      1.7304000E-02    1.7003000E-02    3.0100000E-04     1.000000        1.7304000E-02    1.7003000E-02    3.0100000E-04    4.7608092E-04     2100.483    
 p110                 obsgroup      1.6995000E-02    1.6729000E-02    2.6600000E-04     1.000000        1.6995000E-02    1.6729000E-02    2.6600000E-04    4.7608092E-04     2100.483    
 p111                 obsgroup      1.6995000E-02    1.6449000E-02    5.4600000E-04     1.000000        1.6995000E-02    1.6449000E-02    5.4600000E-04    4.7608092E-04     2100.483    
 p112                 obsgroup      1.6480000E-02    1.6174000E-02    3.0600000E-04     1.000000        1.6480000E-02    1.6174000E-02    3.0600000E-04    4.7608092E-04     2100.483    
 p113                 obsgroup      1.5862000E-02    1.5900000E-02   -3.8000000E-05     1.000000        1.5862000E-02    1.5900000E-02   -3.8000000E-05    4.7608092E-04     2100.483    
 p114                 obsgroup      1.5141000E-02    1.5627000E-02   -4.8600000E-04     1.000000        1.5141000E-02    1.5627000E-02   -4.8600000E-04    4.7608092E-04     2100.483    
 p115                 obsgroup      1.5862000E-02    1.5370000E-02    4.9200000E-04     1.000000        1.5862000E-02    1.5370000E-02    4.9200000E-04    4.7608092E-04     2100.483    
 p116                 obsgroup      1.5553000E-02    1.5108000E-02    4.4500000E-04     1.000000        1.5553000E-02    1.5108000E-02    4.4500000E-04    4.7608092E-04     2100.483    
 p117                 obsgroup      1.4626000E-02    1.4836000E-02   -2.1000000E-04     1.000000        1.4626000E-02    1.4836000E-02   -2.1000000E-04    4.7608092E-04     2100.483    
 p118                 obsgroup      1.4420000E-02    1.4573000E-02   -1.5300000E-04     1.000000        1.4420000E-02    1.4573000E-02   -1.5300000E-04    4.7608092E-04     2100.483    
 p119                 obsgroup      1.4317000E-02    1.4330000E-02   -1.3000000E-05     1.000000        1.4317000E-02    1.4330000E-02   -1.3000000E-05    4.7608092E-04     2100.483    
 p120                 obsgroup      1.3802000E-02    1.4067000E-02   -2.6500000E-04     1.000000        1.3802000E-02    1.4067000E-02   -2.6500000E-04    4.7608092E-04     2100.483    
 p121                 obsgroup      1.3287000E-02    1.3812000E-02   -5.2500000E-04     1.000000        1.3287000E-02    1.3812000E-02   -5.2500000E-04    4.7608092E-04     2100.483    
 p122                 obsgroup      1.2772000E-02    1.3574000E-02   -8.0200000E-04     1.000000        1.2772000E-02    1.3574000E-02   -8.0200000E-04    4.7608092E-04     2100.483    
 p123                 obsgroup      1.3081000E-02    1.3331000E-02   -2.5000000E-04     1.000000        1.3081000E-02    1.3331000E-02   -2.5000000E-04    4.7608092E-04     2100.483    
 p124                 obsgroup      1.2154000E-02    1.3093000E-02   -9.3900000E-04     1.000000        1.2154000E-02    1.3093000E-02   -9.3900000E-04    4.7608092E-04     2100.483    
 p125                 obsgroup      1.2360000E-02    1.2981000E-02   -6.2100000E-04     1.000000        1.2360000E-02    1.2981000E-02   -6.2100000E-04    4.7608092E-04     2100.483    
 p126                 obsgroup      1.2566000E-02    1.2870000E-02   -3.0400000E-04     1.000000        1.2566000E-02    1.2870000E-02   -3.0400000E-04    4.7608092E-04     2100.483    
 p127                 obsgroup      1.2051000E-02    1.2756000E-02   -7.0500000E-04     1.000000        1.2051000E-02    1.2756000E-02   -7.0500000E-04    4.7608092E-04     2100.483    
 p128                 obsgroup      1.2051000E-02    1.2639000E-02   -5.8800000E-04     1.000000        1.2051000E-02    1.2639000E-02   -5.8800000E-04    4.7608092E-04     2100.483    
 p129                 obsgroup      1.1845000E-02    1.2532000E-02   -6.8700000E-04     1.000000        1.1845000E-02    1.2532000E-02   -6.8700000E-04    4.7608092E-04     2100.483    
 p130                 obsgroup      1.1845000E-02    1.2425000E-02   -5.8000000E-04     1.000000        1.1845000E-02    1.2425000E-02   -5.8000000E-04    4.7608092E-04     2100.483    
 p131                 obsgroup      1.1948000E-02    1.2317000E-02   -3.6900000E-04     1.000000        1.1948000E-02    1.2317000E-02   -3.6900000E-04    4.7608092E-04     2100.483    
 p132                 obsgroup      1.1948000E-02    1.2211000E-02   -2.6300000E-04     1.000000        1.1948000E-02    1.2211000E-02   -2.6300000E-04    4.7608092E-04     2100.483    
 p133                 obsgroup      1.2154000E-02    1.2108000E-02    4.6000000E-05     1.000000        1.2154000E-02    1.2108000E-02    4.6000000E-05    4.7608092E-04     2100.483    
 p134                 obsgroup      1.2154000E-02    1.2003000E-02    1.5100000E-04     1.000000        1.2154000E-02    1.2003000E-02    1.5100000E-04    4.7608092E-04     2100.483    
 p135                 obsgroup      1.1742000E-02    1.1901000E-02   -1.5900000E-04     1.000000        1.1742000E-02    1.1901000E-02   -1.5900000E-04    4.7608092E-04     2100.483    
 p136                 obsgroup      1.1742000E-02    1.1804000E-02   -6.2000000E-05     1.000000        1.1742000E-02    1.1804000E-02   -6.2000000E-05    4.7608092E-04     2100.483    
 p137                 obsgroup      1.1742000E-02    1.1706000E-02    3.6000000E-05     1.000000        1.1742000E-02    1.1706000E-02    3.6000000E-05    4.7608092E-04     2100.483    
 p138                 obsgroup      1.1639000E-02    1.1610000E-02    2.9000000E-05     1.000000        1.1639000E-02    1.1610000E-02    2.9000000E-05    4.7608092E-04     2100.483    
 p139                 obsgroup      1.1124000E-02    1.1511000E-02   -3.8700000E-04     1.000000        1.1124000E-02    1.1511000E-02   -3.8700000E-04    4.7608092E-04     2100.483    
 p140                 obsgroup      1.1227000E-02    1.1410000E-02   -1.8300000E-04     1.000000        1.1227000E-02    1.1410000E-02   -1.8300000E-04    4.7608092E-04     2100.483    
 p141                 obsgroup      1.0815000E-02    1.1307000E-02   -4.9200000E-04     1.000000        1.0815000E-02    1.1307000E-02   -4.9200000E-04    4.7608092E-04     2100.483    
 p142                 obsgroup      1.1021000E-02    1.1217000E-02   -1.9600000E-04     1.000000        1.1021000E-02    1.1217000E-02   -1.9600000E-04    4.7608092E-04     2100.483    
 p143                 obsgroup      1.0609000E-02    1.1121000E-02   -5.1200000E-04     1.000000        1.0609000E-02    1.1121000E-02   -5.1200000E-04    4.7608092E-04     2100.483    
 p144                 obsgroup      1.0815000E-02    1.1028000E-02   -2.1300000E-04     1.000000        1.0815000E-02    1.1028000E-02   -2.1300000E-04    4.7608092E-04     2100.483    
 p145                 obsgroup      1.0176000E-02    1.0929000E-02   -7.5300000E-04     1.000000        1.0176000E-02    1.0929000E-02   -7.5300000E-04    4.7608092E-04     2100.483    
 p146                 obsgroup      1.0403000E-02    1.0834000E-02   -4.3100000E-04     1.000000        1.0403000E-02    1.0834000E-02   -4.3100000E-04    4.7608092E-04     2100.483    
 p147                 obsgroup      1.0084000E-02    1.0740000E-02   -6.5600000E-04     1.000000        1.0084000E-02    1.0740000E-02   -6.5600000E-04    4.7608092E-04     2100.483    
 p148                 obsgroup      9.9810000E-03    1.0648000E-02   -6.6700000E-04     1.000000        9.9810000E-03    1.0648000E-02   -6.6700000E-04    4.7608092E-04     2100.483    
 p149                 obsgroup      9.9810000E-03    1.0557000E-02   -5.7600000E-04     1.000000        9.9810000E-03    1.0557000E-02   -5.7600000E-04    4.7608092E-04     2100.483    
 p150                 obsgroup      1.0259000E-02    1.0467000E-02   -2.0800000E-04     1.000000        1.0259000E-02    1.0467000E-02   -2.0800000E-04    4.7608092E-04     2100.483    
 p151                 obsgroup      1.0403000E-02    1.0374000E-02    2.9000000E-05     1.000000        1.0403000E-02    1.0374000E-02    2.9000000E-05    4.7608092E-04     2100.483    
 p152                 obsgroup      1.0403000E-02    1.0312000E-02    9.1000000E-05     1.000000        1.0403000E-02    1.0312000E-02    9.1000000E-05    4.7608092E-04     2100.483    
 p153                 obsgroup      1.0022000E-02    1.0250000E-02   -2.2800000E-04     1.000000        1.0022000E-02    1.0250000E-02   -2.2800000E-04    4.7608092E-04     2100.483    
 p154                 obsgroup      1.0166000E-02    1.0149000E-02    1.7000000E-05     1.000000        1.0166000E-02    1.0149000E-02    1.7000000E-05    4.7608092E-04     2100.483    
 p155                 obsgroup      9.7750000E-03    1.0081000E-02   -3.0600000E-04     1.000000        9.7750000E-03    1.0081000E-02   -3.0600000E-04    4.7608092E-04     2100.483    
 p156                 obsgroup      9.6720000E-03    9.9950000E-03   -3.2300000E-04     1.000000        9.6720000E-03    9.9950000E-03   -3.2300000E-04    4.7608092E-04     2100.483    
 p157                 obsgroup      9.7030000E-03    9.9110000E-03   -2.0800000E-04     1.000000        9.7030000E-03    9.9110000E-03   -2.0800000E-04    4.7608092E-04     2100.483    
 p158                 obsgroup      1.0012000E-02    9.7960000E-03    2.1600000E-04     1.000000        1.0012000E-02    9.7960000E-03    2.1600000E-04    4.7608092E-04     2100.483    
 p159                 obsgroup      9.7750000E-03    9.7470000E-03    2.8000000E-05     1.000000        9.7750000E-03    9.7470000E-03    2.8000000E-05    4.7608092E-04     2100.483    
 p160                 obsgroup      9.7340000E-03    9.5840000E-03    1.5000000E-04     1.000000        9.7340000E-03    9.5840000E-03    1.5000000E-04    4.7608092E-04     2100.483    
 p161                 obsgroup      9.6100000E-03    9.4200000E-03    1.9000000E-04     1.000000        9.6100000E-03    9.4200000E-03    1.9000000E-04    4.7608092E-04     2100.483    
 p162                 obsgroup      9.4040000E-03    9.2560000E-03    1.4800000E-04     1.000000        9.4040000E-03    9.2560000E-03    1.4800000E-04    4.7608092E-04     2100.483    
 p163                 obsgroup      8.9820000E-03    9.1020000E-03   -1.2000000E-04     1.000000        8.9820000E-03    9.1020000E-03   -1.2000000E-04    4.7608092E-04     2100.483    
 p164                 obsgroup      8.9920000E-03    8.9500000E-03    4.2000000E-05     1.000000        8.9920000E-03    8.9500000E-03    4.2000000E-05    4.7608092E-04     2100.483    
 p165                 obsgroup      8.6520000E-03    8.8000000E-03   -1.4800000E-04     1.000000        8.6520000E-03    8.8000000E-03   -1.4800000E-04    4.7608092E-04     2100.483    
 p166                 obsgroup      9.1770000E-03    8.6540000E-03    5.2300000E-04     1.000000        9.1770000E-03    8.6540000E-03    5.2300000E-04    4.7608092E-04     2100.483    
 p167                 obsgroup      9.4660000E-03    8.5220000E-03    9.4400000E-04     1.000000        9.4660000E-03    8.5220000E-03    9.4400000E-04    4.7608092E-04     2100.483    
 p168                 obsgroup      9.0540000E-03    8.3870000E-03    6.6700000E-04     1.000000        9.0540000E-03    8.3870000E-03    6.6700000E-04    4.7608092E-04     2100.483    
 p169                 obsgroup      9.0020000E-03    8.2560000E-03    7.4600000E-04     1.000000        9.0020000E-03    8.2560000E-03    7.4600000E-04    4.7608092E-04     2100.483    
 p170                 obsgroup      8.6930000E-03    8.1250000E-03    5.6800000E-04     1.000000        8.6930000E-03    8.1250000E-03    5.6800000E-04    4.7608092E-04     2100.483    
 p171                 obsgroup      8.7040000E-03    8.0050000E-03    6.9900000E-04     1.000000        8.7040000E-03    8.0050000E-03    6.9900000E-04    4.7608092E-04     2100.483    
 p172                 obsgroup      8.8480000E-03    7.8920000E-03    9.5600000E-04     1.000000        8.8480000E-03    7.8920000E-03    9.5600000E-04    4.7608092E-04     2100.483    
 p173                 obsgroup      8.7860000E-03    7.7810000E-03    1.0050000E-03     1.000000        8.7860000E-03    7.7810000E-03    1.0050000E-03    4.7608092E-04     2100.483    
 p174                 obsgroup      8.5590000E-03    7.6650000E-03    8.9400000E-04     1.000000        8.5590000E-03    7.6650000E-03    8.9400000E-04    4.7608092E-04     2100.483    
 p175                 obsgroup      8.5700000E-03    7.5410000E-03    1.0290000E-03     1.000000        8.5700000E-03    7.5410000E-03    1.0290000E-03    4.7608092E-04     2100.483    
 p176                 obsgroup      8.6520000E-03    7.4800000E-03    1.1720000E-03     1.000000        8.6520000E-03    7.4800000E-03    1.1720000E-03    4.7608092E-04     2100.483    
