 Name                 Group          Measured         Modelled         Residual         Weight       Weight*Measured    Weight*Modelled  Weight*Residual  Measurement_sd   Natural_weight
 p001                 obsgroup      1.1100000E-04    1.0000000E-04    1.1000000E-05     1.000000        1.1100000E-04    1.0000000E-04    1.1000000E-05    3.3297216E-03     300.3254    
 p002                 obsgroup      1.2100000E-04    1.0000000E-04    2.1000000E-05     1.000000        1.2100000E-04    1.0000000E-04    2.1000000E-05    3.3297216E-03     300.3254    
 p003                 obsgroup      1.1000000E-04    1.0000000E-04    1.0000000E-05     1.000000        1.1000000E-04    1.0000000E-04    1.0000000E-05    3.3297216E-03     300.3254    
 p004                 obsgroup      1.1100000E-04    1.0000000E-04    1.1000000E-05     1.000000        1.1100000E-04    1.0000000E-04    1.1000000E-05    3.3297216E-03     300.3254    
 p005                 obsgroup      1.1300000E-04    1.0000000E-04    1.3000000E-05     1.000000        1.1300000E-04    1.0000000E-04    1.3000000E-05    3.3297216E-03     300.3254    
 p006                 obsgroup      1.1100000E-04    1.0000000E-04    1.1000000E-05     1.000000        1.1100000E-04    1.0000000E-04    1.1000000E-05    3.3297216E-03     300.3254    
 p007                 obsgroup      1.0800000E-04    1.0000000E-04    8.0000000E-06     1.000000        1.0800000E-04    1.0000000E-04    8.0000000E-06    3.3297216E-03     300.3254    
 p008                 obsgroup      1.0600000E-04    1.0000000E-04    6.0000000E-06     1.000000        1.0600000E-04    1.0000000E-04    6.0000000E-06    3.3297216E-03     300.3254    
 p009                 obsgroup      1.0600000E-04    1.0000000E-04    6.0000000E-06     1.000000        1.0600000E-04    1.0000000E-04    6.0000000E-06    3.3297216E-03     300.3254    
 p010                 obsgroup      1.0300000E-04    1.0000000E-04    3.0000000E-06     1.000000        1.0300000E-04    1.0000000E-04    3.0000000E-06    3.3297216E-03     300.3254    
 p011                 obsgroup      1.0500000E-04    1.0000000E-04    5.0000000E-06     1.000000        1.0500000E-04    1.0000000E-04    5.0000000E-06    3.3297216E-03     300.3254    
 p012                 obsgroup      1.0500000E-04    1.0000000E-04    5.0000000E-06     1.000000        1.0500000E-04    1.0000000E-04    5.0000000E-06    3.3297216E-03     300.3254    
 p013                 obsgroup      1.0300000E-04    1.0000000E-04    3.0000000E-06     1.000000        1.0300000E-04    1.0000000E-04    3.0000000E-06    3.3297216E-03     300.3254    
 p014                 obsgroup      1.0500000E-04    1.0000000E-04    5.0000000E-06     1.000000        1.0500000E-04    1.0000000E-04    5.0000000E-06    3.3297216E-03     300.3254    
 p015                 obsgroup      1.1400000E-04    1.0000000E-04    1.4000000E-05     1.000000        1.1400000E-04    1.0000000E-04    1.4000000E-05    3.3297216E-03     300.3254    
 p016                 obsgroup      1.1900000E-04    1.0000000E-04    1.9000000E-05     1.000000        1.1900000E-04    1.0000000E-04    1.9000000E-05    3.3297216E-03     300.3254    
 p017                 obsgroup      1.1300000E-04    1.0000000E-04    1.3000000E-05     1.000000        1.1300000E-04    1.0000000E-04    1.3000000E-05    3.3297216E-03     300.3254    
 p018                 obsgroup      1.5200000E-04    1.0000000E-04    5.2000000E-05     1.000000        1.5200000E-04    1.0000000E-04    5.2000000E-05    3.3297216E-03     300.3254    
 p019                 obsgroup      1.7900000E-04    1.0000000E-04    7.9000000E-05     1.000000        1.7900000E-04    1.0000000E-04    7.9000000E-05    3.3297216E-03     300.3254    
 p020                 obsgroup      2.2700000E-04    1.0000000E-04    1.2700000E-04     1.000000        2.2700000E-04    1.0000000E-04    1.2700000E-04    3.3297216E-03     300.3254    
 p021                 obsgroup      2.6700000E-04    1.0000000E-04    1.6700000E-04     1.000000        2.6700000E-04    1.0000000E-04    1.6700000E-04    3.3297216E-03     300.3254    
 p022                 obsgroup      3.3200000E-04    1.0000000E-04    2.3200000E-04     1.000000        3.3200000E-04    1.0000000E-04    2.3200000E-04    3.3297216E-03     300.3254    
 p023                 obsgroup      4.1200000E-04    1.0100000E-04    3.1100000E-04     1.000000        4.1200000E-04    1.0100000E-04    3.1100000E-04    3.3297216E-03     300.3254    
 p024                 obsgroup      4.8000000E-04    1.0200000E-04    3.7800000E-04     1.000000        4.8000000E-04    1.0200000E-04    3.7800000E-04    3.3297216E-03     300.3254    
 p025                 obsgroup      5.4200000E-04    1.0300000E-04    4.3900000E-04     1.000000        5.4200000E-04    1.0300000E-04    4.3900000E-04    3.3297216E-03     300.3254    
 p026                 obsgroup      6.2500000E-04    1.0500000E-04    5.2000000E-04     1.000000        6.2500000E-04    1.0500000E-04    5.2000000E-04    3.3297216E-03     300.3254    
 p027                 obsgroup      7.2000000E-04    1.0700000E-04    6.1300000E-04     1.000000        7.2000000E-04    1.0700000E-04    6.1300000E-04    3.3297216E-03     300.3254    
 p028                 obsgroup      7.7600000E-04    1.1100000E-04    6.6500000E-04     1.000000        7.7600000E-04    1.1100000E-04    6.6500000E-04    3.3297216E-03     300.3254    
 p029                 obsgroup      9.1300000E-04    1.1700000E-04    7.9600000E-04     1.000000        9.1300000E-04    1.1700000E-04    7.9600000E-04    3.3297216E-03     300.3254    
 p030                 obsgroup      9.7400000E-04    1.2500000E-04    8.4900000E-04     1.000000        9.7400000E-04    1.2500000E-04    8.4900000E-04    3.3297216E-03     300.3254    
 p031                 obsgroup      1.0820000E-03    1.3500000E-04    9.4700000E-04     1.000000        1.0820000E-03    1.3500000E-04    9.4700000E-04    3.3297216E-03     300.3254    
 p032                 obsgroup      1.1950000E-03    1.4800000E-04    1.0470000E-03     1.000000        1.1950000E-03    1.4800000E-04    1.0470000E-03    3.3297216E-03     300.3254    
 p033                 obsgroup      1.3910000E-03    1.6500000E-04    1.2260000E-03     1.000000        1.3910000E-03    1.6500000E-04    1.2260000E-03    3.3297216E-03     300.3254    
 p034                 obsgroup      1.5550000E-03    1.8700000E-04    1.3680000E-03     1.000000        1.5550000E-03    1.8700000E-04    1.3680000E-03    3.3297216E-03     300.3254    
 p035                 obsgroup      1.7200000E-03    2.1300000E-04    1.5070000E-03     1.000000        1.7200000E-03    2.1300000E-04    1.5070000E-03    3.3297216E-03     300.3254    
 p036                 obsgroup      1.9360000E-03    2.4500000E-04    1.6910000E-03     1.000000        1.9360000E-03    2.4500000E-04    1.6910000E-03    3.3297216E-03     300.3254    
 p037                 obsgroup      1.9880000E-03    2.8200000E-04    1.7060000E-03     1.000000        1.9880000E-03    2.8200000E-04    1.7060000E-03    3.3297216E-03     300.3254    
 p038                 obsgroup      2.4930000E-03    3.2500000E-04    2.1680000E-03     1.000000        2.4930000E-03    3.2500000E-04    2.1680000E-03    3.3297216E-03     300.3254    
 p039                 obsgroup      2.6780000E-03    3.7600000E-04    2.3020000E-03     1.000000        2.6780000E-03    3.7600000E-04    2.3020000E-03    3.3297216E-03     300.3254    
 p040                 obsgroup      3.0390000E-03    4.3200000E-04    2.6070000E-03     1.000000        3.0390000E-03    4.3200000E-04    2.6070000E-03    3.3297216E-03     300.3254    
 p041                 obsgroup      3.3370000E-03    4.9700000E-04    2.8400000E-03     1.000000        3.3370000E-03    4.9700000E-04    2.8400000E-03    3.3297216E-03     300.3254    
 p042                 obsgroup      3.5020000E-03    5.7000000E-04    2.9320000E-03     1.000000        3.5020000E-03    5.7000000E-04    2.9320000E-03    3.3297216E-03     300.3254    
 p043                 obsgroup      3.8420000E-03    6.5500000E-04    3.1870000E-03     1.000000        3.8420000E-03    6.5500000E-04    3.1870000E-03    3.3297216E-03     300.3254    
 p044                 obsgroup      4.1300000E-03    7.4600000E-04    3.3840000E-03     1.000000        4.1300000E-03    7.4600000E-04    3.3840000E-03    3.3297216E-03     300.3254    
 p045                 obsgroup      4.7690000E-03    8.5300000E-04    3.9160000E-03     1.000000        4.7690000E-03    8.5300000E-04    3.9160000E-03    3.3297216E-03     300.3254    
 p046                 obsgroup      5.0880000E-03    9.7000000E-04    4.1180000E-03     1.000000        5.0880000E-03    9.7000000E-04    4.1180000E-03    3.3297216E-03     300.3254    
 p047                 obsgroup      5.5410000E-03    1.0990000E-03    4.4420000E-03     1.000000        5.5410000E-03    1.0990000E-03    4.4420000E-03    3.3297216E-03     300.3254    
 p048                 obsgroup      6.1180000E-03    1.2420000E-03    4.8760000E-03     1.000000        6.1180000E-03    1.2420000E-03    4.8760000E-03    3.3297216E-03     300.3254    
 p049                 obsgroup      6.3140000E-03    1.3940000E-03    4.9200000E-03     1.000000        6.3140000E-03    1.3940000E-03    4.9200000E-03    3.3297216E-03     300.3254    
 p050                 obsgroup      7.3950000E-03    1.8220000E-03    5.5730000E-03     1.000000        7.3950000E-03    1.8220000E-03    5.5730000E-03    3.3297216E-03     300.3254    
 p051                 obsgroup      8.5590000E-03    2.3230000E-03    6.2360000E-03     1.000000        8.5590000E-03    2.3230000E-03    6.2360000E-03    3.3297216E-03     300.3254    
 p052                 obsgroup      9.2190000E-03    2.8860000E-03    6.3330000E-03     1.000000        9.2190000E-03    2.8860000E-03    6.3330000E-03    3.3297216E-03     300.3254    
 p053                 obsgroup      9.9910000E-03    3.5070000E-03    6.4840000E-03     1.000000        9.9910000E-03    3.5070000E-03    6.4840000E-03    3.3297216E-03     300.3254    
 p054                 obsgroup      1.1124000E-02    4.2120000E-03    6.9120000E-03     1.000000        1.1124000E-02    4.2120000E-03    6.9120000E-03    3.3297216E-03     300.3254    
 p055                 obsgroup      1.2154000E-02    4.9670000E-03    7.1870000E-03     1.000000        1.2154000E-02    4.9670000E-03    7.1870000E-03    3.3297216E-03     300.3254    
 p056                 obsgroup      1.3287000E-02    5.7760000E-03    7.5110000E-03     1.000000        1.3287000E-02    5.7760000E-03    7.5110000E-03    3.3297216E-03     300.3254    
 p057                 obsgroup      1.4420000E-02    6.6100000E-03    7.8100000E-03     1.000000        1.4420000E-02    6.6100000E-03    7.8100000E-03    3.3297216E-03     300.3254    
 p058                 obsgroup      1.4729000E-02    7.4790000E-03    7.2500000E-03     1.000000        1.4729000E-02    7.4790000E-03    7.2500000E-03    3.3297216E-03     300.3254    
 p059                 obsgroup      1.5656000E-02    8.3790000E-03    7.2770000E-03     1.000000        1.5656000E-02    8.3790000E-03    7.2770000E-03    3.3297216E-03     300.3254    
 p060                 obsgroup      1.6480000E-02    9.2970000E-03    7.1830000E-03     1.000000        1.6480000E-02    9.2970000E-03    7.1830000E-03    3.3297216E-03     300.3254    
 p061                 obsgroup      1.6583000E-02    1.0233000E-02    6.3500000E-03     1.000000        1.6583000E-02    1.0233000E-02    6.3500000E-03    3.3297216E-03     300.3254    
 p062                 obsgroup      1.6892000E-02    1.1144000E-02    5.7480000E-03     1.000000        1.6892000E-02    1.1144000E-02    5.7480000E-03    3.3297216E-03     300.3254    
 p063                 obsgroup      1.7716000E-02    1.2046000E-02    5.6700000E-03     1.000000        1.7716000E-02    1.2046000E-02    5.6700000E-03    3.3297216E-03     300.3254    
 p064                 obsgroup      1.8540000E-02    1.2943000E-02    5.5970000E-03     1.000000        1.8540000E-02    1.2943000E-02    5.5970000E-03    3.3297216E-03     300.3254    
 p065                 obsgroup      1.8437000E-02    1.3834000E-02    4.6030000E-03     1.000000        1.8437000E-02    1.3834000E-02    4.6030000E-03    3.3297216E-03     300.3254    
 p066                 obsgroup      1.9055000E-02    1.4735000E-02    4.3200000E-03     1.000000        1.9055000E-02    1.4735000E-02    4.3200000E-03    3.3297216E-03     300.3254    
 p067                 obsgroup      1.9364000E-02    1.5598000E-02    3.7660000E-03     1.000000        1.9364000E-02    1.5598000E-02    3.7660000E-03    3.3297216E-03     300.3254    
 p068                 obsgroup      1.8025000E-02    1.6431000E-02    1.5940000E-03     1.000000        1.8025000E-02    1.6431000E-02    1.5940000E-03    3.3297216E-03     300.3254    
 p069                 obsgroup      2.0600000E-02    1.7211000E-02    3.3890000E-03     1.000000        2.0600000E-02    1.7211000E-02    3.3890000E-03    3.3297216E-03     300.3254    
 p070                 obsgroup      1.9570000E-02    1.7951000E-02    1.6190000E-03     1.000000        1.9570000E-02    1.7951000E-02    1.6190000E-03    3.3297216E-03     300.3254    
 p071                 obsgroup      2.0806000E-02    1.8671000E-02    2.1350000E-03     1.000000        2.0806000E-02    1.8671000E-02    2.1350000E-03    3.3297216E-03     300.3254    
 p072                 obsgroup      2.1012000E-02    1.9364000E-02    1.6480000E-03     1.000000        2.1012000E-02    1.9364000E-02    1.6480000E-03    3.3297216E-03     300.3254    
 p073                 obsgroup      2.1012000E-02    2.0038000E-02    9.7400000E-04     1.000000        2.1012000E-02    2.0038000E-02    9.7400000E-04    3.3297216E-03     300.3254    
 p074                 obsgroup      2.1321000E-02    2.0646000E-02    6.7500000E-04     1.000000        2.1321000E-02    2.0646000E-02    6.7500000E-04    3.3297216E-03     300.3254    
 p075                 obsgroup      2.1939000E-02    2.1217000E-02    7.2200000E-04     1.000000        2.1939000E-02    2.1217000E-02    7.2200000E-04    3.3297216E-03     300.3254    
 p076                 obsgroup      2.0806000E-02    2.1758000E-02   -9.5200000E-04     1.000000        2.0806000E-02    2.1758000E-02   -9.5200000E-04    3.3297216E-03     300.3254    
 p077                 obsgroup      2.0806000E-02    2.2252000E-02   -1.4460000E-03     1.000000        2.0806000E-02    2.2252000E-02   -1.4460000E-03    3.3297216E-03     300.3254    
 p078                 obsgroup      2.0806000E-02    2.2708000E-02   -1.9020000E-03     1.000000        2.0806000E-02    2.2708000E-02   -1.9020000E-03    3.3297216E-03     300.3254    
 p079                 obsgroup      2.0806000E-02    2.3145000E-02   -2.3390000E-03     1.000000        2.0806000E-02    2.3145000E-02   -2.3390000E-03    3.3297216E-03     300.3254    
 p080                 obsgroup      2.0703000E-02    2.3534000E-02   -2.8310000E-03     1.000000        2.0703000E-02    2.3534000E-02   -2.8310000E-03    3.3297216E-03     300.3254    
 p081                 obsgroup      2.1630000E-02    2.3882000E-02   -2.2520000E-03     1.000000        2.1630000E-02    2.3882000E-02   -2.2520000E-03    3.3297216E-03     300.3254    
 p082                 obsgroup      2.0703000E-02    2.4195000E-02   -3.4920000E-03     1.000000        2.0703000E-02    2.4195000E-02   -3.4920000E-03    3.3297216E-03     300.3254    
 p083                 obsgroup      2.1733000E-02    2.4475000E-02   -2.7420000E-03     1.000000        2.1733000E-02    2.4475000E-02   -2.7420000E-03    3.3297216E-03     300.3254    
 p084                 obsgroup      2.2248000E-02    2.4717000E-02   -2.4690000E-03     1.000000        2.2248000E-02    2.4717000E-02   -2.4690000E-03    3.3297216E-03     300.3254    
 p085                 obsgroup      2.2866000E-02    2.4933000E-02   -2.0670000E-03     1.000000        2.2866000E-02    2.4933000E-02   -2.0670000E-03    3.3297216E-03     300.3254    
 p086                 obsgroup      2.2248000E-02    2.5114000E-02   -2.8660000E-03     1.000000        2.2248000E-02    2.5114000E-02   -2.8660000E-03    3.3297216E-03     300.3254    
 p087                 obsgroup      2.3175000E-02    2.5267000E-02   -2.0920000E-03     1.000000        2.3175000E-02    2.5267000E-02   -2.0920000E-03    3.3297216E-03     300.3254    
 p088                 obsgroup      2.2145000E-02    2.5394000E-02   -3.2490000E-03     1.000000        2.2145000E-02    2.5394000E-02   -3.2490000E-03    3.3297216E-03     300.3254    
 p089                 obsgroup      2.3072000E-02    2.5496000E-02   -2.4240000E-03     1.000000        2.3072000E-02    2.5496000E-02   -2.4240000E-03    3.3297216E-03     300.3254    
 p090                 obsgroup      2.2660000E-02    2.5632000E-02   -2.9720000E-03     1.000000        2.2660000E-02    2.5632000E-02   -2.9720000E-03    3.3297216E-03     300.3254    
 p091                 obsgroup      2.1527000E-02    2.5672000E-02   -4.1450000E-03     1.000000        2.1527000E-02    2.5672000E-02   -4.1450000E-03    3.3297216E-03     300.3254    
 p092                 obsgroup      2.2454000E-02    2.5628000E-02   -3.1740000E-03     1.000000        2.2454000E-02    2.5628000E-02   -3.1740000E-03    3.3297216E-03     300.3254    
 p093                 obsgroup      2.1527000E-02    2.5504000E-02   -3.9770000E-03     1.000000        2.1527000E-02    2.5504000E-02   -3.9770000E-03    3.3297216E-03     300.3254    
 p094                 obsgroup      2.1115000E-02    2.5311000E-02   -4.1960000E-03     1.000000        2.1115000E-02    2.5311000E-02   -4.1960000E-03    3.3297216E-03     300.3254    
 p095                 obsgroup      2.0909000E-02    2.5055000E-02   -4.1460000E-03     1.000000        2.0909000E-02    2.5055000E-02   -4.1460000E-03    3.3297216E-03     300.3254    
 p096                 obsgroup      2.0600000E-02    2.4737000E-02   -4.1370000E-03     1.000000        2.0600000E-02    2.4737000E-02   -4.1370000E-03    3.3297216E-03     300.3254    
 p097                 obsgroup      2.0394000E-02    2.4377000E-02   -3.9830000E-03     1.000000        2.0394000E-02    2.4377000E-02   -3.9830000E-03    3.3297216E-03     300.3254    
 p098                 obsgroup      1.9776000E-02    2.4006000E-02   -4.2300000E-03     1.000000        1.9776000E-02    2.4006000E-02   -4.2300000E-03    3.3297216E-03     300.3254    
 p099                 obsgroup      2.0600000E-02    2.3638000E-02   -3.0380000E-03     1.000000        2.0600000E-02    2.3638000E-02   -3.0380000E-03    3.3297216E-03     300.3254    
 p100                 obsgroup      1.9261000E-02    2.3192000E-02   -3.9310000E-03     1.000000        1.9261000E-02    2.3192000E-02   -3.9310000E-03    3.3297216E-03     300.3254    
 p101                 obsgroup      1.9776000E-02    2.2717000E-02   -2.9410000E-03     1.000000        1.9776000E-02    2.2717000E-02   -2.9410000E-03    3.3297216E-03     300.3254    
 p102                 obsgroup      1.9055000E-02    2.2204000E-02   -3.1490000E-03     1.000000        1.9055000E-02    2.2204000E-02   -3.1490000E-03    3.3297216E-03     300.3254    
 p103                 obsgroup      1.9158000E-02    2.1689000E-02   -2.5310000E-03     1.000000        1.9158000E-02    2.1689000E-02   -2.5310000E-03    3.3297216E-03     300.3254    
 p104                 obsgroup      1.8540000E-02    2.1183000E-02   -2.6430000E-03     1.000000        1.8540000E-02    2.1183000E-02   -2.6430000E-03    3.3297216E-03     300.3254    
 p105                 obsgroup      1.8025000E-02    2.0629000E-02   -2.6040000E-03     1.000000        1.8025000E-02    2.0629000E-02   -2.6040000E-03    3.3297216E-03     300.3254    
 p106                 obsgroup      1.7407000E-02    2.0081000E-02   -2.6740000E-03     1.000000        1.7407000E-02    2.0081000E-02   -2.6740000E-03    3.3297216E-03     300.3254    
 p107                 obsgroup      1.8540000E-02    1.9547000E-02   -1.0070000E-03     1.000000        1.8540000E-02    1.9547000E-02   -1.0070000E-03    3.3297216E-03     300.3254    
 p108                 obsgroup      1.7407000E-02    1.9001000E-02   -1.5940000E-03     1.000000        1.7407000E-02    1.9001000E-02   -1.5940000E-03    3.3297216E-03     300.3254    
 p109                 obsgroup      1.7304000E-02    1.8461000E-02   -1.1570000E-03     1.000000        1.7304000E-02    1.8461000E-02   -1.1570000E-03    3.3297216E-03     300.3254    
 p110                 obsgroup      1.6995000E-02    1.7934000E-02   -9.3900000E-04     1.000000        1.6995000E-02    1.7934000E-02   -9.3900000E-04    3.3297216E-03     300.3254    
 p111                 obsgroup      1.6995000E-02    1.7394000E-02   -3.9900000E-04     1.000000        1.6995000E-02    1.7394000E-02   -3.9900000E-04    3.3297216E-03     300.3254    
 p112                 obsgroup      1.6480000E-02    1.6865000E-02   -3.8500000E-04     1.000000        1.6480000E-02    1.6865000E-02   -3.8500000E-04    3.3297216E-03     300.3254    
 p113                 obsgroup      1.5862000E-02    1.6338000E-02   -4.7600000E-04     1.000000        1.5862000E-02    1.6338000E-02   -4.7600000E-04    3.3297216E-03     300.3254    
 p114                 obsgroup      1.5141000E-02    1.5817000E-02   -6.7600000E-04     1.000000        1.5141000E-02    1.5817000E-02   -6.7600000E-04    3.3297216E-03     300.3254    
 p115                 obsgroup      1.5862000E-02    1.5326000E-02    5.3600000E-04     1.000000        1.5862000E-02    1.5326000E-02    5.3600000E-04    3.3297216E-03     300.3254    
 p116                 obsgroup      1.5553000E-02    1.4828000E-02    7.2500000E-04     1.000000        1.5553000E-02    1.4828000E-02    7.2500000E-04    3.3297216E-03     300.3254    
 p117                 obsgroup      1.4626000E-02    1.4315000E-02    3.1100000E-04     1.000000        1.4626000E-02    1.4315000E-02    3.1100000E-04    3.3297216E-03     300.3254    
 p118                 obsgroup      1.4420000E-02    1.3821000E-02    5.9900000E-04     1.000000        1.4420000E-02    1.3821000E-02    5.9900000E-04    3.3297216E-03     300.3254    
 p119                 obsgroup      1.4317000E-02    1.3369000E-02    9.4800000E-04     1.000000        1.4317000E-02    1.3369000E-02    9.4800000E-04    3.3297216E-03     300.3254    
 p120                 obsgroup      1.3802000E-02    1.2885000E-02    9.1700000E-04     1.000000        1.3802000E-02    1.2885000E-02    9.1700000E-04    3.3297216E-03     300.3254    
 p121                 obsgroup      1.3287000E-02    1.2417000E-02    8.7000000E-04     1.000000        1.3287000E-02    1.2417000E-02    8.7000000E-04    3.3297216E-03     300.3254    
 p122                 obsgroup      1.2772000E-02    1.1987000E-02    7.8500000E-04     1.000000        1.2772000E-02    1.1987000E-02    7.8500000E-04    3.3297216E-03     300.3254    
 p123                 obsgroup      1.3081000E-02    1.1550000E-02    1.5310000E-03     1.000000        1.3081000E-02    1.1550000E-02    1.5310000E-03    3.3297216E-03     300.3254    
 p124                 obsgroup      1.2154000E-02    1.1130000E-02    1.0240000E-03     1.000000        1.2154000E-02    1.1130000E-02    1.0240000E-03    3.3297216E-03     300.3254    
 p125                 obsgroup      1.2360000E-02    1.0932000E-02    1.4280000E-03     1.000000        1.2360000E-02    1.0932000E-02    1.4280000E-03    3.3297216E-03     300.3254    
 p126                 obsgroup      1.2566000E-02    1.0738000E-02    1.8280000E-03     1.000000        1.2566000E-02    1.0738000E-02    1.8280000E-03    3.3297216E-03     300.3254    
 p127                 obsgroup      1.2051000E-02    1.0539000E-02    1.5120000E-03     1.000000        1.2051000E-02    1.0539000E-02    1.5120000E-03    3.3297216E-03     300.3254    
 p128                 obsgroup      1.2051000E-02    1.0337000E-02    1.7140000E-03     1.000000        1.2051000E-02    1.0337000E-02    1.7140000E-03    3.3297216E-03     300.3254    
 p129                 obsgroup      1.1845000E-02    1.0153000E-02    1.6920000E-03     1.000000        1.1845000E-02    1.0153000E-02    1.6920000E-03    3.3297216E-03     300.3254    
 p130                 obsgroup      1.1845000E-02    9.9700000E-03    1.8750000E-03     1.000000        1.1845000E-02    9.9700000E-03    1.8750000E-03    3.3297216E-03     300.3254    
 p131                 obsgroup      1.1948000E-02    9.7870000E-03    2.1610000E-03     1.000000        1.1948000E-02    9.7870000E-03    2.1610000E-03    3.3297216E-03     300.3254    
 p132                 obsgroup      1.1948000E-02    9.6080000E-03    2.3400000E-03     1.000000        1.1948000E-02    9.6080000E-03    2.3400000E-03    3.3297216E-03     300.3254    
 p133                 obsgroup      1.2154000E-02    9.4350000E-03    2.7190000E-03     1.000000        1.2154000E-02    9.4350000E-03    2.7190000E-03    3.3297216E-03     300.3254    
 p134                 obsgroup      1.2154000E-02    9.2600000E-03    2.8940000E-03     1.000000        1.2154000E-02    9.2600000E-03    2.8940000E-03    3.3297216E-03     300.3254    
 p135                 obsgroup      1.1742000E-02    9.0900000E-03    2.6520000E-03     1.000000        1.1742000E-02    9.0900000E-03    2.6520000E-03    3.3297216E-03     300.3254    
 p136                 obsgroup      1.1742000E-02    8.9300000E-03    2.8120000E-03     1.000000        1.1742000E-02    8.9300000E-03    2.8120000E-03    3.3297216E-03     300.3254    
 p137                 obsgroup      1.1742000E-02    8.7710000E-03    2.9710000E-03     1.000000        1.1742000E-02    8.7710000E-03    2.9710000E-03    3.3297216E-03     300.3254    
 p138                 obsgroup      1.1639000E-02    8.6140000E-03    3.0250000E-03     1.000000        1.1639000E-02    8.6140000E-03    3.0250000E-03    3.3297216E-03     300.3254    
 p139                 obsgroup      1.1124000E-02    8.4550000E-03    2.6690000E-03     1.000000        1.1124000E-02    8.4550000E-03    2.6690000E-03    3.3297216E-03     300.3254    
 p140                 obsgroup      1.1227000E-02    8.2940000E-03    2.9330000E-03     1.000000        1.1227000E-02    8.2940000E-03    2.9330000E-03    3.3297216E-03     300.3254    
 p141                 obsgroup      1.0815000E-02    8.1300000E-03    2.6850000E-03     1.000000        1.0815000E-02    8.1300000E-03    2.6850000E-03    3.3297216E-03     300.3254    
 p142                 obsgroup      1.1021000E-02    7.9880000E-03    3.0330000E-03     1.000000        1.1021000E-02    7.9880000E-03    3.0330000E-03    3.3297216E-03     300.3254    
 p143                 obsgroup      1.0609000E-02    7.8370000E-03    2.7720000E-03     1.000000        1.0609000E-02    7.8370000E-03    2.7720000E-03    3.3297216E-03     300.3254    
 p144                 obsgroup      1.0815000E-02    7.6910000E-03    3.1240000E-03     1.000000        1.0815000E-02    7.6910000E-03    3.1240000E-03    3.3297216E-03     300.3254    
 p145                 obsgroup      1.0176000E-02    7.5390000E-03    2.6370000E-03     1.000000        1.0176000E-02    7.5390000E-03    2.6370000E-03    3.3297216E-03     300.3254    
 p146                 obsgroup      1.0403000E-02    7.3930000E-03    3.0100000E-03     1.000000        1.0403000E-02    7.3930000E-03    3.0100000E-03    3.3297216E-03     300.3254    
 p147                 obsgroup      1.0084000E-02    7.2500000E-03    2.8340000E-03     1.000000        1.0084000E-02    7.2500000E-03    2.8340000E-03    3.3297216E-03     300.3254    
 p148                 obsgroup      9.9810000E-03    7.1110000E-03    2.8700000E-03     1.000000        9.9810000E-03    7.1110000E-03    2.8700000E-03    3.3297216E-03     300.3254    
 p149                 obsgroup      9.9810000E-03    6.9740000E-03    3.0070000E-03     1.000000        9.9810000E-03    6.9740000E-03    3.0070000E-03    3.3297216E-03     300.3254    
 p150                 obsgroup      1.0259000E-02    6.8410000E-03    3.4180000E-03     1.000000        1.0259000E-02    6.8410000E-03    3.4180000E-03    3.3297216E-03     300.3254    
 p151                 obsgroup      1.0403000E-02    6.7030000E-03    3.7000000E-03     1.000000        1.0403000E-02    6.7030000E-03    3.7000000E-03    3.3297216E-03     300.3254    
 p152                 obsgroup      1.0403000E-02    6.6110000E-03    3.7920000E-03     1.000000        1.0403000E-02    6.6110000E-03    3.7920000E-03    3.3297216E-03     300.3254    
 p153                 obsgroup      1.0022000E-02    6.5210000E-03    3.5010000E-03     1.000000        1.0022000E-02    6.5210000E-03    3.5010000E-03    3.3297216E-03     300.3254    
 p154                 obsgroup      1.0166000E-02    6.3750000E-03    3.7910000E-03     1.000000        1.0166000E-02    6.3750000E-03    3.7910000E-03    3.3297216E-03     300.3254    
 p155                 obsgroup      9.7750000E-03    6.2770000E-03    3.4980000E-03     1.000000        9.7750000E-03    6.2770000E-03    3.4980000E-03    3.3297216E-03     300.3254    
 p156                 obsgroup      9.6720000E-03    6.1550000E-03    3.5170000E-03     1.000000        9.6720000E-03    6.1550000E-03    3.5170000E-03    3.3297216E-03     300.3254    
 p157                 obsgroup      9.7030000E-03    6.0360000E-03    3.6670000E-03     1.000000        9.7030000E-03    6.0360000E-03    3.6670000E-03    3.3297216E-03     300.3254    
 p158                 obsgroup      1.0012000E-02    5.8740000E-03    4.1380000E-03     1.000000        1.0012000E-02    5.8740000E-03    4.1380000E-03    3.3297216E-03     300.3254    
 p159                 obsgroup      9.7750000E-03    5.8060000E-03    3.9690000E-03     1.000000        9.7750000E-03    5.8060000E-03    3.9690000E-03    3.3297216E-03     300.3254    
 p160                 obsgroup      9.7340000E-03    5.5830000E-03    4.1510000E-03     1.000000        9.7340000E-03    5.5830000E-03    4.1510000E-03    3.3297216E-03     300.3254    
 p161                 obsgroup      9.6100000E-03    5.3610000E-03    4.2490000E-03     1.000000        9.6100000E-03    5.3610000E-03    4.2490000E-03    3.3297216E-03     300.3254    
 p162                 obsgroup      9.4040000E-03    5.1430000E-03    4.2610000E-03     1.000000        9.4040000E-03    5.1430000E-03    4.2610000E-03    3.3297216E-03     300.3254    
 p163                 obsgroup      8.9820000E-03    4.9420000E-03    4.0400000E-03     1.000000        8.9820000E-03    4.9420000E-03    4.0400000E-03    3.3297216E-03     300.3254    
 p164                 obsgroup      8.9920000E-03    4.7470000E-03    4.2450000E-03     1.000000        8.9920000E-03    4.7470000E-03    4.2450000E-03    3.3297216E-03     300.3254    
 p165                 obsgroup      8.6520000E-03    4.5580000E-03    4.0940000E-03     1.000000        8.6520000E-03    4.5580000E-03    4.0940000E-03    3.3297216E-03     300.3254    
 p166                 obsgroup      9.1770000E-03    4.3780000E-03    4.7990000E-03     1.000000        9.1770000E-03    4.3780000E-03    4.7990000E-03    3.3297216E-03     300.3254    
 p167                 obsgroup      9.4660000E-03    4.2180000E-03    5.2480000E-03     1.000000        9.4660000E-03    4.2180000E-03    5.2480000E-03    3.3297216E-03     300.3254    
 p168                 obsgroup      9.0540000E-03    4.0550000E-03    4.9990000E-03     1.000000        9.0540000E-03    4.0550000E-03    4.9990000E-03    3.3297216E-03     300.3254    
 p169                 obsgroup      9.0020000E-03    3.9020000E-03    5.1000000E-03     1.000000        9.0020000E-03    3.9020000E-03    5.1000000E-03    3.3297216E-03     300.3254    
 p170                 obsgroup      8.6930000E-03    3.7510000E-03    4.9420000E-03     1.000000        8.6930000E-03    3.7510000E-03    4.9420000E-03    3.3297216E-03     300.3254    
 p171                 obsgroup      8.7040000E-03    3.6160000E-03    5.0880000E-03     1.000000        8.7040000E-03    3.6160000E-03    5.0880000E-03    3.3297216E-03     300.3254    
 p172                 obsgroup      8.8480000E-03    3.4900000E-03    5.3580000E-03     1.000000        8.8480000E-03    3.4900000E-03    5.3580000E-03    3.3297216E-03     300.3254    
 p173                 obsgroup      8.7860000E-03    3.3680000E-03    5.4180000E-03     1.000000        8.7860000E-03    3.3680000E-03    5.4180000E-03    3.3297216E-03     300.3254    
 p174                 obsgroup      8.5590000E-03    3.2430000E-03    5.3160000E-03     1.000000        8.5590000E-03    3.2430000E-03    5.3160000E-03    3.3297216E-03     300.3254    
 p175                 obsgroup      8.5700000E-03    3.1120000E-03    5.4580000E-03     1.000000        8.5700000E-03    3.1120000E-03    5.4580000E-03    3.3297216E-03     300.3254    
 p176                 obsgroup      8.6520000E-03    3.0490000E-03    5.6030000E-03     1.000000        8.6520000E-03    3.0490000E-03    5.6030000E-03    3.3297216E-03     300.3254    
