 Name                 Group          Measured         Modelled         Residual         Weight       Weight*Measured    Weight*Modelled  Weight*Residual  Measurement_sd   Natural_weight
 p001                 obsgroup      1.7000000E-06    2.0000000E-06   -3.0000000E-07     1.000000        1.7000000E-06    2.0000000E-06   -3.0000000E-07    3.7921550E-06     263702.3    
 p002                 obsgroup      2.6800000E-06    2.0000000E-06    6.8000000E-07     1.000000        2.6800000E-06    2.0000000E-06    6.8000000E-07    3.7921550E-06     263702.3    
 p003                 obsgroup      2.0300000E-06    2.0000000E-06    3.0000000E-08     1.000000        2.0300000E-06    2.0000000E-06    3.0000000E-08    3.7921550E-06     263702.3    
 p004                 obsgroup      1.6400000E-06    2.0000000E-06   -3.6000000E-07     1.000000        1.6400000E-06    2.0000000E-06   -3.6000000E-07    3.7921550E-06     263702.3    
 p005                 obsgroup      3.6500000E-06    2.0000000E-06    1.6500000E-06     1.000000        3.6500000E-06    2.0000000E-06    1.6500000E-06    3.7921550E-06     263702.3    
 p006                 obsgroup      2.8600000E-06    2.0000000E-06    8.6000000E-07     1.000000        2.8600000E-06    2.0000000E-06    8.6000000E-07    3.7921550E-06     263702.3    
 p007                 obsgroup      2.5000000E-06    2.0000000E-06    5.0000000E-07     1.000000        2.5000000E-06    2.0000000E-06    5.0000000E-07    3.7921550E-06     263702.3    
 p008                 obsgroup      4.2000000E-07    2.0000000E-06   -1.5800000E-06     1.000000        4.2000000E-07    2.0000000E-06   -1.5800000E-06    3.7921550E-06     263702.3    
 p009                 obsgroup      2.7600000E-06    2.0000000E-06    7.6000000E-07     1.000000        2.7600000E-06    2.0000000E-06    7.6000000E-07    3.7921550E-06     263702.3    
 p010                 obsgroup      1.3700000E-06    2.0000000E-06   -6.3000000E-07     1.000000        1.3700000E-06    2.0000000E-06   -6.3000000E-07    3.7921550E-06     263702.3    
 p011                 obsgroup      1.4800000E-06    2.0000000E-06   -5.2000000E-07     1.000000        1.4800000E-06    2.0000000E-06   -5.2000000E-07    3.7921550E-06     263702.3    
 p012                 obsgroup      9.6000000E-07    2.0000000E-06   -1.0400000E-06     1.000000        9.6000000E-07    2.0000000E-06   -1.0400000E-06    3.7921550E-06     263702.3    
 p013                 obsgroup      8.3000000E-07    2.0000000E-06   -1.1700000E-06     1.000000        8.3000000E-07    2.0000000E-06   -1.1700000E-06    3.7921550E-06     263702.3    
 p014                 obsgroup      2.9600000E-06    2.0000000E-06    9.6000000E-07     1.000000        2.9600000E-06    2.0000000E-06    9.6000000E-07    3.7921550E-06     263702.3    
 p015                 obsgroup      7.2000000E-07    2.0000000E-06   -1.2800000E-06     1.000000        7.2000000E-07    2.0000000E-06   -1.2800000E-06    3.7921550E-06     263702.3    
 p016                 obsgroup      2.4500000E-06    2.0000000E-06    4.5000000E-07     1.000000        2.4500000E-06    2.0000000E-06    4.5000000E-07    3.7921550E-06     263702.3    
 p017                 obsgroup      3.0100000E-06    2.0000000E-06    1.0100000E-06     1.000000        3.0100000E-06    2.0000000E-06    1.0100000E-06    3.7921550E-06     263702.3    
 p018                 obsgroup      1.8200000E-06    2.0000000E-06   -1.8000000E-07     1.000000        1.8200000E-06    2.0000000E-06   -1.8000000E-07    3.7921550E-06     263702.3    
 p019                 obsgroup      1.4400000E-06    2.0000000E-06   -5.6000000E-07     1.000000        1.4400000E-06    2.0000000E-06   -5.6000000E-07    3.7921550E-06     263702.3    
 p020                 obsgroup      4.3000000E-07    2.0000000E-06   -1.5700000E-06     1.000000        4.3000000E-07    2.0000000E-06   -1.5700000E-06    3.7921550E-06     263702.3    
 p021                 obsgroup      2.6000000E-06    2.0000000E-06    6.0000000E-07     1.000000        2.6000000E-06    2.0000000E-06    6.0000000E-07    3.7921550E-06     263702.3    
 p022                 obsgroup      2.2600000E-06    2.0000000E-06    2.6000000E-07     1.000000        2.2600000E-06    2.0000000E-06    2.6000000E-07    3.7921550E-06     263702.3    
 p023                 obsgroup      2.9000000E-06    2.0000000E-06    9.0000000E-07     1.000000        2.9000000E-06    2.0000000E-06    9.0000000E-07    3.7921550E-06     263702.3    
 p024                 obsgroup      2.0000000E-06    2.0000000E-06     0.000000         1.000000        2.0000000E-06    2.0000000E-06     0.000000        3.7921550E-06     263702.3    
 p025                 obsgroup      2.0800000E-06    2.0000000E-06    8.0000000E-08     1.000000        2.0800000E-06    2.0000000E-06    8.0000000E-08    3.7921550E-06     263702.3    
 p026                 obsgroup      9.3000000E-07    2.0000000E-06   -1.0700000E-06     1.000000        9.3000000E-07    2.0000000E-06   -1.0700000E-06    3.7921550E-06     263702.3    
 p027                 obsgroup      1.2500000E-06    2.0000000E-06   -7.5000000E-07     1.000000        1.2500000E-06    2.0000000E-06   -7.5000000E-07    3.7921550E-06     263702.3    
 p028                 obsgroup      3.3200000E-06    2.0000000E-06    1.3200000E-06     1.000000        3.3200000E-06    2.0000000E-06    1.3200000E-06    3.7921550E-06     263702.3    
 p029                 obsgroup      1.0700000E-06    2.0000000E-06   -9.3000000E-07     1.000000        1.0700000E-06    2.0000000E-06   -9.3000000E-07    3.7921550E-06     263702.3    
 p030                 obsgroup      3.1000000E-07    2.0000000E-06   -1.6900000E-06     1.000000        3.1000000E-07    2.0000000E-06   -1.6900000E-06    3.7921550E-06     263702.3    
 p031                 obsgroup      1.7200000E-06    2.0000000E-06   -2.8000000E-07     1.000000        1.7200000E-06    2.0000000E-06   -2.8000000E-07    3.7921550E-06     263702.3    
 p032                 obsgroup      1.3300000E-06    2.0000000E-06   -6.7000000E-07     1.000000        1.3300000E-06    2.0000000E-06   -6.7000000E-07    3.7921550E-06     263702.3    
 p033                 obsgroup      2.4000000E-06    2.0000000E-06    4.0000000E-07     1.000000        2.4000000E-06    2.0000000E-06    4.0000000E-07    3.7921550E-06     263702.3    
 p034                 obsgroup      4.7700000E-06    3.0000000E-06    1.7700000E-06     1.000000        4.7700000E-06    3.0000000E-06    1.7700000E-06    3.7921550E-06     263702.3    
 p035                 obsgroup      4.7500000E-06    3.0000000E-06    1.7500000E-06     1.000000        4.7500000E-06    3.0000000E-06    1.7500000E-06    3.7921550E-06     263702.3    
 p036                 obsgroup      1.4000000E-07    4.0000000E-06   -3.8600000E-06     1.000000        1.4000000E-07    4.0000000E-06   -3.8600000E-06    3.7921550E-06     263702.3    
 p037                 obsgroup      2.3600000E-06    4.0000000E-06   -1.6400000E-06     1.000000        2.3600000E-06    4.0000000E-06   -1.6400000E-06    3.7921550E-06     263702.3    
 p038                 obsgroup      2.6400000E-06    5.0000000E-06   -2.3600000E-06     1.000000        2.6400000E-06    5.0000000E-06   -2.3600000E-06    3.7921550E-06     263702.3    
 p039                 obsgroup      2.1700000E-06    6.0000000E-06   -3.8300000E-06     1.000000        2.1700000E-06    6.0000000E-06   -3.8300000E-06    3.7921550E-06     263702.3    
 p040                 obsgroup      4.9700000E-06    7.0000000E-06   -2.0300000E-06     1.000000        4.9700000E-06    7.0000000E-06   -2.0300000E-06    3.7921550E-06     263702.3    
 p041                 obsgroup      8.9600000E-06    8.0000000E-06    9.6000000E-07     1.000000        8.9600000E-06    8.0000000E-06    9.6000000E-07    3.7921550E-06     263702.3    
 p042                 obsgroup      8.3200000E-06    9.0000000E-06   -6.8000000E-07     1.000000        8.3200000E-06    9.0000000E-06   -6.8000000E-07    3.7921550E-06     263702.3    
 p043                 obsgroup      8.9900000E-06    1.1000000E-05   -2.0100000E-06     1.000000        8.9900000E-06    1.1000000E-05   -2.0100000E-06    3.7921550E-06     263702.3    
 p044                 obsgroup      1.2150000E-05    1.2000000E-05    1.5000000E-07     1.000000        1.2150000E-05    1.2000000E-05    1.5000000E-07    3.7921550E-06     263702.3    
 p045                 obsgroup      1.2980000E-05    1.4000000E-05   -1.0200000E-06     1.000000        1.2980000E-05    1.4000000E-05   -1.0200000E-06    3.7921550E-06     263702.3    
 p046                 obsgroup      1.5760000E-05    1.7000000E-05   -1.2400000E-06     1.000000        1.5760000E-05    1.7000000E-05   -1.2400000E-06    3.7921550E-06     263702.3    
 p047                 obsgroup      1.5860000E-05    1.9000000E-05   -3.1400000E-06     1.000000        1.5860000E-05    1.9000000E-05   -3.1400000E-06    3.7921550E-06     263702.3    
 p048                 obsgroup      1.9260000E-05    2.1000000E-05   -1.7400000E-06     1.000000        1.9260000E-05    2.1000000E-05   -1.7400000E-06    3.7921550E-06     263702.3    
 p049                 obsgroup      2.4510000E-05    2.4000000E-05    5.1000000E-07     1.000000        2.4510000E-05    2.4000000E-05    5.1000000E-07    3.7921550E-06     263702.3    
 p050                 obsgroup      2.6680000E-05    2.7000000E-05   -3.2000000E-07     1.000000        2.6680000E-05    2.7000000E-05   -3.2000000E-07    3.7921550E-06     263702.3    
 p051                 obsgroup      2.9150000E-05    3.1000000E-05   -1.8500000E-06     1.000000        2.9150000E-05    3.1000000E-05   -1.8500000E-06    3.7921550E-06     263702.3    
 p052                 obsgroup      3.2860000E-05    3.4000000E-05   -1.1400000E-06     1.000000        3.2860000E-05    3.4000000E-05   -1.1400000E-06    3.7921550E-06     263702.3    
 p053                 obsgroup      3.8630000E-05    3.8000000E-05    6.3000000E-07     1.000000        3.8630000E-05    3.8000000E-05    6.3000000E-07    3.7921550E-06     263702.3    
 p054                 obsgroup      3.9760000E-05    4.1000000E-05   -1.2400000E-06     1.000000        3.9760000E-05    4.1000000E-05   -1.2400000E-06    3.7921550E-06     263702.3    
 p055                 obsgroup      4.1200000E-05    4.5000000E-05   -3.8000000E-06     1.000000        4.1200000E-05    4.5000000E-05   -3.8000000E-06    3.7921550E-06     263702.3    
 p056                 obsgroup      5.3150000E-05    4.9000000E-05    4.1500000E-06     1.000000        5.3150000E-05    4.9000000E-05    4.1500000E-06    3.7921550E-06     263702.3    
 p057                 obsgroup      5.5830000E-05    5.3000000E-05    2.8300000E-06     1.000000        5.5830000E-05    5.3000000E-05    2.8300000E-06    3.7921550E-06     263702.3    
 p058                 obsgroup      5.1710000E-05    5.7000000E-05   -5.2900000E-06     1.000000        5.1710000E-05    5.7000000E-05   -5.2900000E-06    3.7921550E-06     263702.3    
 p059                 obsgroup      5.6960000E-05    6.0000000E-05   -3.0400000E-06     1.000000        5.6960000E-05    6.0000000E-05   -3.0400000E-06    3.7921550E-06     263702.3    
 p060                 obsgroup      6.5820000E-05    6.5000000E-05    8.2000000E-07     1.000000        6.5820000E-05    6.5000000E-05    8.2000000E-07    3.7921550E-06     263702.3    
 p061                 obsgroup      7.0140000E-05    7.0000000E-05    1.4000000E-07     1.000000        7.0140000E-05    7.0000000E-05    1.4000000E-07    3.7921550E-06     263702.3    
 p062                 obsgroup      7.7460000E-05    7.5000000E-05    2.4600000E-06     1.000000        7.7460000E-05    7.5000000E-05    2.4600000E-06    3.7921550E-06     263702.3    
 p063                 obsgroup      7.7870000E-05    8.0000000E-05   -2.1300000E-06     1.000000        7.7870000E-05    8.0000000E-05   -2.1300000E-06    3.7921550E-06     263702.3    
 p064                 obsgroup      9.6920000E-05    8.5000000E-05    1.1920000E-05     1.000000        9.6920000E-05    8.5000000E-05    1.1920000E-05    3.7921550E-06     263702.3    
 p065                 obsgroup      8.8790000E-05    9.0000000E-05   -1.2100000E-06     1.000000        8.8790000E-05    9.0000000E-05   -1.2100000E-06    3.7921550E-06     263702.3    
 p066                 obsgroup      9.2800000E-05    9.5000000E-05   -2.2000000E-06     1.000000        9.2800000E-05    9.5000000E-05   -2.2000000E-06    3.7921550E-06     263702.3    
 p067                 obsgroup      1.1021000E-04    1.0000000E-04    1.0210000E-05     1.000000        1.1021000E-04    1.0000000E-04    1.0210000E-05    3.7921550E-06     263702.3    
 p068                 obsgroup      1.0279000E-04    1.0600000E-04   -3.2100000E-06     1.000000        1.0279000E-04    1.0600000E-04   -3.2100000E-06    3.7921550E-06     263702.3    
 p069                 obsgroup      1.0918000E-04    1.1100000E-04   -1.8200000E-06     1.000000        1.0918000E-04    1.1100000E-04   -1.8200000E-06    3.7921550E-06     263702.3    
 p070                 obsgroup      1.1227000E-04    1.1600000E-04   -3.7300000E-06     1.000000        1.1227000E-04    1.1600000E-04   -3.7300000E-06    3.7921550E-06     263702.3    
 p071                 obsgroup      1.1433000E-04    1.2000000E-04   -5.6700000E-06     1.000000        1.1433000E-04    1.2000000E-04   -5.6700000E-06    3.7921550E-06     263702.3    
 p072                 obsgroup      1.3081000E-04    1.2500000E-04    5.8100000E-06     1.000000        1.3081000E-04    1.2500000E-04    5.8100000E-06    3.7921550E-06     263702.3    
 p073                 obsgroup      1.2669000E-04    1.3000000E-04   -3.3100000E-06     1.000000        1.2669000E-04    1.3000000E-04   -3.3100000E-06    3.7921550E-06     263702.3    
 p074                 obsgroup      1.4008000E-04    1.3400000E-04    6.0800000E-06     1.000000        1.4008000E-04    1.3400000E-04    6.0800000E-06    3.7921550E-06     263702.3    
 p075                 obsgroup      1.3596000E-04    1.3900000E-04   -3.0400000E-06     1.000000        1.3596000E-04    1.3900000E-04   -3.0400000E-06    3.7921550E-06     263702.3    
 p076                 obsgroup      1.4832000E-04    1.4300000E-04    5.3200000E-06     1.000000        1.4832000E-04    1.4300000E-04    5.3200000E-06    3.7921550E-06     263702.3    
 p077                 obsgroup      1.5141000E-04    1.4700000E-04    4.4100000E-06     1.000000        1.5141000E-04    1.4700000E-04    4.4100000E-06    3.7921550E-06     263702.3    
 p078                 obsgroup      1.5553000E-04    1.5100000E-04    4.5300000E-06     1.000000        1.5553000E-04    1.5100000E-04    4.5300000E-06    3.7921550E-06     263702.3    
 p079                 obsgroup      1.5038000E-04    1.5400000E-04   -3.6200000E-06     1.000000        1.5038000E-04    1.5400000E-04   -3.6200000E-06    3.7921550E-06     263702.3    
 p080                 obsgroup      1.5862000E-04    1.5800000E-04    6.2000000E-07     1.000000        1.5862000E-04    1.5800000E-04    6.2000000E-07    3.7921550E-06     263702.3    
 p081                 obsgroup      1.5244000E-04    1.6100000E-04   -8.5600000E-06     1.000000        1.5244000E-04    1.6100000E-04   -8.5600000E-06    3.7921550E-06     263702.3    
 p082                 obsgroup      1.6068000E-04    1.6400000E-04   -3.3200000E-06     1.000000        1.6068000E-04    1.6400000E-04   -3.3200000E-06    3.7921550E-06     263702.3    
 p083                 obsgroup      1.6480000E-04    1.6800000E-04   -3.2000000E-06     1.000000        1.6480000E-04    1.6800000E-04   -3.2000000E-06    3.7921550E-06     263702.3    
 p084                 obsgroup      1.6789000E-04    1.7100000E-04   -3.1100000E-06     1.000000        1.6789000E-04    1.7100000E-04   -3.1100000E-06    3.7921550E-06     263702.3    
 p085                 obsgroup      1.6789000E-04    1.7300000E-04   -5.1100000E-06     1.000000        1.6789000E-04    1.7300000E-04   -5.1100000E-06    3.7921550E-06     263702.3    
 p086                 obsgroup      1.6892000E-04    1.7600000E-04   -7.0800000E-06     1.000000        1.6892000E-04    1.7600000E-04   -7.0800000E-06    3.7921550E-06     263702.3    
 p087                 obsgroup      1.8437000E-04    1.7900000E-04    5.3700000E-06     1.000000        1.8437000E-04    1.7900000E-04    5.3700000E-06    3.7921550E-06     263702.3    
 p088                 obsgroup      1.8952000E-04    1.8100000E-04    8.5200000E-06     1.000000        1.8952000E-04    1.8100000E-04    8.5200000E-06    3.7921550E-06     263702.3    
 p089                 obsgroup      1.8231000E-04    1.8300000E-04   -6.9000000E-07     1.000000        1.8231000E-04    1.8300000E-04   -6.9000000E-07    3.7921550E-06     263702.3    
 p090                 obsgroup      1.8746000E-04    1.8500000E-04    2.4600000E-06     1.000000        1.8746000E-04    1.8500000E-04    2.4600000E-06    3.7921550E-06     263702.3    
 p091                 obsgroup      1.8334000E-04    1.8700000E-04   -3.6600000E-06     1.000000        1.8334000E-04    1.8700000E-04   -3.6600000E-06    3.7921550E-06     263702.3    
 p092                 obsgroup      1.9570000E-04    1.8900000E-04    6.7000000E-06     1.000000        1.9570000E-04    1.8900000E-04    6.7000000E-06    3.7921550E-06     263702.3    
 p093                 obsgroup      1.9158000E-04    1.9100000E-04    5.8000000E-07     1.000000        1.9158000E-04    1.9100000E-04    5.8000000E-07    3.7921550E-06     263702.3    
 p094                 obsgroup      1.9158000E-04    1.9200000E-04   -4.2000000E-07     1.000000        1.9158000E-04    1.9200000E-04   -4.2000000E-07    3.7921550E-06     263702.3    
 p095                 obsgroup      1.9364000E-04    1.9400000E-04   -3.6000000E-07     1.000000        1.9364000E-04    1.9400000E-04   -3.6000000E-07    3.7921550E-06     263702.3    
 p096                 obsgroup      2.0188000E-04    1.9500000E-04    6.8800000E-06     1.000000        2.0188000E-04    1.9500000E-04    6.8800000E-06    3.7921550E-06     263702.3    
 p097                 obsgroup      1.9673000E-04    1.9600000E-04    7.3000000E-07     1.000000        1.9673000E-04    1.9600000E-04    7.3000000E-07    3.7921550E-06     263702.3    
 p098                 obsgroup      1.9158000E-04    1.9700000E-04   -5.4200000E-06     1.000000        1.9158000E-04    1.9700000E-04   -5.4200000E-06    3.7921550E-06     263702.3    
 p099                 obsgroup      1.8952000E-04    1.9800000E-04   -8.4800000E-06     1.000000        1.8952000E-04    1.9800000E-04   -8.4800000E-06    3.7921550E-06     263702.3    
 p100                 obsgroup      1.9467000E-04    1.9800000E-04   -3.3300000E-06     1.000000        1.9467000E-04    1.9800000E-04   -3.3300000E-06    3.7921550E-06     263702.3    
 p101                 obsgroup      1.9570000E-04    1.9900000E-04   -3.3000000E-06     1.000000        1.9570000E-04    1.9900000E-04   -3.3000000E-06    3.7921550E-06     263702.3    
 p102                 obsgroup      1.9879000E-04    2.0000000E-04   -1.2100000E-06     1.000000        1.9879000E-04    2.0000000E-04   -1.2100000E-06    3.7921550E-06     263702.3    
 p103                 obsgroup      2.0909000E-04    2.0000000E-04    9.0900000E-06     1.000000        2.0909000E-04    2.0000000E-04    9.0900000E-06    3.7921550E-06     263702.3    
 p104                 obsgroup      2.0188000E-04    2.0000000E-04    1.8800000E-06     1.000000        2.0188000E-04    2.0000000E-04    1.8800000E-06    3.7921550E-06     263702.3    
 p105                 obsgroup      1.9364000E-04    2.0000000E-04   -6.3600000E-06     1.000000        1.9364000E-04    2.0000000E-04   -6.3600000E-06    3.7921550E-06     263702.3    
 p106                 obsgroup      2.0600000E-04    2.0000000E-04    6.0000000E-06     1.000000        2.0600000E-04    2.0000000E-04    6.0000000E-06    3.7921550E-06     263702.3    
 p107                 obsgroup      2.1115000E-04    2.0000000E-04    1.1150000E-05     1.000000        2.1115000E-04    2.0000000E-04    1.1150000E-05    3.7921550E-06     263702.3    
 p108                 obsgroup      2.0806000E-04    2.0000000E-04    8.0600000E-06     1.000000        2.0806000E-04    2.0000000E-04    8.0600000E-06    3.7921550E-06     263702.3    
 p109                 obsgroup      1.9055000E-04    2.0000000E-04   -9.4500000E-06     1.000000        1.9055000E-04    2.0000000E-04   -9.4500000E-06    3.7921550E-06     263702.3    
 p110                 obsgroup      1.9879000E-04    2.0000000E-04   -1.2100000E-06     1.000000        1.9879000E-04    2.0000000E-04   -1.2100000E-06    3.7921550E-06     263702.3    
 p111                 obsgroup      1.9982000E-04    1.9900000E-04    8.2000000E-07     1.000000        1.9982000E-04    1.9900000E-04    8.2000000E-07    3.7921550E-06     263702.3    
 p112                 obsgroup      1.9055000E-04    1.9900000E-04   -8.4500000E-06     1.000000        1.9055000E-04    1.9900000E-04   -8.4500000E-06    3.7921550E-06     263702.3    
 p113                 obsgroup      2.0703000E-04    1.9800000E-04    9.0300000E-06     1.000000        2.0703000E-04    1.9800000E-04    9.0300000E-06    3.7921550E-06     263702.3    
 p114                 obsgroup      1.8952000E-04    1.9800000E-04   -8.4800000E-06     1.000000        1.8952000E-04    1.9800000E-04   -8.4800000E-06    3.7921550E-06     263702.3    
 p115                 obsgroup      1.9879000E-04    1.9700000E-04    1.7900000E-06     1.000000        1.9879000E-04    1.9700000E-04    1.7900000E-06    3.7921550E-06     263702.3    
 p116                 obsgroup      1.9879000E-04    1.9600000E-04    2.7900000E-06     1.000000        1.9879000E-04    1.9600000E-04    2.7900000E-06    3.7921550E-06     263702.3    
 p117                 obsgroup      1.8643000E-04    1.9600000E-04   -9.5700000E-06     1.000000        1.8643000E-04    1.9600000E-04   -9.5700000E-06    3.7921550E-06     263702.3    
 p118                 obsgroup      2.0188000E-04    1.9500000E-04    6.8800000E-06     1.000000        2.0188000E-04    1.9500000E-04    6.8800000E-06    3.7921550E-06     263702.3    
 p119                 obsgroup      1.9982000E-04    1.9400000E-04    5.8200000E-06     1.000000        1.9982000E-04    1.9400000E-04    5.8200000E-06    3.7921550E-06     263702.3    
 p120                 obsgroup      1.8334000E-04    1.9300000E-04   -9.6600000E-06     1.000000        1.8334000E-04    1.9300000E-04   -9.6600000E-06    3.7921550E-06     263702.3    
 p121                 obsgroup      1.9261000E-04    1.9200000E-04    6.1000000E-07     1.000000        1.9261000E-04    1.9200000E-04    6.1000000E-07    3.7921550E-06     263702.3    
 p122                 obsgroup      1.9364000E-04    1.9100000E-04    2.6400000E-06     1.000000        1.9364000E-04    1.9100000E-04    2.6400000E-06    3.7921550E-06     263702.3    
 p123                 obsgroup      1.8437000E-04    1.9000000E-04   -5.6300000E-06     1.000000        1.8437000E-04    1.9000000E-04   -5.6300000E-06    3.7921550E-06     263702.3    
 p124                 obsgroup      1.8437000E-04    1.8900000E-04   -4.6300000E-06     1.000000        1.8437000E-04    1.8900000E-04   -4.6300000E-06    3.7921550E-06     263702.3    
 p125                 obsgroup      1.9673000E-04    1.8800000E-04    8.7300000E-06     1.000000        1.9673000E-04    1.8800000E-04    8.7300000E-06    3.7921550E-06     263702.3    
 p126                 obsgroup      1.8334000E-04    1.8700000E-04   -3.6600000E-06     1.000000        1.8334000E-04    1.8700000E-04   -3.6600000E-06    3.7921550E-06     263702.3    
 p127                 obsgroup      1.7819000E-04    1.8500000E-04   -6.8100000E-06     1.000000        1.7819000E-04    1.8500000E-04   -6.8100000E-06    3.7921550E-06     263702.3    
 p128                 obsgroup      1.7819000E-04    1.8400000E-04   -5.8100000E-06     1.000000        1.7819000E-04    1.8400000E-04   -5.8100000E-06    3.7921550E-06     263702.3    
 p129                 obsgroup      1.7819000E-04    1.8300000E-04   -4.8100000E-06     1.000000        1.7819000E-04    1.8300000E-04   -4.8100000E-06    3.7921550E-06     263702.3    
 p130                 obsgroup      1.8334000E-04    1.8100000E-04    2.3400000E-06     1.000000        1.8334000E-04    1.8100000E-04    2.3400000E-06    3.7921550E-06     263702.3    
 p131                 obsgroup      1.7819000E-04    1.8000000E-04   -1.8100000E-06     1.000000        1.7819000E-04    1.8000000E-04   -1.8100000E-06    3.7921550E-06     263702.3    
 p132                 obsgroup      1.7716000E-04    1.7900000E-04   -1.8400000E-06     1.000000        1.7716000E-04    1.7900000E-04   -1.8400000E-06    3.7921550E-06     263702.3    
 p133                 obsgroup      1.6583000E-04    1.7800000E-04   -1.2170000E-05     1.000000        1.6583000E-04    1.7800000E-04   -1.2170000E-05    3.7921550E-06     263702.3    
 p134                 obsgroup      1.8128000E-04    1.7600000E-04    5.2800000E-06     1.000000        1.8128000E-04    1.7600000E-04    5.2800000E-06    3.7921550E-06     263702.3    
 p135                 obsgroup      1.7613000E-04    1.7500000E-04    1.1300000E-06     1.000000        1.7613000E-04    1.7500000E-04    1.1300000E-06    3.7921550E-06     263702.3    
 p136                 obsgroup      1.6789000E-04    1.7300000E-04   -5.1100000E-06     1.000000        1.6789000E-04    1.7300000E-04   -5.1100000E-06    3.7921550E-06     263702.3    
 p137                 obsgroup      1.7716000E-04    1.7200000E-04    5.1600000E-06     1.000000        1.7716000E-04    1.7200000E-04    5.1600000E-06    3.7921550E-06     263702.3    
 p138                 obsgroup      1.7510000E-04    1.7100000E-04    4.1000000E-06     1.000000        1.7510000E-04    1.7100000E-04    4.1000000E-06    3.7921550E-06     263702.3    
 p139                 obsgroup      1.7613000E-04    1.6900000E-04    7.1300000E-06     1.000000        1.7613000E-04    1.6900000E-04    7.1300000E-06    3.7921550E-06     263702.3    
 p140                 obsgroup      1.6480000E-04    1.6800000E-04   -3.2000000E-06     1.000000        1.6480000E-04    1.6800000E-04   -3.2000000E-06    3.7921550E-06     263702.3    
 p141                 obsgroup      1.7201000E-04    1.6700000E-04    5.0100000E-06     1.000000        1.7201000E-04    1.6700000E-04    5.0100000E-06    3.7921550E-06     263702.3    
 p142                 obsgroup      1.6480000E-04    1.6500000E-04   -2.0000000E-07     1.000000        1.6480000E-04    1.6500000E-04   -2.0000000E-07    3.7921550E-06     263702.3    
 p143                 obsgroup      1.5656000E-04    1.6400000E-04   -7.4400000E-06     1.000000        1.5656000E-04    1.6400000E-04   -7.4400000E-06    3.7921550E-06     263702.3    
 p144                 obsgroup      1.6377000E-04    1.6200000E-04    1.7700000E-06     1.000000        1.6377000E-04    1.6200000E-04    1.7700000E-06    3.7921550E-06     263702.3    
 p145                 obsgroup      1.5759000E-04    1.6100000E-04   -3.4100000E-06     1.000000        1.5759000E-04    1.6100000E-04   -3.4100000E-06    3.7921550E-06     263702.3    
 p146                 obsgroup      1.6274000E-04    1.6000000E-04    2.7400000E-06     1.000000        1.6274000E-04    1.6000000E-04    2.7400000E-06    3.7921550E-06     263702.3    
 p147                 obsgroup      1.6274000E-04    1.5800000E-04    4.7400000E-06     1.000000        1.6274000E-04    1.5800000E-04    4.7400000E-06    3.7921550E-06     263702.3    
 p148                 obsgroup      1.6274000E-04    1.5700000E-04    5.7400000E-06     1.000000        1.6274000E-04    1.5700000E-04    5.7400000E-06    3.7921550E-06     263702.3    
 p149                 obsgroup      1.6068000E-04    1.5600000E-04    4.6800000E-06     1.000000        1.6068000E-04    1.5600000E-04    4.6800000E-06    3.7921550E-06     263702.3    
 p150                 obsgroup      1.5965000E-04    1.5400000E-04    5.6500000E-06     1.000000        1.5965000E-04    1.5400000E-04    5.6500000E-06    3.7921550E-06     263702.3    
 p151                 obsgroup      1.5347000E-04    1.5300000E-04    4.7000000E-07     1.000000        1.5347000E-04    1.5300000E-04    4.7000000E-07    3.7921550E-06     263702.3    
 p152                 obsgroup      1.4729000E-04    1.5100000E-04   -3.7100000E-06     1.000000        1.4729000E-04    1.5100000E-04   -3.7100000E-06    3.7921550E-06     263702.3    
 p153                 obsgroup      1.4523000E-04    1.5000000E-04   -4.7700000E-06     1.000000        1.4523000E-04    1.5000000E-04   -4.7700000E-06    3.7921550E-06     263702.3    
 p154                 obsgroup      1.4935000E-04    1.4900000E-04    3.5000000E-07     1.000000        1.4935000E-04    1.4900000E-04    3.5000000E-07    3.7921550E-06     263702.3    
 p155                 obsgroup      1.4935000E-04    1.4700000E-04    2.3500000E-06     1.000000        1.4935000E-04    1.4700000E-04    2.3500000E-06    3.7921550E-06     263702.3    
 p156                 obsgroup      1.4214000E-04    1.4600000E-04   -3.8600000E-06     1.000000        1.4214000E-04    1.4600000E-04   -3.8600000E-06    3.7921550E-06     263702.3    
 p157                 obsgroup      1.4008000E-04    1.4400000E-04   -3.9200000E-06     1.000000        1.4008000E-04    1.4400000E-04   -3.9200000E-06    3.7921550E-06     263702.3    
 p158                 obsgroup      1.4935000E-04    1.4300000E-04    6.3500000E-06     1.000000        1.4935000E-04    1.4300000E-04    6.3500000E-06    3.7921550E-06     263702.3    
 p159                 obsgroup      1.4729000E-04    1.4200000E-04    5.2900000E-06     1.000000        1.4729000E-04    1.4200000E-04    5.2900000E-06    3.7921550E-06     263702.3    
 p160                 obsgroup      1.4935000E-04    1.4100000E-04    8.3500000E-06     1.000000        1.4935000E-04    1.4100000E-04    8.3500000E-06    3.7921550E-06     263702.3    
 p161                 obsgroup      1.3905000E-04    1.3900000E-04    5.0000000E-08     1.000000        1.3905000E-04    1.3900000E-04    5.0000000E-08    3.7921550E-06     263702.3    
 p162                 obsgroup      1.3905000E-04    1.3800000E-04    1.0500000E-06     1.000000        1.3905000E-04    1.3800000E-04    1.0500000E-06    3.7921550E-06     263702.3    
 p163                 obsgroup      1.4008000E-04    1.3700000E-04    3.0800000E-06     1.000000        1.4008000E-04    1.3700000E-04    3.0800000E-06    3.7921550E-06     263702.3    
 p164                 obsgroup      1.2978000E-04    1.3600000E-04   -6.2200000E-06     1.000000        1.2978000E-04    1.3600000E-04   -6.2200000E-06    3.7921550E-06     263702.3    
 p165                 obsgroup      1.3802000E-04    1.3400000E-04    4.0200000E-06     1.000000        1.3802000E-04    1.3400000E-04    4.0200000E-06    3.7921550E-06     263702.3    
 p166                 obsgroup      1.4111000E-04    1.3300000E-04    8.1100000E-06     1.000000        1.4111000E-04    1.3300000E-04    8.1100000E-06    3.7921550E-06     263702.3    
 p167                 obsgroup      1.2463000E-04    1.3200000E-04   -7.3700000E-06     1.000000        1.2463000E-04    1.3200000E-04   -7.3700000E-06    3.7921550E-06     263702.3    
 p168                 obsgroup      1.2669000E-04    1.3100000E-04   -4.3100000E-06     1.000000        1.2669000E-04    1.3100000E-04   -4.3100000E-06    3.7921550E-06     263702.3    
 p169                 obsgroup      1.2669000E-04    1.3000000E-04   -3.3100000E-06     1.000000        1.2669000E-04    1.3000000E-04   -3.3100000E-06    3.7921550E-06     263702.3    
 p170                 obsgroup      1.2669000E-04    1.2800000E-04   -1.3100000E-06     1.000000        1.2669000E-04    1.2800000E-04   -1.3100000E-06    3.7921550E-06     263702.3    
 p171                 obsgroup      1.2463000E-04    1.2700000E-04   -2.3700000E-06     1.000000        1.2463000E-04    1.2700000E-04   -2.3700000E-06    3.7921550E-06     263702.3    
 p172                 obsgroup      1.1845000E-04    1.2600000E-04   -7.5500000E-06     1.000000        1.1845000E-04    1.2600000E-04   -7.5500000E-06    3.7921550E-06     263702.3    
 p173                 obsgroup      1.2772000E-04    1.2500000E-04    2.7200000E-06     1.000000        1.2772000E-04    1.2500000E-04    2.7200000E-06    3.7921550E-06     263702.3    
 p174                 obsgroup      1.2463000E-04    1.2400000E-04    6.3000000E-07     1.000000        1.2463000E-04    1.2400000E-04    6.3000000E-07    3.7921550E-06     263702.3    
 p175                 obsgroup      1.2669000E-04    1.2300000E-04    3.6900000E-06     1.000000        1.2669000E-04    1.2300000E-04    3.6900000E-06    3.7921550E-06     263702.3    
 p176                 obsgroup      1.2772000E-04    1.2200000E-04    5.7200000E-06     1.000000        1.2772000E-04    1.2200000E-04    5.7200000E-06    3.7921550E-06     263702.3    
 p177                 obsgroup      1.1330000E-04    1.2100000E-04   -7.7000000E-06     1.000000        1.1330000E-04    1.2100000E-04   -7.7000000E-06    3.7921550E-06     263702.3    
 p178                 obsgroup      1.1433000E-04    1.1900000E-04   -4.6700000E-06     1.000000        1.1433000E-04    1.1900000E-04   -4.6700000E-06    3.7921550E-06     263702.3    
 p179                 obsgroup      1.2669000E-04    1.1800000E-04    8.6900000E-06     1.000000        1.2669000E-04    1.1800000E-04    8.6900000E-06    3.7921550E-06     263702.3    
 p180                 obsgroup      1.1536000E-04    1.1700000E-04   -1.6400000E-06     1.000000        1.1536000E-04    1.1700000E-04   -1.6400000E-06    3.7921550E-06     263702.3    
 p181                 obsgroup      1.1845000E-04    1.1600000E-04    2.4500000E-06     1.000000        1.1845000E-04    1.1600000E-04    2.4500000E-06    3.7921550E-06     263702.3    
 p182                 obsgroup      1.1948000E-04    1.1500000E-04    4.4800000E-06     1.000000        1.1948000E-04    1.1500000E-04    4.4800000E-06    3.7921550E-06     263702.3    
 p183                 obsgroup      1.1227000E-04    1.1400000E-04   -1.7300000E-06     1.000000        1.1227000E-04    1.1400000E-04   -1.7300000E-06    3.7921550E-06     263702.3    
 p184                 obsgroup      1.1742000E-04    1.1300000E-04    4.4200000E-06     1.000000        1.1742000E-04    1.1300000E-04    4.4200000E-06    3.7921550E-06     263702.3    
 p185                 obsgroup      1.0712000E-04    1.1200000E-04   -4.8800000E-06     1.000000        1.0712000E-04    1.1200000E-04   -4.8800000E-06    3.7921550E-06     263702.3    
 p186                 obsgroup      1.1742000E-04    1.1100000E-04    6.4200000E-06     1.000000        1.1742000E-04    1.1100000E-04    6.4200000E-06    3.7921550E-06     263702.3    
 p187                 obsgroup      1.1021000E-04    1.1000000E-04    2.1000000E-07     1.000000        1.1021000E-04    1.1000000E-04    2.1000000E-07    3.7921550E-06     263702.3    
 p188                 obsgroup      1.0815000E-04    1.0900000E-04   -8.5000000E-07     1.000000        1.0815000E-04    1.0900000E-04   -8.5000000E-07    3.7921550E-06     263702.3    
 p189                 obsgroup      1.0918000E-04    1.0800000E-04    1.1800000E-06     1.000000        1.0918000E-04    1.0800000E-04    1.1800000E-06    3.7921550E-06     263702.3    
 p190                 obsgroup      1.1639000E-04    1.0700000E-04    9.3900000E-06     1.000000        1.1639000E-04    1.0700000E-04    9.3900000E-06    3.7921550E-06     263702.3    
 p191                 obsgroup      1.1021000E-04    1.0600000E-04    4.2100000E-06     1.000000        1.1021000E-04    1.0600000E-04    4.2100000E-06    3.7921550E-06     263702.3    
 p192                 obsgroup      1.1124000E-04    1.0500000E-04    6.2400000E-06     1.000000        1.1124000E-04    1.0500000E-04    6.2400000E-06    3.7921550E-06     263702.3    
 p193                 obsgroup      1.0300000E-04    1.0400000E-04   -1.0000000E-06     1.000000        1.0300000E-04    1.0400000E-04   -1.0000000E-06    3.7921550E-06     263702.3    
 p194                 obsgroup      1.0712000E-04    1.0300000E-04    4.1200000E-06     1.000000        1.0712000E-04    1.0300000E-04    4.1200000E-06    3.7921550E-06     263702.3    
 p195                 obsgroup      1.0238000E-04    1.0200000E-04    3.8000000E-07     1.000000        1.0238000E-04    1.0200000E-04    3.8000000E-07    3.7921550E-06     263702.3    
 p196                 obsgroup      1.0084000E-04    1.0100000E-04   -1.6000000E-07     1.000000        1.0084000E-04    1.0100000E-04   -1.6000000E-07    3.7921550E-06     263702.3    
 p197                 obsgroup      1.0918000E-04    1.0000000E-04    9.1800000E-06     1.000000        1.0918000E-04    1.0000000E-04    9.1800000E-06    3.7921550E-06     263702.3    
 p198                 obsgroup      9.6820000E-05    1.0000000E-04   -3.1800000E-06     1.000000        9.6820000E-05    1.0000000E-04   -3.1800000E-06    3.7921550E-06     263702.3    
 p199                 obsgroup      9.1670000E-05    9.9000000E-05   -7.3300000E-06     1.000000        9.1670000E-05    9.9000000E-05   -7.3300000E-06    3.7921550E-06     263702.3    
 p200                 obsgroup      9.3830000E-05    9.8000000E-05   -4.1700000E-06     1.000000        9.3830000E-05    9.8000000E-05   -4.1700000E-06    3.7921550E-06     263702.3    
 p201                 obsgroup      1.0022000E-04    9.7000000E-05    3.2200000E-06     1.000000        1.0022000E-04    9.7000000E-05    3.2200000E-06    3.7921550E-06     263702.3    
 p202                 obsgroup      1.0228000E-04    9.6000000E-05    6.2800000E-06     1.000000        1.0228000E-04    9.6000000E-05    6.2800000E-06    3.7921550E-06     263702.3    
 p203                 obsgroup      9.3630000E-05    9.6000000E-05   -2.3700000E-06     1.000000        9.3630000E-05    9.6000000E-05   -2.3700000E-06    3.7921550E-06     263702.3    
 p204                 obsgroup      8.7760000E-05    9.5000000E-05   -7.2400000E-06     1.000000        8.7760000E-05    9.5000000E-05   -7.2400000E-06    3.7921550E-06     263702.3    
 p205                 obsgroup      9.1770000E-05    9.4000000E-05   -2.2300000E-06     1.000000        9.1770000E-05    9.4000000E-05   -2.2300000E-06    3.7921550E-06     263702.3    
 p206                 obsgroup      9.9190000E-05    9.3000000E-05    6.1900000E-06     1.000000        9.9190000E-05    9.3000000E-05    6.1900000E-06    3.7921550E-06     263702.3    
 p207                 obsgroup      9.3010000E-05    9.2000000E-05    1.0100000E-06     1.000000        9.3010000E-05    9.2000000E-05    1.0100000E-06    3.7921550E-06     263702.3    
 p208                 obsgroup      1.0022000E-04    9.2000000E-05    8.2200000E-06     1.000000        1.0022000E-04    9.2000000E-05    8.2200000E-06    3.7921550E-06     263702.3    
 p209                 obsgroup      8.2710000E-05    9.1000000E-05   -8.2900000E-06     1.000000        8.2710000E-05    9.1000000E-05   -8.2900000E-06    3.7921550E-06     263702.3    
 p210                 obsgroup      1.0063000E-04    9.0000000E-05    1.0630000E-05     1.000000        1.0063000E-04    9.0000000E-05    1.0630000E-05    3.7921550E-06     263702.3    
 p211                 obsgroup      8.9510000E-05    9.0000000E-05   -4.9000000E-07     1.000000        8.9510000E-05    9.0000000E-05   -4.9000000E-07    3.7921550E-06     263702.3    
 p212                 obsgroup      8.7040000E-05    8.9000000E-05   -1.9600000E-06     1.000000        8.7040000E-05    8.9000000E-05   -1.9600000E-06    3.7921550E-06     263702.3    
 p213                 obsgroup      8.6110000E-05    8.8000000E-05   -1.8900000E-06     1.000000        8.6110000E-05    8.8000000E-05   -1.8900000E-06    3.7921550E-06     263702.3    
 p214                 obsgroup      8.8580000E-05    8.7000000E-05    1.5800000E-06     1.000000        8.8580000E-05    8.7000000E-05    1.5800000E-06    3.7921550E-06     263702.3    
 p215                 obsgroup      8.1680000E-05    8.7000000E-05   -5.3200000E-06     1.000000        8.1680000E-05    8.7000000E-05   -5.3200000E-06    3.7921550E-06     263702.3    
 p216                 obsgroup      8.7860000E-05    8.6000000E-05    1.8600000E-06     1.000000        8.7860000E-05    8.6000000E-05    1.8600000E-06    3.7921550E-06     263702.3    
 p217                 obsgroup      8.6420000E-05    8.5000000E-05    1.4200000E-06     1.000000        8.6420000E-05    8.5000000E-05    1.4200000E-06    3.7921550E-06     263702.3    
 p218                 obsgroup      8.3220000E-05    8.4000000E-05   -7.8000000E-07     1.000000        8.3220000E-05    8.4000000E-05   -7.8000000E-07    3.7921550E-06     263702.3    
 p219                 obsgroup      8.1780000E-05    8.4000000E-05   -2.2200000E-06     1.000000        8.1780000E-05    8.4000000E-05   -2.2200000E-06    3.7921550E-06     263702.3    
 p220                 obsgroup      7.7350000E-05    8.3000000E-05   -5.6500000E-06     1.000000        7.7350000E-05    8.3000000E-05   -5.6500000E-06    3.7921550E-06     263702.3    
 p221                 obsgroup      7.9620000E-05    8.2000000E-05   -2.3800000E-06     1.000000        7.9620000E-05    8.2000000E-05   -2.3800000E-06    3.7921550E-06     263702.3    
 p222                 obsgroup      8.0550000E-05    8.2000000E-05   -1.4500000E-06     1.000000        8.0550000E-05    8.2000000E-05   -1.4500000E-06    3.7921550E-06     263702.3    
 p223                 obsgroup      7.4880000E-05    8.1000000E-05   -6.1200000E-06     1.000000        7.4880000E-05    8.1000000E-05   -6.1200000E-06    3.7921550E-06     263702.3    
 p224                 obsgroup      7.7350000E-05    8.0000000E-05   -2.6500000E-06     1.000000        7.7350000E-05    8.0000000E-05   -2.6500000E-06    3.7921550E-06     263702.3    
 p225                 obsgroup      8.0550000E-05    8.0000000E-05    5.5000000E-07     1.000000        8.0550000E-05    8.0000000E-05    5.5000000E-07    3.7921550E-06     263702.3    
 p226                 obsgroup      7.3440000E-05    7.9000000E-05   -5.5600000E-06     1.000000        7.3440000E-05    7.9000000E-05   -5.5600000E-06    3.7921550E-06     263702.3    
 p227                 obsgroup      7.1170000E-05    7.8000000E-05   -6.8300000E-06     1.000000        7.1170000E-05    7.8000000E-05   -6.8300000E-06    3.7921550E-06     263702.3    
 p228                 obsgroup      7.5910000E-05    7.8000000E-05   -2.0900000E-06     1.000000        7.5910000E-05    7.8000000E-05   -2.0900000E-06    3.7921550E-06     263702.3    
 p229                 obsgroup      6.8290000E-05    7.7000000E-05   -8.7100000E-06     1.000000        6.8290000E-05    7.7000000E-05   -8.7100000E-06    3.7921550E-06     263702.3    
 p230                 obsgroup      8.0340000E-05    7.6000000E-05    4.3400000E-06     1.000000        8.0340000E-05    7.6000000E-05    4.3400000E-06    3.7921550E-06     263702.3    
 p231                 obsgroup      7.9620000E-05    7.6000000E-05    3.6200000E-06     1.000000        7.9620000E-05    7.6000000E-05    3.6200000E-06    3.7921550E-06     263702.3    
 p232                 obsgroup      7.6010000E-05    7.5000000E-05    1.0100000E-06     1.000000        7.6010000E-05    7.5000000E-05    1.0100000E-06    3.7921550E-06     263702.3    
 p233                 obsgroup      7.1890000E-05    7.5000000E-05   -3.1100000E-06     1.000000        7.1890000E-05    7.5000000E-05   -3.1100000E-06    3.7921550E-06     263702.3    
 p234                 obsgroup      7.4880000E-05    7.4000000E-05    8.8000000E-07     1.000000        7.4880000E-05    7.4000000E-05    8.8000000E-07    3.7921550E-06     263702.3    
 p235                 obsgroup      6.6950000E-05    7.3000000E-05   -6.0500000E-06     1.000000        6.6950000E-05    7.3000000E-05   -6.0500000E-06    3.7921550E-06     263702.3    
 p236                 obsgroup      7.6430000E-05    7.3000000E-05    3.4300000E-06     1.000000        7.6430000E-05    7.3000000E-05    3.4300000E-06    3.7921550E-06     263702.3    
 p237                 obsgroup      7.5090000E-05    7.2000000E-05    3.0900000E-06     1.000000        7.5090000E-05    7.2000000E-05    3.0900000E-06    3.7921550E-06     263702.3    
 p238                 obsgroup      6.4680000E-05    7.2000000E-05   -7.3200000E-06     1.000000        6.4680000E-05    7.2000000E-05   -7.3200000E-06    3.7921550E-06     263702.3    
 p239                 obsgroup      7.0760000E-05    7.1000000E-05   -2.4000000E-07     1.000000        7.0760000E-05    7.1000000E-05   -2.4000000E-07    3.7921550E-06     263702.3    
 p240                 obsgroup      6.3550000E-05    7.1000000E-05   -7.4500000E-06     1.000000        6.3550000E-05    7.1000000E-05   -7.4500000E-06    3.7921550E-06     263702.3    
 p241                 obsgroup      6.6440000E-05    7.0000000E-05   -3.5600000E-06     1.000000        6.6440000E-05    7.0000000E-05   -3.5600000E-06    3.7921550E-06     263702.3    
 p242                 obsgroup      6.6950000E-05    7.0000000E-05   -3.0500000E-06     1.000000        6.6950000E-05    7.0000000E-05   -3.0500000E-06    3.7921550E-06     263702.3    
 p243                 obsgroup      6.4580000E-05    6.9000000E-05   -4.4200000E-06     1.000000        6.4580000E-05    6.9000000E-05   -4.4200000E-06    3.7921550E-06     263702.3    
 p244                 obsgroup      6.6950000E-05    6.8000000E-05   -1.0500000E-06     1.000000        6.6950000E-05    6.8000000E-05   -1.0500000E-06    3.7921550E-06     263702.3    
 p245                 obsgroup      6.7570000E-05    6.8000000E-05   -4.3000000E-07     1.000000        6.7570000E-05    6.8000000E-05   -4.3000000E-07    3.7921550E-06     263702.3    
 p246                 obsgroup      6.4380000E-05    6.7000000E-05   -2.6200000E-06     1.000000        6.4380000E-05    6.7000000E-05   -2.6200000E-06    3.7921550E-06     263702.3    
 p247                 obsgroup      7.1070000E-05    6.7000000E-05    4.0700000E-06     1.000000        7.1070000E-05    6.7000000E-05    4.0700000E-06    3.7921550E-06     263702.3    
 p248                 obsgroup      6.0050000E-05    6.6000000E-05   -5.9500000E-06     1.000000        6.0050000E-05    6.6000000E-05   -5.9500000E-06    3.7921550E-06     263702.3    
 p249                 obsgroup      6.3760000E-05    6.6000000E-05   -2.2400000E-06     1.000000        6.3760000E-05    6.6000000E-05   -2.2400000E-06    3.7921550E-06     263702.3    
 p250                 obsgroup      6.0050000E-05    6.5000000E-05   -4.9500000E-06     1.000000        6.0050000E-05    6.5000000E-05   -4.9500000E-06    3.7921550E-06     263702.3    
 p251                 obsgroup      5.9330000E-05    6.5000000E-05   -5.6700000E-06     1.000000        5.9330000E-05    6.5000000E-05   -5.6700000E-06    3.7921550E-06     263702.3    
 p252                 obsgroup      6.7050000E-05    6.4000000E-05    3.0500000E-06     1.000000        6.7050000E-05    6.4000000E-05    3.0500000E-06    3.7921550E-06     263702.3    
 p253                 obsgroup      6.8290000E-05    6.4000000E-05    4.2900000E-06     1.000000        6.8290000E-05    6.4000000E-05    4.2900000E-06    3.7921550E-06     263702.3    
 p254                 obsgroup      6.1080000E-05    6.3000000E-05   -1.9200000E-06     1.000000        6.1080000E-05    6.3000000E-05   -1.9200000E-06    3.7921550E-06     263702.3    
 p255                 obsgroup      6.0980000E-05    6.3000000E-05   -2.0200000E-06     1.000000        6.0980000E-05    6.3000000E-05   -2.0200000E-06    3.7921550E-06     263702.3    
 p256                 obsgroup      6.2930000E-05    6.2000000E-05    9.3000000E-07     1.000000        6.2930000E-05    6.2000000E-05    9.3000000E-07    3.7921550E-06     263702.3    
 p257                 obsgroup      5.9640000E-05    6.2000000E-05   -2.3600000E-06     1.000000        5.9640000E-05    6.2000000E-05   -2.3600000E-06    3.7921550E-06     263702.3    
 p258                 obsgroup      5.7890000E-05    6.1000000E-05   -3.1100000E-06     1.000000        5.7890000E-05    6.1000000E-05   -3.1100000E-06    3.7921550E-06     263702.3    
 p259                 obsgroup      5.8810000E-05    6.1000000E-05   -2.1900000E-06     1.000000        5.8810000E-05    6.1000000E-05   -2.1900000E-06    3.7921550E-06     263702.3    
 p260                 obsgroup      6.1490000E-05    6.0000000E-05    1.4900000E-06     1.000000        6.1490000E-05    6.0000000E-05    1.4900000E-06    3.7921550E-06     263702.3    
 p261                 obsgroup      6.0560000E-05    6.0000000E-05    5.6000000E-07     1.000000        6.0560000E-05    6.0000000E-05    5.6000000E-07    3.7921550E-06     263702.3    
 p262                 obsgroup      6.2520000E-05    6.0000000E-05    2.5200000E-06     1.000000        6.2520000E-05    6.0000000E-05    2.5200000E-06    3.7921550E-06     263702.3    
 p263                 obsgroup      5.4690000E-05    5.9000000E-05   -4.3100000E-06     1.000000        5.4690000E-05    5.9000000E-05   -4.3100000E-06    3.7921550E-06     263702.3    
 p264                 obsgroup      6.0360000E-05    5.9000000E-05    1.3600000E-06     1.000000        6.0360000E-05    5.9000000E-05    1.3600000E-06    3.7921550E-06     263702.3    
 p265                 obsgroup      5.7890000E-05    5.8000000E-05   -1.1000000E-07     1.000000        5.7890000E-05    5.8000000E-05   -1.1000000E-07    3.7921550E-06     263702.3    
 p266                 obsgroup      5.6650000E-05    5.8000000E-05   -1.3500000E-06     1.000000        5.6650000E-05    5.8000000E-05   -1.3500000E-06    3.7921550E-06     263702.3    
 p267                 obsgroup      5.4900000E-05    5.7000000E-05   -2.1000000E-06     1.000000        5.4900000E-05    5.7000000E-05   -2.1000000E-06    3.7921550E-06     263702.3    
 p268                 obsgroup      5.4280000E-05    5.7000000E-05   -2.7200000E-06     1.000000        5.4280000E-05    5.7000000E-05   -2.7200000E-06    3.7921550E-06     263702.3    
 p269                 obsgroup      5.8090000E-05    5.7000000E-05    1.0900000E-06     1.000000        5.8090000E-05    5.7000000E-05    1.0900000E-06    3.7921550E-06     263702.3    
 p270                 obsgroup      5.4690000E-05    5.6000000E-05   -1.3100000E-06     1.000000        5.4690000E-05    5.6000000E-05   -1.3100000E-06    3.7921550E-06     263702.3    
 p271                 obsgroup      5.6030000E-05    5.6000000E-05    3.0000000E-08     1.000000        5.6030000E-05    5.6000000E-05    3.0000000E-08    3.7921550E-06     263702.3    
 p272                 obsgroup      5.5620000E-05    5.5000000E-05    6.2000000E-07     1.000000        5.5620000E-05    5.5000000E-05    6.2000000E-07    3.7921550E-06     263702.3    
 p273                 obsgroup      5.5310000E-05    5.5000000E-05    3.1000000E-07     1.000000        5.5310000E-05    5.5000000E-05    3.1000000E-07    3.7921550E-06     263702.3    
 p274                 obsgroup      5.3970000E-05    5.5000000E-05   -1.0300000E-06     1.000000        5.3970000E-05    5.5000000E-05   -1.0300000E-06    3.7921550E-06     263702.3    
 p275                 obsgroup      5.7470000E-05    5.4000000E-05    3.4700000E-06     1.000000        5.7470000E-05    5.4000000E-05    3.4700000E-06    3.7921550E-06     263702.3    
 p276                 obsgroup      5.4690000E-05    5.4000000E-05    6.9000000E-07     1.000000        5.4690000E-05    5.4000000E-05    6.9000000E-07    3.7921550E-06     263702.3    
 p277                 obsgroup      5.4590000E-05    5.4000000E-05    5.9000000E-07     1.000000        5.4590000E-05    5.4000000E-05    5.9000000E-07    3.7921550E-06     263702.3    
 p278                 obsgroup      6.0460000E-05    5.3000000E-05    7.4600000E-06     1.000000        6.0460000E-05    5.3000000E-05    7.4600000E-06    3.7921550E-06     263702.3    
 p279                 obsgroup      5.8300000E-05    5.3000000E-05    5.3000000E-06     1.000000        5.8300000E-05    5.3000000E-05    5.3000000E-06    3.7921550E-06     263702.3    
 p280                 obsgroup      5.6440000E-05    5.2000000E-05    4.4400000E-06     1.000000        5.6440000E-05    5.2000000E-05    4.4400000E-06    3.7921550E-06     263702.3    
 p281                 obsgroup      5.4690000E-05    5.2000000E-05    2.6900000E-06     1.000000        5.4690000E-05    5.2000000E-05    2.6900000E-06    3.7921550E-06     263702.3    
 p282                 obsgroup      5.0260000E-05    5.2000000E-05   -1.7400000E-06     1.000000        5.0260000E-05    5.2000000E-05   -1.7400000E-06    3.7921550E-06     263702.3    
 p283                 obsgroup      5.1910000E-05    5.1000000E-05    9.1000000E-07     1.000000        5.1910000E-05    5.1000000E-05    9.1000000E-07    3.7921550E-06     263702.3    
 p284                 obsgroup      5.0260000E-05    5.1000000E-05   -7.4000000E-07     1.000000        5.0260000E-05    5.1000000E-05   -7.4000000E-07    3.7921550E-06     263702.3    
 p285                 obsgroup      5.2430000E-05    5.1000000E-05    1.4300000E-06     1.000000        5.2430000E-05    5.1000000E-05    1.4300000E-06    3.7921550E-06     263702.3    
 p286                 obsgroup      5.2740000E-05    5.0000000E-05    2.7400000E-06     1.000000        5.2740000E-05    5.0000000E-05    2.7400000E-06    3.7921550E-06     263702.3    
 p287                 obsgroup      5.0470000E-05    5.0000000E-05    4.7000000E-07     1.000000        5.0470000E-05    5.0000000E-05    4.7000000E-07    3.7921550E-06     263702.3    
 p288                 obsgroup      5.4590000E-05    5.0000000E-05    4.5900000E-06     1.000000        5.4590000E-05    5.0000000E-05    4.5900000E-06    3.7921550E-06     263702.3    
 p289                 obsgroup      4.9230000E-05    4.9000000E-05    2.3000000E-07     1.000000        4.9230000E-05    4.9000000E-05    2.3000000E-07    3.7921550E-06     263702.3    
 p290                 obsgroup      5.1290000E-05    4.9000000E-05    2.2900000E-06     1.000000        5.1290000E-05    4.9000000E-05    2.2900000E-06    3.7921550E-06     263702.3    
 p291                 obsgroup      4.8310000E-05    4.9000000E-05   -6.9000000E-07     1.000000        4.8310000E-05    4.9000000E-05   -6.9000000E-07    3.7921550E-06     263702.3    
 p292                 obsgroup      4.9030000E-05    4.8000000E-05    1.0300000E-06     1.000000        4.9030000E-05    4.8000000E-05    1.0300000E-06    3.7921550E-06     263702.3    
 p293                 obsgroup      5.0880000E-05    4.8000000E-05    2.8800000E-06     1.000000        5.0880000E-05    4.8000000E-05    2.8800000E-06    3.7921550E-06     263702.3    
 p294                 obsgroup      4.9340000E-05    4.8000000E-05    1.3400000E-06     1.000000        4.9340000E-05    4.8000000E-05    1.3400000E-06    3.7921550E-06     263702.3    
 p295                 obsgroup      4.7590000E-05    4.7000000E-05    5.9000000E-07     1.000000        4.7590000E-05    4.7000000E-05    5.9000000E-07    3.7921550E-06     263702.3    
 p296                 obsgroup      4.7790000E-05    4.7000000E-05    7.9000000E-07     1.000000        4.7790000E-05    4.7000000E-05    7.9000000E-07    3.7921550E-06     263702.3    
 p297                 obsgroup      4.8720000E-05    4.7000000E-05    1.7200000E-06     1.000000        4.8720000E-05    4.7000000E-05    1.7200000E-06    3.7921550E-06     263702.3    
 p298                 obsgroup      4.7480000E-05    4.7000000E-05    4.8000000E-07     1.000000        4.7480000E-05    4.7000000E-05    4.8000000E-07    3.7921550E-06     263702.3    
 p299                 obsgroup      5.1910000E-05    4.6000000E-05    5.9100000E-06     1.000000        5.1910000E-05    4.6000000E-05    5.9100000E-06    3.7921550E-06     263702.3    
 p300                 obsgroup      4.5630000E-05    4.6000000E-05   -3.7000000E-07     1.000000        4.5630000E-05    4.6000000E-05   -3.7000000E-07    3.7921550E-06     263702.3    
 p301                 obsgroup      4.7480000E-05    4.6000000E-05    1.4800000E-06     1.000000        4.7480000E-05    4.6000000E-05    1.4800000E-06    3.7921550E-06     263702.3    
 p302                 obsgroup      4.6870000E-05    4.5000000E-05    1.8700000E-06     1.000000        4.6870000E-05    4.5000000E-05    1.8700000E-06    3.7921550E-06     263702.3    
 p303                 obsgroup      4.7280000E-05    4.5000000E-05    2.2800000E-06     1.000000        4.7280000E-05    4.5000000E-05    2.2800000E-06    3.7921550E-06     263702.3    
 p304                 obsgroup      4.3050000E-05    4.5000000E-05   -1.9500000E-06     1.000000        4.3050000E-05    4.5000000E-05   -1.9500000E-06    3.7921550E-06     263702.3    
 p305                 obsgroup      4.4910000E-05    4.4000000E-05    9.1000000E-07     1.000000        4.4910000E-05    4.4000000E-05    9.1000000E-07    3.7921550E-06     263702.3    
 p306                 obsgroup      4.5840000E-05    4.4000000E-05    1.8400000E-06     1.000000        4.5840000E-05    4.4000000E-05    1.8400000E-06    3.7921550E-06     263702.3    
 p307                 obsgroup      4.7590000E-05    4.4000000E-05    3.5900000E-06     1.000000        4.7590000E-05    4.4000000E-05    3.5900000E-06    3.7921550E-06     263702.3    
 p308                 obsgroup      4.5110000E-05    4.4000000E-05    1.1100000E-06     1.000000        4.5110000E-05    4.4000000E-05    1.1100000E-06    3.7921550E-06     263702.3    
 p309                 obsgroup      4.1920000E-05    4.3000000E-05   -1.0800000E-06     1.000000        4.1920000E-05    4.3000000E-05   -1.0800000E-06    3.7921550E-06     263702.3    
 p310                 obsgroup      4.3670000E-05    4.3000000E-05    6.7000000E-07     1.000000        4.3670000E-05    4.3000000E-05    6.7000000E-07    3.7921550E-06     263702.3    
 p311                 obsgroup      4.2440000E-05    4.3000000E-05   -5.6000000E-07     1.000000        4.2440000E-05    4.3000000E-05   -5.6000000E-07    3.7921550E-06     263702.3    
 p312                 obsgroup      4.5010000E-05    4.2000000E-05    3.0100000E-06     1.000000        4.5010000E-05    4.2000000E-05    3.0100000E-06    3.7921550E-06     263702.3    
 p313                 obsgroup      4.5420000E-05    4.2000000E-05    3.4200000E-06     1.000000        4.5420000E-05    4.2000000E-05    3.4200000E-06    3.7921550E-06     263702.3    
 p314                 obsgroup      4.0890000E-05    4.2000000E-05   -1.1100000E-06     1.000000        4.0890000E-05    4.2000000E-05   -1.1100000E-06    3.7921550E-06     263702.3    
 p315                 obsgroup      4.3050000E-05    4.2000000E-05    1.0500000E-06     1.000000        4.3050000E-05    4.2000000E-05    1.0500000E-06    3.7921550E-06     263702.3    
 p316                 obsgroup      4.2850000E-05    4.1000000E-05    1.8500000E-06     1.000000        4.2850000E-05    4.1000000E-05    1.8500000E-06    3.7921550E-06     263702.3    
 p317                 obsgroup      4.5530000E-05    4.1000000E-05    4.5300000E-06     1.000000        4.5530000E-05    4.1000000E-05    4.5300000E-06    3.7921550E-06     263702.3    
 p318                 obsgroup      3.9660000E-05    4.1000000E-05   -1.3400000E-06     1.000000        3.9660000E-05    4.1000000E-05   -1.3400000E-06    3.7921550E-06     263702.3    
 p319                 obsgroup      4.0580000E-05    4.1000000E-05   -4.2000000E-07     1.000000        4.0580000E-05    4.1000000E-05   -4.2000000E-07    3.7921550E-06     263702.3    
 p320                 obsgroup      3.6570000E-05    4.0000000E-05   -3.4300000E-06     1.000000        3.6570000E-05    4.0000000E-05   -3.4300000E-06    3.7921550E-06     263702.3    
 p321                 obsgroup      4.0890000E-05    4.0000000E-05    8.9000000E-07     1.000000        4.0890000E-05    4.0000000E-05    8.9000000E-07    3.7921550E-06     263702.3    
 p322                 obsgroup      3.8320000E-05    4.0000000E-05   -1.6800000E-06     1.000000        3.8320000E-05    4.0000000E-05   -1.6800000E-06    3.7921550E-06     263702.3    
 p323                 obsgroup      4.1100000E-05    4.0000000E-05    1.1000000E-06     1.000000        4.1100000E-05    4.0000000E-05    1.1000000E-06    3.7921550E-06     263702.3    
 p324                 obsgroup      3.8730000E-05    3.9000000E-05   -2.7000000E-07     1.000000        3.8730000E-05    3.9000000E-05   -2.7000000E-07    3.7921550E-06     263702.3    
 p325                 obsgroup      3.9350000E-05    3.9000000E-05    3.5000000E-07     1.000000        3.9350000E-05    3.9000000E-05    3.5000000E-07    3.7921550E-06     263702.3    
 p326                 obsgroup      4.0580000E-05    3.9000000E-05    1.5800000E-06     1.000000        4.0580000E-05    3.9000000E-05    1.5800000E-06    3.7921550E-06     263702.3    
 p327                 obsgroup      3.9240000E-05    3.9000000E-05    2.4000000E-07     1.000000        3.9240000E-05    3.9000000E-05    2.4000000E-07    3.7921550E-06     263702.3    
 p328                 obsgroup      3.7900000E-05    3.8000000E-05   -1.0000000E-07     1.000000        3.7900000E-05    3.8000000E-05   -1.0000000E-07    3.7921550E-06     263702.3    
 p329                 obsgroup      3.8830000E-05    3.8000000E-05    8.3000000E-07     1.000000        3.8830000E-05    3.8000000E-05    8.3000000E-07    3.7921550E-06     263702.3    
 p330                 obsgroup      3.9040000E-05    3.8000000E-05    1.0400000E-06     1.000000        3.9040000E-05    3.8000000E-05    1.0400000E-06    3.7921550E-06     263702.3    
 p331                 obsgroup      3.9240000E-05    3.8000000E-05    1.2400000E-06     1.000000        3.9240000E-05    3.8000000E-05    1.2400000E-06    3.7921550E-06     263702.3    
 p332                 obsgroup      3.9140000E-05    3.7000000E-05    2.1400000E-06     1.000000        3.9140000E-05    3.7000000E-05    2.1400000E-06    3.7921550E-06     263702.3    
 p333                 obsgroup      3.6260000E-05    3.7000000E-05   -7.4000000E-07     1.000000        3.6260000E-05    3.7000000E-05   -7.4000000E-07    3.7921550E-06     263702.3    
 p334                 obsgroup      3.6670000E-05    3.7000000E-05   -3.3000000E-07     1.000000        3.6670000E-05    3.7000000E-05   -3.3000000E-07    3.7921550E-06     263702.3    
 p335                 obsgroup      3.5020000E-05    3.7000000E-05   -1.9800000E-06     1.000000        3.5020000E-05    3.7000000E-05   -1.9800000E-06    3.7921550E-06     263702.3    
 p336                 obsgroup      3.5740000E-05    3.6000000E-05   -2.6000000E-07     1.000000        3.5740000E-05    3.6000000E-05   -2.6000000E-07    3.7921550E-06     263702.3    
 p337                 obsgroup      3.2240000E-05    3.6000000E-05   -3.7600000E-06     1.000000        3.2240000E-05    3.6000000E-05   -3.7600000E-06    3.7921550E-06     263702.3    
 p338                 obsgroup      3.7390000E-05    3.6000000E-05    1.3900000E-06     1.000000        3.7390000E-05    3.6000000E-05    1.3900000E-06    3.7921550E-06     263702.3    
 p339                 obsgroup      3.7080000E-05    3.6000000E-05    1.0800000E-06     1.000000        3.7080000E-05    3.6000000E-05    1.0800000E-06    3.7921550E-06     263702.3    
 p340                 obsgroup      3.3680000E-05    3.6000000E-05   -2.3200000E-06     1.000000        3.3680000E-05    3.6000000E-05   -2.3200000E-06    3.7921550E-06     263702.3    
 p341                 obsgroup      3.6260000E-05    3.5000000E-05    1.2600000E-06     1.000000        3.6260000E-05    3.5000000E-05    1.2600000E-06    3.7921550E-06     263702.3    
 p342                 obsgroup      3.4920000E-05    3.5000000E-05   -8.0000000E-08     1.000000        3.4920000E-05    3.5000000E-05   -8.0000000E-08    3.7921550E-06     263702.3    
 p343                 obsgroup      3.6150000E-05    3.5000000E-05    1.1500000E-06     1.000000        3.6150000E-05    3.5000000E-05    1.1500000E-06    3.7921550E-06     263702.3    
 p344                 obsgroup      3.3480000E-05    3.5000000E-05   -1.5200000E-06     1.000000        3.3480000E-05    3.5000000E-05   -1.5200000E-06    3.7921550E-06     263702.3    
 p345                 obsgroup      3.2960000E-05    3.4000000E-05   -1.0400000E-06     1.000000        3.2960000E-05    3.4000000E-05   -1.0400000E-06    3.7921550E-06     263702.3    
 p346                 obsgroup      3.4810000E-05    3.4000000E-05    8.1000000E-07     1.000000        3.4810000E-05    3.4000000E-05    8.1000000E-07    3.7921550E-06     263702.3    
 p347                 obsgroup      3.5020000E-05    3.4000000E-05    1.0200000E-06     1.000000        3.5020000E-05    3.4000000E-05    1.0200000E-06    3.7921550E-06     263702.3    
 p348                 obsgroup      3.2960000E-05    3.4000000E-05   -1.0400000E-06     1.000000        3.2960000E-05    3.4000000E-05   -1.0400000E-06    3.7921550E-06     263702.3    
 p349                 obsgroup      3.1930000E-05    3.4000000E-05   -2.0700000E-06     1.000000        3.1930000E-05    3.4000000E-05   -2.0700000E-06    3.7921550E-06     263702.3    
 p350                 obsgroup      3.5540000E-05    3.3000000E-05    2.5400000E-06     1.000000        3.5540000E-05    3.3000000E-05    2.5400000E-06    3.7921550E-06     263702.3    
 p351                 obsgroup      3.2340000E-05    3.3000000E-05   -6.6000000E-07     1.000000        3.2340000E-05    3.3000000E-05   -6.6000000E-07    3.7921550E-06     263702.3    
 p352                 obsgroup      3.4300000E-05    3.3000000E-05    1.3000000E-06     1.000000        3.4300000E-05    3.3000000E-05    1.3000000E-06    3.7921550E-06     263702.3    
 p353                 obsgroup      3.1930000E-05    3.3000000E-05   -1.0700000E-06     1.000000        3.1930000E-05    3.3000000E-05   -1.0700000E-06    3.7921550E-06     263702.3    
 p354                 obsgroup      2.9870000E-05    3.3000000E-05   -3.1300000E-06     1.000000        2.9870000E-05    3.3000000E-05   -3.1300000E-06    3.7921550E-06     263702.3    
 p355                 obsgroup      3.2750000E-05    3.2000000E-05    7.5000000E-07     1.000000        3.2750000E-05    3.2000000E-05    7.5000000E-07    3.7921550E-06     263702.3    
 p356                 obsgroup      3.2750000E-05    3.2000000E-05    7.5000000E-07     1.000000        3.2750000E-05    3.2000000E-05    7.5000000E-07    3.7921550E-06     263702.3    
 p357                 obsgroup      3.1930000E-05    3.2000000E-05   -7.0000000E-08     1.000000        3.1930000E-05    3.2000000E-05   -7.0000000E-08    3.7921550E-06     263702.3    
 p358                 obsgroup      3.4920000E-05    3.2000000E-05    2.9200000E-06     1.000000        3.4920000E-05    3.2000000E-05    2.9200000E-06    3.7921550E-06     263702.3    
 p359                 obsgroup      3.1310000E-05    3.2000000E-05   -6.9000000E-07     1.000000        3.1310000E-05    3.2000000E-05   -6.9000000E-07    3.7921550E-06     263702.3    
 p360                 obsgroup      3.1000000E-05    3.2000000E-05   -1.0000000E-06     1.000000        3.1000000E-05    3.2000000E-05   -1.0000000E-06    3.7921550E-06     263702.3    
 p361                 obsgroup      3.2450000E-05    3.1000000E-05    1.4500000E-06     1.000000        3.2450000E-05    3.1000000E-05    1.4500000E-06    3.7921550E-06     263702.3    
 p362                 obsgroup      3.0390000E-05    3.1000000E-05   -6.1000000E-07     1.000000        3.0390000E-05    3.1000000E-05   -6.1000000E-07    3.7921550E-06     263702.3    
 p363                 obsgroup      3.1420000E-05    3.1000000E-05    4.2000000E-07     1.000000        3.1420000E-05    3.1000000E-05    4.2000000E-07    3.7921550E-06     263702.3    
 p364                 obsgroup      3.0900000E-05    3.1000000E-05   -1.0000000E-07     1.000000        3.0900000E-05    3.1000000E-05   -1.0000000E-07    3.7921550E-06     263702.3    
 p365                 obsgroup      3.0080000E-05    3.1000000E-05   -9.2000000E-07     1.000000        3.0080000E-05    3.1000000E-05   -9.2000000E-07    3.7921550E-06     263702.3    
 p366                 obsgroup      3.1000000E-05    3.0000000E-05    1.0000000E-06     1.000000        3.1000000E-05    3.0000000E-05    1.0000000E-06    3.7921550E-06     263702.3    
 p367                 obsgroup      3.0280000E-05    3.0000000E-05    2.8000000E-07     1.000000        3.0280000E-05    3.0000000E-05    2.8000000E-07    3.7921550E-06     263702.3    
 p368                 obsgroup      3.0590000E-05    3.0000000E-05    5.9000000E-07     1.000000        3.0590000E-05    3.0000000E-05    5.9000000E-07    3.7921550E-06     263702.3    
 p369                 obsgroup      2.9360000E-05    3.0000000E-05   -6.4000000E-07     1.000000        2.9360000E-05    3.0000000E-05   -6.4000000E-07    3.7921550E-06     263702.3    
 p370                 obsgroup      2.9970000E-05    3.0000000E-05   -3.0000000E-08     1.000000        2.9970000E-05    3.0000000E-05   -3.0000000E-08    3.7921550E-06     263702.3    
 p371                 obsgroup      3.0590000E-05    3.0000000E-05    5.9000000E-07     1.000000        3.0590000E-05    3.0000000E-05    5.9000000E-07    3.7921550E-06     263702.3    
 p372                 obsgroup      2.8940000E-05    2.9000000E-05   -6.0000000E-08     1.000000        2.8940000E-05    2.9000000E-05   -6.0000000E-08    3.7921550E-06     263702.3    
 p373                 obsgroup      2.8840000E-05    2.9000000E-05   -1.6000000E-07     1.000000        2.8840000E-05    2.9000000E-05   -1.6000000E-07    3.7921550E-06     263702.3    
 p374                 obsgroup      2.9150000E-05    2.9000000E-05    1.5000000E-07     1.000000        2.9150000E-05    2.9000000E-05    1.5000000E-07    3.7921550E-06     263702.3    
 p375                 obsgroup      2.9660000E-05    2.9000000E-05    6.6000000E-07     1.000000        2.9660000E-05    2.9000000E-05    6.6000000E-07    3.7921550E-06     263702.3    
 p376                 obsgroup      2.9560000E-05    2.9000000E-05    5.6000000E-07     1.000000        2.9560000E-05    2.9000000E-05    5.6000000E-07    3.7921550E-06     263702.3    
 p377                 obsgroup      3.1000000E-05    2.9000000E-05    2.0000000E-06     1.000000        3.1000000E-05    2.9000000E-05    2.0000000E-06    3.7921550E-06     263702.3    
 p378                 obsgroup      2.9050000E-05    2.8000000E-05    1.0500000E-06     1.000000        2.9050000E-05    2.8000000E-05    1.0500000E-06    3.7921550E-06     263702.3    
 p379                 obsgroup      2.9770000E-05    2.8000000E-05    1.7700000E-06     1.000000        2.9770000E-05    2.8000000E-05    1.7700000E-06    3.7921550E-06     263702.3    
 p380                 obsgroup      3.0180000E-05    2.8000000E-05    2.1800000E-06     1.000000        3.0180000E-05    2.8000000E-05    2.1800000E-06    3.7921550E-06     263702.3    
 p381                 obsgroup      2.8220000E-05    2.8000000E-05    2.2000000E-07     1.000000        2.8220000E-05    2.8000000E-05    2.2000000E-07    3.7921550E-06     263702.3    
 p382                 obsgroup      2.7090000E-05    2.8000000E-05   -9.1000000E-07     1.000000        2.7090000E-05    2.8000000E-05   -9.1000000E-07    3.7921550E-06     263702.3    
 p383                 obsgroup      2.7910000E-05    2.8000000E-05   -9.0000000E-08     1.000000        2.7910000E-05    2.8000000E-05   -9.0000000E-08    3.7921550E-06     263702.3    
 p384                 obsgroup      2.6470000E-05    2.7000000E-05   -5.3000000E-07     1.000000        2.6470000E-05    2.7000000E-05   -5.3000000E-07    3.7921550E-06     263702.3    
 p385                 obsgroup      2.7710000E-05    2.7000000E-05    7.1000000E-07     1.000000        2.7710000E-05    2.7000000E-05    7.1000000E-07    3.7921550E-06     263702.3    
 p386                 obsgroup      2.4930000E-05    2.7000000E-05   -2.0700000E-06     1.000000        2.4930000E-05    2.7000000E-05   -2.0700000E-06    3.7921550E-06     263702.3    
 p387                 obsgroup      2.7300000E-05    2.7000000E-05    3.0000000E-07     1.000000        2.7300000E-05    2.7000000E-05    3.0000000E-07    3.7921550E-06     263702.3    
 p388                 obsgroup      2.5850000E-05    2.7000000E-05   -1.1500000E-06     1.000000        2.5850000E-05    2.7000000E-05   -1.1500000E-06    3.7921550E-06     263702.3    
 p389                 obsgroup      2.6270000E-05    2.7000000E-05   -7.3000000E-07     1.000000        2.6270000E-05    2.7000000E-05   -7.3000000E-07    3.7921550E-06     263702.3    
 p390                 obsgroup      2.5960000E-05    2.7000000E-05   -1.0400000E-06     1.000000        2.5960000E-05    2.7000000E-05   -1.0400000E-06    3.7921550E-06     263702.3    
 p391                 obsgroup      2.6570000E-05    2.6000000E-05    5.7000000E-07     1.000000        2.6570000E-05    2.6000000E-05    5.7000000E-07    3.7921550E-06     263702.3    
 p392                 obsgroup      2.6370000E-05    2.6000000E-05    3.7000000E-07     1.000000        2.6370000E-05    2.6000000E-05    3.7000000E-07    3.7921550E-06     263702.3    
 p393                 obsgroup      2.5540000E-05    2.6000000E-05   -4.6000000E-07     1.000000        2.5540000E-05    2.6000000E-05   -4.6000000E-07    3.7921550E-06     263702.3    
 p394                 obsgroup      2.5440000E-05    2.6000000E-05   -5.6000000E-07     1.000000        2.5440000E-05    2.6000000E-05   -5.6000000E-07    3.7921550E-06     263702.3    
 p395                 obsgroup      2.4930000E-05    2.6000000E-05   -1.0700000E-06     1.000000        2.4930000E-05    2.6000000E-05   -1.0700000E-06    3.7921550E-06     263702.3    
 p396                 obsgroup      2.4620000E-05    2.6000000E-05   -1.3800000E-06     1.000000        2.4620000E-05    2.6000000E-05   -1.3800000E-06    3.7921550E-06     263702.3    
 p397                 obsgroup      2.6060000E-05    2.5000000E-05    1.0600000E-06     1.000000        2.6060000E-05    2.5000000E-05    1.0600000E-06    3.7921550E-06     263702.3    
 p398                 obsgroup      2.5540000E-05    2.5000000E-05    5.4000000E-07     1.000000        2.5540000E-05    2.5000000E-05    5.4000000E-07    3.7921550E-06     263702.3    
 p399                 obsgroup      2.5440000E-05    2.5000000E-05    4.4000000E-07     1.000000        2.5440000E-05    2.5000000E-05    4.4000000E-07    3.7921550E-06     263702.3    
 p400                 obsgroup      2.2970000E-05    2.5000000E-05   -2.0300000E-06     1.000000        2.2970000E-05    2.5000000E-05   -2.0300000E-06    3.7921550E-06     263702.3    
