 Name                 Group          Measured         Modelled         Residual         Weight       Weight*Measured    Weight*Modelled  Weight*Residual  Measurement_sd   Natural_weight
 p001                 obsgroup      2.3700000E-05    2.5000000E-05   -1.3000000E-06     1.000000        2.3700000E-05    2.5000000E-05   -1.3000000E-06    4.2938058E-04     2328.936    
 p002                 obsgroup      5.8300000E-05    2.5000000E-05    3.3300000E-05     1.000000        5.8300000E-05    2.5000000E-05    3.3300000E-05    4.2938058E-04     2328.936    
 p003                 obsgroup      2.7200000E-05    2.5000000E-05    2.2000000E-06     1.000000        2.7200000E-05    2.5000000E-05    2.2000000E-06    4.2938058E-04     2328.936    
 p004                 obsgroup      2.2800000E-05    2.5000000E-05   -2.2000000E-06     1.000000        2.2800000E-05    2.5000000E-05   -2.2000000E-06    4.2938058E-04     2328.936    
 p005                 obsgroup      6.6400000E-05    2.5000000E-05    4.1400000E-05     1.000000        6.6400000E-05    2.5000000E-05    4.1400000E-05    4.2938058E-04     2328.936    
 p006                 obsgroup      3.1000000E-05    2.5000000E-05    6.0000000E-06     1.000000        3.1000000E-05    2.5000000E-05    6.0000000E-06    4.2938058E-04     2328.936    
 p007                 obsgroup      2.7600000E-05    2.5000000E-05    2.6000000E-06     1.000000        2.7600000E-05    2.5000000E-05    2.6000000E-06    4.2938058E-04     2328.936    
 p008                 obsgroup      2.4800000E-05    2.5000000E-05   -2.0000000E-07     1.000000        2.4800000E-05    2.5000000E-05   -2.0000000E-07    4.2938058E-04     2328.936    
 p009                 obsgroup      2.7900000E-05    2.5000000E-05    2.9000000E-06     1.000000        2.7900000E-05    2.5000000E-05    2.9000000E-06    4.2938058E-04     2328.936    
 p010                 obsgroup      2.9700000E-05    2.5000000E-05    4.7000000E-06     1.000000        2.9700000E-05    2.5000000E-05    4.7000000E-06    4.2938058E-04     2328.936    
 p011                 obsgroup      2.7400000E-05    2.5000000E-05    2.4000000E-06     1.000000        2.7400000E-05    2.5000000E-05    2.4000000E-06    4.2938058E-04     2328.936    
 p012                 obsgroup      2.9600000E-05    2.5000000E-05    4.6000000E-06     1.000000        2.9600000E-05    2.5000000E-05    4.6000000E-06    4.2938058E-04     2328.936    
 p013                 obsgroup      2.7600000E-05    2.5000000E-05    2.6000000E-06     1.000000        2.7600000E-05    2.5000000E-05    2.6000000E-06    4.2938058E-04     2328.936    
 p014                 obsgroup      2.7600000E-05    2.5000000E-05    2.6000000E-06     1.000000        2.7600000E-05    2.5000000E-05    2.6000000E-06    4.2938058E-04     2328.936    
 p015                 obsgroup      2.5800000E-05    2.5000000E-05    8.0000000E-07     1.000000        2.5800000E-05    2.5000000E-05    8.0000000E-07    4.2938058E-04     2328.936    
 p016                 obsgroup      2.8400000E-05    2.5000000E-05    3.4000000E-06     1.000000        2.8400000E-05    2.5000000E-05    3.4000000E-06    4.2938058E-04     2328.936    
 p017                 obsgroup      2.4600000E-05    2.5000000E-05   -4.0000000E-07     1.000000        2.4600000E-05    2.5000000E-05   -4.0000000E-07    4.2938058E-04     2328.936    
 p018                 obsgroup      2.9600000E-05    2.5000000E-05    4.6000000E-06     1.000000        2.9600000E-05    2.5000000E-05    4.6000000E-06    4.2938058E-04     2328.936    
 p019                 obsgroup      2.1000000E-05    2.5000000E-05   -4.0000000E-06     1.000000        2.1000000E-05    2.5000000E-05   -4.0000000E-06    4.2938058E-04     2328.936    
 p020                 obsgroup      2.9500000E-05    2.5000000E-05    4.5000000E-06     1.000000        2.9500000E-05    2.5000000E-05    4.5000000E-06    4.2938058E-04     2328.936    
 p021                 obsgroup      2.2900000E-05    2.5000000E-05   -2.1000000E-06     1.000000        2.2900000E-05    2.5000000E-05   -2.1000000E-06    4.2938058E-04     2328.936    
 p022                 obsgroup      2.6900000E-05    2.5000000E-05    1.9000000E-06     1.000000        2.6900000E-05    2.5000000E-05    1.9000000E-06    4.2938058E-04     2328.936    
 p023                 obsgroup      2.8100000E-05    2.5000000E-05    3.1000000E-06     1.000000        2.8100000E-05    2.5000000E-05    3.1000000E-06    4.2938058E-04     2328.936    
 p024                 obsgroup      2.0000000E-05    2.6000000E-05   -6.0000000E-06     1.000000        2.0000000E-05    2.6000000E-05   -6.0000000E-06    4.2938058E-04     2328.936    
 p025                 obsgroup      2.8300000E-05    2.6000000E-05    2.3000000E-06     1.000000        2.8300000E-05    2.6000000E-05    2.3000000E-06    4.2938058E-04     2328.936    
 p026                 obsgroup      3.1800000E-05    2.7000000E-05    4.8000000E-06     1.000000        3.1800000E-05    2.7000000E-05    4.8000000E-06    4.2938058E-04     2328.936    
 p027                 obsgroup      5.4400000E-05    2.9000000E-05    2.5400000E-05     1.000000        5.4400000E-05    2.9000000E-05    2.5400000E-05    4.2938058E-04     2328.936    
 p028                 obsgroup      3.4600000E-05    3.3000000E-05    1.6000000E-06     1.000000        3.4600000E-05    3.3000000E-05    1.6000000E-06    4.2938058E-04     2328.936    
 p029                 obsgroup      2.8400000E-05    3.8000000E-05   -9.6000000E-06     1.000000        2.8400000E-05    3.8000000E-05   -9.6000000E-06    4.2938058E-04     2328.936    
 p030                 obsgroup      6.1400000E-05    4.5000000E-05    1.6400000E-05     1.000000        6.1400000E-05    4.5000000E-05    1.6400000E-05    4.2938058E-04     2328.936    
 p031                 obsgroup      1.8850000E-04    5.6000000E-05    1.3250000E-04     1.000000        1.8850000E-04    5.6000000E-05    1.3250000E-04    4.2938058E-04     2328.936    
 p032                 obsgroup      5.7600000E-05    1.5500000E-04   -9.7400000E-05     1.000000        5.7600000E-05    1.5500000E-04   -9.7400000E-05    4.2938058E-04     2328.936    
 p033                 obsgroup      8.0200000E-05    1.9800000E-04   -1.1780000E-04     1.000000        8.0200000E-05    1.9800000E-04   -1.1780000E-04    4.2938058E-04     2328.936    
 p034                 obsgroup      8.0200000E-05    2.5300000E-04   -1.7280000E-04     1.000000        8.0200000E-05    2.5300000E-04   -1.7280000E-04    4.2938058E-04     2328.936    
 p035                 obsgroup      1.0300000E-04    3.2300000E-04   -2.2000000E-04     1.000000        1.0300000E-04    3.2300000E-04   -2.2000000E-04    4.2938058E-04     2328.936    
 p036                 obsgroup      1.4730000E-04    4.0600000E-04   -2.5870000E-04     1.000000        1.4730000E-04    4.0600000E-04   -2.5870000E-04    4.2938058E-04     2328.936    
 p037                 obsgroup      2.1320000E-04    5.0200000E-04   -2.8880000E-04     1.000000        2.1320000E-04    5.0200000E-04   -2.8880000E-04    4.2938058E-04     2328.936    
 p038                 obsgroup      2.5030000E-04    6.1500000E-04   -3.6470000E-04     1.000000        2.5030000E-04    6.1500000E-04   -3.6470000E-04    4.2938058E-04     2328.936    
 p039                 obsgroup      3.6670000E-04    7.4700000E-04   -3.8030000E-04     1.000000        3.6670000E-04    7.4700000E-04   -3.8030000E-04    4.2938058E-04     2328.936    
 p040                 obsgroup      4.9540000E-04    8.9500000E-04   -3.9960000E-04     1.000000        4.9540000E-04    8.9500000E-04   -3.9960000E-04    4.2938058E-04     2328.936    
 p041                 obsgroup      5.7680000E-04    1.0610000E-03   -4.8420000E-04     1.000000        5.7680000E-04    1.0610000E-03   -4.8420000E-04    4.2938058E-04     2328.936    
 p042                 obsgroup      8.0860000E-04    1.2460000E-03   -4.3740000E-04     1.000000        8.0860000E-04    1.2460000E-03   -4.3740000E-04    4.2938058E-04     2328.936    
 p043                 obsgroup      9.8160000E-04    1.4500000E-03   -4.6840000E-04     1.000000        9.8160000E-04    1.4500000E-03   -4.6840000E-04    4.2938058E-04     2328.936    
 p044                 obsgroup      1.0815000E-03    1.6700000E-03   -5.8850000E-04     1.000000        1.0815000E-03    1.6700000E-03   -5.8850000E-04    4.2938058E-04     2328.936    
 p045                 obsgroup      1.4008000E-03    1.9000000E-03   -4.9920000E-04     1.000000        1.4008000E-03    1.9000000E-03   -4.9920000E-04    4.2938058E-04     2328.936    
 p046                 obsgroup      1.6583000E-03    2.1600000E-03   -5.0170000E-04     1.000000        1.6583000E-03    2.1600000E-03   -5.0170000E-04    4.2938058E-04     2328.936    
 p047                 obsgroup      1.9158000E-03    2.4440000E-03   -5.2820000E-04     1.000000        1.9158000E-03    2.4440000E-03   -5.2820000E-04    4.2938058E-04     2328.936    
 p048                 obsgroup      2.3072000E-03    2.7310000E-03   -4.2380000E-04     1.000000        2.3072000E-03    2.7310000E-03   -4.2380000E-04    4.2938058E-04     2328.936    
 p049                 obsgroup      2.4617000E-03    3.0340000E-03   -5.7230000E-04     1.000000        2.4617000E-03    3.0340000E-03   -5.7230000E-04    4.2938058E-04     2328.936    
 p050                 obsgroup      2.8840000E-03    3.3490000E-03   -4.6500000E-04     1.000000        2.8840000E-03    3.3490000E-03   -4.6500000E-04    4.2938058E-04     2328.936    
 p051                 obsgroup      3.0900000E-03    3.6620000E-03   -5.7200000E-04     1.000000        3.0900000E-03    3.6620000E-03   -5.7200000E-04    4.2938058E-04     2328.936    
 p052                 obsgroup      3.6359000E-03    3.9800000E-03   -3.4410000E-04     1.000000        3.6359000E-03    3.9800000E-03   -3.4410000E-04    4.2938058E-04     2328.936    
 p053                 obsgroup      3.9346000E-03    4.3330000E-03   -3.9840000E-04     1.000000        3.9346000E-03    4.3330000E-03   -3.9840000E-04    4.2938058E-04     2328.936    
 p054                 obsgroup      5.0470000E-03    4.7040000E-03    3.4300000E-04     1.000000        5.0470000E-03    4.7040000E-03    3.4300000E-04    4.2938058E-04     2328.936    
 p055                 obsgroup      5.2530000E-03    5.0660000E-03    1.8700000E-04     1.000000        5.2530000E-03    5.0660000E-03    1.8700000E-04    4.2938058E-04     2328.936    
 p056                 obsgroup      5.5826000E-03    5.4220000E-03    1.6060000E-04     1.000000        5.5826000E-03    5.4220000E-03    1.6060000E-04    4.2938058E-04     2328.936    
 p057                 obsgroup      5.8504000E-03    5.7790000E-03    7.1400000E-05     1.000000        5.8504000E-03    5.7790000E-03    7.1400000E-05    4.2938058E-04     2328.936    
 p058                 obsgroup      6.4787000E-03    6.1310000E-03    3.4770000E-04     1.000000        6.4787000E-03    6.1310000E-03    3.4770000E-04    4.2938058E-04     2328.936    
 p059                 obsgroup      6.6744000E-03    6.4800000E-03    1.9440000E-04     1.000000        6.6744000E-03    6.4800000E-03    1.9440000E-04    4.2938058E-04     2328.936    
 p060                 obsgroup      7.1688000E-03    6.8350000E-03    3.3380000E-04     1.000000        7.1688000E-03    6.8350000E-03    3.3380000E-04    4.2938058E-04     2328.936    
 p061                 obsgroup      7.3645000E-03    7.1980000E-03    1.6650000E-04     1.000000        7.3645000E-03    7.1980000E-03    1.6650000E-04    4.2938058E-04     2328.936    
 p062                 obsgroup      7.5396000E-03    7.5610000E-03   -2.1400000E-05     1.000000        7.5396000E-03    7.5610000E-03   -2.1400000E-05    4.2938058E-04     2328.936    
 p063                 obsgroup      8.2606000E-03    7.9070000E-03    3.5360000E-04     1.000000        8.2606000E-03    7.9070000E-03    3.5360000E-04    4.2938058E-04     2328.936    
 p064                 obsgroup      8.3739000E-03    8.2310000E-03    1.4290000E-04     1.000000        8.3739000E-03    8.2310000E-03    1.4290000E-04    4.2938058E-04     2328.936    
 p065                 obsgroup      8.7447000E-03    8.5440000E-03    2.0070000E-04     1.000000        8.7447000E-03    8.5440000E-03    2.0070000E-04    4.2938058E-04     2328.936    
 p066                 obsgroup      9.1155000E-03    8.8470000E-03    2.6850000E-04     1.000000        9.1155000E-03    8.8470000E-03    2.6850000E-04    4.2938058E-04     2328.936    
 p067                 obsgroup      9.5069000E-03    9.1380000E-03    3.6890000E-04     1.000000        9.5069000E-03    9.1380000E-03    3.6890000E-04    4.2938058E-04     2328.936    
 p068                 obsgroup      9.5893000E-03    9.4140000E-03    1.7530000E-04     1.000000        9.5893000E-03    9.4140000E-03    1.7530000E-04    4.2938058E-04     2328.936    
 p069                 obsgroup      9.8777000E-03    9.6730000E-03    2.0470000E-04     1.000000        9.8777000E-03    9.6730000E-03    2.0470000E-04    4.2938058E-04     2328.936    
 p070                 obsgroup      1.0186700E-02    9.9150000E-03    2.7170000E-04     1.000000        1.0186700E-02    9.9150000E-03    2.7170000E-04    4.2938058E-04     2328.936    
 p071                 obsgroup      1.0403000E-02    1.0145000E-02    2.5800000E-04     1.000000        1.0403000E-02    1.0145000E-02    2.5800000E-04    4.2938058E-04     2328.936    
 p072                 obsgroup      1.0918000E-02    1.0366000E-02    5.5200000E-04     1.000000        1.0918000E-02    1.0366000E-02    5.5200000E-04    4.2938058E-04     2328.936    
 p073                 obsgroup      1.1021000E-02    1.0572000E-02    4.4900000E-04     1.000000        1.1021000E-02    1.0572000E-02    4.4900000E-04    4.2938058E-04     2328.936    
 p074                 obsgroup      1.1021000E-02    1.0761000E-02    2.6000000E-04     1.000000        1.1021000E-02    1.0761000E-02    2.6000000E-04    4.2938058E-04     2328.936    
 p075                 obsgroup      1.1330000E-02    1.0936000E-02    3.9400000E-04     1.000000        1.1330000E-02    1.0936000E-02    3.9400000E-04    4.2938058E-04     2328.936    
 p076                 obsgroup      1.1433000E-02    1.1096000E-02    3.3700000E-04     1.000000        1.1433000E-02    1.1096000E-02    3.3700000E-04    4.2938058E-04     2328.936    
 p077                 obsgroup      1.1742000E-02    1.1242000E-02    5.0000000E-04     1.000000        1.1742000E-02    1.1242000E-02    5.0000000E-04    4.2938058E-04     2328.936    
 p078                 obsgroup      1.1227000E-02    1.1370000E-02   -1.4300000E-04     1.000000        1.1227000E-02    1.1370000E-02   -1.4300000E-04    4.2938058E-04     2328.936    
 p079                 obsgroup      1.1845000E-02    1.1483000E-02    3.6200000E-04     1.000000        1.1845000E-02    1.1483000E-02    3.6200000E-04    4.2938058E-04     2328.936    
 p080                 obsgroup      1.1742000E-02    1.1584000E-02    1.5800000E-04     1.000000        1.1742000E-02    1.1584000E-02    1.5800000E-04    4.2938058E-04     2328.936    
 p081                 obsgroup      1.2154000E-02    1.1669000E-02    4.8500000E-04     1.000000        1.2154000E-02    1.1669000E-02    4.8500000E-04    4.2938058E-04     2328.936    
 p082                 obsgroup      1.1536000E-02    1.1741000E-02   -2.0500000E-04     1.000000        1.1536000E-02    1.1741000E-02   -2.0500000E-04    4.2938058E-04     2328.936    
 p083                 obsgroup      1.1639000E-02    1.1801000E-02   -1.6200000E-04     1.000000        1.1639000E-02    1.1801000E-02   -1.6200000E-04    4.2938058E-04     2328.936    
 p084                 obsgroup      1.1639000E-02    1.1850000E-02   -2.1100000E-04     1.000000        1.1639000E-02    1.1850000E-02   -2.1100000E-04    4.2938058E-04     2328.936    
 p085                 obsgroup      1.1639000E-02    1.1887000E-02   -2.4800000E-04     1.000000        1.1639000E-02    1.1887000E-02   -2.4800000E-04    4.2938058E-04     2328.936    
 p086                 obsgroup      1.2154000E-02    1.1911000E-02    2.4300000E-04     1.000000        1.2154000E-02    1.1911000E-02    2.4300000E-04    4.2938058E-04     2328.936    
 p087                 obsgroup      1.2257000E-02    1.1923000E-02    3.3400000E-04     1.000000        1.2257000E-02    1.1923000E-02    3.3400000E-04    4.2938058E-04     2328.936    
 p088                 obsgroup      1.1948000E-02    1.1923000E-02    2.5000000E-05     1.000000        1.1948000E-02    1.1923000E-02    2.5000000E-05    4.2938058E-04     2328.936    
 p089                 obsgroup      1.2154000E-02    1.1914000E-02    2.4000000E-04     1.000000        1.2154000E-02    1.1914000E-02    2.4000000E-04    4.2938058E-04     2328.936    
 p090                 obsgroup      1.1845000E-02    1.1895000E-02   -5.0000000E-05     1.000000        1.1845000E-02    1.1895000E-02   -5.0000000E-05    4.2938058E-04     2328.936    
 p091                 obsgroup      1.1639000E-02    1.1869000E-02   -2.3000000E-04     1.000000        1.1639000E-02    1.1869000E-02   -2.3000000E-04    4.2938058E-04     2328.936    
 p092                 obsgroup      1.1536000E-02    1.1832000E-02   -2.9600000E-04     1.000000        1.1536000E-02    1.1832000E-02   -2.9600000E-04    4.2938058E-04     2328.936    
 p093                 obsgroup      1.1639000E-02    1.1785000E-02   -1.4600000E-04     1.000000        1.1639000E-02    1.1785000E-02   -1.4600000E-04    4.2938058E-04     2328.936    
 p094                 obsgroup      1.1639000E-02    1.1731000E-02   -9.2000000E-05     1.000000        1.1639000E-02    1.1731000E-02   -9.2000000E-05    4.2938058E-04     2328.936    
 p095                 obsgroup      1.1330000E-02    1.1671000E-02   -3.4100000E-04     1.000000        1.1330000E-02    1.1671000E-02   -3.4100000E-04    4.2938058E-04     2328.936    
 p096                 obsgroup      1.1021000E-02    1.1606000E-02   -5.8500000E-04     1.000000        1.1021000E-02    1.1606000E-02   -5.8500000E-04    4.2938058E-04     2328.936    
 p097                 obsgroup      1.1433000E-02    1.1539000E-02   -1.0600000E-04     1.000000        1.1433000E-02    1.1539000E-02   -1.0600000E-04    4.2938058E-04     2328.936    
 p098                 obsgroup      1.1330000E-02    1.1465000E-02   -1.3500000E-04     1.000000        1.1330000E-02    1.1465000E-02   -1.3500000E-04    4.2938058E-04     2328.936    
 p099                 obsgroup      1.1124000E-02    1.1383000E-02   -2.5900000E-04     1.000000        1.1124000E-02    1.1383000E-02   -2.5900000E-04    4.2938058E-04     2328.936    
 p100                 obsgroup      1.1124000E-02    1.1298000E-02   -1.7400000E-04     1.000000        1.1124000E-02    1.1298000E-02   -1.7400000E-04    4.2938058E-04     2328.936    
 p101                 obsgroup      1.0815000E-02    1.1208000E-02   -3.9300000E-04     1.000000        1.0815000E-02    1.1208000E-02   -3.9300000E-04    4.2938058E-04     2328.936    
 p102                 obsgroup      1.0815000E-02    1.1116000E-02   -3.0100000E-04     1.000000        1.0815000E-02    1.1116000E-02   -3.0100000E-04    4.2938058E-04     2328.936    
 p103                 obsgroup      1.0815000E-02    1.1020000E-02   -2.0500000E-04     1.000000        1.0815000E-02    1.1020000E-02   -2.0500000E-04    4.2938058E-04     2328.936    
 p104                 obsgroup      1.0712000E-02    1.0921000E-02   -2.0900000E-04     1.000000        1.0712000E-02    1.0921000E-02   -2.0900000E-04    4.2938058E-04     2328.936    
 p105                 obsgroup      1.0403000E-02    1.0820000E-02   -4.1700000E-04     1.000000        1.0403000E-02    1.0820000E-02   -4.1700000E-04    4.2938058E-04     2328.936    
 p106                 obsgroup      1.0609000E-02    1.0717000E-02   -1.0800000E-04     1.000000        1.0609000E-02    1.0717000E-02   -1.0800000E-04    4.2938058E-04     2328.936    
 p107                 obsgroup      1.0403000E-02    1.0612000E-02   -2.0900000E-04     1.000000        1.0403000E-02    1.0612000E-02   -2.0900000E-04    4.2938058E-04     2328.936    
 p108                 obsgroup      1.0094000E-02    1.0507000E-02   -4.1300000E-04     1.000000        1.0094000E-02    1.0507000E-02   -4.1300000E-04    4.2938058E-04     2328.936    
 p109                 obsgroup      1.0403000E-02    1.0401000E-02    2.0000000E-06     1.000000        1.0403000E-02    1.0401000E-02    2.0000000E-06    4.2938058E-04     2328.936    
 p110                 obsgroup      9.6614000E-03    1.0291000E-02   -6.2960000E-04     1.000000        9.6614000E-03    1.0291000E-02   -6.2960000E-04    4.2938058E-04     2328.936    
 p111                 obsgroup      9.7438000E-03    1.0181000E-02   -4.3720000E-04     1.000000        9.7438000E-03    1.0181000E-02   -4.3720000E-04    4.2938058E-04     2328.936    
 p112                 obsgroup      9.4245000E-03    1.0076000E-02   -6.5150000E-04     1.000000        9.4245000E-03    1.0076000E-02   -6.5150000E-04    4.2938058E-04     2328.936    
 p113                 obsgroup      9.3318000E-03    9.9720000E-03   -6.4020000E-04     1.000000        9.3318000E-03    9.9720000E-03   -6.4020000E-04    4.2938058E-04     2328.936    
 p114                 obsgroup      9.7026000E-03    9.8630000E-03   -1.6040000E-04     1.000000        9.7026000E-03    9.8630000E-03   -1.6040000E-04    4.2938058E-04     2328.936    
 p115                 obsgroup      9.4142000E-03    9.7520000E-03   -3.3780000E-04     1.000000        9.4142000E-03    9.7520000E-03   -3.3780000E-04    4.2938058E-04     2328.936    
 p116                 obsgroup      9.7232000E-03    9.6410000E-03    8.2200000E-05     1.000000        9.7232000E-03    9.6410000E-03    8.2200000E-05    4.2938058E-04     2328.936    
 p117                 obsgroup      9.3421000E-03    9.5300000E-03   -1.8790000E-04     1.000000        9.3421000E-03    9.5300000E-03   -1.8790000E-04    4.2938058E-04     2328.936    
 p118                 obsgroup      9.4554000E-03    9.4210000E-03    3.4400000E-05     1.000000        9.4554000E-03    9.4210000E-03    3.4400000E-05    4.2938058E-04     2328.936    
 p119                 obsgroup      9.3421000E-03    9.3120000E-03    3.0100000E-05     1.000000        9.3421000E-03    9.3120000E-03    3.0100000E-05    4.2938058E-04     2328.936    
 p120                 obsgroup      9.2082000E-03    9.2030000E-03    5.2000000E-06     1.000000        9.2082000E-03    9.2030000E-03    5.2000000E-06    4.2938058E-04     2328.936    
 p121                 obsgroup      9.1876000E-03    9.0920000E-03    9.5600000E-05     1.000000        9.1876000E-03    9.0920000E-03    9.5600000E-05    4.2938058E-04     2328.936    
 p122                 obsgroup      8.8065000E-03    8.9820000E-03   -1.7550000E-04     1.000000        8.8065000E-03    8.9820000E-03   -1.7550000E-04    4.2938058E-04     2328.936    
 p123                 obsgroup      8.7344000E-03    8.7610000E-03   -2.6600000E-05     1.000000        8.7344000E-03    8.7610000E-03   -2.6600000E-05    4.2938058E-04     2328.936    
 p124                 obsgroup      8.4872000E-03    8.5530000E-03   -6.5800000E-05     1.000000        8.4872000E-03    8.5530000E-03   -6.5800000E-05    4.2938058E-04     2328.936    
 p125                 obsgroup      8.2709000E-03    8.3520000E-03   -8.1100000E-05     1.000000        8.2709000E-03    8.3520000E-03   -8.1100000E-05    4.2938058E-04     2328.936    
 p126                 obsgroup      8.3842000E-03    8.1540000E-03    2.3020000E-04     1.000000        8.3842000E-03    8.1540000E-03    2.3020000E-04    4.2938058E-04     2328.936    
 p127                 obsgroup      8.2091000E-03    7.9660000E-03    2.4310000E-04     1.000000        8.2091000E-03    7.9660000E-03    2.4310000E-04    4.2938058E-04     2328.936    
 p128                 obsgroup      8.3739000E-03    7.8790000E-03    4.9490000E-04     1.000000        8.3739000E-03    7.8790000E-03    4.9490000E-04    4.2938058E-04     2328.936    
 p129                 obsgroup      7.8589000E-03    7.7060000E-03    1.5290000E-04     1.000000        7.8589000E-03    7.7060000E-03    1.5290000E-04    4.2938058E-04     2328.936    
 p130                 obsgroup      7.6529000E-03    7.5390000E-03    1.1390000E-04     1.000000        7.6529000E-03    7.5390000E-03    1.1390000E-04    4.2938058E-04     2328.936    
 p131                 obsgroup      7.5808000E-03    7.3760000E-03    2.0480000E-04     1.000000        7.5808000E-03    7.3760000E-03    2.0480000E-04    4.2938058E-04     2328.936    
 p132                 obsgroup      7.4881000E-03    7.2250000E-03    2.6310000E-04     1.000000        7.4881000E-03    7.2250000E-03    2.6310000E-04    4.2938058E-04     2328.936    
 p133                 obsgroup      7.4984000E-03    7.0780000E-03    4.2040000E-04     1.000000        7.4984000E-03    7.0780000E-03    4.2040000E-04    4.2938058E-04     2328.936    
 p134                 obsgroup      7.1688000E-03    6.9340000E-03    2.3480000E-04     1.000000        7.1688000E-03    6.9340000E-03    2.3480000E-04    4.2938058E-04     2328.936    
 p135                 obsgroup      7.3542000E-03    6.6720000E-03    6.8220000E-04     1.000000        7.3542000E-03    6.6720000E-03    6.8220000E-04    4.2938058E-04     2328.936    
 p136                 obsgroup      6.9216000E-03    6.5480000E-03    3.7360000E-04     1.000000        6.9216000E-03    6.5480000E-03    3.7360000E-04    4.2938058E-04     2328.936    
 p137                 obsgroup      7.0040000E-03    6.4200000E-03    5.8400000E-04     1.000000        7.0040000E-03    6.4200000E-03    5.8400000E-04    4.2938058E-04     2328.936    
 p138                 obsgroup      6.6332000E-03    6.3070000E-03    3.2620000E-04     1.000000        6.6332000E-03    6.3070000E-03    3.2620000E-04    4.2938058E-04     2328.936    
 p139                 obsgroup      6.8289000E-03    6.1980000E-03    6.3090000E-04     1.000000        6.8289000E-03    6.1980000E-03    6.3090000E-04    4.2938058E-04     2328.936    
 p140                 obsgroup      6.2727000E-03    6.0940000E-03    1.7870000E-04     1.000000        6.2727000E-03    6.0940000E-03    1.7870000E-04    4.2938058E-04     2328.936    
 p141                 obsgroup      6.6744000E-03    5.9980000E-03    6.7640000E-04     1.000000        6.6744000E-03    5.9980000E-03    6.7640000E-04    4.2938058E-04     2328.936    
 p142                 obsgroup      6.5405000E-03    5.9510000E-03    5.8950000E-04     1.000000        6.5405000E-03    5.9510000E-03    5.8950000E-04    4.2938058E-04     2328.936    
 p143                 obsgroup      6.3345000E-03    5.8620000E-03    4.7250000E-04     1.000000        6.3345000E-03    5.8620000E-03    4.7250000E-04    4.2938058E-04     2328.936    
 p144                 obsgroup      6.6435000E-03    5.7780000E-03    8.6550000E-04     1.000000        6.6435000E-03    5.7780000E-03    8.6550000E-04    4.2938058E-04     2328.936    
 p145                 obsgroup      6.2624000E-03    5.7370000E-03    5.2540000E-04     1.000000        6.2624000E-03    5.7370000E-03    5.2540000E-04    4.2938058E-04     2328.936    
 p146                 obsgroup      6.4169000E-03    5.5920000E-03    8.2490000E-04     1.000000        6.4169000E-03    5.5920000E-03    8.2490000E-04    4.2938058E-04     2328.936    
 p147                 obsgroup      6.3139000E-03    5.5200000E-03    7.9390000E-04     1.000000        6.3139000E-03    5.5200000E-03    7.9390000E-04    4.2938058E-04     2328.936    
 p148                 obsgroup      5.9122000E-03    5.4520000E-03    4.6020000E-04     1.000000        5.9122000E-03    5.4520000E-03    4.6020000E-04    4.2938058E-04     2328.936    
 p149                 obsgroup      6.3757000E-03    5.3860000E-03    9.8970000E-04     1.000000        6.3757000E-03    5.3860000E-03    9.8970000E-04    4.2938058E-04     2328.936    
 p150                 obsgroup      6.1697000E-03    5.1890000E-03    9.8070000E-04     1.000000        6.1697000E-03    5.1890000E-03    9.8070000E-04    4.2938058E-04     2328.936    
 p151                 obsgroup      5.9019000E-03    5.1350000E-03    7.6690000E-04     1.000000        5.9019000E-03    5.1350000E-03    7.6690000E-04    4.2938058E-04     2328.936    
 p152                 obsgroup      5.8504000E-03    5.0830000E-03    7.6740000E-04     1.000000        5.8504000E-03    5.0830000E-03    7.6740000E-04    4.2938058E-04     2328.936    
 p153                 obsgroup      5.8092000E-03    5.0330000E-03    7.7620000E-04     1.000000        5.8092000E-03    5.0330000E-03    7.7620000E-04    4.2938058E-04     2328.936    
 p154                 obsgroup      5.7062000E-03    4.9860000E-03    7.2020000E-04     1.000000        5.7062000E-03    4.9860000E-03    7.2020000E-04    4.2938058E-04     2328.936    
 p155                 obsgroup      5.3045000E-03    4.9410000E-03    3.6350000E-04     1.000000        5.3045000E-03    4.9410000E-03    3.6350000E-04    4.2938058E-04     2328.936    
 p156                 obsgroup      5.7371000E-03    4.8980000E-03    8.3910000E-04     1.000000        5.7371000E-03    4.8980000E-03    8.3910000E-04    4.2938058E-04     2328.936    
 p157                 obsgroup      5.5620000E-03    4.8550000E-03    7.0700000E-04     1.000000        5.5620000E-03    4.8550000E-03    7.0700000E-04    4.2938058E-04     2328.936    
 p158                 obsgroup      5.3766000E-03    4.8150000E-03    5.6160000E-04     1.000000        5.3766000E-03    4.8150000E-03    5.6160000E-04    4.2938058E-04     2328.936    
 p159                 obsgroup      5.4178000E-03    4.7750000E-03    6.4280000E-04     1.000000        5.4178000E-03    4.7750000E-03    6.4280000E-04    4.2938058E-04     2328.936    
 p160                 obsgroup      5.3663000E-03    4.7360000E-03    6.3030000E-04     1.000000        5.3663000E-03    4.7360000E-03    6.3030000E-04    4.2938058E-04     2328.936    
 p161                 obsgroup      5.2118000E-03    4.6990000E-03    5.1280000E-04     1.000000        5.2118000E-03    4.6990000E-03    5.1280000E-04    4.2938058E-04     2328.936    
 p162                 obsgroup      5.0058000E-03    4.6610000E-03    3.4480000E-04     1.000000        5.0058000E-03    4.6610000E-03    3.4480000E-04    4.2938058E-04     2328.936    
 p163                 obsgroup      5.1397000E-03    4.6430000E-03    4.9670000E-04     1.000000        5.1397000E-03    4.6430000E-03    4.9670000E-04    4.2938058E-04     2328.936    
 p164                 obsgroup      4.9543000E-03    4.6070000E-03    3.4730000E-04     1.000000        4.9543000E-03    4.6070000E-03    3.4730000E-04    4.2938058E-04     2328.936    
 p165                 obsgroup      4.8616000E-03    4.5700000E-03    2.9160000E-04     1.000000        4.8616000E-03    4.5700000E-03    2.9160000E-04    4.2938058E-04     2328.936    
 p166                 obsgroup      5.1397000E-03    4.5520000E-03    5.8770000E-04     1.000000        5.1397000E-03    4.5520000E-03    5.8770000E-04    4.2938058E-04     2328.936    
 p167                 obsgroup      4.7174000E-03    4.5170000E-03    2.0040000E-04     1.000000        4.7174000E-03    4.5170000E-03    2.0040000E-04    4.2938058E-04     2328.936    
 p168                 obsgroup      5.0161000E-03    4.4830000E-03    5.3310000E-04     1.000000        5.0161000E-03    4.4830000E-03    5.3310000E-04    4.2938058E-04     2328.936    
 p169                 obsgroup      4.7483000E-03    4.4660000E-03    2.8230000E-04     1.000000        4.7483000E-03    4.4660000E-03    2.8230000E-04    4.2938058E-04     2328.936    
 p170                 obsgroup      4.7895000E-03    4.4330000E-03    3.5650000E-04     1.000000        4.7895000E-03    4.4330000E-03    3.5650000E-04    4.2938058E-04     2328.936    
 p171                 obsgroup      4.7174000E-03    4.4000000E-03    3.1740000E-04     1.000000        4.7174000E-03    4.4000000E-03    3.1740000E-04    4.2938058E-04     2328.936    
 p172                 obsgroup      4.6659000E-03    4.3850000E-03    2.8090000E-04     1.000000        4.6659000E-03    4.3850000E-03    2.8090000E-04    4.2938058E-04     2328.936    
 p173                 obsgroup      4.6968000E-03    4.3550000E-03    3.4180000E-04     1.000000        4.6968000E-03    4.3550000E-03    3.4180000E-04    4.2938058E-04     2328.936    
 p174                 obsgroup      4.5938000E-03    4.3250000E-03    2.6880000E-04     1.000000        4.5938000E-03    4.3250000E-03    2.6880000E-04    4.2938058E-04     2328.936    
 p175                 obsgroup      4.4187000E-03    4.3090000E-03    1.0970000E-04     1.000000        4.4187000E-03    4.3090000E-03    1.0970000E-04    4.2938058E-04     2328.936    
 p176                 obsgroup      4.4496000E-03    4.2800000E-03    1.6960000E-04     1.000000        4.4496000E-03    4.2800000E-03    1.6960000E-04    4.2938058E-04     2328.936    
 p177                 obsgroup      4.5320000E-03    4.2510000E-03    2.8100000E-04     1.000000        4.5320000E-03    4.2510000E-03    2.8100000E-04    4.2938058E-04     2328.936    
 p178                 obsgroup      4.4290000E-03    4.2360000E-03    1.9300000E-04     1.000000        4.4290000E-03    4.2360000E-03    1.9300000E-04    4.2938058E-04     2328.936    
 p179                 obsgroup      4.3878000E-03    4.2070000E-03    1.8080000E-04     1.000000        4.3878000E-03    4.2070000E-03    1.8080000E-04    4.2938058E-04     2328.936    
 p180                 obsgroup      4.4496000E-03    4.1780000E-03    2.7160000E-04     1.000000        4.4496000E-03    4.1780000E-03    2.7160000E-04    4.2938058E-04     2328.936    
 p181                 obsgroup      4.3260000E-03    4.1640000E-03    1.6200000E-04     1.000000        4.3260000E-03    4.1640000E-03    1.6200000E-04    4.2938058E-04     2328.936    
 p182                 obsgroup      4.0891000E-03    4.1360000E-03   -4.6900000E-05     1.000000        4.0891000E-03    4.1360000E-03   -4.6900000E-05    4.2938058E-04     2328.936    
 p183                 obsgroup      4.4496000E-03    4.1080000E-03    3.4160000E-04     1.000000        4.4496000E-03    4.1080000E-03    3.4160000E-04    4.2938058E-04     2328.936    
 p184                 obsgroup      4.1921000E-03    4.0940000E-03    9.8100000E-05     1.000000        4.1921000E-03    4.0940000E-03    9.8100000E-05    4.2938058E-04     2328.936    
 p185                 obsgroup      4.1200000E-03    4.0660000E-03    5.4000000E-05     1.000000        4.1200000E-03    4.0660000E-03    5.4000000E-05    4.2938058E-04     2328.936    
 p186                 obsgroup      4.0685000E-03    4.0380000E-03    3.0500000E-05     1.000000        4.0685000E-03    4.0380000E-03    3.0500000E-05    4.2938058E-04     2328.936    
 p187                 obsgroup      3.9449000E-03    4.0110000E-03   -6.6100000E-05     1.000000        3.9449000E-03    4.0110000E-03   -6.6100000E-05    4.2938058E-04     2328.936    
 p188                 obsgroup      3.8934000E-03    3.9840000E-03   -9.0600000E-05     1.000000        3.8934000E-03    3.9840000E-03   -9.0600000E-05    4.2938058E-04     2328.936    
 p189                 obsgroup      4.0479000E-03    3.9580000E-03    8.9900000E-05     1.000000        4.0479000E-03    3.9580000E-03    8.9900000E-05    4.2938058E-04     2328.936    
 p190                 obsgroup      4.0273000E-03    3.9330000E-03    9.4300000E-05     1.000000        4.0273000E-03    3.9330000E-03    9.4300000E-05    4.2938058E-04     2328.936    
 p191                 obsgroup      3.7698000E-03    3.9070000E-03   -1.3720000E-04     1.000000        3.7698000E-03    3.9070000E-03   -1.3720000E-04    4.2938058E-04     2328.936    
 p192                 obsgroup      3.7389000E-03    3.8820000E-03   -1.4310000E-04     1.000000        3.7389000E-03    3.8820000E-03   -1.4310000E-04    4.2938058E-04     2328.936    
 p193                 obsgroup      3.7080000E-03    3.8690000E-03   -1.6100000E-04     1.000000        3.7080000E-03    3.8690000E-03   -1.6100000E-04    4.2938058E-04     2328.936    
 p194                 obsgroup      3.6977000E-03    3.8440000E-03   -1.4630000E-04     1.000000        3.6977000E-03    3.8440000E-03   -1.4630000E-04    4.2938058E-04     2328.936    
 p195                 obsgroup      3.6565000E-03    3.8190000E-03   -1.6250000E-04     1.000000        3.6565000E-03    3.8190000E-03   -1.6250000E-04    4.2938058E-04     2328.936    
 p196                 obsgroup      3.6977000E-03    3.8070000E-03   -1.0930000E-04     1.000000        3.6977000E-03    3.8070000E-03   -1.0930000E-04    4.2938058E-04     2328.936    
 p197                 obsgroup      3.7492000E-03    3.7830000E-03   -3.3800000E-05     1.000000        3.7492000E-03    3.7830000E-03   -3.3800000E-05    4.2938058E-04     2328.936    
 p198                 obsgroup      3.6874000E-03    3.7590000E-03   -7.1600000E-05     1.000000        3.6874000E-03    3.7590000E-03   -7.1600000E-05    4.2938058E-04     2328.936    
 p199                 obsgroup      3.6771000E-03    3.7350000E-03   -5.7900000E-05     1.000000        3.6771000E-03    3.7350000E-03   -5.7900000E-05    4.2938058E-04     2328.936    
 p200                 obsgroup      3.5432000E-03    3.7100000E-03   -1.6680000E-04     1.000000        3.5432000E-03    3.7100000E-03   -1.6680000E-04    4.2938058E-04     2328.936    
 p201                 obsgroup      3.3578000E-03    3.6850000E-03   -3.2720000E-04     1.000000        3.3578000E-03    3.6850000E-03   -3.2720000E-04    4.2938058E-04     2328.936    
 p202                 obsgroup      3.3990000E-03    3.6730000E-03   -2.7400000E-04     1.000000        3.3990000E-03    3.6730000E-03   -2.7400000E-04    4.2938058E-04     2328.936    
 p203                 obsgroup      3.3372000E-03    3.6490000E-03   -3.1180000E-04     1.000000        3.3372000E-03    3.6490000E-03   -3.1180000E-04    4.2938058E-04     2328.936    
 p204                 obsgroup      3.3269000E-03    3.6250000E-03   -2.9810000E-04     1.000000        3.3269000E-03    3.6250000E-03   -2.9810000E-04    4.2938058E-04     2328.936    
 p205                 obsgroup      3.4093000E-03    3.6020000E-03   -1.9270000E-04     1.000000        3.4093000E-03    3.6020000E-03   -1.9270000E-04    4.2938058E-04     2328.936    
 p206                 obsgroup      3.2136000E-03    3.5790000E-03   -3.6540000E-04     1.000000        3.2136000E-03    3.5790000E-03   -3.6540000E-04    4.2938058E-04     2328.936    
 p207                 obsgroup      3.2651000E-03    3.5550000E-03   -2.8990000E-04     1.000000        3.2651000E-03    3.5550000E-03   -2.8990000E-04    4.2938058E-04     2328.936    
 p208                 obsgroup      3.2033000E-03    3.5330000E-03   -3.2970000E-04     1.000000        3.2033000E-03    3.5330000E-03   -3.2970000E-04    4.2938058E-04     2328.936    
 p209                 obsgroup      3.2754000E-03    3.5110000E-03   -2.3560000E-04     1.000000        3.2754000E-03    3.5110000E-03   -2.3560000E-04    4.2938058E-04     2328.936    
 p210                 obsgroup      3.2239000E-03    3.4900000E-03   -2.6610000E-04     1.000000        3.2239000E-03    3.4900000E-03   -2.6610000E-04    4.2938058E-04     2328.936    
 p211                 obsgroup      2.9767000E-03    3.4690000E-03   -4.9230000E-04     1.000000        2.9767000E-03    3.4690000E-03   -4.9230000E-04    4.2938058E-04     2328.936    
 p212                 obsgroup      3.1724000E-03    3.4470000E-03   -2.7460000E-04     1.000000        3.1724000E-03    3.4470000E-03   -2.7460000E-04    4.2938058E-04     2328.936    
 p213                 obsgroup      3.1209000E-03    3.4260000E-03   -3.0510000E-04     1.000000        3.1209000E-03    3.4260000E-03   -3.0510000E-04    4.2938058E-04     2328.936    
 p214                 obsgroup      3.0797000E-03    3.4040000E-03   -3.2430000E-04     1.000000        3.0797000E-03    3.4040000E-03   -3.2430000E-04    4.2938058E-04     2328.936    
 p215                 obsgroup      2.9767000E-03    3.3820000E-03   -4.0530000E-04     1.000000        2.9767000E-03    3.3820000E-03   -4.0530000E-04    4.2938058E-04     2328.936    
 p216                 obsgroup      2.8737000E-03    3.3590000E-03   -4.8530000E-04     1.000000        2.8737000E-03    3.3590000E-03   -4.8530000E-04    4.2938058E-04     2328.936    
 p217                 obsgroup      2.9252000E-03    3.3360000E-03   -4.1080000E-04     1.000000        2.9252000E-03    3.3360000E-03   -4.1080000E-04    4.2938058E-04     2328.936    
 p218                 obsgroup      2.8634000E-03    3.3140000E-03   -4.5060000E-04     1.000000        2.8634000E-03    3.3140000E-03   -4.5060000E-04    4.2938058E-04     2328.936    
 p219                 obsgroup      2.9355000E-03    3.2930000E-03   -3.5750000E-04     1.000000        2.9355000E-03    3.2930000E-03   -3.5750000E-04    4.2938058E-04     2328.936    
 p220                 obsgroup      2.7398000E-03    3.2820000E-03   -5.4220000E-04     1.000000        2.7398000E-03    3.2820000E-03   -5.4220000E-04    4.2938058E-04     2328.936    
 p221                 obsgroup      2.8840000E-03    3.2610000E-03   -3.7700000E-04     1.000000        2.8840000E-03    3.2610000E-03   -3.7700000E-04    4.2938058E-04     2328.936    
 p222                 obsgroup      2.8119000E-03    3.2400000E-03   -4.2810000E-04     1.000000        2.8119000E-03    3.2400000E-03   -4.2810000E-04    4.2938058E-04     2328.936    
 p223                 obsgroup      2.7501000E-03    3.2190000E-03   -4.6890000E-04     1.000000        2.7501000E-03    3.2190000E-03   -4.6890000E-04    4.2938058E-04     2328.936    
 p224                 obsgroup      2.7398000E-03    3.1970000E-03   -4.5720000E-04     1.000000        2.7398000E-03    3.1970000E-03   -4.5720000E-04    4.2938058E-04     2328.936    
 p225                 obsgroup      2.6162000E-03    3.1770000E-03   -5.6080000E-04     1.000000        2.6162000E-03    3.1770000E-03   -5.6080000E-04    4.2938058E-04     2328.936    
 p226                 obsgroup      2.7295000E-03    3.1560000E-03   -4.2650000E-04     1.000000        2.7295000E-03    3.1560000E-03   -4.2650000E-04    4.2938058E-04     2328.936    
 p227                 obsgroup      2.5132000E-03    3.1360000E-03   -6.2280000E-04     1.000000        2.5132000E-03    3.1360000E-03   -6.2280000E-04    4.2938058E-04     2328.936    
 p228                 obsgroup      2.5647000E-03    3.1150000E-03   -5.5030000E-04     1.000000        2.5647000E-03    3.1150000E-03   -5.5030000E-04    4.2938058E-04     2328.936    
 p229                 obsgroup      2.5132000E-03    3.0950000E-03   -5.8180000E-04     1.000000        2.5132000E-03    3.0950000E-03   -5.8180000E-04    4.2938058E-04     2328.936    
 p230                 obsgroup      2.5235000E-03    3.0750000E-03   -5.5150000E-04     1.000000        2.5235000E-03    3.0750000E-03   -5.5150000E-04    4.2938058E-04     2328.936    
 p231                 obsgroup      2.4411000E-03    3.0550000E-03   -6.1390000E-04     1.000000        2.4411000E-03    3.0550000E-03   -6.1390000E-04    4.2938058E-04     2328.936    
 p232                 obsgroup      2.6059000E-03    3.0340000E-03   -4.2810000E-04     1.000000        2.6059000E-03    3.0340000E-03   -4.2810000E-04    4.2938058E-04     2328.936    
 p233                 obsgroup      2.5029000E-03    3.0140000E-03   -5.1110000E-04     1.000000        2.5029000E-03    3.0140000E-03   -5.1110000E-04    4.2938058E-04     2328.936    
 p234                 obsgroup      2.4720000E-03    2.9070000E-03   -4.3500000E-04     1.000000        2.4720000E-03    2.9070000E-03   -4.3500000E-04    4.2938058E-04     2328.936    
 p235                 obsgroup      2.5029000E-03    2.8880000E-03   -3.8510000E-04     1.000000        2.5029000E-03    2.8880000E-03   -3.8510000E-04    4.2938058E-04     2328.936    
 p236                 obsgroup      2.4205000E-03    2.8690000E-03   -4.4850000E-04     1.000000        2.4205000E-03    2.8690000E-03   -4.4850000E-04    4.2938058E-04     2328.936    
 p237                 obsgroup      2.4308000E-03    2.8500000E-03   -4.1920000E-04     1.000000        2.4308000E-03    2.8500000E-03   -4.1920000E-04    4.2938058E-04     2328.936    
 p238                 obsgroup      2.4205000E-03    2.8220000E-03   -4.0150000E-04     1.000000        2.4205000E-03    2.8220000E-03   -4.0150000E-04    4.2938058E-04     2328.936    
 p239                 obsgroup      2.1424000E-03    2.8030000E-03   -6.6060000E-04     1.000000        2.1424000E-03    2.8030000E-03   -6.6060000E-04    4.2938058E-04     2328.936    
 p240                 obsgroup      2.3072000E-03    2.7840000E-03   -4.7680000E-04     1.000000        2.3072000E-03    2.7840000E-03   -4.7680000E-04    4.2938058E-04     2328.936    
 p241                 obsgroup      2.1836000E-03    2.7740000E-03   -5.9040000E-04     1.000000        2.1836000E-03    2.7740000E-03   -5.9040000E-04    4.2938058E-04     2328.936    
 p242                 obsgroup      2.3484000E-03    2.7550000E-03   -4.0660000E-04     1.000000        2.3484000E-03    2.7550000E-03   -4.0660000E-04    4.2938058E-04     2328.936    
 p243                 obsgroup      2.3072000E-03    2.7360000E-03   -4.2880000E-04     1.000000        2.3072000E-03    2.7360000E-03   -4.2880000E-04    4.2938058E-04     2328.936    
 p244                 obsgroup      2.2042000E-03    2.6990000E-03   -4.9480000E-04     1.000000        2.2042000E-03    2.6990000E-03   -4.9480000E-04    4.2938058E-04     2328.936    
 p245                 obsgroup      2.1424000E-03    2.6340000E-03   -4.9160000E-04     1.000000        2.1424000E-03    2.6340000E-03   -4.9160000E-04    4.2938058E-04     2328.936    
 p246                 obsgroup      2.1218000E-03    2.6250000E-03   -5.0320000E-04     1.000000        2.1218000E-03    2.6250000E-03   -5.0320000E-04    4.2938058E-04     2328.936    
 p247                 obsgroup      2.2145000E-03    2.6070000E-03   -3.9250000E-04     1.000000        2.2145000E-03    2.6070000E-03   -3.9250000E-04    4.2938058E-04     2328.936    
 p248                 obsgroup      2.1424000E-03    2.5880000E-03   -4.4560000E-04     1.000000        2.1424000E-03    2.5880000E-03   -4.4560000E-04    4.2938058E-04     2328.936    
 p249                 obsgroup      1.9673000E-03    2.5700000E-03   -6.0270000E-04     1.000000        1.9673000E-03    2.5700000E-03   -6.0270000E-04    4.2938058E-04     2328.936    
 p250                 obsgroup      1.9570000E-03    2.5520000E-03   -5.9500000E-04     1.000000        1.9570000E-03    2.5520000E-03   -5.9500000E-04    4.2938058E-04     2328.936    
 p251                 obsgroup      1.9673000E-03    2.5350000E-03   -5.6770000E-04     1.000000        1.9673000E-03    2.5350000E-03   -5.6770000E-04    4.2938058E-04     2328.936    
 p252                 obsgroup      2.0085000E-03    2.5150000E-03   -5.0650000E-04     1.000000        2.0085000E-03    2.5150000E-03   -5.0650000E-04    4.2938058E-04     2328.936    
 p253                 obsgroup      1.8128000E-03    2.4860000E-03   -6.7320000E-04     1.000000        1.8128000E-03    2.4860000E-03   -6.7320000E-04    4.2938058E-04     2328.936    
 p254                 obsgroup      1.7098000E-03    2.4590000E-03   -7.4920000E-04     1.000000        1.7098000E-03    2.4590000E-03   -7.4920000E-04    4.2938058E-04     2328.936    
 p255                 obsgroup      1.6789000E-03    2.4320000E-03   -7.5310000E-04     1.000000        1.6789000E-03    2.4320000E-03   -7.5310000E-04    4.2938058E-04     2328.936    
 p256                 obsgroup      1.4832000E-03    2.4060000E-03   -9.2280000E-04     1.000000        1.4832000E-03    2.4060000E-03   -9.2280000E-04    4.2938058E-04     2328.936    
 p257                 obsgroup      1.4935000E-03    2.3790000E-03   -8.8550000E-04     1.000000        1.4935000E-03    2.3790000E-03   -8.8550000E-04    4.2938058E-04     2328.936    
 p258                 obsgroup      1.5038000E-03    2.3620000E-03   -8.5820000E-04     1.000000        1.5038000E-03    2.3620000E-03   -8.5820000E-04    4.2938058E-04     2328.936    
 p259                 obsgroup      1.5141000E-03    2.3380000E-03   -8.2390000E-04     1.000000        1.5141000E-03    2.3380000E-03   -8.2390000E-04    4.2938058E-04     2328.936    
 p260                 obsgroup      1.4626000E-03    2.3210000E-03   -8.5840000E-04     1.000000        1.4626000E-03    2.3210000E-03   -8.5840000E-04    4.2938058E-04     2328.936    
 p261                 obsgroup      1.3596000E-03    2.2970000E-03   -9.3740000E-04     1.000000        1.3596000E-03    2.2970000E-03   -9.3740000E-04    4.2938058E-04     2328.936    
 p262                 obsgroup      1.3081000E-03    2.2720000E-03   -9.6390000E-04     1.000000        1.3081000E-03    2.2720000E-03   -9.6390000E-04    4.2938058E-04     2328.936    
 p263                 obsgroup      1.2978000E-03    2.2490000E-03   -9.5120000E-04     1.000000        1.2978000E-03    2.2490000E-03   -9.5120000E-04    4.2938058E-04     2328.936    
 p264                 obsgroup      1.2669000E-03    2.2240000E-03   -9.5710000E-04     1.000000        1.2669000E-03    2.2240000E-03   -9.5710000E-04    4.2938058E-04     2328.936    
 p265                 obsgroup      1.2669000E-03    2.2010000E-03   -9.3410000E-04     1.000000        1.2669000E-03    2.2010000E-03   -9.3410000E-04    4.2938058E-04     2328.936    
 p266                 obsgroup      1.1948000E-03    2.1770000E-03   -9.8220000E-04     1.000000        1.1948000E-03    2.1770000E-03   -9.8220000E-04    4.2938058E-04     2328.936    
 p267                 obsgroup      1.0815000E-03    2.1520000E-03   -1.0705000E-03     1.000000        1.0815000E-03    2.1520000E-03   -1.0705000E-03    4.2938058E-04     2328.936    
 p268                 obsgroup      1.1536000E-03    2.1290000E-03   -9.7540000E-04     1.000000        1.1536000E-03    2.1290000E-03   -9.7540000E-04    4.2938058E-04     2328.936    
