104.271844660195	0.00002369
2513.00970873786	0.000058298
5003.30097087379	0.000027192
7505.2427184466	0.000022763
10059.6116504854	0.000066435
12663.4951456311	0.000031003
15279.0291262136	0.000027604
17853.786407767	0.000024823
20451.8446601942	0.000027913
23044.0776699029	0.000029664
25639.2233009709	0.000027398
28280.9708737864	0.000029561
30916.8932038835	0.000027604
33549.9029126214	0.000027604
36188.7378640777	0.00002575
38807.1844660194	0.000028428
41396.5048543689	0.000024617
44020.7766990291	0.000029561
46680	0.000021012
49330.4854368932	0.000029458
51995.5339805825	0.000022866
54698.4466019417	0.000026883
57520.7766990291	0.000028119
60427.572815534	0.000019982
63346.0194174757	0.000028325
66244.0776699029	0.000031827
69104.2718446602	0.000054384
71949.9029126214	0.000034608
74807.1844660194	0.000028428
77679.0291262136	0.000061388
80524.6601941748	0.00018849
83338.2524271845	0.000057577
86154.7572815534	0.000080237
88971.2621359223	0.000080237
91779.0291262136	0.000103
94572.2330097088	0.00014729
97359.6116504854	0.00021321
100176.116504854	0.00025029
102975.145631068	0.00036668
105750.873786408	0.00049543
108552.815533981	0.0005768
111357.669902913	0.00080855
114136.310679612	0.00098159
116923.689320388	0.0010815
119719.805825243	0.0014008
122504.27184466	0.0016583
125294.563106796	0.0019158
128067.378640777	0.0023072
130857.669902913	0.0024617
133682.912621359	0.002884
136528.54368932	0.00309
139356.699029126	0.0036359
142114.951456311	0.0039346
150313.980582524	0.005047
153168.349514563	0.005253
156066.40776699	0.0055826
158993.59223301	0.0058504
161926.601941748	0.0064787
164853.786407767	0.0066744
167801.359223301	0.0071688
170722.718446602	0.0073645
173617.86407767	0.0075396
176518.834951456	0.0082606
179381.941747573	0.0083739
182218.834951456	0.0087447
185064.466019417	0.0091155
187924.660194175	0.0095069
190808.155339806	0.0095893
193671.262135922	0.0098777
196487.766990291	0.0101867
199286.796116505	0.010403
202062.524271845	0.010918
207605.242718447	0.011021
210389.708737864	0.011021
213180	0.01133
215970.291262136	0.011433
227076.116504854	0.011742
229950.873786408	0.011227
232813.980582524	0.011845
235621.747572816	0.011742
238446.990291262	0.012154
241295.533980582	0.011536
244158.640776699	0.011639
247056.699029126	0.011639
249928.54368932	0.011639
252715.922330097	0.012154
255497.475728155	0.012257
258281.941747573	0.011948
261063.495145631	0.012154
263859.611650485	0.011845
266658.640776699	0.011639
269466.40776699	0.011536
272274.174757282	0.011639
275061.553398058	0.011639
277840.194174757	0.01133
280647.961165049	0.011021
283441.165048544	0.011433
286216.893203883	0.01133
289021.747572815	0.011124
291829.514563107	0.011124
294648.932038835	0.010815
297485.825242718	0.010815
300305.242718447	0.010815
303130.485436893	0.010712
306011.067961165	0.010403
308897.475728155	0.010609
311778.058252427	0.010403
314684.854368932	0.010094
317606.213592233	0.010403
320562.524271845	0.0096614
323553.786407767	0.0097438
326524.660194175	0.0094245
329463.495145631	0.0093318
332352.81553398	0.0097026
335178.058252427	0.0094142
337968.349514563	0.0097232
340732.427184466	0.0093421
343464.466019417	0.0094554
346184.854368932	0.0093421
348931.45631068	0.0092082
351692.621359223	0.0091876
362422.718446602	0.0088065
365157.669902913	0.0087344
367892.621359223	0.0084872
370665.436893204	0.0082709
373438.252427184	0.0083842
376190.67961165	0.0082091
378954.757281553	0.0083739
381730.485436893	0.0078589
384535.339805825	0.0076529
387337.281553398	0.0075808
390168.349514563	0.0074881
393060.582524272	0.0074984
396008.155339806	0.0071688
398967.378640777	0.0073542
401935.339805825	0.0069216
404944.077669903	0.007004
407970.291262136	0.0066332
411008.155339806	0.0068289
414037.281553398	0.0062727
417060.582524272	0.0066744
420072.233009709	0.0065405
423063.495145631	0.0063345
426019.805825243	0.0066435
428938.252427184	0.0062624
431836.310679612	0.0064169
434708.155339806	0.0063139
437585.825242718	0.0059122
440446.019417476	0.0063757
443280	0.0061697
446134.368932039	0.0059019
449020.776699029	0.0058504
451901.359223301	0.0058092
454773.203883495	0.0057062
463749.902912621	0.0053045
466647.961165049	0.0057371
471966.40776699	0.005562
474756.699029126	0.0053766
477538.252427184	0.0054178
480313.980582524	0.0053663
483113.009708738	0.0052118
485961.553398058	0.0050058
488824.660194175	0.0051397
491655.72815534	0.0049543
494547.961165049	0.0048616
497413.980582524	0.0051397
500218.834951456	0.0047174
503003.300970874	0.0050161
505761.553398058	0.0047483
508560.582524272	0.0047895
511342.13592233	0.0047174
514088.737864078	0.0046659
516814.951456311	0.0046968
519570.291262136	0.0045938
522383.883495146	0.0044187
525209.126213592	0.0044496
528028.54368932	0.004532
530833.398058252	0.004429
538959.611650485	0.0043878
541680	0.0044496
544371.262135922	0.004326
547094.563106796	0.0040891
549785.825242718	0.0044496
552509.126213592	0.0041921
557760.582524272	0.00412
560463.495145631	0.0040685
563160.582524272	0.0039449
565895.533980582	0.0038934
568633.398058252	0.0040479
571368.349514563	0.0040273
574120.776699029	0.0037698
576890.67961165	0.0037389
579663.495145631	0.003708
582445.048543689	0.0036977
585223.689320388	0.0036565
587955.72815534	0.0036977
590646.990291262	0.0037492
593352.81553398	0.0036874
596052.815533981	0.0036771
598741.165048544	0.0035432
601458.640776699	0.0033578
604184.854368932	0.003399
606896.504854369	0.0033372
609611.067961165	0.0033269
612322.718446602	0.0034093
615043.106796117	0.0032136
617778.058252427	0.0032651
620498.446601942	0.0032033
623198.446601942	0.0032754
625886.796116505	0.0032239
628592.621359223	0.0029767
631310.097087379	0.0031724
634050.873786408	0.0031209
636814.951456311	0.0030797
639608.155339806	0.0029767
642459.611650485	0.0028737
645281.941747573	0.0029252
648057.669902913	0.0028634
650850.873786408	0.0029355
653679.029126214	0.0027398
656489.708737864	0.002884
659256.699029126	0.0028119
662020.776699029	0.0027501
664781.941747573	0.0027398
667557.669902913	0.0026162
670362.524271845	0.0027295
675139.223300971	0.0025132
677976.116504854	0.0025647
680792.621359223	0.0025132
683617.86407767	0.0025235
686451.844660194	0.0024411
689274.174757281	0.0026059
692093.59223301	0.0025029
694895.533980583	0.002472
697682.912621359	0.0025029
700455.72815534	0.0024205
703225.631067961	0.0024308
706004.27184466	0.0024205
708820.776699029	0.0021424
711771.262135922	0.0023072
714721.747572816	0.0021836
717439.223300971	0.0023484
720107.184466019	0.0023072
722906.213592233	0.0022042
725746.019417476	0.0021424
728617.86407767	0.0021218
734215.922330097	0.0022145
745353.786407767	0.0021424
756663.495145631	0.0019673
767932.427184466	0.001957
778985.825242718	0.0019673
790167.378640777	0.0020085
801340.194174757	0.0018128
812667.378640777	0.0017098
824052.81553398	0.0016789
835697.475728155	0.0014832
847295.533980582	0.0014935
858573.203883495	0.0015038
869900.388349515	0.0015141
880927.572815534	0.0014626
892100.388349514	0.0013596
903692.621359223	0.0013081
915209.126213592	0.0012978
926987.766990291	0.0012669
938166.40776699	0.0012669
949653.786407767	0.0011948
960876.116504854	0.0010815
972095.533980582	0.0011536
