1708.42718446602	0.00054384
2227.45631067961	0.00060255
2757.55339805825	0.00055826
3309.78640776699	0.00050367
3868.42718446602	0.00054899
4427.06796116505	0.0005253
4985.70873786408	0.00054693
5544.93203883495	0.00049749
6108.81553398058	0.00049131
6679.10679611651	0.00052118
7242.40776699029	0.00052221
7789.39805825243	0.00054487
8341.04854368932	0.00052942
8905.5145631068	0.00051809
10084.5436893204	0.00049749
11123.7669902913	0.00057577
11691.7281553398	0.00051088
12255.6116504854	0.00049955
12818.9126213592	0.00052427
13387.4563106796	0.00041509
13963.572815534	0.00053148
14533.2815533981	0.00055311
15100.6601941748	0.00054487
15666.8737864078	0.00054693
16226.6796116505	0.0005459
16792.3106796116	0.00060667
17353.8640776699	0.00059637
17913.6699029126	0.00060667
18483.9611650485	0.00061491
19051.3398058252	0.00068392
19616.3883495146	0.00070864
20196.5825242718	0.00074881
20753.4757281553	0.00086726
21305.7087378641	0.00087138
21871.3398058252	0.00099498
22428.8155339806	0.00103
22997.9417475728	0.0012051
23562.4077669903	0.0014111
24124.5436893204	0.0015656
24692.5048543689	0.0017201
25258.1359223301	0.0019261
25823.7669902913	0.0022557
26384.1553398058	0.0025029
26941.0485436893	0.0028428
27499.1067961165	0.0030797
28059.4951456311	0.0035123
28624.5436893204	0.0037286
29180.2718446602	0.0042333
29731.9223300971	0.0047174
30295.2233009709	0.0049543
30863.1844660194	0.0055414
31433.4757281553	0.0058195
31999.6893203883	0.0065817
32556	0.0072718
33112.8932038835	0.0074469
33676.1941747573	0.0082915
34236.5825242718	0.0089507
34798.1359223301	0.0090434
35365.5145631068	0.0096305
35925.3203883495	0.010609
36478.7184466019	0.011433
37039.1067961165	0.012257
37603.572815534	0.012772
38166.2912621359	0.012875
38726.0970873786	0.014214
40409.5922330097	0.016583
43765.5145631068	0.021321
45460.0776699029	0.023484
47137.1650485437	0.027295
48839.3009708738	0.030179
50528.6213592233	0.031209
52208.0388349515	0.033475
53904.932038835	0.036153
55590.1747572816	0.040273
57270.1747572816	0.042333
58981.6310679612	0.043466
62339.3009708738	0.049131
65968.427184466	0.052839
67676.9708737864	0.054796
69388.427184466	0.055105
71031.145631068	0.059122
72716.9708737864	0.061697
74429.0097087379	0.061903
76115.4174757281	0.065508
77806.4854368932	0.065199
79515.6116504854	0.065199
81203.1844660194	0.070452
82897.1650485437	0.069319
84576.5825242718	0.071997
86276.3883495146	0.071585
87984.9320388349	0.074675
89671.9223300971	0.073954
91368.2330097087	0.074984
93048.2330097087	0.077456
94749.786407767	0.07622
96591.7281553398	0.08137
98272.3106796117	0.081164
99945.9029126214	0.082297
101650.951456311	0.081885
103352.504854369	0.081576
105063.378640777	0.082606
106770.174757282	0.084975
108477.553398058	0.086005
110197.747572816	0.080443
111870.757281553	0.086211
113566.485436893	0.087138
115263.378640777	0.088889
116955.611650485	0.090537
118639.106796117	0.088992
120329.59223301	0.090228
122032.310679612	0.089816
123726.873786408	0.091361
125414.446601942	0.092803
127090.368932039	0.091773
128789.59223301	0.093112
130482.990291262	0.09373
133881.436893204	0.095069
135578.912621359	0.093627
137280.466019417	0.094451
139005.32038835	0.092082
140648.038834951	0.097438
142342.601941748	0.094966
144034.834951456	0.097747
145742.213592233	0.096614
147456.582524272	0.097747
149138.330097087	0.100631
150598.718446602	0.098056
152302.601941748	0.099498
153984.932038835	0.098983
155696.388349515	0.102588
157379.883495146	0.100013
159069.203883495	0.100631
160773.087378641	0.09991
162458.330097087	0.100528
164170.368932039	0.102794
165850.951456311	0.102897
167578.13592233	0.099498
169248.815533981	0.10403
170945.126213592	0.101764
172663.572815534	0.100425
174396	0.098571
176021.242718447	0.101661
177714.640776699	0.10403
179417.359223301	0.103
181107.844660194	0.103
182806.485436893	0.10403
184512.699029126	0.103
186204.349514563	0.10609
187914.640776699	0.10506
189613.281553398	0.10815
191300.854368932	0.10712
192997.165048544	0.10506
194694.640776699	0.10609
196396.776699029	0.10506
198083.766990291	0.10712
199823.766990291	0.102691
201443.184466019	0.10506
203156.970873786	0.10712
204802.601941748	0.10815
206497.747572815	0.10506
208203.961165049	0.10815
209910.174757282	0.10609
211605.320388349	0.11021
213303.961165049	0.10609
215013.087378641	0.10506
216716.388349515	0.10609
218438.330097087	0.10918
220119.495145631	0.10815
221815.805825243	0.10712
223507.45631068	0.11021
225199.689320388	0.10815
226904.155339806	0.11124
229724.737864078	0.11021
235094.446601942	0.11124
236739.495145631	0.10815
238407.262135922	0.11227
240075.611650485	0.11021
241759.106796116	0.10815
243453.087378641	0.10712
245153.475728155	0.11021
246852.699029126	0.10918
248556	0.10918
250265.708737864	0.10918
251978.330097087	0.11021
257023.572815534	0.10712
258739.106796117	0.10815
260434.252427184	0.10609
262131.145631068	0.10712
265525.514563107	0.10506
267247.45631068	0.101352
268898.330097087	0.10506
270583.572815534	0.099601
272284.54368932	0.097953
273944.155339806	0.095378
275663.18446602	0.090846
277375.805825243	0.089507
279047.067961165	0.08755
282418.13592233	0.082709
284110.368932039	0.080855
285777.553398058	0.079001
287468.038834951	0.076632
289163.184466019	0.074881
290848.427184466	0.069834
292533.087378641	0.070452
294229.398058252	0.068186
295919.300970874	0.065405
297615.029126214	0.063654
299314.834951456	0.06077
301008.815533981	0.059225
302688.815533981	0.057371
304372.310679612	0.055723
306078.524271845	0.05356
307778.912621359	0.052942
309464.737864078	0.051397
311152.893203883	0.049337
312857.359223301	0.048616
314557.165048544	0.047895
316254.640776699	0.045835
317948.038834951	0.045423
319669.398058252	0.04223
321390.757281553	0.042333
323085.32038835	0.041303
324749.59223301	0.041097
326434.834951456	0.040067
328136.388349515	0.036771
329812.893203884	0.037595
331512.116504854	0.037595
333185.126213592	0.034608
334869.786407767	0.035432
336556.776699029	0.035535
338273.475728155	0.032857
339960.466019417	0.032857
341667.844660194	0.03193
343371.145631068	0.030179
345086.679611651	0.030179
346788.233009709	0.030179
348518.330097087	0.02884
350141.242718447	0.028531
351831.72815534	0.027913
353539.689320388	0.02678
355231.339805825	0.026986
356923.572815534	0.026574
358612.893203884	0.026059
360311.533980583	0.025338
362010.174757282	0.024823
363709.980582524	0.024102
365421.436893204	0.022969
367072.310679612	0.022969
368756.388349515	0.022557
370400.854368932	0.022454
372071.533980583	0.02266
373753.86407767	0.021733
375449.009708738	0.021115
377145.902912621	0.021115
378827.650485437	0.020703
380502.990291262	0.020085
382187.650485437	0.020188
383894.446601942	0.019776
385574.446601942	0.018849
387256.776699029	0.019055
388941.436893204	0.01854
390636	0.018128
392334.058252427	0.017819
394040.27184466	0.017819
395744.155339806	0.016892
397436.388349514	0.01648
399126.873786408	0.016686
400842.990291262	0.016171
402551.533980583	0.015965