1213.980583
4059.61165
6680.970874
9194.563107
11652.81553
14329.51456
17148.93204
19933.39806
22642.13592
25412.03883
28199.41748
31001.35922
33768.34951
36584.85437
39453.78641
42279.02913
44958.64078
47597.47573
50344.07767
53084.85437
55828.54369
58575.14563
61289.70874
63960.58252
66648.93204
69354.75728
72057.6699
74766.40777
77472.23301
80125.63107
82790.67961
93721.74757
96308.15534
99002.3301
101757.6699
104492.6214
107172.233
109878.0583
112615.9223
115310.0971
118001.3592
120704.2718
123407.1845
126075.1456
128667.3786
131408.1553
134204.2718
136886.7961
139580.9709
142272.233
144852.8155
147407.1845
150171.2621
153022.7184
155772.233
158451.8447
161131.4563
163779.0291
166414.9515
169135.3398
171951.8447
174823.6893
177637.2816
180348.932
183051.8447
185772.233
188495.534
191192.6214
193863.4951
196490.6796
199132.4272
201849.9029
204570.2913
207261.5534
209970.2913
212681.9417
215399.4175
218067.3786
220723.6893
223414.9515
226045.0485
228695.534
231372.233
234121.7476
236932.4272
239690.6796
242428.5437
245087.767
247773.2039
250473.2039
253053.7864
255745.0485
258590.6796
261375.1456
264078.0583
266734.3689
269262.5243
271848.932
274525.6311
277158.6408
279820.7767
282453.7864
285072.233
287725.6311
290338.2524
292956.699
295583.8835
298164.466
300745.0485
303380.9709
306019.8058
308492.6214
310950.8738
313543.1068
316161.5534
318797.4757
321427.5728
324028.5437
326635.3398
329271.2621
331971.2621
334688.7379
340225.6311
345576.1165
350903.301
356317.8641
361639.2233
364190.6796
369360.5825
374582.9126
379866.4078
384992.6214
390212.0388
395565.4369
406033.3981
411348.932
417226.6019
422670.2913
428076.1165
433534.3689
438852.8155
441549.9029
446923.6893
452236.3107
454895.534
464993.5922
470367.3786
475694.5631
481173.2039
498919.8058
504325.6311
509708.1553
515067.3786
520304.2718
525564.466
530780.9709
536017.8641
541205.2427
546500.3883
551775.1456
556959.6117
562333.3981
565001.3592
570445.0485
576051.8447
578818.835
584393.5922
589968.3495
592738.2524
598254.7573
603739.2233
606375.1456
611655.7282
616988.7379
619723.6893
625047.9612
630459.6117
633115.9223
638527.5728
644102.3301
646776.1165
652094.5631
657657.6699
660415.9223
665949.9029
671408.1553
676945.0485
682441.165
687791.6505
692961.5534
698245.0485
703461.5534
706211.068
711570.2913
716917.8641
719565.4369
724691.6505
729829.5146
735104.2718
740460.5825
745942.1359
748610.0971
753966.4078
759337.2816
764623.6893
769825.6311
775129.5146
780226.6019
785376.1165
790077.0874
795025.6311
799991.6505
805065.4369
810150.8738
815440.1942
820773.2039
826225.6311
831587.767
836690.6796
839312.0388
844394.5631
849634.3689
854842.1359
860073.2039
865091.6505
870279.0291
875428.5437
880610.0971
885646.0194
890813.0097
896009.1262
901231.4563
906555.7282
934455.7282
939587.767
944763.4951
949848.932
957328.5437
962600.3883
967846.0194
970525.6311
975826.6019
981174.1748
991365.4369
1010058.641
1012668.35
1017812.039
1023127.573
1028402.33
1033682.913
1038969.32
1044879.029
1053503.301
1061658.641
1069805.243
1077893.592
1086028.544
1091349.903
1099082.913
1104267.379
1111959.612
1120056.699
1127754.757
1135662.524
1143255.728
1151408.155
1159630.485
1167579.029
1175172.233
1182806.214
1190483.883
1198254.757
1205845.049
1210991.65
1218800.388
1226987.767
1235105.243
1243263.495
1251180
1258543.107
1266127.573
1273813.981
1281520.777
1289055.728
1297053.786
1302514.951
1310448.932
1315816.893
1323881.942
1329153.786
1336994.563
1342213.981
1350110.097
1355061.553
1362969.32
1368142.136
1377637.282
1382725.631
1390531.456
1398296.505
1405907.184
1411059.612
1418711.068
1426385.825
1434048.932
1441764.466
1449529.515
1454699.417
1462688.738
1467876.117
1475687.767
1480860.583
1488573.204
1496495.534
1504280.971
1512083.883
1519872.233
1527675.146
1535661.553
1543624.66
1551634.369
1559504.272
1567508.155
1575279.029
1583000.388
1590867.379
1598550.874
1606432.427
1614287.767
1622277.087
1630301.359
1638535.34
1646705.243
1654607.184
1662433.398
1670183.883
1677829.515
1683028.544
1691317.864
1699251.845
1707477.087
1712862.524
1720915.922
1726455.728
1734311.068
1739501.359
1747114.951
1754498.447
1762222.718
1769690.68
1777668.35
1780502.33
1788701.359
1794290.68
1802280
1810286.796
1817976.117
1825613.01
1833334.369
1838559.612
1846423.689
1851881.942
1859475.146
1864726.602
1872838.252
1881153.786
1889440.194
