 Name                 Group          Measured         Modelled         Residual         Weight       Weight*Measured    Weight*Modelled  Weight*Residual  Measurement_sd   Natural_weight
 p001                 obsgroup      2.3000000E-04    1.5300000E-04    7.7000000E-05     1.000000        2.3000000E-04    1.5300000E-04    7.7000000E-05    4.2677263E-04     2343.168    
 p002                 obsgroup      1.9000000E-04    1.6300000E-04    2.7000000E-05     1.000000        1.9000000E-04    1.6300000E-04    2.7000000E-05    4.2677263E-04     2343.168    
 p003                 obsgroup      1.5000000E-04    1.9100000E-04   -4.1000000E-05     1.000000        1.5000000E-04    1.9100000E-04   -4.1000000E-05    4.2677263E-04     2343.168    
 p004                 obsgroup      1.8000000E-04    3.5400000E-04   -1.7400000E-04     1.000000        1.8000000E-04    3.5400000E-04   -1.7400000E-04    4.2677263E-04     2343.168    
 p005                 obsgroup      1.6000000E-04    5.1600000E-04   -3.5600000E-04     1.000000        1.6000000E-04    5.1600000E-04   -3.5600000E-04    4.2677263E-04     2343.168    
 p006                 obsgroup      3.7000000E-04    7.3700000E-04   -3.6700000E-04     1.000000        3.7000000E-04    7.3700000E-04   -3.6700000E-04    4.2677263E-04     2343.168    
 p007                 obsgroup      4.3000000E-04    1.0130000E-03   -5.8300000E-04     1.000000        4.3000000E-04    1.0130000E-03   -5.8300000E-04    4.2677263E-04     2343.168    
 p008                 obsgroup      6.1000000E-04    1.3420000E-03   -7.3200000E-04     1.000000        6.1000000E-04    1.3420000E-03   -7.3200000E-04    4.2677263E-04     2343.168    
 p009                 obsgroup      8.1000000E-04    1.7140000E-03   -9.0400000E-04     1.000000        8.1000000E-04    1.7140000E-03   -9.0400000E-04    4.2677263E-04     2343.168    
 p010                 obsgroup      1.1900000E-03    2.1130000E-03   -9.2300000E-04     1.000000        1.1900000E-03    2.1130000E-03   -9.2300000E-04    4.2677263E-04     2343.168    
 p011                 obsgroup      1.6400000E-03    2.5330000E-03   -8.9300000E-04     1.000000        1.6400000E-03    2.5330000E-03   -8.9300000E-04    4.2677263E-04     2343.168    
 p012                 obsgroup      2.0200000E-03    2.9680000E-03   -9.4800000E-04     1.000000        2.0200000E-03    2.9680000E-03   -9.4800000E-04    4.2677263E-04     2343.168    
 p013                 obsgroup      2.6600000E-03    3.4110000E-03   -7.5100000E-04     1.000000        2.6600000E-03    3.4110000E-03   -7.5100000E-04    4.2677263E-04     2343.168    
 p014                 obsgroup      3.2400000E-03    3.8530000E-03   -6.1300000E-04     1.000000        3.2400000E-03    3.8530000E-03   -6.1300000E-04    4.2677263E-04     2343.168    
 p015                 obsgroup      3.7500000E-03    4.2860000E-03   -5.3600000E-04     1.000000        3.7500000E-03    4.2860000E-03   -5.3600000E-04    4.2677263E-04     2343.168    
 p016                 obsgroup      4.1300000E-03    4.7060000E-03   -5.7600000E-04     1.000000        4.1300000E-03    4.7060000E-03   -5.7600000E-04    4.2677263E-04     2343.168    
 p017                 obsgroup      4.8400000E-03    5.1170000E-03   -2.7700000E-04     1.000000        4.8400000E-03    5.1170000E-03   -2.7700000E-04    4.2677263E-04     2343.168    
 p018                 obsgroup      5.2800000E-03    5.4830000E-03   -2.0300000E-04     1.000000        5.2800000E-03    5.4830000E-03   -2.0300000E-04    4.2677263E-04     2343.168    
 p019                 obsgroup      5.6800000E-03    5.8450000E-03   -1.6500000E-04     1.000000        5.6800000E-03    5.8450000E-03   -1.6500000E-04    4.2677263E-04     2343.168    
 p020                 obsgroup      6.1300000E-03    6.1830000E-03   -5.3000000E-05     1.000000        6.1300000E-03    6.1830000E-03   -5.3000000E-05    4.2677263E-04     2343.168    
 p021                 obsgroup      6.5800000E-03    6.4920000E-03    8.8000000E-05     1.000000        6.5800000E-03    6.4920000E-03    8.8000000E-05    4.2677263E-04     2343.168    
 p022                 obsgroup      6.8500000E-03    6.7830000E-03    6.7000000E-05     1.000000        6.8500000E-03    6.7830000E-03    6.7000000E-05    4.2677263E-04     2343.168    
 p023                 obsgroup      7.5900000E-03    7.0400000E-03    5.5000000E-04     1.000000        7.5900000E-03    7.0400000E-03    5.5000000E-04    4.2677263E-04     2343.168    
 p024                 obsgroup      7.4900000E-03    7.2790000E-03    2.1100000E-04     1.000000        7.4900000E-03    7.2790000E-03    2.1100000E-04    4.2677263E-04     2343.168    
 p025                 obsgroup      8.1500000E-03    7.4910000E-03    6.5900000E-04     1.000000        8.1500000E-03    7.4910000E-03    6.5900000E-04    4.2677263E-04     2343.168    
 p026                 obsgroup      8.1800000E-03    7.6850000E-03    4.9500000E-04     1.000000        8.1800000E-03    7.6850000E-03    4.9500000E-04    4.2677263E-04     2343.168    
 p027                 obsgroup      8.5600000E-03    7.8550000E-03    7.0500000E-04     1.000000        8.5600000E-03    7.8550000E-03    7.0500000E-04    4.2677263E-04     2343.168    
 p028                 obsgroup      8.5600000E-03    8.0020000E-03    5.5800000E-04     1.000000        8.5600000E-03    8.0020000E-03    5.5800000E-04    4.2677263E-04     2343.168    
 p029                 obsgroup      8.3600000E-03    8.1900000E-03    1.7000000E-04     1.000000        8.3600000E-03    8.1900000E-03    1.7000000E-04    4.2677263E-04     2343.168    
 p030                 obsgroup      8.9700000E-03    8.4470000E-03    5.2300000E-04     1.000000        8.9700000E-03    8.4470000E-03    5.2300000E-04    4.2677263E-04     2343.168    
 p031                 obsgroup      9.1800000E-03    8.5240000E-03    6.5600000E-04     1.000000        9.1800000E-03    8.5240000E-03    6.5600000E-04    4.2677263E-04     2343.168    
 p032                 obsgroup      9.3800000E-03    8.5700000E-03    8.1000000E-04     1.000000        9.3800000E-03    8.5700000E-03    8.1000000E-04    4.2677263E-04     2343.168    
 p033                 obsgroup      9.3800000E-03    8.5880000E-03    7.9200000E-04     1.000000        9.3800000E-03    8.5880000E-03    7.9200000E-04    4.2677263E-04     2343.168    
 p034                 obsgroup      9.3800000E-03    8.5840000E-03    7.9600000E-04     1.000000        9.3800000E-03    8.5840000E-03    7.9600000E-04    4.2677263E-04     2343.168    
 p035                 obsgroup      9.1800000E-03    8.5570000E-03    6.2300000E-04     1.000000        9.1800000E-03    8.5570000E-03    6.2300000E-04    4.2677263E-04     2343.168    
 p036                 obsgroup      9.1800000E-03    8.5130000E-03    6.6700000E-04     1.000000        9.1800000E-03    8.5130000E-03    6.6700000E-04    4.2677263E-04     2343.168    
 p037                 obsgroup      9.0700000E-03    8.4520000E-03    6.1800000E-04     1.000000        9.0700000E-03    8.4520000E-03    6.1800000E-04    4.2677263E-04     2343.168    
 p038                 obsgroup      8.9700000E-03    8.3760000E-03    5.9400000E-04     1.000000        8.9700000E-03    8.3760000E-03    5.9400000E-04    4.2677263E-04     2343.168    
 p039                 obsgroup      8.7700000E-03    8.2880000E-03    4.8200000E-04     1.000000        8.7700000E-03    8.2880000E-03    4.8200000E-04    4.2677263E-04     2343.168    
 p040                 obsgroup      8.5200000E-03    8.1890000E-03    3.3100000E-04     1.000000        8.5200000E-03    8.1890000E-03    3.3100000E-04    4.2677263E-04     2343.168    
 p041                 obsgroup      8.3200000E-03    8.0810000E-03    2.3900000E-04     1.000000        8.3200000E-03    8.0810000E-03    2.3900000E-04    4.2677263E-04     2343.168    
 p042                 obsgroup      7.9500000E-03    7.9620000E-03   -1.2000000E-05     1.000000        7.9500000E-03    7.9620000E-03   -1.2000000E-05    4.2677263E-04     2343.168    
 p043                 obsgroup      7.7300000E-03    7.7090000E-03    2.1000000E-05     1.000000        7.7300000E-03    7.7090000E-03    2.1000000E-05    4.2677263E-04     2343.168    
 p044                 obsgroup      7.5100000E-03    7.5730000E-03   -6.3000000E-05     1.000000        7.5100000E-03    7.5730000E-03   -6.3000000E-05    4.2677263E-04     2343.168    
 p045                 obsgroup      7.0700000E-03    7.4340000E-03   -3.6400000E-04     1.000000        7.0700000E-03    7.4340000E-03   -3.6400000E-04    4.2677263E-04     2343.168    
 p046                 obsgroup      6.9800000E-03    7.2920000E-03   -3.1200000E-04     1.000000        6.9800000E-03    7.2920000E-03   -3.1200000E-04    4.2677263E-04     2343.168    
 p047                 obsgroup      6.8800000E-03    7.1480000E-03   -2.6800000E-04     1.000000        6.8800000E-03    7.1480000E-03   -2.6800000E-04    4.2677263E-04     2343.168    
 p048                 obsgroup      6.7600000E-03    7.0030000E-03   -2.4300000E-04     1.000000        6.7600000E-03    7.0030000E-03   -2.4300000E-04    4.2677263E-04     2343.168    
 p049                 obsgroup      6.4000000E-03    6.8600000E-03   -4.6000000E-04     1.000000        6.4000000E-03    6.8600000E-03   -4.6000000E-04    4.2677263E-04     2343.168    
 p050                 obsgroup      6.1400000E-03    6.7120000E-03   -5.7200000E-04     1.000000        6.1400000E-03    6.7120000E-03   -5.7200000E-04    4.2677263E-04     2343.168    
 p051                 obsgroup      6.1100000E-03    6.5660000E-03   -4.5600000E-04     1.000000        6.1100000E-03    6.5660000E-03   -4.5600000E-04    4.2677263E-04     2343.168    
 p052                 obsgroup      5.9100000E-03    6.4190000E-03   -5.0900000E-04     1.000000        5.9100000E-03    6.4190000E-03   -5.0900000E-04    4.2677263E-04     2343.168    
 p053                 obsgroup      5.7300000E-03    6.2760000E-03   -5.4600000E-04     1.000000        5.7300000E-03    6.2760000E-03   -5.4600000E-04    4.2677263E-04     2343.168    
 p054                 obsgroup      5.6000000E-03    6.1330000E-03   -5.3300000E-04     1.000000        5.6000000E-03    6.1330000E-03   -5.3300000E-04    4.2677263E-04     2343.168    
 p055                 obsgroup      5.3900000E-03    5.9890000E-03   -5.9900000E-04     1.000000        5.3900000E-03    5.9890000E-03   -5.9900000E-04    4.2677263E-04     2343.168    
 p056                 obsgroup      5.3600000E-03    5.8480000E-03   -4.8800000E-04     1.000000        5.3600000E-03    5.8480000E-03   -4.8800000E-04    4.2677263E-04     2343.168    
 p057                 obsgroup      5.1100000E-03    5.7080000E-03   -5.9800000E-04     1.000000        5.1100000E-03    5.7080000E-03   -5.9800000E-04    4.2677263E-04     2343.168    
 p058                 obsgroup      4.9200000E-03    5.5700000E-03   -6.5000000E-04     1.000000        4.9200000E-03    5.5700000E-03   -6.5000000E-04    4.2677263E-04     2343.168    
 p059                 obsgroup      4.8300000E-03    5.4340000E-03   -6.0400000E-04     1.000000        4.8300000E-03    5.4340000E-03   -6.0400000E-04    4.2677263E-04     2343.168    
 p060                 obsgroup      4.7800000E-03    5.2990000E-03   -5.1900000E-04     1.000000        4.7800000E-03    5.2990000E-03   -5.1900000E-04    4.2677263E-04     2343.168    
 p061                 obsgroup      4.3400000E-03    5.0440000E-03   -7.0400000E-04     1.000000        4.3400000E-03    5.0440000E-03   -7.0400000E-04    4.2677263E-04     2343.168    
 p062                 obsgroup      4.4000000E-03    4.9190000E-03   -5.1900000E-04     1.000000        4.4000000E-03    4.9190000E-03   -5.1900000E-04    4.2677263E-04     2343.168    
 p063                 obsgroup      4.2800000E-03    4.7980000E-03   -5.1800000E-04     1.000000        4.2800000E-03    4.7980000E-03   -5.1800000E-04    4.2677263E-04     2343.168    
 p064                 obsgroup      4.1700000E-03    4.6740000E-03   -5.0400000E-04     1.000000        4.1700000E-03    4.6740000E-03   -5.0400000E-04    4.2677263E-04     2343.168    
 p065                 obsgroup      3.9200000E-03    4.5540000E-03   -6.3400000E-04     1.000000        3.9200000E-03    4.5540000E-03   -6.3400000E-04    4.2677263E-04     2343.168    
 p066                 obsgroup      3.9300000E-03    4.4370000E-03   -5.0700000E-04     1.000000        3.9300000E-03    4.4370000E-03   -5.0700000E-04    4.2677263E-04     2343.168    
 p067                 obsgroup      3.8300000E-03    4.3220000E-03   -4.9200000E-04     1.000000        3.8300000E-03    4.3220000E-03   -4.9200000E-04    4.2677263E-04     2343.168    
 p068                 obsgroup      3.6600000E-03    4.2090000E-03   -5.4900000E-04     1.000000        3.6600000E-03    4.2090000E-03   -5.4900000E-04    4.2677263E-04     2343.168    
 p069                 obsgroup      3.5700000E-03    4.1000000E-03   -5.3000000E-04     1.000000        3.5700000E-03    4.1000000E-03   -5.3000000E-04    4.2677263E-04     2343.168    
 p070                 obsgroup      3.4500000E-03    3.9930000E-03   -5.4300000E-04     1.000000        3.4500000E-03    3.9930000E-03   -5.4300000E-04    4.2677263E-04     2343.168    
 p071                 obsgroup      3.5000000E-03    3.8870000E-03   -3.8700000E-04     1.000000        3.5000000E-03    3.8870000E-03   -3.8700000E-04    4.2677263E-04     2343.168    
 p072                 obsgroup      3.4400000E-03    3.7870000E-03   -3.4700000E-04     1.000000        3.4400000E-03    3.7870000E-03   -3.4700000E-04    4.2677263E-04     2343.168    
 p073                 obsgroup      3.2800000E-03    3.6870000E-03   -4.0700000E-04     1.000000        3.2800000E-03    3.6870000E-03   -4.0700000E-04    4.2677263E-04     2343.168    
 p074                 obsgroup      3.2000000E-03    3.5910000E-03   -3.9100000E-04     1.000000        3.2000000E-03    3.5910000E-03   -3.9100000E-04    4.2677263E-04     2343.168    
 p075                 obsgroup      3.2100000E-03    3.4990000E-03   -2.8900000E-04     1.000000        3.2100000E-03    3.4990000E-03   -2.8900000E-04    4.2677263E-04     2343.168    
 p076                 obsgroup      3.0000000E-03    3.4040000E-03   -4.0400000E-04     1.000000        3.0000000E-03    3.4040000E-03   -4.0400000E-04    4.2677263E-04     2343.168    
 p077                 obsgroup      2.9000000E-03    3.3160000E-03   -4.1600000E-04     1.000000        2.9000000E-03    3.3160000E-03   -4.1600000E-04    4.2677263E-04     2343.168    
 p078                 obsgroup      2.9800000E-03    3.2270000E-03   -2.4700000E-04     1.000000        2.9800000E-03    3.2270000E-03   -2.4700000E-04    4.2677263E-04     2343.168    
 p079                 obsgroup      2.8500000E-03    3.1400000E-03   -2.9000000E-04     1.000000        2.8500000E-03    3.1400000E-03   -2.9000000E-04    4.2677263E-04     2343.168    
 p080                 obsgroup      2.9100000E-03    3.0560000E-03   -1.4600000E-04     1.000000        2.9100000E-03    3.0560000E-03   -1.4600000E-04    4.2677263E-04     2343.168    
 p081                 obsgroup      2.8200000E-03    2.9740000E-03   -1.5400000E-04     1.000000        2.8200000E-03    2.9740000E-03   -1.5400000E-04    4.2677263E-04     2343.168    
 p082                 obsgroup      2.6800000E-03    2.8930000E-03   -2.1300000E-04     1.000000        2.6800000E-03    2.8930000E-03   -2.1300000E-04    4.2677263E-04     2343.168    
 p083                 obsgroup      2.6500000E-03    2.8160000E-03   -1.6600000E-04     1.000000        2.6500000E-03    2.8160000E-03   -1.6600000E-04    4.2677263E-04     2343.168    
 p084                 obsgroup      2.6500000E-03    2.7440000E-03   -9.4000000E-05     1.000000        2.6500000E-03    2.7440000E-03   -9.4000000E-05    4.2677263E-04     2343.168    
 p085                 obsgroup      2.5100000E-03    2.6700000E-03   -1.6000000E-04     1.000000        2.5100000E-03    2.6700000E-03   -1.6000000E-04    4.2677263E-04     2343.168    
 p086                 obsgroup      2.3700000E-03    2.4730000E-03   -1.0300000E-04     1.000000        2.3700000E-03    2.4730000E-03   -1.0300000E-04    4.2677263E-04     2343.168    
 p087                 obsgroup      2.4400000E-03    2.4060000E-03    3.4000000E-05     1.000000        2.4400000E-03    2.4060000E-03    3.4000000E-05    4.2677263E-04     2343.168    
 p088                 obsgroup      2.2400000E-03    2.3400000E-03   -1.0000000E-04     1.000000        2.2400000E-03    2.3400000E-03   -1.0000000E-04    4.2677263E-04     2343.168    
 p089                 obsgroup      2.2700000E-03    2.2760000E-03   -6.0000000E-06     1.000000        2.2700000E-03    2.2760000E-03   -6.0000000E-06    4.2677263E-04     2343.168    
 p090                 obsgroup      2.3100000E-03    2.2150000E-03    9.5000000E-05     1.000000        2.3100000E-03    2.2150000E-03    9.5000000E-05    4.2677263E-04     2343.168    
 p091                 obsgroup      2.1900000E-03    2.1580000E-03    3.2000000E-05     1.000000        2.1900000E-03    2.1580000E-03    3.2000000E-05    4.2677263E-04     2343.168    
 p092                 obsgroup      2.1900000E-03    2.0990000E-03    9.1000000E-05     1.000000        2.1900000E-03    2.0990000E-03    9.1000000E-05    4.2677263E-04     2343.168    
 p093                 obsgroup      2.0900000E-03    2.0430000E-03    4.7000000E-05     1.000000        2.0900000E-03    2.0430000E-03    4.7000000E-05    4.2677263E-04     2343.168    
 p094                 obsgroup      2.1200000E-03    1.9860000E-03    1.3400000E-04     1.000000        2.1200000E-03    1.9860000E-03    1.3400000E-04    4.2677263E-04     2343.168    
 p095                 obsgroup      2.0200000E-03    1.9320000E-03    8.8000000E-05     1.000000        2.0200000E-03    1.9320000E-03    8.8000000E-05    4.2677263E-04     2343.168    
 p096                 obsgroup      1.9700000E-03    1.8790000E-03    9.1000000E-05     1.000000        1.9700000E-03    1.8790000E-03    9.1000000E-05    4.2677263E-04     2343.168    
 p097                 obsgroup      2.0000000E-03    1.8280000E-03    1.7200000E-04     1.000000        2.0000000E-03    1.8280000E-03    1.7200000E-04    4.2677263E-04     2343.168    
 p098                 obsgroup      2.0000000E-03    1.7790000E-03    2.2100000E-04     1.000000        2.0000000E-03    1.7790000E-03    2.2100000E-04    4.2677263E-04     2343.168    
 p099                 obsgroup      1.9500000E-03    1.7460000E-03    2.0400000E-04     1.000000        1.9500000E-03    1.7460000E-03    2.0400000E-04    4.2677263E-04     2343.168    
 p100                 obsgroup      1.9700000E-03    1.6990000E-03    2.7100000E-04     1.000000        1.9700000E-03    1.6990000E-03    2.7100000E-04    4.2677263E-04     2343.168    
 p101                 obsgroup      1.9300000E-03    1.6540000E-03    2.7600000E-04     1.000000        1.9300000E-03    1.6540000E-03    2.7600000E-04    4.2677263E-04     2343.168    
 p102                 obsgroup      1.9400000E-03    1.6100000E-03    3.3000000E-04     1.000000        1.9400000E-03    1.6100000E-03    3.3000000E-04    4.2677263E-04     2343.168    
 p103                 obsgroup      1.9000000E-03    1.5680000E-03    3.3200000E-04     1.000000        1.9000000E-03    1.5680000E-03    3.3200000E-04    4.2677263E-04     2343.168    
 p104                 obsgroup      1.8700000E-03    1.4870000E-03    3.8300000E-04     1.000000        1.8700000E-03    1.4870000E-03    3.8300000E-04    4.2677263E-04     2343.168    
 p105                 obsgroup      1.7400000E-03    1.4470000E-03    2.9300000E-04     1.000000        1.7400000E-03    1.4470000E-03    2.9300000E-04    4.2677263E-04     2343.168    
 p106                 obsgroup      1.7600000E-03    1.4080000E-03    3.5200000E-04     1.000000        1.7600000E-03    1.4080000E-03    3.5200000E-04    4.2677263E-04     2343.168    
 p107                 obsgroup      1.7100000E-03    1.3710000E-03    3.3900000E-04     1.000000        1.7100000E-03    1.3710000E-03    3.3900000E-04    4.2677263E-04     2343.168    
 p108                 obsgroup      1.7300000E-03    1.3340000E-03    3.9600000E-04     1.000000        1.7300000E-03    1.3340000E-03    3.9600000E-04    4.2677263E-04     2343.168    
 p109                 obsgroup      1.7100000E-03    1.2980000E-03    4.1200000E-04     1.000000        1.7100000E-03    1.2980000E-03    4.1200000E-04    4.2677263E-04     2343.168    
 p110                 obsgroup      1.6700000E-03    1.2630000E-03    4.0700000E-04     1.000000        1.6700000E-03    1.2630000E-03    4.0700000E-04    4.2677263E-04     2343.168    
 p111                 obsgroup      1.5900000E-03    1.2300000E-03    3.6000000E-04     1.000000        1.5900000E-03    1.2300000E-03    3.6000000E-04    4.2677263E-04     2343.168    
 p112                 obsgroup      1.5900000E-03    1.1960000E-03    3.9400000E-04     1.000000        1.5900000E-03    1.1960000E-03    3.9400000E-04    4.2677263E-04     2343.168    
 p113                 obsgroup      1.5200000E-03    1.1650000E-03    3.5500000E-04     1.000000        1.5200000E-03    1.1650000E-03    3.5500000E-04    4.2677263E-04     2343.168    
 p114                 obsgroup      1.5600000E-03    1.1340000E-03    4.2600000E-04     1.000000        1.5600000E-03    1.1340000E-03    4.2600000E-04    4.2677263E-04     2343.168    
 p115                 obsgroup      1.5000000E-03    1.1030000E-03    3.9700000E-04     1.000000        1.5000000E-03    1.1030000E-03    3.9700000E-04    4.2677263E-04     2343.168    
 p116                 obsgroup      1.4700000E-03    1.0730000E-03    3.9700000E-04     1.000000        1.4700000E-03    1.0730000E-03    3.9700000E-04    4.2677263E-04     2343.168    
 p117                 obsgroup      1.4300000E-03    1.0170000E-03    4.1300000E-04     1.000000        1.4300000E-03    1.0170000E-03    4.1300000E-04    4.2677263E-04     2343.168    
 p118                 obsgroup      1.4300000E-03    9.6400000E-04    4.6600000E-04     1.000000        1.4300000E-03    9.6400000E-04    4.6600000E-04    4.2677263E-04     2343.168    
 p119                 obsgroup      1.3900000E-03    9.3900000E-04    4.5100000E-04     1.000000        1.3900000E-03    9.3900000E-04    4.5100000E-04    4.2677263E-04     2343.168    
 p120                 obsgroup      1.3500000E-03    9.1400000E-04    4.3600000E-04     1.000000        1.3500000E-03    9.1400000E-04    4.3600000E-04    4.2677263E-04     2343.168    
 p121                 obsgroup      1.3500000E-03    8.6700000E-04    4.8300000E-04     1.000000        1.3500000E-03    8.6700000E-04    4.8300000E-04    4.2677263E-04     2343.168    
 p122                 obsgroup      1.3500000E-03    8.4400000E-04    5.0600000E-04     1.000000        1.3500000E-03    8.4400000E-04    5.0600000E-04    4.2677263E-04     2343.168    
 p123                 obsgroup      1.3500000E-03    8.2100000E-04    5.2900000E-04     1.000000        1.3500000E-03    8.2100000E-04    5.2900000E-04    4.2677263E-04     2343.168    
 p124                 obsgroup      1.2900000E-03    7.9900000E-04    4.9100000E-04     1.000000        1.2900000E-03    7.9900000E-04    4.9100000E-04    4.2677263E-04     2343.168    
 p125                 obsgroup      1.3200000E-03    7.7800000E-04    5.4200000E-04     1.000000        1.3200000E-03    7.7800000E-04    5.4200000E-04    4.2677263E-04     2343.168    
 p126                 obsgroup      1.2600000E-03    7.5800000E-04    5.0200000E-04     1.000000        1.2600000E-03    7.5800000E-04    5.0200000E-04    4.2677263E-04     2343.168    
 p127                 obsgroup      1.2600000E-03    7.3700000E-04    5.2300000E-04     1.000000        1.2600000E-03    7.3700000E-04    5.2300000E-04    4.2677263E-04     2343.168    
 p128                 obsgroup      1.2400000E-03    7.1800000E-04    5.2200000E-04     1.000000        1.2400000E-03    7.1800000E-04    5.2200000E-04    4.2677263E-04     2343.168    
 p129                 obsgroup      1.1700000E-03    6.9900000E-04    4.7100000E-04     1.000000        1.1700000E-03    6.9900000E-04    4.7100000E-04    4.2677263E-04     2343.168    
 p130                 obsgroup      1.1800000E-03    6.8000000E-04    5.0000000E-04     1.000000        1.1800000E-03    6.8000000E-04    5.0000000E-04    4.2677263E-04     2343.168    
 p131                 obsgroup      1.1900000E-03    6.6200000E-04    5.2800000E-04     1.000000        1.1900000E-03    6.6200000E-04    5.2800000E-04    4.2677263E-04     2343.168    
 p132                 obsgroup      1.1500000E-03    6.4500000E-04    5.0500000E-04     1.000000        1.1500000E-03    6.4500000E-04    5.0500000E-04    4.2677263E-04     2343.168    
 p133                 obsgroup      1.1500000E-03    6.2800000E-04    5.2200000E-04     1.000000        1.1500000E-03    6.2800000E-04    5.2200000E-04    4.2677263E-04     2343.168    
 p134                 obsgroup      1.1800000E-03    6.1300000E-04    5.6700000E-04     1.000000        1.1800000E-03    6.1300000E-04    5.6700000E-04    4.2677263E-04     2343.168    
 p135                 obsgroup      1.1900000E-03    5.7800000E-04    6.1200000E-04     1.000000        1.1900000E-03    5.7800000E-04    6.1200000E-04    4.2677263E-04     2343.168    
 p136                 obsgroup      1.0900000E-03    5.6200000E-04    5.2800000E-04     1.000000        1.0900000E-03    5.6200000E-04    5.2800000E-04    4.2677263E-04     2343.168    
 p137                 obsgroup      1.0900000E-03    4.8100000E-04    6.0900000E-04     1.000000        1.0900000E-03    4.8100000E-04    6.0900000E-04    4.2677263E-04     2343.168    
 p138                 obsgroup      1.0200000E-03    4.2500000E-04    5.9500000E-04     1.000000        1.0200000E-03    4.2500000E-04    5.9500000E-04    4.2677263E-04     2343.168    
 p139                 obsgroup      1.0600000E-03    3.8700000E-04    6.7300000E-04     1.000000        1.0600000E-03    3.8700000E-04    6.7300000E-04    4.2677263E-04     2343.168    
 p140                 obsgroup      1.0100000E-03    3.7600000E-04    6.3400000E-04     1.000000        1.0100000E-03    3.7600000E-04    6.3400000E-04    4.2677263E-04     2343.168    
 p141                 obsgroup      1.0400000E-03    3.3200000E-04    7.0800000E-04     1.000000        1.0400000E-03    3.3200000E-04    7.0800000E-04    4.2677263E-04     2343.168    
 p142                 obsgroup      1.0300000E-03    3.2200000E-04    7.0800000E-04     1.000000        1.0300000E-03    3.2200000E-04    7.0800000E-04    4.2677263E-04     2343.168    
 p143                 obsgroup      1.0900000E-03    3.1200000E-04    7.7800000E-04     1.000000        1.0900000E-03    3.1200000E-04    7.7800000E-04    4.2677263E-04     2343.168    
 p144                 obsgroup      1.0400000E-03    3.0300000E-04    7.3700000E-04     1.000000        1.0400000E-03    3.0300000E-04    7.3700000E-04    4.2677263E-04     2343.168    
 p145                 obsgroup      1.0600000E-03    2.6900000E-04    7.9100000E-04     1.000000        1.0600000E-03    2.6900000E-04    7.9100000E-04    4.2677263E-04     2343.168    
 p146                 obsgroup      9.9000000E-04    2.6100000E-04    7.2900000E-04     1.000000        9.9000000E-04    2.6100000E-04    7.2900000E-04    4.2677263E-04     2343.168    
 p147                 obsgroup      1.0700000E-03    2.5300000E-04    8.1700000E-04     1.000000        1.0700000E-03    2.5300000E-04    8.1700000E-04    4.2677263E-04     2343.168    
 p148                 obsgroup      9.6000000E-04    2.3100000E-04    7.2900000E-04     1.000000        9.6000000E-04    2.3100000E-04    7.2900000E-04    4.2677263E-04     2343.168    
 p149                 obsgroup      8.4000000E-04    1.8100000E-04    6.5900000E-04     1.000000        8.4000000E-04    1.8100000E-04    6.5900000E-04    4.2677263E-04     2343.168    
 p150                 obsgroup      7.6000000E-04    1.4600000E-04    6.1400000E-04     1.000000        7.6000000E-04    1.4600000E-04    6.1400000E-04    4.2677263E-04     2343.168    
 p151                 obsgroup      7.8000000E-04    1.4200000E-04    6.3800000E-04     1.000000        7.8000000E-04    1.4200000E-04    6.3800000E-04    4.2677263E-04     2343.168    
 p152                 obsgroup      7.1000000E-04    1.3700000E-04    5.7300000E-04     1.000000        7.1000000E-04    1.3700000E-04    5.7300000E-04    4.2677263E-04     2343.168    
 p153                 obsgroup      7.0000000E-04    1.2900000E-04    5.7100000E-04     1.000000        7.0000000E-04    1.2900000E-04    5.7100000E-04    4.2677263E-04     2343.168    
 p154                 obsgroup      6.9000000E-04    1.2500000E-04    5.6500000E-04     1.000000        6.9000000E-04    1.2500000E-04    5.6500000E-04    4.2677263E-04     2343.168    
 p155                 obsgroup      6.3000000E-04    1.2200000E-04    5.0800000E-04     1.000000        6.3000000E-04    1.2200000E-04    5.0800000E-04    4.2677263E-04     2343.168    
 p156                 obsgroup      6.5000000E-04    1.1800000E-04    5.3200000E-04     1.000000        6.5000000E-04    1.1800000E-04    5.3200000E-04    4.2677263E-04     2343.168    
 p157                 obsgroup      6.5000000E-04    1.1500000E-04    5.3500000E-04     1.000000        6.5000000E-04    1.1500000E-04    5.3500000E-04    4.2677263E-04     2343.168    
 p158                 obsgroup      6.4000000E-04    1.1200000E-04    5.2800000E-04     1.000000        6.4000000E-04    1.1200000E-04    5.2800000E-04    4.2677263E-04     2343.168    
 p159                 obsgroup      6.1000000E-04    1.0900000E-04    5.0100000E-04     1.000000        6.1000000E-04    1.0900000E-04    5.0100000E-04    4.2677263E-04     2343.168    
 p160                 obsgroup      6.3000000E-04    1.0300000E-04    5.2700000E-04     1.000000        6.3000000E-04    1.0300000E-04    5.2700000E-04    4.2677263E-04     2343.168    
 p161                 obsgroup      6.2000000E-04    1.0000000E-04    5.2000000E-04     1.000000        6.2000000E-04    1.0000000E-04    5.2000000E-04    4.2677263E-04     2343.168    
 p162                 obsgroup      5.6000000E-04    9.5000000E-05    4.6500000E-04     1.000000        5.6000000E-04    9.5000000E-05    4.6500000E-04    4.2677263E-04     2343.168    
 p163                 obsgroup      6.0000000E-04    9.2000000E-05    5.0800000E-04     1.000000        6.0000000E-04    9.2000000E-05    5.0800000E-04    4.2677263E-04     2343.168    
 p164                 obsgroup      6.0000000E-04    9.0000000E-05    5.1000000E-04     1.000000        6.0000000E-04    9.0000000E-05    5.1000000E-04    4.2677263E-04     2343.168    
 p165                 obsgroup      5.6000000E-04    8.7000000E-05    4.7300000E-04     1.000000        5.6000000E-04    8.7000000E-05    4.7300000E-04    4.2677263E-04     2343.168    
 p166                 obsgroup      5.9000000E-04    8.5000000E-05    5.0500000E-04     1.000000        5.9000000E-04    8.5000000E-05    5.0500000E-04    4.2677263E-04     2343.168    
 p167                 obsgroup      5.6000000E-04    8.0000000E-05    4.8000000E-04     1.000000        5.6000000E-04    8.0000000E-05    4.8000000E-04    4.2677263E-04     2343.168    
 p168                 obsgroup      5.6000000E-04    7.8000000E-05    4.8200000E-04     1.000000        5.6000000E-04    7.8000000E-05    4.8200000E-04    4.2677263E-04     2343.168    
 p169                 obsgroup      5.5000000E-04    7.6000000E-05    4.7400000E-04     1.000000        5.5000000E-04    7.6000000E-05    4.7400000E-04    4.2677263E-04     2343.168    
 p170                 obsgroup      5.5000000E-04    7.4000000E-05    4.7600000E-04     1.000000        5.5000000E-04    7.4000000E-05    4.7600000E-04    4.2677263E-04     2343.168    
 p171                 obsgroup      5.2000000E-04    7.2000000E-05    4.4800000E-04     1.000000        5.2000000E-04    7.2000000E-05    4.4800000E-04    4.2677263E-04     2343.168    
 p172                 obsgroup      5.0000000E-04    7.0000000E-05    4.3000000E-04     1.000000        5.0000000E-04    7.0000000E-05    4.3000000E-04    4.2677263E-04     2343.168    
 p173                 obsgroup      5.0000000E-04    6.8000000E-05    4.3200000E-04     1.000000        5.0000000E-04    6.8000000E-05    4.3200000E-04    4.2677263E-04     2343.168    
 p174                 obsgroup      5.0000000E-04    6.6000000E-05    4.3400000E-04     1.000000        5.0000000E-04    6.6000000E-05    4.3400000E-04    4.2677263E-04     2343.168    
 p175                 obsgroup      5.2000000E-04    6.1000000E-05    4.5900000E-04     1.000000        5.2000000E-04    6.1000000E-05    4.5900000E-04    4.2677263E-04     2343.168    
 p176                 obsgroup      4.7000000E-04    5.9000000E-05    4.1100000E-04     1.000000        4.7000000E-04    5.9000000E-05    4.1100000E-04    4.2677263E-04     2343.168    
 p177                 obsgroup      4.6000000E-04    5.7000000E-05    4.0300000E-04     1.000000        4.6000000E-04    5.7000000E-05    4.0300000E-04    4.2677263E-04     2343.168    
 p178                 obsgroup      4.7000000E-04    5.6000000E-05    4.1400000E-04     1.000000        4.7000000E-04    5.6000000E-05    4.1400000E-04    4.2677263E-04     2343.168    
 p179                 obsgroup      4.5000000E-04    5.4000000E-05    3.9600000E-04     1.000000        4.5000000E-04    5.4000000E-05    3.9600000E-04    4.2677263E-04     2343.168    
 p180                 obsgroup      4.6000000E-04    5.3000000E-05    4.0700000E-04     1.000000        4.6000000E-04    5.3000000E-05    4.0700000E-04    4.2677263E-04     2343.168    
 p181                 obsgroup      4.4000000E-04    5.1000000E-05    3.8900000E-04     1.000000        4.4000000E-04    5.1000000E-05    3.8900000E-04    4.2677263E-04     2343.168    
 p182                 obsgroup      4.2000000E-04    5.0000000E-05    3.7000000E-04     1.000000        4.2000000E-04    5.0000000E-05    3.7000000E-04    4.2677263E-04     2343.168    
 p183                 obsgroup      4.5000000E-04    4.8000000E-05    4.0200000E-04     1.000000        4.5000000E-04    4.8000000E-05    4.0200000E-04    4.2677263E-04     2343.168    
 p184                 obsgroup      4.5000000E-04    4.6000000E-05    4.0400000E-04     1.000000        4.5000000E-04    4.6000000E-05    4.0400000E-04    4.2677263E-04     2343.168    
 p185                 obsgroup      3.8000000E-04    4.4000000E-05    3.3600000E-04     1.000000        3.8000000E-04    4.4000000E-05    3.3600000E-04    4.2677263E-04     2343.168    
 p186                 obsgroup      3.6000000E-04    4.3000000E-05    3.1700000E-04     1.000000        3.6000000E-04    4.3000000E-05    3.1700000E-04    4.2677263E-04     2343.168    
 p187                 obsgroup      4.0000000E-04    4.2000000E-05    3.5800000E-04     1.000000        4.0000000E-04    4.2000000E-05    3.5800000E-04    4.2677263E-04     2343.168    
 p188                 obsgroup      3.7000000E-04    4.1000000E-05    3.2900000E-04     1.000000        3.7000000E-04    4.1000000E-05    3.2900000E-04    4.2677263E-04     2343.168    
 p189                 obsgroup      3.7000000E-04    4.0000000E-05    3.3000000E-04     1.000000        3.7000000E-04    4.0000000E-05    3.3000000E-04    4.2677263E-04     2343.168    
 p190                 obsgroup      3.6000000E-04    3.9000000E-05    3.2100000E-04     1.000000        3.6000000E-04    3.9000000E-05    3.2100000E-04    4.2677263E-04     2343.168    
 p191                 obsgroup      3.7000000E-04    3.7000000E-05    3.3300000E-04     1.000000        3.7000000E-04    3.7000000E-05    3.3300000E-04    4.2677263E-04     2343.168    
 p192                 obsgroup      3.2000000E-04    3.6000000E-05    2.8400000E-04     1.000000        3.2000000E-04    3.6000000E-05    2.8400000E-04    4.2677263E-04     2343.168    
 p193                 obsgroup      3.3000000E-04    3.5000000E-05    2.9500000E-04     1.000000        3.3000000E-04    3.5000000E-05    2.9500000E-04    4.2677263E-04     2343.168    
 p194                 obsgroup      3.7000000E-04    3.4000000E-05    3.3600000E-04     1.000000        3.7000000E-04    3.4000000E-05    3.3600000E-04    4.2677263E-04     2343.168    
 p195                 obsgroup      2.9000000E-04    3.1000000E-05    2.5900000E-04     1.000000        2.9000000E-04    3.1000000E-05    2.5900000E-04    4.2677263E-04     2343.168    
 p196                 obsgroup      2.9000000E-04    3.1000000E-05    2.5900000E-04     1.000000        2.9000000E-04    3.1000000E-05    2.5900000E-04    4.2677263E-04     2343.168    
 p197                 obsgroup      2.8000000E-04    3.0000000E-05    2.5000000E-04     1.000000        2.8000000E-04    3.0000000E-05    2.5000000E-04    4.2677263E-04     2343.168    
 p198                 obsgroup      2.1000000E-04    2.9000000E-05    1.8100000E-04     1.000000        2.1000000E-04    2.9000000E-05    1.8100000E-04    4.2677263E-04     2343.168    
 p199                 obsgroup      2.8000000E-04    2.9000000E-05    2.5100000E-04     1.000000        2.8000000E-04    2.9000000E-05    2.5100000E-04    4.2677263E-04     2343.168    
 p200                 obsgroup      2.4000000E-04    2.7000000E-05    2.1300000E-04     1.000000        2.4000000E-04    2.7000000E-05    2.1300000E-04    4.2677263E-04     2343.168    
 p201                 obsgroup      2.4000000E-04    2.7000000E-05    2.1300000E-04     1.000000        2.4000000E-04    2.7000000E-05    2.1300000E-04    4.2677263E-04     2343.168    
 p202                 obsgroup      2.6000000E-04    2.5000000E-05    2.3500000E-04     1.000000        2.6000000E-04    2.5000000E-05    2.3500000E-04    4.2677263E-04     2343.168    
 p203                 obsgroup      2.7000000E-04    2.5000000E-05    2.4500000E-04     1.000000        2.7000000E-04    2.5000000E-05    2.4500000E-04    4.2677263E-04     2343.168    
 p204                 obsgroup      2.3000000E-04    2.4000000E-05    2.0600000E-04     1.000000        2.3000000E-04    2.4000000E-05    2.0600000E-04    4.2677263E-04     2343.168    
 p205                 obsgroup      1.9000000E-04    2.4000000E-05    1.6600000E-04     1.000000        1.9000000E-04    2.4000000E-05    1.6600000E-04    4.2677263E-04     2343.168    
 p206                 obsgroup      1.9000000E-04    2.3000000E-05    1.6700000E-04     1.000000        1.9000000E-04    2.3000000E-05    1.6700000E-04    4.2677263E-04     2343.168    
 p207                 obsgroup      2.6000000E-04    2.2000000E-05    2.3800000E-04     1.000000        2.6000000E-04    2.2000000E-05    2.3800000E-04    4.2677263E-04     2343.168    
 p208                 obsgroup      2.6000000E-04    2.2000000E-05    2.3800000E-04     1.000000        2.6000000E-04    2.2000000E-05    2.3800000E-04    4.2677263E-04     2343.168    
 p209                 obsgroup      2.8000000E-04    2.1000000E-05    2.5900000E-04     1.000000        2.8000000E-04    2.1000000E-05    2.5900000E-04    4.2677263E-04     2343.168    
 p210                 obsgroup      2.8000000E-04    2.1000000E-05    2.5900000E-04     1.000000        2.8000000E-04    2.1000000E-05    2.5900000E-04    4.2677263E-04     2343.168    
 p211                 obsgroup      3.0000000E-04    2.0000000E-05    2.8000000E-04     1.000000        3.0000000E-04    2.0000000E-05    2.8000000E-04    4.2677263E-04     2343.168    
 p212                 obsgroup      3.3000000E-04    2.0000000E-05    3.1000000E-04     1.000000        3.3000000E-04    2.0000000E-05    3.1000000E-04    4.2677263E-04     2343.168    
 p213                 obsgroup      2.4000000E-04    1.9000000E-05    2.2100000E-04     1.000000        2.4000000E-04    1.9000000E-05    2.2100000E-04    4.2677263E-04     2343.168    
 p214                 obsgroup      3.1000000E-04    1.8000000E-05    2.9200000E-04     1.000000        3.1000000E-04    1.8000000E-05    2.9200000E-04    4.2677263E-04     2343.168    
 p215                 obsgroup      3.4000000E-04    1.8000000E-05    3.2200000E-04     1.000000        3.4000000E-04    1.8000000E-05    3.2200000E-04    4.2677263E-04     2343.168    
 p216                 obsgroup      2.6000000E-04    1.7000000E-05    2.4300000E-04     1.000000        2.6000000E-04    1.7000000E-05    2.4300000E-04    4.2677263E-04     2343.168    
 p217                 obsgroup      2.2000000E-04    1.7000000E-05    2.0300000E-04     1.000000        2.2000000E-04    1.7000000E-05    2.0300000E-04    4.2677263E-04     2343.168    
 p218                 obsgroup      2.7000000E-04    1.6000000E-05    2.5400000E-04     1.000000        2.7000000E-04    1.6000000E-05    2.5400000E-04    4.2677263E-04     2343.168    
 p219                 obsgroup      3.2000000E-04    1.6000000E-05    3.0400000E-04     1.000000        3.2000000E-04    1.6000000E-05    3.0400000E-04    4.2677263E-04     2343.168    
 p220                 obsgroup      2.7800000E-04    1.6000000E-05    2.6200000E-04     1.000000        2.7800000E-04    1.6000000E-05    2.6200000E-04    4.2677263E-04     2343.168    
 p221                 obsgroup      2.4700000E-04    1.5000000E-05    2.3200000E-04     1.000000        2.4700000E-04    1.5000000E-05    2.3200000E-04    4.2677263E-04     2343.168    
 p222                 obsgroup      1.9600000E-04    1.5000000E-05    1.8100000E-04     1.000000        1.9600000E-04    1.5000000E-05    1.8100000E-04    4.2677263E-04     2343.168    
 p223                 obsgroup      1.6500000E-04    1.4000000E-05    1.5100000E-04     1.000000        1.6500000E-04    1.4000000E-05    1.5100000E-04    4.2677263E-04     2343.168    
 p224                 obsgroup      2.2700000E-04    1.4000000E-05    2.1300000E-04     1.000000        2.2700000E-04    1.4000000E-05    2.1300000E-04    4.2677263E-04     2343.168    
 p225                 obsgroup      1.9600000E-04    1.4000000E-05    1.8200000E-04     1.000000        1.9600000E-04    1.4000000E-05    1.8200000E-04    4.2677263E-04     2343.168    
 p226                 obsgroup      1.6500000E-04    1.3000000E-05    1.5200000E-04     1.000000        1.6500000E-04    1.3000000E-05    1.5200000E-04    4.2677263E-04     2343.168    
 p227                 obsgroup      2.0600000E-04    1.3000000E-05    1.9300000E-04     1.000000        2.0600000E-04    1.3000000E-05    1.9300000E-04    4.2677263E-04     2343.168    
 p228                 obsgroup      3.9100000E-04    1.3000000E-05    3.7800000E-04     1.000000        3.9100000E-04    1.3000000E-05    3.7800000E-04    4.2677263E-04     2343.168    
 p229                 obsgroup      1.7500000E-04    1.3000000E-05    1.6200000E-04     1.000000        1.7500000E-04    1.3000000E-05    1.6200000E-04    4.2677263E-04     2343.168    
 p230                 obsgroup      1.2400000E-04    1.2000000E-05    1.1200000E-04     1.000000        1.2400000E-04    1.2000000E-05    1.1200000E-04    4.2677263E-04     2343.168    
 p231                 obsgroup      1.4400000E-04    1.2000000E-05    1.3200000E-04     1.000000        1.4400000E-04    1.2000000E-05    1.3200000E-04    4.2677263E-04     2343.168    
 p232                 obsgroup      2.7800000E-04    1.2000000E-05    2.6600000E-04     1.000000        2.7800000E-04    1.2000000E-05    2.6600000E-04    4.2677263E-04     2343.168    
 p233                 obsgroup      1.4400000E-04    1.1000000E-05    1.3300000E-04     1.000000        1.4400000E-04    1.1000000E-05    1.3300000E-04    4.2677263E-04     2343.168    
 p234                 obsgroup      1.6500000E-04    1.1000000E-05    1.5400000E-04     1.000000        1.6500000E-04    1.1000000E-05    1.5400000E-04    4.2677263E-04     2343.168    
 p235                 obsgroup      8.2000000E-05    1.1000000E-05    7.1000000E-05     1.000000        8.2000000E-05    1.1000000E-05    7.1000000E-05    4.2677263E-04     2343.168    
 p236                 obsgroup      8.2000000E-05    1.1000000E-05    7.1000000E-05     1.000000        8.2000000E-05    1.1000000E-05    7.1000000E-05    4.2677263E-04     2343.168    
 p237                 obsgroup      1.4400000E-04    1.0000000E-05    1.3400000E-04     1.000000        1.4400000E-04    1.0000000E-05    1.3400000E-04    4.2677263E-04     2343.168    
 p238                 obsgroup      8.2000000E-05    1.0000000E-05    7.2000000E-05     1.000000        8.2000000E-05    1.0000000E-05    7.2000000E-05    4.2677263E-04     2343.168    
 p239                 obsgroup      8.2000000E-05    1.0000000E-05    7.2000000E-05     1.000000        8.2000000E-05    1.0000000E-05    7.2000000E-05    4.2677263E-04     2343.168    
 p240                 obsgroup      5.2000000E-05    1.0000000E-05    4.2000000E-05     1.000000        5.2000000E-05    1.0000000E-05    4.2000000E-05    4.2677263E-04     2343.168    
 p241                 obsgroup      1.1300000E-04    9.0000000E-06    1.0400000E-04     1.000000        1.1300000E-04    9.0000000E-06    1.0400000E-04    4.2677263E-04     2343.168    
 p242                 obsgroup      2.1000000E-05    9.0000000E-06    1.2000000E-05     1.000000        2.1000000E-05    9.0000000E-06    1.2000000E-05    4.2677263E-04     2343.168    
 p243                 obsgroup      1.0300000E-04    9.0000000E-06    9.4000000E-05     1.000000        1.0300000E-04    9.0000000E-06    9.4000000E-05    4.2677263E-04     2343.168    
 p244                 obsgroup      9.3000000E-05    9.0000000E-06    8.4000000E-05     1.000000        9.3000000E-05    9.0000000E-06    8.4000000E-05    4.2677263E-04     2343.168    
 p245                 obsgroup      2.1000000E-05    9.0000000E-06    1.2000000E-05     1.000000        2.1000000E-05    9.0000000E-06    1.2000000E-05    4.2677263E-04     2343.168    
 p246                 obsgroup      5.2000000E-05    8.0000000E-06    4.4000000E-05     1.000000        5.2000000E-05    8.0000000E-06    4.4000000E-05    4.2677263E-04     2343.168    
 p247                 obsgroup      3.1000000E-05    8.0000000E-06    2.3000000E-05     1.000000        3.1000000E-05    8.0000000E-06    2.3000000E-05    4.2677263E-04     2343.168    
 p248                 obsgroup      4.1000000E-05    8.0000000E-06    3.3000000E-05     1.000000        4.1000000E-05    8.0000000E-06    3.3000000E-05    4.2677263E-04     2343.168    
 p249                 obsgroup      4.1000000E-05    8.0000000E-06    3.3000000E-05     1.000000        4.1000000E-05    8.0000000E-06    3.3000000E-05    4.2677263E-04     2343.168    
 p250                 obsgroup       0.000000        7.0000000E-06   -7.0000000E-06     1.000000         0.000000        7.0000000E-06   -7.0000000E-06    4.2677263E-04     2343.168    
 p251                 obsgroup      5.2000000E-05    7.0000000E-06    4.5000000E-05     1.000000        5.2000000E-05    7.0000000E-06    4.5000000E-05    4.2677263E-04     2343.168    
 p252                 obsgroup      3.1000000E-05    7.0000000E-06    2.4000000E-05     1.000000        3.1000000E-05    7.0000000E-06    2.4000000E-05    4.2677263E-04     2343.168    
 p253                 obsgroup      6.2000000E-05    7.0000000E-06    5.5000000E-05     1.000000        6.2000000E-05    7.0000000E-06    5.5000000E-05    4.2677263E-04     2343.168    
 p254                 obsgroup      2.1000000E-05    7.0000000E-06    1.4000000E-05     1.000000        2.1000000E-05    7.0000000E-06    1.4000000E-05    4.2677263E-04     2343.168    
 p255                 obsgroup      1.0000000E-05    7.0000000E-06    3.0000000E-06     1.000000        1.0000000E-05    7.0000000E-06    3.0000000E-06    4.2677263E-04     2343.168    
 p256                 obsgroup      7.2000000E-05    6.0000000E-06    6.6000000E-05     1.000000        7.2000000E-05    6.0000000E-06    6.6000000E-05    4.2677263E-04     2343.168    
 p257                 obsgroup      8.2000000E-05    6.0000000E-06    7.6000000E-05     1.000000        8.2000000E-05    6.0000000E-06    7.6000000E-05    4.2677263E-04     2343.168    
 p258                 obsgroup      3.1000000E-05    6.0000000E-06    2.5000000E-05     1.000000        3.1000000E-05    6.0000000E-06    2.5000000E-05    4.2677263E-04     2343.168    
 p259                 obsgroup      6.2000000E-05    6.0000000E-06    5.6000000E-05     1.000000        6.2000000E-05    6.0000000E-06    5.6000000E-05    4.2677263E-04     2343.168    
