 Name                 Group          Measured         Modelled         Residual         Weight       Weight*Measured    Weight*Modelled  Weight*Residual  Measurement_sd   Natural_weight
 p001                 obsgroup      5.4380000E-04    5.0000000E-04    4.3800000E-05     1.000000        5.4380000E-04    5.0000000E-04    4.3800000E-05    1.1469699E-03     871.8625    
 p002                 obsgroup      6.0250000E-04    5.0000000E-04    1.0250000E-04     1.000000        6.0250000E-04    5.0000000E-04    1.0250000E-04    1.1469699E-03     871.8625    
 p003                 obsgroup      5.5830000E-04    5.0000000E-04    5.8300000E-05     1.000000        5.5830000E-04    5.0000000E-04    5.8300000E-05    1.1469699E-03     871.8625    
 p004                 obsgroup      5.0370000E-04    5.0000000E-04    3.7000000E-06     1.000000        5.0370000E-04    5.0000000E-04    3.7000000E-06    1.1469699E-03     871.8625    
 p005                 obsgroup      5.4900000E-04    5.0000000E-04    4.9000000E-05     1.000000        5.4900000E-04    5.0000000E-04    4.9000000E-05    1.1469699E-03     871.8625    
 p006                 obsgroup      5.2530000E-04    5.0000000E-04    2.5300000E-05     1.000000        5.2530000E-04    5.0000000E-04    2.5300000E-05    1.1469699E-03     871.8625    
 p007                 obsgroup      5.4690000E-04    5.0000000E-04    4.6900000E-05     1.000000        5.4690000E-04    5.0000000E-04    4.6900000E-05    1.1469699E-03     871.8625    
 p008                 obsgroup      4.9750000E-04    5.0000000E-04   -2.5000000E-06     1.000000        4.9750000E-04    5.0000000E-04   -2.5000000E-06    1.1469699E-03     871.8625    
 p009                 obsgroup      4.9130000E-04    5.0000000E-04   -8.7000000E-06     1.000000        4.9130000E-04    5.0000000E-04   -8.7000000E-06    1.1469699E-03     871.8625    
 p010                 obsgroup      5.2120000E-04    5.0000000E-04    2.1200000E-05     1.000000        5.2120000E-04    5.0000000E-04    2.1200000E-05    1.1469699E-03     871.8625    
 p011                 obsgroup      5.2220000E-04    5.0000000E-04    2.2200000E-05     1.000000        5.2220000E-04    5.0000000E-04    2.2200000E-05    1.1469699E-03     871.8625    
 p012                 obsgroup      5.4490000E-04    5.0000000E-04    4.4900000E-05     1.000000        5.4490000E-04    5.0000000E-04    4.4900000E-05    1.1469699E-03     871.8625    
 p013                 obsgroup      5.2940000E-04    5.0000000E-04    2.9400000E-05     1.000000        5.2940000E-04    5.0000000E-04    2.9400000E-05    1.1469699E-03     871.8625    
 p014                 obsgroup      5.1810000E-04    5.0000000E-04    1.8100000E-05     1.000000        5.1810000E-04    5.0000000E-04    1.8100000E-05    1.1469699E-03     871.8625    
 p015                 obsgroup      4.9750000E-04    5.0000000E-04   -2.5000000E-06     1.000000        4.9750000E-04    5.0000000E-04   -2.5000000E-06    1.1469699E-03     871.8625    
 p016                 obsgroup      5.7580000E-04    5.0000000E-04    7.5800000E-05     1.000000        5.7580000E-04    5.0000000E-04    7.5800000E-05    1.1469699E-03     871.8625    
 p017                 obsgroup      5.1090000E-04    5.0000000E-04    1.0900000E-05     1.000000        5.1090000E-04    5.0000000E-04    1.0900000E-05    1.1469699E-03     871.8625    
 p018                 obsgroup      4.9950000E-04    5.0000000E-04   -5.0000000E-07     1.000000        4.9950000E-04    5.0000000E-04   -5.0000000E-07    1.1469699E-03     871.8625    
 p019                 obsgroup      5.2430000E-04    5.0100000E-04    2.3300000E-05     1.000000        5.2430000E-04    5.0100000E-04    2.3300000E-05    1.1469699E-03     871.8625    
 p020                 obsgroup      4.1510000E-04    5.0100000E-04   -8.5900000E-05     1.000000        4.1510000E-04    5.0100000E-04   -8.5900000E-05    1.1469699E-03     871.8625    
 p021                 obsgroup      5.3150000E-04    5.0300000E-04    2.8500000E-05     1.000000        5.3150000E-04    5.0300000E-04    2.8500000E-05    1.1469699E-03     871.8625    
 p022                 obsgroup      5.5310000E-04    5.0500000E-04    4.8100000E-05     1.000000        5.5310000E-04    5.0500000E-04    4.8100000E-05    1.1469699E-03     871.8625    
 p023                 obsgroup      5.4490000E-04    5.0800000E-04    3.6900000E-05     1.000000        5.4490000E-04    5.0800000E-04    3.6900000E-05    1.1469699E-03     871.8625    
 p024                 obsgroup      5.4690000E-04    5.1300000E-04    3.3900000E-05     1.000000        5.4690000E-04    5.1300000E-04    3.3900000E-05    1.1469699E-03     871.8625    
 p025                 obsgroup      5.4590000E-04    5.2100000E-04    2.4900000E-05     1.000000        5.4590000E-04    5.2100000E-04    2.4900000E-05    1.1469699E-03     871.8625    
 p026                 obsgroup      6.0670000E-04    5.3100000E-04    7.5700000E-05     1.000000        6.0670000E-04    5.3100000E-04    7.5700000E-05    1.1469699E-03     871.8625    
 p027                 obsgroup      5.9640000E-04    5.4500000E-04    5.1400000E-05     1.000000        5.9640000E-04    5.4500000E-04    5.1400000E-05    1.1469699E-03     871.8625    
 p028                 obsgroup      6.0670000E-04    5.6500000E-04    4.1700000E-05     1.000000        6.0670000E-04    5.6500000E-04    4.1700000E-05    1.1469699E-03     871.8625    
 p029                 obsgroup      6.1490000E-04    5.9100000E-04    2.3900000E-05     1.000000        6.1490000E-04    5.9100000E-04    2.3900000E-05    1.1469699E-03     871.8625    
 p030                 obsgroup      6.8390000E-04    6.2400000E-04    5.9900000E-05     1.000000        6.8390000E-04    6.2400000E-04    5.9900000E-05    1.1469699E-03     871.8625    
 p031                 obsgroup      7.0860000E-04    6.6600000E-04    4.2600000E-05     1.000000        7.0860000E-04    6.6600000E-04    4.2600000E-05    1.1469699E-03     871.8625    
 p032                 obsgroup      7.4880000E-04    7.2000000E-04    2.8800000E-05     1.000000        7.4880000E-04    7.2000000E-04    2.8800000E-05    1.1469699E-03     871.8625    
 p033                 obsgroup      8.6730000E-04    7.8400000E-04    8.3300000E-05     1.000000        8.6730000E-04    7.8400000E-04    8.3300000E-05    1.1469699E-03     871.8625    
 p034                 obsgroup      8.7140000E-04    8.6000000E-04    1.1400000E-05     1.000000        8.7140000E-04    8.6000000E-04    1.1400000E-05    1.1469699E-03     871.8625    
 p035                 obsgroup      9.9500000E-04    9.5300000E-04    4.2000000E-05     1.000000        9.9500000E-04    9.5300000E-04    4.2000000E-05    1.1469699E-03     871.8625    
 p036                 obsgroup      1.0300000E-03    1.0610000E-03   -3.1000000E-05     1.000000        1.0300000E-03    1.0610000E-03   -3.1000000E-05    1.1469699E-03     871.8625    
 p037                 obsgroup      1.2051000E-03    1.1890000E-03    1.6100000E-05     1.000000        1.2051000E-03    1.1890000E-03    1.6100000E-05    1.1469699E-03     871.8625    
 p038                 obsgroup      1.4111000E-03    1.3360000E-03    7.5100000E-05     1.000000        1.4111000E-03    1.3360000E-03    7.5100000E-05    1.1469699E-03     871.8625    
 p039                 obsgroup      1.5656000E-03    1.5020000E-03    6.3600000E-05     1.000000        1.5656000E-03    1.5020000E-03    6.3600000E-05    1.1469699E-03     871.8625    
 p040                 obsgroup      1.7201000E-03    1.6930000E-03    2.7100000E-05     1.000000        1.7201000E-03    1.6930000E-03    2.7100000E-05    1.1469699E-03     871.8625    
 p041                 obsgroup      1.9261000E-03    1.9060000E-03    2.0100000E-05     1.000000        1.9261000E-03    1.9060000E-03    2.0100000E-05    1.1469699E-03     871.8625    
 p042                 obsgroup      2.2557000E-03    2.1440000E-03    1.1170000E-04     1.000000        2.2557000E-03    2.1440000E-03    1.1170000E-04    1.1469699E-03     871.8625    
 p043                 obsgroup      2.5029000E-03    2.4040000E-03    9.8900000E-05     1.000000        2.5029000E-03    2.4040000E-03    9.8900000E-05    1.1469699E-03     871.8625    
 p044                 obsgroup      2.8428000E-03    2.6880000E-03    1.5480000E-04     1.000000        2.8428000E-03    2.6880000E-03    1.5480000E-04    1.1469699E-03     871.8625    
 p045                 obsgroup      3.0797000E-03    2.9990000E-03    8.0700000E-05     1.000000        3.0797000E-03    2.9990000E-03    8.0700000E-05    1.1469699E-03     871.8625    
 p046                 obsgroup      3.5123000E-03    3.3370000E-03    1.7530000E-04     1.000000        3.5123000E-03    3.3370000E-03    1.7530000E-04    1.1469699E-03     871.8625    
 p047                 obsgroup      3.7286000E-03    3.7050000E-03    2.3600000E-05     1.000000        3.7286000E-03    3.7050000E-03    2.3600000E-05    1.1469699E-03     871.8625    
 p048                 obsgroup      4.2333000E-03    4.0930000E-03    1.4030000E-04     1.000000        4.2333000E-03    4.0930000E-03    1.4030000E-04    1.1469699E-03     871.8625    
 p049                 obsgroup      4.7174000E-03    4.5050000E-03    2.1240000E-04     1.000000        4.7174000E-03    4.5050000E-03    2.1240000E-04    1.1469699E-03     871.8625    
 p050                 obsgroup      4.9543000E-03    4.9530000E-03    1.3000000E-06     1.000000        4.9543000E-03    4.9530000E-03    1.3000000E-06    1.1469699E-03     871.8625    
 p051                 obsgroup      5.5414000E-03    5.4310000E-03    1.1040000E-04     1.000000        5.5414000E-03    5.4310000E-03    1.1040000E-04    1.1469699E-03     871.8625    
 p052                 obsgroup      5.8195000E-03    5.9380000E-03   -1.1850000E-04     1.000000        5.8195000E-03    5.9380000E-03   -1.1850000E-04    1.1469699E-03     871.8625    
 p053                 obsgroup      6.5817000E-03    6.4680000E-03    1.1370000E-04     1.000000        6.5817000E-03    6.4680000E-03    1.1370000E-04    1.1469699E-03     871.8625    
 p054                 obsgroup      7.2718000E-03    7.0140000E-03    2.5780000E-04     1.000000        7.2718000E-03    7.0140000E-03    2.5780000E-04    1.1469699E-03     871.8625    
 p055                 obsgroup      7.4469000E-03    7.5840000E-03   -1.3710000E-04     1.000000        7.4469000E-03    7.5840000E-03   -1.3710000E-04    1.1469699E-03     871.8625    
 p056                 obsgroup      8.2915000E-03    8.1840000E-03    1.0750000E-04     1.000000        8.2915000E-03    8.1840000E-03    1.0750000E-04    1.1469699E-03     871.8625    
 p057                 obsgroup      8.9507000E-03    8.8050000E-03    1.4570000E-04     1.000000        8.9507000E-03    8.8050000E-03    1.4570000E-04    1.1469699E-03     871.8625    
 p058                 obsgroup      9.0434000E-03    9.4480000E-03   -4.0460000E-04     1.000000        9.0434000E-03    9.4480000E-03   -4.0460000E-04    1.1469699E-03     871.8625    
 p059                 obsgroup      9.6305000E-03    1.0119000E-02   -4.8850000E-04     1.000000        9.6305000E-03    1.0119000E-02   -4.8850000E-04    1.1469699E-03     871.8625    
 p060                 obsgroup      1.0609000E-02    1.0802000E-02   -1.9300000E-04     1.000000        1.0609000E-02    1.0802000E-02   -1.9300000E-04    1.1469699E-03     871.8625    
 p061                 obsgroup      1.1433000E-02    1.1495000E-02   -6.2000000E-05     1.000000        1.1433000E-02    1.1495000E-02   -6.2000000E-05    1.1469699E-03     871.8625    
 p062                 obsgroup      1.2257000E-02    1.2215000E-02    4.2000000E-05     1.000000        1.2257000E-02    1.2215000E-02    4.2000000E-05    1.1469699E-03     871.8625    
 p063                 obsgroup      1.2772000E-02    1.2957000E-02   -1.8500000E-04     1.000000        1.2772000E-02    1.2957000E-02   -1.8500000E-04    1.1469699E-03     871.8625    
 p064                 obsgroup      1.2875000E-02    1.3712000E-02   -8.3700000E-04     1.000000        1.2875000E-02    1.3712000E-02   -8.3700000E-04    1.1469699E-03     871.8625    
 p065                 obsgroup      1.4214000E-02    1.4478000E-02   -2.6400000E-04     1.000000        1.4214000E-02    1.4478000E-02   -2.6400000E-04    1.1469699E-03     871.8625    
 p066                 obsgroup      1.6583000E-02    1.6858000E-02   -2.7500000E-04     1.000000        1.6583000E-02    1.6858000E-02   -2.7500000E-04    1.1469699E-03     871.8625    
 p067                 obsgroup      2.1321000E-02    2.1850000E-02   -5.2900000E-04     1.000000        2.1321000E-02    2.1850000E-02   -5.2900000E-04    1.1469699E-03     871.8625    
 p068                 obsgroup      2.3484000E-02    2.4443000E-02   -9.5900000E-04     1.000000        2.3484000E-02    2.4443000E-02   -9.5900000E-04    1.1469699E-03     871.8625    
 p069                 obsgroup      2.7295000E-02    2.7025000E-02    2.7000000E-04     1.000000        2.7295000E-02    2.7025000E-02    2.7000000E-04    1.1469699E-03     871.8625    
 p070                 obsgroup      3.0179000E-02    2.9643000E-02    5.3600000E-04     1.000000        3.0179000E-02    2.9643000E-02    5.3600000E-04    1.1469699E-03     871.8625    
 p071                 obsgroup      3.1209000E-02    3.2219000E-02   -1.0100000E-03     1.000000        3.1209000E-02    3.2219000E-02   -1.0100000E-03    1.1469699E-03     871.8625    
 p072                 obsgroup      3.3475000E-02    3.4746000E-02   -1.2710000E-03     1.000000        3.3475000E-02    3.4746000E-02   -1.2710000E-03    1.1469699E-03     871.8625    
 p073                 obsgroup      3.6153000E-02    3.7253000E-02   -1.1000000E-03     1.000000        3.6153000E-02    3.7253000E-02   -1.1000000E-03    1.1469699E-03     871.8625    
 p074                 obsgroup      4.0273000E-02    3.9687000E-02    5.8600000E-04     1.000000        4.0273000E-02    3.9687000E-02    5.8600000E-04    1.1469699E-03     871.8625    
 p075                 obsgroup      4.2333000E-02    4.2051000E-02    2.8200000E-04     1.000000        4.2333000E-02    4.2051000E-02    2.8200000E-04    1.1469699E-03     871.8625    
 p076                 obsgroup      4.3466000E-02    4.4390000E-02   -9.2400000E-04     1.000000        4.3466000E-02    4.4390000E-02   -9.2400000E-04    1.1469699E-03     871.8625    
 p077                 obsgroup      4.9131000E-02    4.8764000E-02    3.6700000E-04     1.000000        4.9131000E-02    4.8764000E-02    3.6700000E-04    1.1469699E-03     871.8625    
 p078                 obsgroup      5.2839000E-02    5.3160000E-02   -3.2100000E-04     1.000000        5.2839000E-02    5.3160000E-02   -3.2100000E-04    1.1469699E-03     871.8625    
 p079                 obsgroup      5.4796000E-02    5.5111000E-02   -3.1500000E-04     1.000000        5.4796000E-02    5.5111000E-02   -3.1500000E-04    1.1469699E-03     871.8625    
 p080                 obsgroup      5.5105000E-02    5.6989000E-02   -1.8840000E-03     1.000000        5.5105000E-02    5.6989000E-02   -1.8840000E-03    1.1469699E-03     871.8625    
 p081                 obsgroup      5.9122000E-02    5.8724000E-02    3.9800000E-04     1.000000        5.9122000E-02    5.8724000E-02    3.9800000E-04    1.1469699E-03     871.8625    
 p082                 obsgroup      6.1697000E-02    6.0436000E-02    1.2610000E-03     1.000000        6.1697000E-02    6.0436000E-02    1.2610000E-03    1.1469699E-03     871.8625    
 p083                 obsgroup      6.1903000E-02    6.2105000E-02   -2.0200000E-04     1.000000        6.1903000E-02    6.2105000E-02   -2.0200000E-04    1.1469699E-03     871.8625    
 p084                 obsgroup      6.5508000E-02    6.3685000E-02    1.8230000E-03     1.000000        6.5508000E-02    6.3685000E-02    1.8230000E-03    1.1469699E-03     871.8625    
 p085                 obsgroup      6.5199000E-02    6.5207000E-02   -8.0000000E-06     1.000000        6.5199000E-02    6.5207000E-02   -8.0000000E-06    1.1469699E-03     871.8625    
 p086                 obsgroup      6.5199000E-02    6.6683000E-02   -1.4840000E-03     1.000000        6.5199000E-02    6.6683000E-02   -1.4840000E-03    1.1469699E-03     871.8625    
 p087                 obsgroup      7.0452000E-02    6.8084000E-02    2.3680000E-03     1.000000        7.0452000E-02    6.8084000E-02    2.3680000E-03    1.1469699E-03     871.8625    
 p088                 obsgroup      6.9319000E-02    6.9435000E-02   -1.1600000E-04     1.000000        6.9319000E-02    6.9435000E-02   -1.1600000E-04    1.1469699E-03     871.8625    
 p089                 obsgroup      7.1997000E-02    7.0723000E-02    1.2740000E-03     1.000000        7.1997000E-02    7.0723000E-02    1.2740000E-03    1.1469699E-03     871.8625    
 p090                 obsgroup      7.1585000E-02    7.1975000E-02   -3.9000000E-04     1.000000        7.1585000E-02    7.1975000E-02   -3.9000000E-04    1.1469699E-03     871.8625    
 p091                 obsgroup      7.4675000E-02    7.3186000E-02    1.4890000E-03     1.000000        7.4675000E-02    7.3186000E-02    1.4890000E-03    1.1469699E-03     871.8625    
 p092                 obsgroup      7.3954000E-02    7.4336000E-02   -3.8200000E-04     1.000000        7.3954000E-02    7.4336000E-02   -3.8200000E-04    1.1469699E-03     871.8625    
 p093                 obsgroup      7.4984000E-02    7.5450000E-02   -4.6600000E-04     1.000000        7.4984000E-02    7.5450000E-02   -4.6600000E-04    1.1469699E-03     871.8625    
 p094                 obsgroup      7.7456000E-02    7.6511000E-02    9.4500000E-04     1.000000        7.7456000E-02    7.6511000E-02    9.4500000E-04    1.1469699E-03     871.8625    
 p095                 obsgroup      7.6220000E-02    7.7547000E-02   -1.3270000E-03     1.000000        7.6220000E-02    7.7547000E-02   -1.3270000E-03    1.1469699E-03     871.8625    
 p096                 obsgroup      8.1370000E-02    7.8626000E-02    2.7440000E-03     1.000000        8.1370000E-02    7.8626000E-02    2.7440000E-03    1.1469699E-03     871.8625    
 p097                 obsgroup      8.1164000E-02    7.9574000E-02    1.5900000E-03     1.000000        8.1164000E-02    7.9574000E-02    1.5900000E-03    1.1469699E-03     871.8625    
 p098                 obsgroup      8.2297000E-02    8.0485000E-02    1.8120000E-03     1.000000        8.2297000E-02    8.0485000E-02    1.8120000E-03    1.1469699E-03     871.8625    
 p099                 obsgroup      8.1885000E-02    8.1380000E-02    5.0500000E-04     1.000000        8.1885000E-02    8.1380000E-02    5.0500000E-04    1.1469699E-03     871.8625    
 p100                 obsgroup      8.1576000E-02    8.2243000E-02   -6.6700000E-04     1.000000        8.1576000E-02    8.2243000E-02   -6.6700000E-04    1.1469699E-03     871.8625    
 p101                 obsgroup      8.2606000E-02    8.3081000E-02   -4.7500000E-04     1.000000        8.2606000E-02    8.3081000E-02   -4.7500000E-04    1.1469699E-03     871.8625    
 p102                 obsgroup      8.4975000E-02    8.3889000E-02    1.0860000E-03     1.000000        8.4975000E-02    8.3889000E-02    1.0860000E-03    1.1469699E-03     871.8625    
 p103                 obsgroup      8.6005000E-02    8.4671000E-02    1.3340000E-03     1.000000        8.6005000E-02    8.4671000E-02    1.3340000E-03    1.1469699E-03     871.8625    
 p104                 obsgroup      8.0443000E-02    8.5432000E-02   -4.9890000E-03     1.000000        8.0443000E-02    8.5432000E-02   -4.9890000E-03    1.1469699E-03     871.8625    
 p105                 obsgroup      8.6211000E-02    8.6148000E-02    6.3000000E-05     1.000000        8.6211000E-02    8.6148000E-02    6.3000000E-05    1.1469699E-03     871.8625    
 p106                 obsgroup      8.7138000E-02    8.6852000E-02    2.8600000E-04     1.000000        8.7138000E-02    8.6852000E-02    2.8600000E-04    1.1469699E-03     871.8625    
 p107                 obsgroup      8.8889000E-02    8.7534000E-02    1.3550000E-03     1.000000        8.8889000E-02    8.7534000E-02    1.3550000E-03    1.1469699E-03     871.8625    
 p108                 obsgroup      9.0537000E-02    8.8193000E-02    2.3440000E-03     1.000000        9.0537000E-02    8.8193000E-02    2.3440000E-03    1.1469699E-03     871.8625    
 p109                 obsgroup      8.8992000E-02    8.8828000E-02    1.6400000E-04     1.000000        8.8992000E-02    8.8828000E-02    1.6400000E-04    1.1469699E-03     871.8625    
 p110                 obsgroup      9.0228000E-02    8.9448000E-02    7.8000000E-04     1.000000        9.0228000E-02    8.9448000E-02    7.8000000E-04    1.1469699E-03     871.8625    
 p111                 obsgroup      8.9816000E-02    9.0053000E-02   -2.3700000E-04     1.000000        8.9816000E-02    9.0053000E-02   -2.3700000E-04    1.1469699E-03     871.8625    
 p112                 obsgroup      9.1361000E-02    9.0638000E-02    7.2300000E-04     1.000000        9.1361000E-02    9.0638000E-02    7.2300000E-04    1.1469699E-03     871.8625    
 p113                 obsgroup      9.2803000E-02    9.1203000E-02    1.6000000E-03     1.000000        9.2803000E-02    9.1203000E-02    1.6000000E-03    1.1469699E-03     871.8625    
 p114                 obsgroup      9.1773000E-02    9.1749000E-02    2.4000000E-05     1.000000        9.1773000E-02    9.1749000E-02    2.4000000E-05    1.1469699E-03     871.8625    
 p115                 obsgroup      9.3112000E-02    9.2287000E-02    8.2500000E-04     1.000000        9.3112000E-02    9.2287000E-02    8.2500000E-04    1.1469699E-03     871.8625    
 p116                 obsgroup      9.3730000E-02    9.2808000E-02    9.2200000E-04     1.000000        9.3730000E-02    9.2808000E-02    9.2200000E-04    1.1469699E-03     871.8625    
 p117                 obsgroup      9.5069000E-02    9.3811000E-02    1.2580000E-03     1.000000        9.5069000E-02    9.3811000E-02    1.2580000E-03    1.1469699E-03     871.8625    
 p118                 obsgroup      9.3627000E-02    9.4292000E-02   -6.6500000E-04     1.000000        9.3627000E-02    9.4292000E-02   -6.6500000E-04    1.1469699E-03     871.8625    
 p119                 obsgroup      9.4451000E-02    9.4761000E-02   -3.1000000E-04     1.000000        9.4451000E-02    9.4761000E-02   -3.1000000E-04    1.1469699E-03     871.8625    
 p120                 obsgroup      9.2082000E-02    9.5225000E-02   -3.1430000E-03     1.000000        9.2082000E-02    9.5225000E-02   -3.1430000E-03    1.1469699E-03     871.8625    
 p121                 obsgroup      9.7438000E-02    9.5655000E-02    1.7830000E-03     1.000000        9.7438000E-02    9.5655000E-02    1.7830000E-03    1.1469699E-03     871.8625    
 p122                 obsgroup      9.4966000E-02    9.6087000E-02   -1.1210000E-03     1.000000        9.4966000E-02    9.6087000E-02   -1.1210000E-03    1.1469699E-03     871.8625    
 p123                 obsgroup      9.7747000E-02    9.6508000E-02    1.2390000E-03     1.000000        9.7747000E-02    9.6508000E-02    1.2390000E-03    1.1469699E-03     871.8625    
 p124                 obsgroup      9.6614000E-02    9.6922000E-02   -3.0800000E-04     1.000000        9.6614000E-02    9.6922000E-02   -3.0800000E-04    1.1469699E-03     871.8625    
 p125                 obsgroup      9.7747000E-02    9.7327000E-02    4.2000000E-04     1.000000        9.7747000E-02    9.7327000E-02    4.2000000E-04    1.1469699E-03     871.8625    
 p126                 obsgroup      0.1006310        9.7714000E-02    2.9170000E-03     1.000000        0.1006310        9.7714000E-02    2.9170000E-03    1.1469699E-03     871.8625    
 p127                 obsgroup      9.8056000E-02    9.8043000E-02    1.3000000E-05     1.000000        9.8056000E-02    9.8043000E-02    1.3000000E-05    1.1469699E-03     871.8625    
 p128                 obsgroup      9.9498000E-02    9.8418000E-02    1.0800000E-03     1.000000        9.9498000E-02    9.8418000E-02    1.0800000E-03    1.1469699E-03     871.8625    
 p129                 obsgroup      9.8983000E-02    9.8780000E-02    2.0300000E-04     1.000000        9.8983000E-02    9.8780000E-02    2.0300000E-04    1.1469699E-03     871.8625    
 p130                 obsgroup      0.1025880        9.9140000E-02    3.4480000E-03     1.000000        0.1025880        9.9140000E-02    3.4480000E-03    1.1469699E-03     871.8625    
 p131                 obsgroup      0.1000130        9.9486000E-02    5.2700000E-04     1.000000        0.1000130        9.9486000E-02    5.2700000E-04    1.1469699E-03     871.8625    
 p132                 obsgroup      0.1006310        9.9825000E-02    8.0600000E-04     1.000000        0.1006310        9.9825000E-02    8.0600000E-04    1.1469699E-03     871.8625    
 p133                 obsgroup      9.9910000E-02    0.1001590       -2.4900000E-04     1.000000        9.9910000E-02    0.1001590       -2.4900000E-04    1.1469699E-03     871.8625    
 p134                 obsgroup      0.1005280        0.1004820        4.6000000E-05     1.000000        0.1005280        0.1004820        4.6000000E-05    1.1469699E-03     871.8625    
 p135                 obsgroup      0.1027940        0.1008030        1.9910000E-03     1.000000        0.1027940        0.1008030        1.9910000E-03    1.1469699E-03     871.8625    
 p136                 obsgroup      0.1028970        0.1011110        1.7860000E-03     1.000000        0.1028970        0.1011110        1.7860000E-03    1.1469699E-03     871.8625    
 p137                 obsgroup      9.9498000E-02    0.1014210       -1.9230000E-03     1.000000        9.9498000E-02    0.1014210       -1.9230000E-03    1.1469699E-03     871.8625    
 p138                 obsgroup      0.1040300        0.1017140        2.3160000E-03     1.000000        0.1040300        0.1017140        2.3160000E-03    1.1469699E-03     871.8625    
 p139                 obsgroup      0.1017640        0.1020060       -2.4200000E-04     1.000000        0.1017640        0.1020060       -2.4200000E-04    1.1469699E-03     871.8625    
 p140                 obsgroup      0.1004250        0.1022950       -1.8700000E-03     1.000000        0.1004250        0.1022950       -1.8700000E-03    1.1469699E-03     871.8625    
 p141                 obsgroup      9.8571000E-02    0.1025810       -4.0100000E-03     1.000000        9.8571000E-02    0.1025810       -4.0100000E-03    1.1469699E-03     871.8625    
 p142                 obsgroup      0.1016610        0.1028430       -1.1820000E-03     1.000000        0.1016610        0.1028430       -1.1820000E-03    1.1469699E-03     871.8625    
 p143                 obsgroup      0.1040300        0.1031110        9.1900000E-04     1.000000        0.1040300        0.1031110        9.1900000E-04    1.1469699E-03     871.8625    
 p144                 obsgroup      0.1030000        0.1033760       -3.7600000E-04     1.000000        0.1030000        0.1033760       -3.7600000E-04    1.1469699E-03     871.8625    
 p145                 obsgroup      0.1030000        0.1036330       -6.3300000E-04     1.000000        0.1030000        0.1036330       -6.3300000E-04    1.1469699E-03     871.8625    
 p146                 obsgroup      0.1040300        0.1038860        1.4400000E-04     1.000000        0.1040300        0.1038860        1.4400000E-04    1.1469699E-03     871.8625    
 p147                 obsgroup      0.1030000        0.1041350       -1.1350000E-03     1.000000        0.1030000        0.1041350       -1.1350000E-03    1.1469699E-03     871.8625    
 p148                 obsgroup      0.1060900        0.1043770        1.7130000E-03     1.000000        0.1060900        0.1043770        1.7130000E-03    1.1469699E-03     871.8625    
 p149                 obsgroup      0.1050600        0.1046170        4.4300000E-04     1.000000        0.1050600        0.1046170        4.4300000E-04    1.1469699E-03     871.8625    
 p150                 obsgroup      0.1081500        0.1048500        3.3000000E-03     1.000000        0.1081500        0.1048500        3.3000000E-03    1.1469699E-03     871.8625    
 p151                 obsgroup      0.1071200        0.1050770        2.0430000E-03     1.000000        0.1071200        0.1050770        2.0430000E-03    1.1469699E-03     871.8625    
 p152                 obsgroup      0.1050600        0.1053000       -2.4000000E-04     1.000000        0.1050600        0.1053000       -2.4000000E-04    1.1469699E-03     871.8625    
 p153                 obsgroup      0.1060900        0.1055190        5.7100000E-04     1.000000        0.1060900        0.1055190        5.7100000E-04    1.1469699E-03     871.8625    
 p154                 obsgroup      0.1050600        0.1057330       -6.7300000E-04     1.000000        0.1050600        0.1057330       -6.7300000E-04    1.1469699E-03     871.8625    
 p155                 obsgroup      0.1071200        0.1059410        1.1790000E-03     1.000000        0.1071200        0.1059410        1.1790000E-03    1.1469699E-03     871.8625    
 p156                 obsgroup      0.1026910        0.1061510       -3.4600000E-03     1.000000        0.1026910        0.1061510       -3.4600000E-03    1.1469699E-03     871.8625    
 p157                 obsgroup      0.1050600        0.1063420       -1.2820000E-03     1.000000        0.1050600        0.1063420       -1.2820000E-03    1.1469699E-03     871.8625    
 p158                 obsgroup      0.1071200        0.1065400        5.8000000E-04     1.000000        0.1071200        0.1065400        5.8000000E-04    1.1469699E-03     871.8625    
 p159                 obsgroup      0.1081500        0.1067260        1.4240000E-03     1.000000        0.1081500        0.1067260        1.4240000E-03    1.1469699E-03     871.8625    
 p160                 obsgroup      0.1050600        0.1069140       -1.8540000E-03     1.000000        0.1050600        0.1069140       -1.8540000E-03    1.1469699E-03     871.8625    
 p161                 obsgroup      0.1081500        0.1071000        1.0500000E-03     1.000000        0.1081500        0.1071000        1.0500000E-03    1.1469699E-03     871.8625    
 p162                 obsgroup      0.1060900        0.1072830       -1.1930000E-03     1.000000        0.1060900        0.1072830       -1.1930000E-03    1.1469699E-03     871.8625    
 p163                 obsgroup      0.1102100        0.1074620        2.7480000E-03     1.000000        0.1102100        0.1074620        2.7480000E-03    1.1469699E-03     871.8625    
 p164                 obsgroup      0.1060900        0.1076400       -1.5500000E-03     1.000000        0.1060900        0.1076400       -1.5500000E-03    1.1469699E-03     871.8625    
 p165                 obsgroup      0.1050600        0.1078170       -2.7570000E-03     1.000000        0.1050600        0.1078170       -2.7570000E-03    1.1469699E-03     871.8625    
 p166                 obsgroup      0.1060900        0.1079920       -1.9020000E-03     1.000000        0.1060900        0.1079920       -1.9020000E-03    1.1469699E-03     871.8625    
 p167                 obsgroup      0.1091800        0.1081690        1.0110000E-03     1.000000        0.1091800        0.1081690        1.0110000E-03    1.1469699E-03     871.8625    
 p168                 obsgroup      0.1081500        0.1083410       -1.9100000E-04     1.000000        0.1081500        0.1083410       -1.9100000E-04    1.1469699E-03     871.8625    
 p169                 obsgroup      0.1071200        0.1085160       -1.3960000E-03     1.000000        0.1071200        0.1085160       -1.3960000E-03    1.1469699E-03     871.8625    
 p170                 obsgroup      0.1102100        0.1086920        1.5180000E-03     1.000000        0.1102100        0.1086920        1.5180000E-03    1.1469699E-03     871.8625    
 p171                 obsgroup      0.1081500        0.1088710       -7.2100000E-04     1.000000        0.1081500        0.1088710       -7.2100000E-04    1.1469699E-03     871.8625    
 p172                 obsgroup      0.1112400        0.1090530        2.1870000E-03     1.000000        0.1112400        0.1090530        2.1870000E-03    1.1469699E-03     871.8625    
 p173                 obsgroup      0.1102100        0.1093600        8.5000000E-04     1.000000        0.1102100        0.1093600        8.5000000E-04    1.1469699E-03     871.8625    
 p174                 obsgroup      0.1112400        0.1099600        1.2800000E-03     1.000000        0.1112400        0.1099600        1.2800000E-03    1.1469699E-03     871.8625    
 p175                 obsgroup      0.1081500        0.1101430       -1.9930000E-03     1.000000        0.1081500        0.1101430       -1.9930000E-03    1.1469699E-03     871.8625    
 p176                 obsgroup      0.1122700        0.1103240        1.9460000E-03     1.000000        0.1122700        0.1103240        1.9460000E-03    1.1469699E-03     871.8625    
 p177                 obsgroup      0.1102100        0.1104960       -2.8600000E-04     1.000000        0.1102100        0.1104960       -2.8600000E-04    1.1469699E-03     871.8625    
 p178                 obsgroup      0.1081500        0.1106550       -2.5050000E-03     1.000000        0.1081500        0.1106550       -2.5050000E-03    1.1469699E-03     871.8625    
 p179                 obsgroup      0.1071200        0.1107940       -3.6740000E-03     1.000000        0.1071200        0.1107940       -3.6740000E-03    1.1469699E-03     871.8625    
 p180                 obsgroup      0.1102100        0.1109030       -6.9300000E-04     1.000000        0.1102100        0.1109030       -6.9300000E-04    1.1469699E-03     871.8625    
 p181                 obsgroup      0.1091800        0.1109700       -1.7900000E-03     1.000000        0.1091800        0.1109700       -1.7900000E-03    1.1469699E-03     871.8625    
 p182                 obsgroup      0.1091800        0.1109850       -1.8050000E-03     1.000000        0.1091800        0.1109850       -1.8050000E-03    1.1469699E-03     871.8625    
 p183                 obsgroup      0.1091800        0.1109310       -1.7510000E-03     1.000000        0.1091800        0.1109310       -1.7510000E-03    1.1469699E-03     871.8625    
 p184                 obsgroup      0.1102100        0.1107920       -5.8200000E-04     1.000000        0.1102100        0.1107920       -5.8200000E-04    1.1469699E-03     871.8625    
 p185                 obsgroup      0.1071200        0.1097230       -2.6030000E-03     1.000000        0.1071200        0.1097230       -2.6030000E-03    1.1469699E-03     871.8625    
 p186                 obsgroup      0.1081500        0.1090780       -9.2800000E-04     1.000000        0.1081500        0.1090780       -9.2800000E-04    1.1469699E-03     871.8625    
 p187                 obsgroup      0.1060900        0.1082740       -2.1840000E-03     1.000000        0.1060900        0.1082740       -2.1840000E-03    1.1469699E-03     871.8625    
 p188                 obsgroup      0.1071200        0.1072930       -1.7300000E-04     1.000000        0.1071200        0.1072930       -1.7300000E-04    1.1469699E-03     871.8625    
 p189                 obsgroup      0.1050600        0.1047740        2.8600000E-04     1.000000        0.1050600        0.1047740        2.8600000E-04    1.1469699E-03     871.8625    
 p190                 obsgroup      0.1013520        0.1032110       -1.8590000E-03     1.000000        0.1013520        0.1032110       -1.8590000E-03    1.1469699E-03     871.8625    
 p191                 obsgroup      0.1050600        0.1015410        3.5190000E-03     1.000000        0.1050600        0.1015410        3.5190000E-03    1.1469699E-03     871.8625    
 p192                 obsgroup      9.9601000E-02    9.9674000E-02   -7.3000000E-05     1.000000        9.9601000E-02    9.9674000E-02   -7.3000000E-05    1.1469699E-03     871.8625    
 p193                 obsgroup      9.7953000E-02    9.7639000E-02    3.1400000E-04     1.000000        9.7953000E-02    9.7639000E-02    3.1400000E-04    1.1469699E-03     871.8625    
 p194                 obsgroup      9.5378000E-02    9.5527000E-02   -1.4900000E-04     1.000000        9.5378000E-02    9.5527000E-02   -1.4900000E-04    1.1469699E-03     871.8625    
 p195                 obsgroup      9.0846000E-02    9.3230000E-02   -2.3840000E-03     1.000000        9.0846000E-02    9.3230000E-02   -2.3840000E-03    1.1469699E-03     871.8625    
 p196                 obsgroup      8.9507000E-02    9.0856000E-02   -1.3490000E-03     1.000000        8.9507000E-02    9.0856000E-02   -1.3490000E-03    1.1469699E-03     871.8625    
 p197                 obsgroup      8.7550000E-02    8.8479000E-02   -9.2900000E-04     1.000000        8.7550000E-02    8.8479000E-02   -9.2900000E-04    1.1469699E-03     871.8625    
 p198                 obsgroup      8.2709000E-02    8.3593000E-02   -8.8400000E-04     1.000000        8.2709000E-02    8.3593000E-02   -8.8400000E-04    1.1469699E-03     871.8625    
 p199                 obsgroup      8.0855000E-02    8.1134000E-02   -2.7900000E-04     1.000000        8.0855000E-02    8.1134000E-02   -2.7900000E-04    1.1469699E-03     871.8625    
 p200                 obsgroup      7.9001000E-02    7.8732000E-02    2.6900000E-04     1.000000        7.9001000E-02    7.8732000E-02    2.6900000E-04    1.1469699E-03     871.8625    
 p201                 obsgroup      7.6632000E-02    7.6330000E-02    3.0200000E-04     1.000000        7.6632000E-02    7.6330000E-02    3.0200000E-04    1.1469699E-03     871.8625    
 p202                 obsgroup      7.4881000E-02    7.3968000E-02    9.1300000E-04     1.000000        7.4881000E-02    7.3968000E-02    9.1300000E-04    1.1469699E-03     871.8625    
 p203                 obsgroup      6.9834000E-02    7.1675000E-02   -1.8410000E-03     1.000000        6.9834000E-02    7.1675000E-02   -1.8410000E-03    1.1469699E-03     871.8625    
 p204                 obsgroup      7.0452000E-02    6.9446000E-02    1.0060000E-03     1.000000        7.0452000E-02    6.9446000E-02    1.0060000E-03    1.1469699E-03     871.8625    
 p205                 obsgroup      6.8186000E-02    6.7270000E-02    9.1600000E-04     1.000000        6.8186000E-02    6.7270000E-02    9.1600000E-04    1.1469699E-03     871.8625    
 p206                 obsgroup      6.5405000E-02    6.5174000E-02    2.3100000E-04     1.000000        6.5405000E-02    6.5174000E-02    2.3100000E-04    1.1469699E-03     871.8625    
 p207                 obsgroup      6.3654000E-02    6.3145000E-02    5.0900000E-04     1.000000        6.3654000E-02    6.3145000E-02    5.0900000E-04    1.1469699E-03     871.8625    
 p208                 obsgroup      6.0770000E-02    6.1188000E-02   -4.1800000E-04     1.000000        6.0770000E-02    6.1188000E-02   -4.1800000E-04    1.1469699E-03     871.8625    
 p209                 obsgroup      5.9225000E-02    5.9312000E-02   -8.7000000E-05     1.000000        5.9225000E-02    5.9312000E-02   -8.7000000E-05    1.1469699E-03     871.8625    
 p210                 obsgroup      5.7371000E-02    5.7526000E-02   -1.5500000E-04     1.000000        5.7371000E-02    5.7526000E-02   -1.5500000E-04    1.1469699E-03     871.8625    
 p211                 obsgroup      5.5723000E-02    5.5808000E-02   -8.5000000E-05     1.000000        5.5723000E-02    5.5808000E-02   -8.5000000E-05    1.1469699E-03     871.8625    
 p212                 obsgroup      5.3560000E-02    5.4138000E-02   -5.7800000E-04     1.000000        5.3560000E-02    5.4138000E-02   -5.7800000E-04    1.1469699E-03     871.8625    
 p213                 obsgroup      5.2942000E-02    5.2543000E-02    3.9900000E-04     1.000000        5.2942000E-02    5.2543000E-02    3.9900000E-04    1.1469699E-03     871.8625    
 p214                 obsgroup      5.1397000E-02    5.1027000E-02    3.7000000E-04     1.000000        5.1397000E-02    5.1027000E-02    3.7000000E-04    1.1469699E-03     871.8625    
 p215                 obsgroup      4.9337000E-02    4.9573000E-02   -2.3600000E-04     1.000000        4.9337000E-02    4.9573000E-02   -2.3600000E-04    1.1469699E-03     871.8625    
 p216                 obsgroup      4.8616000E-02    4.8166000E-02    4.5000000E-04     1.000000        4.8616000E-02    4.8166000E-02    4.5000000E-04    1.1469699E-03     871.8625    
 p217                 obsgroup      4.7895000E-02    4.6822000E-02    1.0730000E-03     1.000000        4.7895000E-02    4.6822000E-02    1.0730000E-03    1.1469699E-03     871.8625    
 p218                 obsgroup      4.5835000E-02    4.5535000E-02    3.0000000E-04     1.000000        4.5835000E-02    4.5535000E-02    3.0000000E-04    1.1469699E-03     871.8625    
 p219                 obsgroup      4.5423000E-02    4.4304000E-02    1.1190000E-03     1.000000        4.5423000E-02    4.4304000E-02    1.1190000E-03    1.1469699E-03     871.8625    
 p220                 obsgroup      4.2230000E-02    4.3105000E-02   -8.7500000E-04     1.000000        4.2230000E-02    4.3105000E-02   -8.7500000E-04    1.1469699E-03     871.8625    
 p221                 obsgroup      4.2333000E-02    4.1956000E-02    3.7700000E-04     1.000000        4.2333000E-02    4.1956000E-02    3.7700000E-04    1.1469699E-03     871.8625    
 p222                 obsgroup      4.1303000E-02    4.0872000E-02    4.3100000E-04     1.000000        4.1303000E-02    4.0872000E-02    4.3100000E-04    1.1469699E-03     871.8625    
 p223                 obsgroup      4.1097000E-02    3.9850000E-02    1.2470000E-03     1.000000        4.1097000E-02    3.9850000E-02    1.2470000E-03    1.1469699E-03     871.8625    
 p224                 obsgroup      4.0067000E-02    3.8860000E-02    1.2070000E-03     1.000000        4.0067000E-02    3.8860000E-02    1.2070000E-03    1.1469699E-03     871.8625    
 p225                 obsgroup      3.6771000E-02    3.7905000E-02   -1.1340000E-03     1.000000        3.6771000E-02    3.7905000E-02   -1.1340000E-03    1.1469699E-03     871.8625    
 p226                 obsgroup      3.7595000E-02    3.7017000E-02    5.7800000E-04     1.000000        3.7595000E-02    3.7017000E-02    5.7800000E-04    1.1469699E-03     871.8625    
 p227                 obsgroup      3.7595000E-02    3.6193000E-02    1.4020000E-03     1.000000        3.7595000E-02    3.6193000E-02    1.4020000E-03    1.1469699E-03     871.8625    
 p228                 obsgroup      3.4608000E-02    3.5545000E-02   -9.3700000E-04     1.000000        3.4608000E-02    3.5545000E-02   -9.3700000E-04    1.1469699E-03     871.8625    
 p229                 obsgroup      3.5432000E-02    3.5310000E-02    1.2200000E-04     1.000000        3.5432000E-02    3.5310000E-02    1.2200000E-04    1.1469699E-03     871.8625    
 p230                 obsgroup      3.5535000E-02    3.4673000E-02    8.6200000E-04     1.000000        3.5535000E-02    3.4673000E-02    8.6200000E-04    1.1469699E-03     871.8625    
 p231                 obsgroup      3.2857000E-02    3.3313000E-02   -4.5600000E-04     1.000000        3.2857000E-02    3.3313000E-02   -4.5600000E-04    1.1469699E-03     871.8625    
 p232                 obsgroup      3.2857000E-02    3.2328000E-02    5.2900000E-04     1.000000        3.2857000E-02    3.2328000E-02    5.2900000E-04    1.1469699E-03     871.8625    
 p233                 obsgroup      3.1930000E-02    3.1504000E-02    4.2600000E-04     1.000000        3.1930000E-02    3.1504000E-02    4.2600000E-04    1.1469699E-03     871.8625    
 p234                 obsgroup      3.0179000E-02    3.0759000E-02   -5.8000000E-04     1.000000        3.0179000E-02    3.0759000E-02   -5.8000000E-04    1.1469699E-03     871.8625    
 p235                 obsgroup      3.0179000E-02    3.0055000E-02    1.2400000E-04     1.000000        3.0179000E-02    3.0055000E-02    1.2400000E-04    1.1469699E-03     871.8625    
 p236                 obsgroup      3.0179000E-02    2.9389000E-02    7.9000000E-04     1.000000        3.0179000E-02    2.9389000E-02    7.9000000E-04    1.1469699E-03     871.8625    
 p237                 obsgroup      2.8840000E-02    2.8740000E-02    1.0000000E-04     1.000000        2.8840000E-02    2.8740000E-02    1.0000000E-04    1.1469699E-03     871.8625    
 p238                 obsgroup      2.8531000E-02    2.8154000E-02    3.7700000E-04     1.000000        2.8531000E-02    2.8154000E-02    3.7700000E-04    1.1469699E-03     871.8625    
 p239                 obsgroup      2.7913000E-02    2.7565000E-02    3.4800000E-04     1.000000        2.7913000E-02    2.7565000E-02    3.4800000E-04    1.1469699E-03     871.8625    
 p240                 obsgroup      2.6780000E-02    2.6990000E-02   -2.1000000E-04     1.000000        2.6780000E-02    2.6990000E-02   -2.1000000E-04    1.1469699E-03     871.8625    
 p241                 obsgroup      2.6986000E-02    2.6439000E-02    5.4700000E-04     1.000000        2.6986000E-02    2.6439000E-02    5.4700000E-04    1.1469699E-03     871.8625    
 p242                 obsgroup      2.6574000E-02    2.5906000E-02    6.6800000E-04     1.000000        2.6574000E-02    2.5906000E-02    6.6800000E-04    1.1469699E-03     871.8625    
 p243                 obsgroup      2.6059000E-02    2.5391000E-02    6.6800000E-04     1.000000        2.6059000E-02    2.5391000E-02    6.6800000E-04    1.1469699E-03     871.8625    
 p244                 obsgroup      2.5338000E-02    2.4889000E-02    4.4900000E-04     1.000000        2.5338000E-02    2.4889000E-02    4.4900000E-04    1.1469699E-03     871.8625    
 p245                 obsgroup      2.4823000E-02    2.4402000E-02    4.2100000E-04     1.000000        2.4823000E-02    2.4402000E-02    4.2100000E-04    1.1469699E-03     871.8625    
 p246                 obsgroup      2.4102000E-02    2.3930000E-02    1.7200000E-04     1.000000        2.4102000E-02    2.3930000E-02    1.7200000E-04    1.1469699E-03     871.8625    
 p247                 obsgroup      2.2969000E-02    2.3468000E-02   -4.9900000E-04     1.000000        2.2969000E-02    2.3468000E-02   -4.9900000E-04    1.1469699E-03     871.8625    
 p248                 obsgroup      2.2969000E-02    2.3036000E-02   -6.7000000E-05     1.000000        2.2969000E-02    2.3036000E-02   -6.7000000E-05    1.1469699E-03     871.8625    
 p249                 obsgroup      2.2557000E-02    2.2608000E-02   -5.1000000E-05     1.000000        2.2557000E-02    2.2608000E-02   -5.1000000E-05    1.1469699E-03     871.8625    
 p250                 obsgroup      2.2454000E-02    2.2201000E-02    2.5300000E-04     1.000000        2.2454000E-02    2.2201000E-02    2.5300000E-04    1.1469699E-03     871.8625    
 p251                 obsgroup      2.2660000E-02    2.1800000E-02    8.6000000E-04     1.000000        2.2660000E-02    2.1800000E-02    8.6000000E-04    1.1469699E-03     871.8625    
 p252                 obsgroup      2.1733000E-02    2.1407000E-02    3.2600000E-04     1.000000        2.1733000E-02    2.1407000E-02    3.2600000E-04    1.1469699E-03     871.8625    
 p253                 obsgroup      2.1115000E-02    2.1021000E-02    9.4000000E-05     1.000000        2.1115000E-02    2.1021000E-02    9.4000000E-05    1.1469699E-03     871.8625    
 p254                 obsgroup      2.1115000E-02    2.0646000E-02    4.6900000E-04     1.000000        2.1115000E-02    2.0646000E-02    4.6900000E-04    1.1469699E-03     871.8625    
 p255                 obsgroup      2.0703000E-02    2.0285000E-02    4.1800000E-04     1.000000        2.0703000E-02    2.0285000E-02    4.1800000E-04    1.1469699E-03     871.8625    
 p256                 obsgroup      2.0085000E-02    1.9934000E-02    1.5100000E-04     1.000000        2.0085000E-02    1.9934000E-02    1.5100000E-04    1.1469699E-03     871.8625    
 p257                 obsgroup      2.0188000E-02    1.9590000E-02    5.9800000E-04     1.000000        2.0188000E-02    1.9590000E-02    5.9800000E-04    1.1469699E-03     871.8625    
 p258                 obsgroup      1.9776000E-02    1.9251000E-02    5.2500000E-04     1.000000        1.9776000E-02    1.9251000E-02    5.2500000E-04    1.1469699E-03     871.8625    
 p259                 obsgroup      1.8849000E-02    1.8927000E-02   -7.8000000E-05     1.000000        1.8849000E-02    1.8927000E-02   -7.8000000E-05    1.1469699E-03     871.8625    
 p260                 obsgroup      1.9055000E-02    1.8609000E-02    4.4600000E-04     1.000000        1.9055000E-02    1.8609000E-02    4.4600000E-04    1.1469699E-03     871.8625    
 p261                 obsgroup      1.8540000E-02    1.8300000E-02    2.4000000E-04     1.000000        1.8540000E-02    1.8300000E-02    2.4000000E-04    1.1469699E-03     871.8625    
 p262                 obsgroup      1.8128000E-02    1.7996000E-02    1.3200000E-04     1.000000        1.8128000E-02    1.7996000E-02    1.3200000E-04    1.1469699E-03     871.8625    
 p263                 obsgroup      1.7819000E-02    1.7700000E-02    1.1900000E-04     1.000000        1.7819000E-02    1.7700000E-02    1.1900000E-04    1.1469699E-03     871.8625    
 p264                 obsgroup      1.7819000E-02    1.7409000E-02    4.1000000E-04     1.000000        1.7819000E-02    1.7409000E-02    4.1000000E-04    1.1469699E-03     871.8625    
 p265                 obsgroup      1.6892000E-02    1.7126000E-02   -2.3400000E-04     1.000000        1.6892000E-02    1.7126000E-02   -2.3400000E-04    1.1469699E-03     871.8625    
 p266                 obsgroup      1.6480000E-02    1.6852000E-02   -3.7200000E-04     1.000000        1.6480000E-02    1.6852000E-02   -3.7200000E-04    1.1469699E-03     871.8625    
 p267                 obsgroup      1.6686000E-02    1.6584000E-02    1.0200000E-04     1.000000        1.6686000E-02    1.6584000E-02    1.0200000E-04    1.1469699E-03     871.8625    
 p268                 obsgroup      1.6171000E-02    1.6319000E-02   -1.4800000E-04     1.000000        1.6171000E-02    1.6319000E-02   -1.4800000E-04    1.1469699E-03     871.8625    
 p269                 obsgroup      1.5965000E-02    1.6062000E-02   -9.7000000E-05     1.000000        1.5965000E-02    1.6062000E-02   -9.7000000E-05    1.1469699E-03     871.8625    
