 Name                 Group          Measured         Modelled         Residual         Weight       Weight*Measured    Weight*Modelled  Weight*Residual  Measurement_sd   Natural_weight
 p001                 obsgroup      1.0022000E-02    8.9980000E-03    1.0240000E-03     1.000000        1.0022000E-02    8.9980000E-03    1.0240000E-03    3.8915341E-03     256.9681    
 p002                 obsgroup      9.4970000E-03    8.9980000E-03    4.9900000E-04     1.000000        9.4970000E-03    8.9980000E-03    4.9900000E-04    3.8915341E-03     256.9681    
 p003                 obsgroup      1.0125000E-02    8.9980000E-03    1.1270000E-03     1.000000        1.0125000E-02    8.9980000E-03    1.1270000E-03    3.8915341E-03     256.9681    
 p004                 obsgroup      9.7950000E-03    8.9970000E-03    7.9800000E-04     1.000000        9.7950000E-03    8.9970000E-03    7.9800000E-04    3.8915341E-03     256.9681    
 p005                 obsgroup      9.9290000E-03    8.9970000E-03    9.3200000E-04     1.000000        9.9290000E-03    8.9970000E-03    9.3200000E-04    3.8915341E-03     256.9681    
 p006                 obsgroup      9.8880000E-03    8.9970000E-03    8.9100000E-04     1.000000        9.8880000E-03    8.9970000E-03    8.9100000E-04    3.8915341E-03     256.9681    
 p007                 obsgroup      9.3010000E-03    8.9970000E-03    3.0400000E-04     1.000000        9.3010000E-03    8.9970000E-03    3.0400000E-04    3.8915341E-03     256.9681    
 p008                 obsgroup      9.6510000E-03    8.9970000E-03    6.5400000E-04     1.000000        9.6510000E-03    8.9970000E-03    6.5400000E-04    3.8915341E-03     256.9681    
 p009                 obsgroup      9.5790000E-03    9.0000000E-03    5.7900000E-04     1.000000        9.5790000E-03    9.0000000E-03    5.7900000E-04    3.8915341E-03     256.9681    
 p010                 obsgroup      9.5170000E-03    9.0040000E-03    5.1300000E-04     1.000000        9.5170000E-03    9.0040000E-03    5.1300000E-04    3.8915341E-03     256.9681    
 p011                 obsgroup      9.2800000E-03    9.0110000E-03    2.6900000E-04     1.000000        9.2800000E-03    9.0110000E-03    2.6900000E-04    3.8915341E-03     256.9681    
 p012                 obsgroup      8.7340000E-03    9.0230000E-03   -2.8900000E-04     1.000000        8.7340000E-03    9.0230000E-03   -2.8900000E-04    3.8915341E-03     256.9681    
 p013                 obsgroup      9.6000000E-03    9.0410000E-03    5.5900000E-04     1.000000        9.6000000E-03    9.0410000E-03    5.5900000E-04    3.8915341E-03     256.9681    
 p014                 obsgroup      9.3730000E-03    9.0660000E-03    3.0700000E-04     1.000000        9.3730000E-03    9.0660000E-03    3.0700000E-04    3.8915341E-03     256.9681    
 p015                 obsgroup      9.1670000E-03    9.0990000E-03    6.8000000E-05     1.000000        9.1670000E-03    9.0990000E-03    6.8000000E-05    3.8915341E-03     256.9681    
 p016                 obsgroup      8.8170000E-03    9.1420000E-03   -3.2500000E-04     1.000000        8.8170000E-03    9.1420000E-03   -3.2500000E-04    3.8915341E-03     256.9681    
 p017                 obsgroup      9.1050000E-03    9.1960000E-03   -9.1000000E-05     1.000000        9.1050000E-03    9.1960000E-03   -9.1000000E-05    3.8915341E-03     256.9681    
 p018                 obsgroup      9.0850000E-03    9.2640000E-03   -1.7900000E-04     1.000000        9.0850000E-03    9.2640000E-03   -1.7900000E-04    3.8915341E-03     256.9681    
 p019                 obsgroup      8.7450000E-03    9.3470000E-03   -6.0200000E-04     1.000000        8.7450000E-03    9.3470000E-03   -6.0200000E-04    3.8915341E-03     256.9681    
 p020                 obsgroup      8.6730000E-03    9.4490000E-03   -7.7600000E-04     1.000000        8.6730000E-03    9.4490000E-03   -7.7600000E-04    3.8915341E-03     256.9681    
 p021                 obsgroup      8.9510000E-03    9.5680000E-03   -6.1700000E-04     1.000000        8.9510000E-03    9.5680000E-03   -6.1700000E-04    3.8915341E-03     256.9681    
 p022                 obsgroup      8.5280000E-03    9.7070000E-03   -1.1790000E-03     1.000000        8.5280000E-03    9.7070000E-03   -1.1790000E-03    3.8915341E-03     256.9681    
 p023                 obsgroup      8.8890000E-03    9.8680000E-03   -9.7900000E-04     1.000000        8.8890000E-03    9.8680000E-03   -9.7900000E-04    3.8915341E-03     256.9681    
 p024                 obsgroup      8.6010000E-03    1.0054000E-02   -1.4530000E-03     1.000000        8.6010000E-03    1.0054000E-02   -1.4530000E-03    3.8915341E-03     256.9681    
 p025                 obsgroup      8.2190000E-03    1.0267000E-02   -2.0480000E-03     1.000000        8.2190000E-03    1.0267000E-02   -2.0480000E-03    3.8915341E-03     256.9681    
 p026                 obsgroup      8.8070000E-03    1.0503000E-02   -1.6960000E-03     1.000000        8.8070000E-03    1.0503000E-02   -1.6960000E-03    3.8915341E-03     256.9681    
 p027                 obsgroup      9.3520000E-03    1.0747000E-02   -1.3950000E-03     1.000000        9.3520000E-03    1.0747000E-02   -1.3950000E-03    3.8915341E-03     256.9681    
 p028                 obsgroup      8.7550000E-03    1.1016000E-02   -2.2610000E-03     1.000000        8.7550000E-03    1.1016000E-02   -2.2610000E-03    3.8915341E-03     256.9681    
 p029                 obsgroup      8.9100000E-03    1.1313000E-02   -2.4030000E-03     1.000000        8.9100000E-03    1.1313000E-02   -2.4030000E-03    3.8915341E-03     256.9681    
 p030                 obsgroup      8.8370000E-03    1.1624000E-02   -2.7870000E-03     1.000000        8.8370000E-03    1.1624000E-02   -2.7870000E-03    3.8915341E-03     256.9681    
 p031                 obsgroup      8.8070000E-03    1.1964000E-02   -3.1570000E-03     1.000000        8.8070000E-03    1.1964000E-02   -3.1570000E-03    3.8915341E-03     256.9681    
 p032                 obsgroup      9.0020000E-03    1.2328000E-02   -3.3260000E-03     1.000000        9.0020000E-03    1.2328000E-02   -3.3260000E-03    3.8915341E-03     256.9681    
 p033                 obsgroup      8.8070000E-03    1.2701000E-02   -3.8940000E-03     1.000000        8.8070000E-03    1.2701000E-02   -3.8940000E-03    3.8915341E-03     256.9681    
 p034                 obsgroup      9.0640000E-03    1.3087000E-02   -4.0230000E-03     1.000000        9.0640000E-03    1.3087000E-02   -4.0230000E-03    3.8915341E-03     256.9681    
 p035                 obsgroup      8.6110000E-03    1.3515000E-02   -4.9040000E-03     1.000000        8.6110000E-03    1.3515000E-02   -4.9040000E-03    3.8915341E-03     256.9681    
 p036                 obsgroup      9.1360000E-03    1.3980000E-02   -4.8440000E-03     1.000000        9.1360000E-03    1.3980000E-02   -4.8440000E-03    3.8915341E-03     256.9681    
 p037                 obsgroup      9.2290000E-03    1.4467000E-02   -5.2380000E-03     1.000000        9.2290000E-03    1.4467000E-02   -5.2380000E-03    3.8915341E-03     256.9681    
 p038                 obsgroup      9.6000000E-03    1.4975000E-02   -5.3750000E-03     1.000000        9.6000000E-03    1.4975000E-02   -5.3750000E-03    3.8915341E-03     256.9681    
 p039                 obsgroup      9.4970000E-03    1.5500000E-02   -6.0030000E-03     1.000000        9.4970000E-03    1.5500000E-02   -6.0030000E-03    3.8915341E-03     256.9681    
 p040                 obsgroup      1.0815000E-02    1.6606000E-02   -5.7910000E-03     1.000000        1.0815000E-02    1.6606000E-02   -5.7910000E-03    3.8915341E-03     256.9681    
 p041                 obsgroup      1.1742000E-02    1.8334000E-02   -6.5920000E-03     1.000000        1.1742000E-02    1.8334000E-02   -6.5920000E-03    3.8915341E-03     256.9681    
 p042                 obsgroup      1.4523000E-02    2.0120000E-02   -5.5970000E-03     1.000000        1.4523000E-02    2.0120000E-02   -5.5970000E-03    3.8915341E-03     256.9681    
 p043                 obsgroup      1.5862000E-02    2.2013000E-02   -6.1510000E-03     1.000000        1.5862000E-02    2.2013000E-02   -6.1510000E-03    3.8915341E-03     256.9681    
 p044                 obsgroup      1.7510000E-02    2.4088000E-02   -6.5780000E-03     1.000000        1.7510000E-02    2.4088000E-02   -6.5780000E-03    3.8915341E-03     256.9681    
 p045                 obsgroup      2.0497000E-02    2.6197000E-02   -5.7000000E-03     1.000000        2.0497000E-02    2.6197000E-02   -5.7000000E-03    3.8915341E-03     256.9681    
 p046                 obsgroup      2.3896000E-02    2.8352000E-02   -4.4560000E-03     1.000000        2.3896000E-02    2.8352000E-02   -4.4560000E-03    3.8915341E-03     256.9681    
 p047                 obsgroup      2.5956000E-02    3.0464000E-02   -4.5080000E-03     1.000000        2.5956000E-02    3.0464000E-02   -4.5080000E-03    3.8915341E-03     256.9681    
 p048                 obsgroup      3.0282000E-02    3.1924000E-02   -1.6420000E-03     1.000000        3.0282000E-02    3.1924000E-02   -1.6420000E-03    3.8915341E-03     256.9681    
 p049                 obsgroup      3.1415000E-02    3.4988000E-02   -3.5730000E-03     1.000000        3.1415000E-02    3.4988000E-02   -3.5730000E-03    3.8915341E-03     256.9681    
 p050                 obsgroup      3.3887000E-02    3.7338000E-02   -3.4510000E-03     1.000000        3.3887000E-02    3.7338000E-02   -3.4510000E-03    3.8915341E-03     256.9681    
 p051                 obsgroup      3.6462000E-02    4.0391000E-02   -3.9290000E-03     1.000000        3.6462000E-02    4.0391000E-02   -3.9290000E-03    3.8915341E-03     256.9681    
 p052                 obsgroup      3.9758000E-02    4.1961000E-02   -2.2030000E-03     1.000000        3.9758000E-02    4.1961000E-02   -2.2030000E-03    3.8915341E-03     256.9681    
 p053                 obsgroup      4.3466000E-02    4.4336000E-02   -8.7000000E-04     1.000000        4.3466000E-02    4.4336000E-02   -8.7000000E-04    3.8915341E-03     256.9681    
 p054                 obsgroup      4.2848000E-02    4.6758000E-02   -3.9100000E-03     1.000000        4.2848000E-02    4.6758000E-02   -3.9100000E-03    3.8915341E-03     256.9681    
 p055                 obsgroup      4.9028000E-02    4.9196000E-02   -1.6800000E-04     1.000000        4.9028000E-02    4.9196000E-02   -1.6800000E-04    3.8915341E-03     256.9681    
 p056                 obsgroup      5.3148000E-02    5.1438000E-02    1.7100000E-03     1.000000        5.3148000E-02    5.1438000E-02    1.7100000E-03    3.8915341E-03     256.9681    
 p057                 obsgroup      5.5620000E-02    5.3607000E-02    2.0130000E-03     1.000000        5.5620000E-02    5.3607000E-02    2.0130000E-03    3.8915341E-03     256.9681    
 p058                 obsgroup      5.6135000E-02    5.5855000E-02    2.8000000E-04     1.000000        5.6135000E-02    5.5855000E-02    2.8000000E-04    3.8915341E-03     256.9681    
 p059                 obsgroup      5.8092000E-02    5.8097000E-02   -5.0000000E-06     1.000000        5.8092000E-02    5.8097000E-02   -5.0000000E-06    3.8915341E-03     256.9681    
 p060                 obsgroup      6.4581000E-02    6.2322000E-02    2.2590000E-03     1.000000        6.4581000E-02    6.2322000E-02    2.2590000E-03    3.8915341E-03     256.9681    
 p061                 obsgroup      6.8495000E-02    6.6147000E-02    2.3480000E-03     1.000000        6.8495000E-02    6.6147000E-02    2.3480000E-03    3.8915341E-03     256.9681    
 p062                 obsgroup      7.1173000E-02    6.8241000E-02    2.9320000E-03     1.000000        7.1173000E-02    6.8241000E-02    2.9320000E-03    3.8915341E-03     256.9681    
 p063                 obsgroup      7.5293000E-02    7.2231000E-02    3.0620000E-03     1.000000        7.5293000E-02    7.2231000E-02    3.0620000E-03    3.8915341E-03     256.9681    
 p064                 obsgroup      7.4881000E-02    7.4088000E-02    7.9300000E-04     1.000000        7.4881000E-02    7.4088000E-02    7.9300000E-04    3.8915341E-03     256.9681    
 p065                 obsgroup      8.3739000E-02    7.6052000E-02    7.6870000E-03     1.000000        8.3739000E-02    7.6052000E-02    7.6870000E-03    3.8915341E-03     256.9681    
 p066                 obsgroup      8.2091000E-02    7.7841000E-02    4.2500000E-03     1.000000        8.2091000E-02    7.7841000E-02    4.2500000E-03    3.8915341E-03     256.9681    
 p067                 obsgroup      8.2915000E-02    7.9765000E-02    3.1500000E-03     1.000000        8.2915000E-02    7.9765000E-02    3.1500000E-03    3.8915341E-03     256.9681    
 p068                 obsgroup      8.5593000E-02    8.1290000E-02    4.3030000E-03     1.000000        8.5593000E-02    8.1290000E-02    4.3030000E-03    3.8915341E-03     256.9681    
 p069                 obsgroup      8.4460000E-02    8.2952000E-02    1.5080000E-03     1.000000        8.4460000E-02    8.2952000E-02    1.5080000E-03    3.8915341E-03     256.9681    
 p070                 obsgroup      8.7756000E-02    8.6237000E-02    1.5190000E-03     1.000000        8.7756000E-02    8.6237000E-02    1.5190000E-03    3.8915341E-03     256.9681    
 p071                 obsgroup      8.9404000E-02    8.7821000E-02    1.5830000E-03     1.000000        8.9404000E-02    8.7821000E-02    1.5830000E-03    3.8915341E-03     256.9681    
 p072                 obsgroup      9.4966000E-02    8.9348000E-02    5.6180000E-03     1.000000        9.4966000E-02    8.9348000E-02    5.6180000E-03    3.8915341E-03     256.9681    
 p073                 obsgroup      9.3627000E-02    9.0842000E-02    2.7850000E-03     1.000000        9.3627000E-02    9.0842000E-02    2.7850000E-03    3.8915341E-03     256.9681    
 p074                 obsgroup      9.0743000E-02    9.2345000E-02   -1.6020000E-03     1.000000        9.0743000E-02    9.2345000E-02   -1.6020000E-03    3.8915341E-03     256.9681    
 p075                 obsgroup      9.4348000E-02    9.3791000E-02    5.5700000E-04     1.000000        9.4348000E-02    9.3791000E-02    5.5700000E-04    3.8915341E-03     256.9681    
 p076                 obsgroup      9.8056000E-02    9.5193000E-02    2.8630000E-03     1.000000        9.8056000E-02    9.5193000E-02    2.8630000E-03    3.8915341E-03     256.9681    
 p077                 obsgroup      0.1030000        9.7798000E-02    5.2020000E-03     1.000000        0.1030000        9.7798000E-02    5.2020000E-03    3.8915341E-03     256.9681    
 p078                 obsgroup      9.8056000E-02    9.9079000E-02   -1.0230000E-03     1.000000        9.8056000E-02    9.9079000E-02   -1.0230000E-03    3.8915341E-03     256.9681    
 p079                 obsgroup      9.6820000E-02    0.1003550       -3.5350000E-03     1.000000        9.6820000E-02    0.1003550       -3.5350000E-03    3.8915341E-03     256.9681    
 p080                 obsgroup      9.8777000E-02    0.1016010       -2.8240000E-03     1.000000        9.8777000E-02    0.1016010       -2.8240000E-03    3.8915341E-03     256.9681    
 p081                 obsgroup      0.1050600        0.1027800        2.2800000E-03     1.000000        0.1050600        0.1027800        2.2800000E-03    3.8915341E-03     256.9681    
 p082                 obsgroup      0.1071200        0.1039300        3.1900000E-03     1.000000        0.1071200        0.1039300        3.1900000E-03    3.8915341E-03     256.9681    
 p083                 obsgroup      0.1102100        0.1062130        3.9970000E-03     1.000000        0.1102100        0.1062130        3.9970000E-03    3.8915341E-03     256.9681    
 p084                 obsgroup      0.1060900        0.1072570       -1.1670000E-03     1.000000        0.1060900        0.1072570       -1.1670000E-03    3.8915341E-03     256.9681    
 p085                 obsgroup      0.1071200        0.1082910       -1.1710000E-03     1.000000        0.1071200        0.1082910       -1.1710000E-03    3.8915341E-03     256.9681    
 p086                 obsgroup      0.1174200        0.1122660        5.1540000E-03     1.000000        0.1174200        0.1122660        5.1540000E-03    3.8915341E-03     256.9681    
 p087                 obsgroup      0.1163900        0.1139960        2.3940000E-03     1.000000        0.1163900        0.1139960        2.3940000E-03    3.8915341E-03     256.9681    
 p088                 obsgroup      0.1174200        0.1148840        2.5360000E-03     1.000000        0.1174200        0.1148840        2.5360000E-03    3.8915341E-03     256.9681    
 p089                 obsgroup      0.1184500        0.1173580        1.0920000E-03     1.000000        0.1184500        0.1173580        1.0920000E-03    3.8915341E-03     256.9681    
 p090                 obsgroup      0.1246300        0.1181440        6.4860000E-03     1.000000        0.1246300        0.1181440        6.4860000E-03    3.8915341E-03     256.9681    
 p091                 obsgroup      0.1194800        0.1196290       -1.4900000E-04     1.000000        0.1194800        0.1196290       -1.4900000E-04    3.8915341E-03     256.9681    
 p092                 obsgroup      0.1277200        0.1203220        7.3980000E-03     1.000000        0.1277200        0.1203220        7.3980000E-03    3.8915341E-03     256.9681    
 p093                 obsgroup      0.1266900        0.1210050        5.6850000E-03     1.000000        0.1266900        0.1210050        5.6850000E-03    3.8915341E-03     256.9681    
 p094                 obsgroup      0.1225700        0.1230400       -4.7000000E-04     1.000000        0.1225700        0.1230400       -4.7000000E-04    3.8915341E-03     256.9681    
 p095                 obsgroup      0.1308100        0.1236910        7.1190000E-03     1.000000        0.1308100        0.1236910        7.1190000E-03    3.8915341E-03     256.9681    
 p096                 obsgroup      0.1308100        0.1272460        3.5640000E-03     1.000000        0.1308100        0.1272460        3.5640000E-03    3.8915341E-03     256.9681    
 p097                 obsgroup      0.1318400        0.1277660        4.0740000E-03     1.000000        0.1318400        0.1277660        4.0740000E-03    3.8915341E-03     256.9681    
 p098                 obsgroup      0.1349300        0.1288030        6.1270000E-03     1.000000        0.1349300        0.1288030        6.1270000E-03    3.8915341E-03     256.9681    
 p099                 obsgroup      0.1359600        0.1321190        3.8410000E-03     1.000000        0.1359600        0.1321190        3.8410000E-03    3.8915341E-03     256.9681    
 p100                 obsgroup      0.1349300        0.1325160        2.4140000E-03     1.000000        0.1349300        0.1325160        2.4140000E-03    3.8915341E-03     256.9681    
 p101                 obsgroup      0.1400800        0.1328020        7.2780000E-03     1.000000        0.1400800        0.1328020        7.2780000E-03    3.8915341E-03     256.9681    
 p102                 obsgroup      0.1390500        0.1335080        5.5420000E-03     1.000000        0.1390500        0.1335080        5.5420000E-03    3.8915341E-03     256.9681    
 p103                 obsgroup      0.1411100        0.1337430        7.3670000E-03     1.000000        0.1411100        0.1337430        7.3670000E-03    3.8915341E-03     256.9681    
 p104                 obsgroup      0.1400800        0.1339750        6.1050000E-03     1.000000        0.1400800        0.1339750        6.1050000E-03    3.8915341E-03     256.9681    
 p105                 obsgroup      0.1421400        0.1346600        7.4800000E-03     1.000000        0.1421400        0.1346600        7.4800000E-03    3.8915341E-03     256.9681    
 p106                 obsgroup      0.1328700        0.1350920       -2.2220000E-03     1.000000        0.1328700        0.1350920       -2.2220000E-03    3.8915341E-03     256.9681    
 p107                 obsgroup      0.1380200        0.1354960        2.5240000E-03     1.000000        0.1380200        0.1354960        2.5240000E-03    3.8915341E-03     256.9681    
 p108                 obsgroup      0.1318400        0.1357060       -3.8660000E-03     1.000000        0.1318400        0.1357060       -3.8660000E-03    3.8915341E-03     256.9681    
 p109                 obsgroup      0.1431700        0.1359250        7.2450000E-03     1.000000        0.1431700        0.1359250        7.2450000E-03    3.8915341E-03     256.9681    
 p110                 obsgroup      0.1369900        0.1361130        8.7700000E-04     1.000000        0.1369900        0.1361130        8.7700000E-04    3.8915341E-03     256.9681    
 p111                 obsgroup      0.1390500        0.1362990        2.7510000E-03     1.000000        0.1390500        0.1362990        2.7510000E-03    3.8915341E-03     256.9681    
 p112                 obsgroup      0.1287500        0.1364910       -7.7410000E-03     1.000000        0.1287500        0.1364910       -7.7410000E-03    3.8915341E-03     256.9681    
 p113                 obsgroup      0.1380200        0.1368570        1.1630000E-03     1.000000        0.1380200        0.1368570        1.1630000E-03    3.8915341E-03     256.9681    
 p114                 obsgroup      0.1328700        0.1370450       -4.1750000E-03     1.000000        0.1328700        0.1370450       -4.1750000E-03    3.8915341E-03     256.9681    
 p115                 obsgroup      0.1339000        0.1372310       -3.3310000E-03     1.000000        0.1339000        0.1372310       -3.3310000E-03    3.8915341E-03     256.9681    
 p116                 obsgroup      0.1390500        0.1379290        1.1210000E-03     1.000000        0.1390500        0.1379290        1.1210000E-03    3.8915341E-03     256.9681    
 p117                 obsgroup      0.1359600        0.1381010       -2.1410000E-03     1.000000        0.1359600        0.1381010       -2.1410000E-03    3.8915341E-03     256.9681    
 p118                 obsgroup      0.1287500        0.1382780       -9.5280000E-03     1.000000        0.1287500        0.1382780       -9.5280000E-03    3.8915341E-03     256.9681    
 p119                 obsgroup      0.1266900        0.1384620       -1.1772000E-02     1.000000        0.1266900        0.1384620       -1.1772000E-02    3.8915341E-03     256.9681    
 p120                 obsgroup      0.1328700        0.1386300       -5.7600000E-03     1.000000        0.1328700        0.1386300       -5.7600000E-03    3.8915341E-03     256.9681    
 p121                 obsgroup      0.1308100        0.1387980       -7.9880000E-03     1.000000        0.1308100        0.1387980       -7.9880000E-03    3.8915341E-03     256.9681    
 p122                 obsgroup      0.1339000        0.1389690       -5.0690000E-03     1.000000        0.1339000        0.1389690       -5.0690000E-03    3.8915341E-03     256.9681    
 p123                 obsgroup      0.1308100        0.1391490       -8.3390000E-03     1.000000        0.1308100        0.1391490       -8.3390000E-03    3.8915341E-03     256.9681    
 p124                 obsgroup      0.1400800        0.1393030        7.7700000E-04     1.000000        0.1400800        0.1393030        7.7700000E-04    3.8915341E-03     256.9681    
 p125                 obsgroup      0.1359600        0.1394190       -3.4590000E-03     1.000000        0.1359600        0.1394190       -3.4590000E-03    3.8915341E-03     256.9681    
 p126                 obsgroup      0.1277200        0.1395070       -1.1787000E-02     1.000000        0.1277200        0.1395070       -1.1787000E-02    3.8915341E-03     256.9681    
 p127                 obsgroup      0.1411100        0.1396670        1.4430000E-03     1.000000        0.1411100        0.1396670        1.4430000E-03    3.8915341E-03     256.9681    
 p128                 obsgroup      0.1328700        0.1398300       -6.9600000E-03     1.000000        0.1328700        0.1398300       -6.9600000E-03    3.8915341E-03     256.9681    
 p129                 obsgroup      0.1349300        0.1399890       -5.0590000E-03     1.000000        0.1349300        0.1399890       -5.0590000E-03    3.8915341E-03     256.9681    
 p130                 obsgroup      0.1328700        0.1401420       -7.2720000E-03     1.000000        0.1328700        0.1401420       -7.2720000E-03    3.8915341E-03     256.9681    
 p131                 obsgroup      0.1349300        0.1402990       -5.3690000E-03     1.000000        0.1349300        0.1402990       -5.3690000E-03    3.8915341E-03     256.9681    
 p132                 obsgroup      0.1390500        0.1405600       -1.5100000E-03     1.000000        0.1390500        0.1405600       -1.5100000E-03    3.8915341E-03     256.9681    
 p133                 obsgroup      0.1359600        0.1406870       -4.7270000E-03     1.000000        0.1359600        0.1406870       -4.7270000E-03    3.8915341E-03     256.9681    
 p134                 obsgroup      0.1421400        0.1409180        1.2220000E-03     1.000000        0.1421400        0.1409180        1.2220000E-03    3.8915341E-03     256.9681    
 p135                 obsgroup      0.1411100        0.1409620        1.4800000E-04     1.000000        0.1411100        0.1409620        1.4800000E-04    3.8915341E-03     256.9681    
 p136                 obsgroup      0.1390500        0.1410120       -1.9620000E-03     1.000000        0.1390500        0.1410120       -1.9620000E-03    3.8915341E-03     256.9681    
 p137                 obsgroup      0.1380200        0.1409900       -2.9700000E-03     1.000000        0.1380200        0.1409900       -2.9700000E-03    3.8915341E-03     256.9681    
 p138                 obsgroup      0.1400800        0.1405360       -4.5600000E-04     1.000000        0.1400800        0.1405360       -4.5600000E-04    3.8915341E-03     256.9681    
 p139                 obsgroup      0.1421400        0.1401470        1.9930000E-03     1.000000        0.1421400        0.1401470        1.9930000E-03    3.8915341E-03     256.9681    
 p140                 obsgroup      0.1421400        0.1396650        2.4750000E-03     1.000000        0.1421400        0.1396650        2.4750000E-03    3.8915341E-03     256.9681    
 p141                 obsgroup      0.1390500        0.1390420        8.0000000E-06     1.000000        0.1390500        0.1390420        8.0000000E-06    3.8915341E-03     256.9681    
 p142                 obsgroup      0.1369900        0.1382600       -1.2700000E-03     1.000000        0.1369900        0.1382600       -1.2700000E-03    3.8915341E-03     256.9681    
 p143                 obsgroup      0.1349300        0.1372770       -2.3470000E-03     1.000000        0.1349300        0.1372770       -2.3470000E-03    3.8915341E-03     256.9681    
 p144                 obsgroup      0.1380200        0.1361490        1.8710000E-03     1.000000        0.1380200        0.1361490        1.8710000E-03    3.8915341E-03     256.9681    
 p145                 obsgroup      0.1349300        0.1348680        6.2000000E-05     1.000000        0.1349300        0.1348680        6.2000000E-05    3.8915341E-03     256.9681    
 p146                 obsgroup      0.1380200        0.1334330        4.5870000E-03     1.000000        0.1380200        0.1334330        4.5870000E-03    3.8915341E-03     256.9681    
 p147                 obsgroup      0.1287500        0.1318580       -3.1080000E-03     1.000000        0.1287500        0.1318580       -3.1080000E-03    3.8915341E-03     256.9681    
 p148                 obsgroup      0.1266900        0.1300460       -3.3560000E-03     1.000000        0.1266900        0.1300460       -3.3560000E-03    3.8915341E-03     256.9681    
 p149                 obsgroup      0.1297800        0.1281080        1.6720000E-03     1.000000        0.1297800        0.1281080        1.6720000E-03    3.8915341E-03     256.9681    
 p150                 obsgroup      0.1277200        0.1260990        1.6210000E-03     1.000000        0.1277200        0.1260990        1.6210000E-03    3.8915341E-03     256.9681    
 p151                 obsgroup      0.1225700        0.1218970        6.7300000E-04     1.000000        0.1225700        0.1218970        6.7300000E-04    3.8915341E-03     256.9681    
 p152                 obsgroup      0.1194800        0.1171600        2.3200000E-03     1.000000        0.1194800        0.1171600        2.3200000E-03    3.8915341E-03     256.9681    
 p153                 obsgroup      0.1174200        0.1149080        2.5120000E-03     1.000000        0.1174200        0.1149080        2.5120000E-03    3.8915341E-03     256.9681    
 p154                 obsgroup      0.1102100        0.1125510       -2.3410000E-03     1.000000        0.1102100        0.1125510       -2.3410000E-03    3.8915341E-03     256.9681    
 p155                 obsgroup      0.1102100        0.1103310       -1.2100000E-04     1.000000        0.1102100        0.1103310       -1.2100000E-04    3.8915341E-03     256.9681    
 p156                 obsgroup      0.1081500        0.1078670        2.8300000E-04     1.000000        0.1081500        0.1078670        2.8300000E-04    3.8915341E-03     256.9681    
 p157                 obsgroup      0.1024850        0.1055960       -3.1110000E-03     1.000000        0.1024850        0.1055960       -3.1110000E-03    3.8915341E-03     256.9681    
 p158                 obsgroup      0.1002190        0.1010900       -8.7100000E-04     1.000000        0.1002190        0.1010900       -8.7100000E-04    3.8915341E-03     256.9681    
 p159                 obsgroup      9.6614000E-02    9.8819000E-02   -2.2050000E-03     1.000000        9.6614000E-02    9.8819000E-02   -2.2050000E-03    3.8915341E-03     256.9681    
 p160                 obsgroup      9.6717000E-02    9.4076000E-02    2.6410000E-03     1.000000        9.6717000E-02    9.4076000E-02    2.6410000E-03    3.8915341E-03     256.9681    
 p161                 obsgroup      9.2185000E-02    9.2050000E-02    1.3500000E-04     1.000000        9.2185000E-02    9.2050000E-02    1.3500000E-04    3.8915341E-03     256.9681    
 p162                 obsgroup      9.2906000E-02    8.9916000E-02    2.9900000E-03     1.000000        9.2906000E-02    8.9916000E-02    2.9900000E-03    3.8915341E-03     256.9681    
 p163                 obsgroup      8.1267000E-02    8.3508000E-02   -2.2410000E-03     1.000000        8.1267000E-02    8.3508000E-02   -2.2410000E-03    3.8915341E-03     256.9681    
 p164                 obsgroup      8.2915000E-02    8.1535000E-02    1.3800000E-03     1.000000        8.2915000E-02    8.1535000E-02    1.3800000E-03    3.8915341E-03     256.9681    
 p165                 obsgroup      8.2812000E-02    7.9661000E-02    3.1510000E-03     1.000000        8.2812000E-02    7.9661000E-02    3.1510000E-03    3.8915341E-03     256.9681    
 p166                 obsgroup      7.1997000E-02    7.5828000E-02   -3.8310000E-03     1.000000        7.1997000E-02    7.5828000E-02   -3.8310000E-03    3.8915341E-03     256.9681    
 p167                 obsgroup      7.4263000E-02    7.3893000E-02    3.7000000E-04     1.000000        7.4263000E-02    7.3893000E-02    3.7000000E-04    3.8915341E-03     256.9681    
 p168                 obsgroup      6.5714000E-02    7.0538000E-02   -4.8240000E-03     1.000000        6.5714000E-02    7.0538000E-02   -4.8240000E-03    3.8915341E-03     256.9681    
 p169                 obsgroup      6.1285000E-02    6.3744000E-02   -2.4590000E-03     1.000000        6.1285000E-02    6.3744000E-02   -2.4590000E-03    3.8915341E-03     256.9681    
 p170                 obsgroup      5.8401000E-02    6.2294000E-02   -3.8930000E-03     1.000000        5.8401000E-02    6.2294000E-02   -3.8930000E-03    3.8915341E-03     256.9681    
 p171                 obsgroup      5.4178000E-02    5.9122000E-02   -4.9440000E-03     1.000000        5.4178000E-02    5.9122000E-02   -4.9440000E-03    3.8915341E-03     256.9681    
 p172                 obsgroup      5.2942000E-02    5.7613000E-02   -4.6710000E-03     1.000000        5.2942000E-02    5.7613000E-02   -4.6710000E-03    3.8915341E-03     256.9681    
 p173                 obsgroup      4.8204000E-02    5.2085000E-02   -3.8810000E-03     1.000000        4.8204000E-02    5.2085000E-02   -3.8810000E-03    3.8915341E-03     256.9681    
 p174                 obsgroup      4.8925000E-02    5.0789000E-02   -1.8640000E-03     1.000000        4.8925000E-02    5.0789000E-02   -1.8640000E-03    3.8915341E-03     256.9681    
 p175                 obsgroup      4.7380000E-02    4.9529000E-02   -2.1490000E-03     1.000000        4.7380000E-02    4.9529000E-02   -2.1490000E-03    3.8915341E-03     256.9681    
 p176                 obsgroup      4.5320000E-02    4.8320000E-02   -3.0000000E-03     1.000000        4.5320000E-02    4.8320000E-02   -3.0000000E-03    3.8915341E-03     256.9681    
 p177                 obsgroup      4.4702000E-02    4.7035000E-02   -2.3330000E-03     1.000000        4.4702000E-02    4.7035000E-02   -2.3330000E-03    3.8915341E-03     256.9681    
 p178                 obsgroup      4.3054000E-02    4.4666000E-02   -1.6120000E-03     1.000000        4.3054000E-02    4.4666000E-02   -1.6120000E-03    3.8915341E-03     256.9681    
 p179                 obsgroup      4.2642000E-02    4.3561000E-02   -9.1900000E-04     1.000000        4.2642000E-02    4.3561000E-02   -9.1900000E-04    3.8915341E-03     256.9681    
 p180                 obsgroup      4.2127000E-02    4.1760000E-02    3.6700000E-04     1.000000        4.2127000E-02    4.1760000E-02    3.6700000E-04    3.8915341E-03     256.9681    
 p181                 obsgroup      4.1303000E-02    4.0722000E-02    5.8100000E-04     1.000000        4.1303000E-02    4.0722000E-02    5.8100000E-04    3.8915341E-03     256.9681    
 p182                 obsgroup      3.5741000E-02    3.7780000E-02   -2.0390000E-03     1.000000        3.5741000E-02    3.7780000E-02   -2.0390000E-03    3.8915341E-03     256.9681    
 p183                 obsgroup      3.6050000E-02    3.6806000E-02   -7.5600000E-04     1.000000        3.6050000E-02    3.6806000E-02   -7.5600000E-04    3.8915341E-03     256.9681    
 p184                 obsgroup      3.3063000E-02    3.1858000E-02    1.2050000E-03     1.000000        3.3063000E-02    3.1858000E-02    1.2050000E-03    3.8915341E-03     256.9681    
 p185                 obsgroup      3.2754000E-02    3.1089000E-02    1.6650000E-03     1.000000        3.2754000E-02    3.1089000E-02    1.6650000E-03    3.8915341E-03     256.9681    
 p186                 obsgroup      2.7810000E-02    2.8850000E-02   -1.0400000E-03     1.000000        2.7810000E-02    2.8850000E-02   -1.0400000E-03    3.8915341E-03     256.9681    
 p187                 obsgroup      2.7295000E-02    2.8095000E-02   -8.0000000E-04     1.000000        2.7295000E-02    2.8095000E-02   -8.0000000E-04    3.8915341E-03     256.9681    
 p188                 obsgroup      2.8531000E-02    2.7442000E-02    1.0890000E-03     1.000000        2.8531000E-02    2.7442000E-02    1.0890000E-03    3.8915341E-03     256.9681    
 p189                 obsgroup      2.5853000E-02    2.5422000E-02    4.3100000E-04     1.000000        2.5853000E-02    2.5422000E-02    4.3100000E-04    3.8915341E-03     256.9681    
 p190                 obsgroup      2.5544000E-02    2.4770000E-02    7.7400000E-04     1.000000        2.5544000E-02    2.4770000E-02    7.7400000E-04    3.8915341E-03     256.9681    
 p191                 obsgroup      2.5853000E-02    2.2939000E-02    2.9140000E-03     1.000000        2.5853000E-02    2.2939000E-02    2.9140000E-03    3.8915341E-03     256.9681    
 p192                 obsgroup      2.3381000E-02    2.2380000E-02    1.0010000E-03     1.000000        2.3381000E-02    2.2380000E-02    1.0010000E-03    3.8915341E-03     256.9681    
 p193                 obsgroup      2.4308000E-02    2.1836000E-02    2.4720000E-03     1.000000        2.4308000E-02    2.1836000E-02    2.4720000E-03    3.8915341E-03     256.9681    
 p194                 obsgroup      2.3587000E-02    2.1276000E-02    2.3110000E-03     1.000000        2.3587000E-02    2.1276000E-02    2.3110000E-03    3.8915341E-03     256.9681    
 p195                 obsgroup      2.4205000E-02    2.0771000E-02    3.4340000E-03     1.000000        2.4205000E-02    2.0771000E-02    3.4340000E-03    3.8915341E-03     256.9681    
 p196                 obsgroup      2.2866000E-02    2.0260000E-02    2.6060000E-03     1.000000        2.2866000E-02    2.0260000E-02    2.6060000E-03    3.8915341E-03     256.9681    
 p197                 obsgroup      2.3072000E-02    1.9266000E-02    3.8060000E-03     1.000000        2.3072000E-02    1.9266000E-02    3.8060000E-03    3.8915341E-03     256.9681    
 p198                 obsgroup      2.2042000E-02    1.8793000E-02    3.2490000E-03     1.000000        2.2042000E-02    1.8793000E-02    3.2490000E-03    3.8915341E-03     256.9681    
 p199                 obsgroup      2.1218000E-02    1.7950000E-02    3.2680000E-03     1.000000        2.1218000E-02    1.7950000E-02    3.2680000E-03    3.8915341E-03     256.9681    
 p200                 obsgroup      2.0703000E-02    1.7505000E-02    3.1980000E-03     1.000000        2.0703000E-02    1.7505000E-02    3.1980000E-03    3.8915341E-03     256.9681    
 p201                 obsgroup      2.0291000E-02    1.6705000E-02    3.5860000E-03     1.000000        2.0291000E-02    1.6705000E-02    3.5860000E-03    3.8915341E-03     256.9681    
 p202                 obsgroup      2.0703000E-02    1.6316000E-02    4.3870000E-03     1.000000        2.0703000E-02    1.6316000E-02    4.3870000E-03    3.8915341E-03     256.9681    
 p203                 obsgroup      1.9982000E-02    1.5512000E-02    4.4700000E-03     1.000000        1.9982000E-02    1.5512000E-02    4.4700000E-03    3.8915341E-03     256.9681    
 p204                 obsgroup      1.9467000E-02    1.4778000E-02    4.6890000E-03     1.000000        1.9467000E-02    1.4778000E-02    4.6890000E-03    3.8915341E-03     256.9681    
 p205                 obsgroup      1.8437000E-02    1.3413000E-02    5.0240000E-03     1.000000        1.8437000E-02    1.3413000E-02    5.0240000E-03    3.8915341E-03     256.9681    
 p206                 obsgroup      1.8231000E-02    1.3068000E-02    5.1630000E-03     1.000000        1.8231000E-02    1.3068000E-02    5.1630000E-03    3.8915341E-03     256.9681    
 p207                 obsgroup      1.9364000E-02    1.2774000E-02    6.5900000E-03     1.000000        1.9364000E-02    1.2774000E-02    6.5900000E-03    3.8915341E-03     256.9681    
 p208                 obsgroup      1.8128000E-02    1.2472000E-02    5.6560000E-03     1.000000        1.8128000E-02    1.2472000E-02    5.6560000E-03    3.8915341E-03     256.9681    
 p209                 obsgroup      1.8128000E-02    1.2156000E-02    5.9720000E-03     1.000000        1.8128000E-02    1.2156000E-02    5.9720000E-03    3.8915341E-03     256.9681    
 p210                 obsgroup      1.7716000E-02    1.1862000E-02    5.8540000E-03     1.000000        1.7716000E-02    1.1862000E-02    5.8540000E-03    3.8915341E-03     256.9681    
 p211                 obsgroup      1.7098000E-02    1.1595000E-02    5.5030000E-03     1.000000        1.7098000E-02    1.1595000E-02    5.5030000E-03    3.8915341E-03     256.9681    
 p212                 obsgroup      1.5965000E-02    1.1319000E-02    4.6460000E-03     1.000000        1.5965000E-02    1.1319000E-02    4.6460000E-03    3.8915341E-03     256.9681    
 p213                 obsgroup      1.7201000E-02    1.1042000E-02    6.1590000E-03     1.000000        1.7201000E-02    1.1042000E-02    6.1590000E-03    3.8915341E-03     256.9681    
 p214                 obsgroup      1.4626000E-02    1.0764000E-02    3.8620000E-03     1.000000        1.4626000E-02    1.0764000E-02    3.8620000E-03    3.8915341E-03     256.9681    
 p215                 obsgroup      1.6171000E-02    1.0261000E-02    5.9100000E-03     1.000000        1.6171000E-02    1.0261000E-02    5.9100000E-03    3.8915341E-03     256.9681    
 p216                 obsgroup      1.5553000E-02    1.0023000E-02    5.5300000E-03     1.000000        1.5553000E-02    1.0023000E-02    5.5300000E-03    3.8915341E-03     256.9681    
 p217                 obsgroup      1.5759000E-02    9.8010000E-03    5.9580000E-03     1.000000        1.5759000E-02    9.8010000E-03    5.9580000E-03    3.8915341E-03     256.9681    
 p218                 obsgroup      1.5450000E-02    9.5580000E-03    5.8920000E-03     1.000000        1.5450000E-02    9.5580000E-03    5.8920000E-03    3.8915341E-03     256.9681    
 p219                 obsgroup      1.4935000E-02    9.1350000E-03    5.8000000E-03     1.000000        1.4935000E-02    9.1350000E-03    5.8000000E-03    3.8915341E-03     256.9681    
