%!PS-Adobe-2.0 EPSF-2.0
%%Title: B1_3H_logn0a.eps
%%Creator: gnuplot 4.2 patchlevel 6 
%%CreationDate: Thu Aug  4 15:27:23 2011
%%DocumentFonts: (atend)
%%BoundingBox: 50 50 410 352
%%EndComments
%%BeginProlog
/gnudict 256 dict def
gnudict begin
%
% The following 6 true/false flags may be edited by hand if required
% The unit line width may also be changed
%
/Color false def
/Blacktext false def
/Solid false def
/Dashlength 1 def
/Landscape false def
/Level1 false def
/Rounded false def
/TransparentPatterns false def
/gnulinewidth 5.000 def
/userlinewidth gnulinewidth def
%
/vshift -86 def
/dl1 {
  10.0 Dashlength mul mul
  Rounded { currentlinewidth 0.75 mul sub dup 0 le { pop 0.01 } if } if
} def
/dl2 {
  10.0 Dashlength mul mul
  Rounded { currentlinewidth 0.75 mul add } if
} def
/hpt_ 31.5 def
/vpt_ 31.5 def
/hpt hpt_ def
/vpt vpt_ def
Level1 {} {
/SDict 10 dict def
systemdict /pdfmark known not {
  userdict /pdfmark systemdict /cleartomark get put
} if
SDict begin [
  /Title (B1_3H_logn0a.eps)
  /Subject (gnuplot plot)
  /Creator (gnuplot 4.2 patchlevel 6 )
  /Author (Bwalya Malama,,,)
%  /Producer (gnuplot)
%  /Keywords ()
  /CreationDate (Thu Aug  4 15:27:23 2011)
  /DOCINFO pdfmark
end
} ifelse
%
% Gnuplot Prolog Version 4.2 (August 2006)
%
/M {moveto} bind def
/L {lineto} bind def
/R {rmoveto} bind def
/V {rlineto} bind def
/N {newpath moveto} bind def
/Z {closepath} bind def
/C {setrgbcolor} bind def
/f {rlineto fill} bind def
/vpt2 vpt 2 mul def
/hpt2 hpt 2 mul def
/Lshow {currentpoint stroke M 0 vshift R 
	Blacktext {gsave 0 setgray show grestore} {show} ifelse} def
/Rshow {currentpoint stroke M dup stringwidth pop neg vshift R
	Blacktext {gsave 0 setgray show grestore} {show} ifelse} def
/Cshow {currentpoint stroke M dup stringwidth pop -2 div vshift R 
	Blacktext {gsave 0 setgray show grestore} {show} ifelse} def
/UP {dup vpt_ mul /vpt exch def hpt_ mul /hpt exch def
  /hpt2 hpt 2 mul def /vpt2 vpt 2 mul def} def
/DL {Color {setrgbcolor Solid {pop []} if 0 setdash}
 {pop pop pop 0 setgray Solid {pop []} if 0 setdash} ifelse} def
/BL {stroke userlinewidth 2 mul setlinewidth
	Rounded {1 setlinejoin 1 setlinecap} if} def
/AL {stroke userlinewidth 2 div setlinewidth
	Rounded {1 setlinejoin 1 setlinecap} if} def
/UL {dup gnulinewidth mul /userlinewidth exch def
	dup 1 lt {pop 1} if 10 mul /udl exch def} def
/PL {stroke userlinewidth setlinewidth
	Rounded {1 setlinejoin 1 setlinecap} if} def
% Default Line colors
/LCw {1 1 1} def
/LCb {0 0 0} def
/LCa {0 0 0} def
/LC0 {1 0 0} def
/LC1 {0 1 0} def
/LC2 {0 0 1} def
/LC3 {1 0 1} def
/LC4 {0 1 1} def
/LC5 {1 1 0} def
/LC6 {0 0 0} def
/LC7 {1 0.3 0} def
/LC8 {0.5 0.5 0.5} def
% Default Line Types
/LTw {PL [] 1 setgray} def
/LTb {BL [] LCb DL} def
/LTa {AL [1 udl mul 2 udl mul] 0 setdash LCa setrgbcolor} def
/LT0 {PL [] LC0 DL} def
/LT1 {PL [4 dl1 2 dl2] LC1 DL} def
/LT2 {PL [2 dl1 3 dl2] LC2 DL} def
/LT3 {PL [1 dl1 1.5 dl2] LC3 DL} def
/LT4 {PL [6 dl1 2 dl2 1 dl1 2 dl2] LC4 DL} def
/LT5 {PL [3 dl1 3 dl2 1 dl1 3 dl2] LC5 DL} def
/LT6 {PL [2 dl1 2 dl2 2 dl1 6 dl2] LC6 DL} def
/LT7 {PL [1 dl1 2 dl2 6 dl1 2 dl2 1 dl1 2 dl2] LC7 DL} def
/LT8 {PL [2 dl1 2 dl2 2 dl1 2 dl2 2 dl1 2 dl2 2 dl1 4 dl2] LC8 DL} def
/Pnt {stroke [] 0 setdash gsave 1 setlinecap M 0 0 V stroke grestore} def
/Dia {stroke [] 0 setdash 2 copy vpt add M
  hpt neg vpt neg V hpt vpt neg V
  hpt vpt V hpt neg vpt V closepath stroke
  Pnt} def
/Pls {stroke [] 0 setdash vpt sub M 0 vpt2 V
  currentpoint stroke M
  hpt neg vpt neg R hpt2 0 V stroke
 } def
/Box {stroke [] 0 setdash 2 copy exch hpt sub exch vpt add M
  0 vpt2 neg V hpt2 0 V 0 vpt2 V
  hpt2 neg 0 V closepath stroke
  Pnt} def
/Crs {stroke [] 0 setdash exch hpt sub exch vpt add M
  hpt2 vpt2 neg V currentpoint stroke M
  hpt2 neg 0 R hpt2 vpt2 V stroke} def
/TriU {stroke [] 0 setdash 2 copy vpt 1.12 mul add M
  hpt neg vpt -1.62 mul V
  hpt 2 mul 0 V
  hpt neg vpt 1.62 mul V closepath stroke
  Pnt} def
/Star {2 copy Pls Crs} def
/BoxF {stroke [] 0 setdash exch hpt sub exch vpt add M
  0 vpt2 neg V hpt2 0 V 0 vpt2 V
  hpt2 neg 0 V closepath fill} def
/TriUF {stroke [] 0 setdash vpt 1.12 mul add M
  hpt neg vpt -1.62 mul V
  hpt 2 mul 0 V
  hpt neg vpt 1.62 mul V closepath fill} def
/TriD {stroke [] 0 setdash 2 copy vpt 1.12 mul sub M
  hpt neg vpt 1.62 mul V
  hpt 2 mul 0 V
  hpt neg vpt -1.62 mul V closepath stroke
  Pnt} def
/TriDF {stroke [] 0 setdash vpt 1.12 mul sub M
  hpt neg vpt 1.62 mul V
  hpt 2 mul 0 V
  hpt neg vpt -1.62 mul V closepath fill} def
/DiaF {stroke [] 0 setdash vpt add M
  hpt neg vpt neg V hpt vpt neg V
  hpt vpt V hpt neg vpt V closepath fill} def
/Pent {stroke [] 0 setdash 2 copy gsave
  translate 0 hpt M 4 {72 rotate 0 hpt L} repeat
  closepath stroke grestore Pnt} def
/PentF {stroke [] 0 setdash gsave
  translate 0 hpt M 4 {72 rotate 0 hpt L} repeat
  closepath fill grestore} def
/Circle {stroke [] 0 setdash 2 copy
  hpt 0 360 arc stroke Pnt} def
/CircleF {stroke [] 0 setdash hpt 0 360 arc fill} def
/C0 {BL [] 0 setdash 2 copy moveto vpt 90 450 arc} bind def
/C1 {BL [] 0 setdash 2 copy moveto
	2 copy vpt 0 90 arc closepath fill
	vpt 0 360 arc closepath} bind def
/C2 {BL [] 0 setdash 2 copy moveto
	2 copy vpt 90 180 arc closepath fill
	vpt 0 360 arc closepath} bind def
/C3 {BL [] 0 setdash 2 copy moveto
	2 copy vpt 0 180 arc closepath fill
	vpt 0 360 arc closepath} bind def
/C4 {BL [] 0 setdash 2 copy moveto
	2 copy vpt 180 270 arc closepath fill
	vpt 0 360 arc closepath} bind def
/C5 {BL [] 0 setdash 2 copy moveto
	2 copy vpt 0 90 arc
	2 copy moveto
	2 copy vpt 180 270 arc closepath fill
	vpt 0 360 arc} bind def
/C6 {BL [] 0 setdash 2 copy moveto
	2 copy vpt 90 270 arc closepath fill
	vpt 0 360 arc closepath} bind def
/C7 {BL [] 0 setdash 2 copy moveto
	2 copy vpt 0 270 arc closepath fill
	vpt 0 360 arc closepath} bind def
/C8 {BL [] 0 setdash 2 copy moveto
	2 copy vpt 270 360 arc closepath fill
	vpt 0 360 arc closepath} bind def
/C9 {BL [] 0 setdash 2 copy moveto
	2 copy vpt 270 450 arc closepath fill
	vpt 0 360 arc closepath} bind def
/C10 {BL [] 0 setdash 2 copy 2 copy moveto vpt 270 360 arc closepath fill
	2 copy moveto
	2 copy vpt 90 180 arc closepath fill
	vpt 0 360 arc closepath} bind def
/C11 {BL [] 0 setdash 2 copy moveto
	2 copy vpt 0 180 arc closepath fill
	2 copy moveto
	2 copy vpt 270 360 arc closepath fill
	vpt 0 360 arc closepath} bind def
/C12 {BL [] 0 setdash 2 copy moveto
	2 copy vpt 180 360 arc closepath fill
	vpt 0 360 arc closepath} bind def
/C13 {BL [] 0 setdash 2 copy moveto
	2 copy vpt 0 90 arc closepath fill
	2 copy moveto
	2 copy vpt 180 360 arc closepath fill
	vpt 0 360 arc closepath} bind def
/C14 {BL [] 0 setdash 2 copy moveto
	2 copy vpt 90 360 arc closepath fill
	vpt 0 360 arc} bind def
/C15 {BL [] 0 setdash 2 copy vpt 0 360 arc closepath fill
	vpt 0 360 arc closepath} bind def
/Rec {newpath 4 2 roll moveto 1 index 0 rlineto 0 exch rlineto
	neg 0 rlineto closepath} bind def
/Square {dup Rec} bind def
/Bsquare {vpt sub exch vpt sub exch vpt2 Square} bind def
/S0 {BL [] 0 setdash 2 copy moveto 0 vpt rlineto BL Bsquare} bind def
/S1 {BL [] 0 setdash 2 copy vpt Square fill Bsquare} bind def
/S2 {BL [] 0 setdash 2 copy exch vpt sub exch vpt Square fill Bsquare} bind def
/S3 {BL [] 0 setdash 2 copy exch vpt sub exch vpt2 vpt Rec fill Bsquare} bind def
/S4 {BL [] 0 setdash 2 copy exch vpt sub exch vpt sub vpt Square fill Bsquare} bind def
/S5 {BL [] 0 setdash 2 copy 2 copy vpt Square fill
	exch vpt sub exch vpt sub vpt Square fill Bsquare} bind def
/S6 {BL [] 0 setdash 2 copy exch vpt sub exch vpt sub vpt vpt2 Rec fill Bsquare} bind def
/S7 {BL [] 0 setdash 2 copy exch vpt sub exch vpt sub vpt vpt2 Rec fill
	2 copy vpt Square fill Bsquare} bind def
/S8 {BL [] 0 setdash 2 copy vpt sub vpt Square fill Bsquare} bind def
/S9 {BL [] 0 setdash 2 copy vpt sub vpt vpt2 Rec fill Bsquare} bind def
/S10 {BL [] 0 setdash 2 copy vpt sub vpt Square fill 2 copy exch vpt sub exch vpt Square fill
	Bsquare} bind def
/S11 {BL [] 0 setdash 2 copy vpt sub vpt Square fill 2 copy exch vpt sub exch vpt2 vpt Rec fill
	Bsquare} bind def
/S12 {BL [] 0 setdash 2 copy exch vpt sub exch vpt sub vpt2 vpt Rec fill Bsquare} bind def
/S13 {BL [] 0 setdash 2 copy exch vpt sub exch vpt sub vpt2 vpt Rec fill
	2 copy vpt Square fill Bsquare} bind def
/S14 {BL [] 0 setdash 2 copy exch vpt sub exch vpt sub vpt2 vpt Rec fill
	2 copy exch vpt sub exch vpt Square fill Bsquare} bind def
/S15 {BL [] 0 setdash 2 copy Bsquare fill Bsquare} bind def
/D0 {gsave translate 45 rotate 0 0 S0 stroke grestore} bind def
/D1 {gsave translate 45 rotate 0 0 S1 stroke grestore} bind def
/D2 {gsave translate 45 rotate 0 0 S2 stroke grestore} bind def
/D3 {gsave translate 45 rotate 0 0 S3 stroke grestore} bind def
/D4 {gsave translate 45 rotate 0 0 S4 stroke grestore} bind def
/D5 {gsave translate 45 rotate 0 0 S5 stroke grestore} bind def
/D6 {gsave translate 45 rotate 0 0 S6 stroke grestore} bind def
/D7 {gsave translate 45 rotate 0 0 S7 stroke grestore} bind def
/D8 {gsave translate 45 rotate 0 0 S8 stroke grestore} bind def
/D9 {gsave translate 45 rotate 0 0 S9 stroke grestore} bind def
/D10 {gsave translate 45 rotate 0 0 S10 stroke grestore} bind def
/D11 {gsave translate 45 rotate 0 0 S11 stroke grestore} bind def
/D12 {gsave translate 45 rotate 0 0 S12 stroke grestore} bind def
/D13 {gsave translate 45 rotate 0 0 S13 stroke grestore} bind def
/D14 {gsave translate 45 rotate 0 0 S14 stroke grestore} bind def
/D15 {gsave translate 45 rotate 0 0 S15 stroke grestore} bind def
/DiaE {stroke [] 0 setdash vpt add M
  hpt neg vpt neg V hpt vpt neg V
  hpt vpt V hpt neg vpt V closepath stroke} def
/BoxE {stroke [] 0 setdash exch hpt sub exch vpt add M
  0 vpt2 neg V hpt2 0 V 0 vpt2 V
  hpt2 neg 0 V closepath stroke} def
/TriUE {stroke [] 0 setdash vpt 1.12 mul add M
  hpt neg vpt -1.62 mul V
  hpt 2 mul 0 V
  hpt neg vpt 1.62 mul V closepath stroke} def
/TriDE {stroke [] 0 setdash vpt 1.12 mul sub M
  hpt neg vpt 1.62 mul V
  hpt 2 mul 0 V
  hpt neg vpt -1.62 mul V closepath stroke} def
/PentE {stroke [] 0 setdash gsave
  translate 0 hpt M 4 {72 rotate 0 hpt L} repeat
  closepath stroke grestore} def
/CircE {stroke [] 0 setdash 
  hpt 0 360 arc stroke} def
/Opaque {gsave closepath 1 setgray fill grestore 0 setgray closepath} def
/DiaW {stroke [] 0 setdash vpt add M
  hpt neg vpt neg V hpt vpt neg V
  hpt vpt V hpt neg vpt V Opaque stroke} def
/BoxW {stroke [] 0 setdash exch hpt sub exch vpt add M
  0 vpt2 neg V hpt2 0 V 0 vpt2 V
  hpt2 neg 0 V Opaque stroke} def
/TriUW {stroke [] 0 setdash vpt 1.12 mul add M
  hpt neg vpt -1.62 mul V
  hpt 2 mul 0 V
  hpt neg vpt 1.62 mul V Opaque stroke} def
/TriDW {stroke [] 0 setdash vpt 1.12 mul sub M
  hpt neg vpt 1.62 mul V
  hpt 2 mul 0 V
  hpt neg vpt -1.62 mul V Opaque stroke} def
/PentW {stroke [] 0 setdash gsave
  translate 0 hpt M 4 {72 rotate 0 hpt L} repeat
  Opaque stroke grestore} def
/CircW {stroke [] 0 setdash 
  hpt 0 360 arc Opaque stroke} def
/BoxFill {gsave Rec 1 setgray fill grestore} def
/Density {
  /Fillden exch def
  currentrgbcolor
  /ColB exch def /ColG exch def /ColR exch def
  /ColR ColR Fillden mul Fillden sub 1 add def
  /ColG ColG Fillden mul Fillden sub 1 add def
  /ColB ColB Fillden mul Fillden sub 1 add def
  ColR ColG ColB setrgbcolor} def
/BoxColFill {gsave Rec PolyFill} def
/PolyFill {gsave Density fill grestore grestore} def
/h {rlineto rlineto rlineto gsave closepath fill grestore} bind def
%
% PostScript Level 1 Pattern Fill routine for rectangles
% Usage: x y w h s a XX PatternFill
%	x,y = lower left corner of box to be filled
%	w,h = width and height of box
%	  a = angle in degrees between lines and x-axis
%	 XX = 0/1 for no/yes cross-hatch
%
/PatternFill {gsave /PFa [ 9 2 roll ] def
  PFa 0 get PFa 2 get 2 div add PFa 1 get PFa 3 get 2 div add translate
  PFa 2 get -2 div PFa 3 get -2 div PFa 2 get PFa 3 get Rec
  gsave 1 setgray fill grestore clip
  currentlinewidth 0.5 mul setlinewidth
  /PFs PFa 2 get dup mul PFa 3 get dup mul add sqrt def
  0 0 M PFa 5 get rotate PFs -2 div dup translate
  0 1 PFs PFa 4 get div 1 add floor cvi
	{PFa 4 get mul 0 M 0 PFs V} for
  0 PFa 6 get ne {
	0 1 PFs PFa 4 get div 1 add floor cvi
	{PFa 4 get mul 0 2 1 roll M PFs 0 V} for
 } if
  stroke grestore} def
%
/languagelevel where
 {pop languagelevel} {1} ifelse
 2 lt
	{/InterpretLevel1 true def}
	{/InterpretLevel1 Level1 def}
 ifelse
%
% PostScript level 2 pattern fill definitions
%
/Level2PatternFill {
/Tile8x8 {/PaintType 2 /PatternType 1 /TilingType 1 /BBox [0 0 8 8] /XStep 8 /YStep 8}
	bind def
/KeepColor {currentrgbcolor [/Pattern /DeviceRGB] setcolorspace} bind def
<< Tile8x8
 /PaintProc {0.5 setlinewidth pop 0 0 M 8 8 L 0 8 M 8 0 L stroke} 
>> matrix makepattern
/Pat1 exch def
<< Tile8x8
 /PaintProc {0.5 setlinewidth pop 0 0 M 8 8 L 0 8 M 8 0 L stroke
	0 4 M 4 8 L 8 4 L 4 0 L 0 4 L stroke}
>> matrix makepattern
/Pat2 exch def
<< Tile8x8
 /PaintProc {0.5 setlinewidth pop 0 0 M 0 8 L
	8 8 L 8 0 L 0 0 L fill}
>> matrix makepattern
/Pat3 exch def
<< Tile8x8
 /PaintProc {0.5 setlinewidth pop -4 8 M 8 -4 L
	0 12 M 12 0 L stroke}
>> matrix makepattern
/Pat4 exch def
<< Tile8x8
 /PaintProc {0.5 setlinewidth pop -4 0 M 8 12 L
	0 -4 M 12 8 L stroke}
>> matrix makepattern
/Pat5 exch def
<< Tile8x8
 /PaintProc {0.5 setlinewidth pop -2 8 M 4 -4 L
	0 12 M 8 -4 L 4 12 M 10 0 L stroke}
>> matrix makepattern
/Pat6 exch def
<< Tile8x8
 /PaintProc {0.5 setlinewidth pop -2 0 M 4 12 L
	0 -4 M 8 12 L 4 -4 M 10 8 L stroke}
>> matrix makepattern
/Pat7 exch def
<< Tile8x8
 /PaintProc {0.5 setlinewidth pop 8 -2 M -4 4 L
	12 0 M -4 8 L 12 4 M 0 10 L stroke}
>> matrix makepattern
/Pat8 exch def
<< Tile8x8
 /PaintProc {0.5 setlinewidth pop 0 -2 M 12 4 L
	-4 0 M 12 8 L -4 4 M 8 10 L stroke}
>> matrix makepattern
/Pat9 exch def
/Pattern1 {PatternBgnd KeepColor Pat1 setpattern} bind def
/Pattern2 {PatternBgnd KeepColor Pat2 setpattern} bind def
/Pattern3 {PatternBgnd KeepColor Pat3 setpattern} bind def
/Pattern4 {PatternBgnd KeepColor Landscape {Pat5} {Pat4} ifelse setpattern} bind def
/Pattern5 {PatternBgnd KeepColor Landscape {Pat4} {Pat5} ifelse setpattern} bind def
/Pattern6 {PatternBgnd KeepColor Landscape {Pat9} {Pat6} ifelse setpattern} bind def
/Pattern7 {PatternBgnd KeepColor Landscape {Pat8} {Pat7} ifelse setpattern} bind def
} def
%
%
%End of PostScript Level 2 code
%
/PatternBgnd {
  TransparentPatterns {} {gsave 1 setgray fill grestore} ifelse
} def
%
% Substitute for Level 2 pattern fill codes with
% grayscale if Level 2 support is not selected.
%
/Level1PatternFill {
/Pattern1 {0.250 Density} bind def
/Pattern2 {0.500 Density} bind def
/Pattern3 {0.750 Density} bind def
/Pattern4 {0.125 Density} bind def
/Pattern5 {0.375 Density} bind def
/Pattern6 {0.625 Density} bind def
/Pattern7 {0.875 Density} bind def
} def
%
% Now test for support of Level 2 code
%
Level1 {Level1PatternFill} {Level2PatternFill} ifelse
%
/Symbol-Oblique /Symbol findfont [1 0 .167 1 0 0] makefont
dup length dict begin {1 index /FID eq {pop pop} {def} ifelse} forall
currentdict end definefont pop
/MFshow {
   { dup 5 get 3 ge
     { 5 get 3 eq {gsave} {grestore} ifelse }
     {dup dup 0 get findfont exch 1 get scalefont setfont
     [ currentpoint ] exch dup 2 get 0 exch R dup 5 get 2 ne {dup dup 6
     get exch 4 get {show} {stringwidth pop 0 R} ifelse }if dup 5 get 0 eq
     {dup 3 get {2 get neg 0 exch R pop} {pop aload pop M} ifelse} {dup 5
     get 1 eq {dup 2 get exch dup 3 get exch 6 get stringwidth pop -2 div
     dup 0 R} {dup 6 get stringwidth pop -2 div 0 R 6 get
     show 2 index {aload pop M neg 3 -1 roll neg R pop pop} {pop pop pop
     pop aload pop M} ifelse }ifelse }ifelse }
     ifelse }
   forall} bind def
/MFwidth {0 exch { dup 5 get 3 ge { 5 get 3 eq { 0 } { pop } ifelse }
 {dup 3 get{dup dup 0 get findfont exch 1 get scalefont setfont
     6 get stringwidth pop add} {pop} ifelse} ifelse} forall} bind def
/MLshow { currentpoint stroke M
  0 exch R
  Blacktext {gsave 0 setgray MFshow grestore} {MFshow} ifelse } bind def
/MRshow { currentpoint stroke M
  exch dup MFwidth neg 3 -1 roll R
  Blacktext {gsave 0 setgray MFshow grestore} {MFshow} ifelse } bind def
/MCshow { currentpoint stroke M
  exch dup MFwidth -2 div 3 -1 roll R
  Blacktext {gsave 0 setgray MFshow grestore} {MFshow} ifelse } bind def
/XYsave    { [( ) 1 2 true false 3 ()] } bind def
/XYrestore { [( ) 1 2 true false 4 ()] } bind def
end
%%EndProlog
gnudict begin
gsave
50 50 translate
0.050 0.050 scale
0 setgray
newpath
(Helvetica) findfont 260 scalefont setfont
1.000 UL
LTb
1898 832 M
63 0 V
4849 0 R
-63 0 V
stroke
1742 832 M
[ [(Helvetica) 260.0 0.0 true true 0 ( 0)]
] -86.7 MRshow
1.000 UL
LTb
1898 1813 M
63 0 V
4849 0 R
-63 0 V
stroke
1742 1813 M
[ [(Helvetica) 260.0 0.0 true true 0 ( 0.003)]
] -86.7 MRshow
1.000 UL
LTb
1898 2794 M
63 0 V
4849 0 R
-63 0 V
stroke
1742 2794 M
[ [(Helvetica) 260.0 0.0 true true 0 ( 0.006)]
] -86.7 MRshow
1.000 UL
LTb
1898 3774 M
63 0 V
4849 0 R
-63 0 V
stroke
1742 3774 M
[ [(Helvetica) 260.0 0.0 true true 0 ( 0.009)]
] -86.7 MRshow
1.000 UL
LTb
1898 4755 M
63 0 V
4849 0 R
-63 0 V
stroke
1742 4755 M
[ [(Helvetica) 260.0 0.0 true true 0 ( 0.012)]
] -86.7 MRshow
1.000 UL
LTb
1898 5736 M
63 0 V
4849 0 R
-63 0 V
stroke
1742 5736 M
[ [(Helvetica) 260.0 0.0 true true 0 ( 0.015)]
] -86.7 MRshow
1.000 UL
LTb
1898 832 M
0 31 V
0 4873 R
0 -31 V
2067 832 M
0 31 V
0 4873 R
0 -31 V
2210 832 M
0 31 V
0 4873 R
0 -31 V
2334 832 M
0 31 V
0 4873 R
0 -31 V
2443 832 M
0 31 V
0 4873 R
0 -31 V
2541 832 M
0 63 V
0 4841 R
0 -63 V
stroke
2541 572 M
[ [(Helvetica) 260.0 0.0 true true 0 (10)]
[(Helvetica) 208.0 130.0 true true 0 (5)]
] -112.7 MCshow
1.000 UL
LTb
3183 832 M
0 31 V
0 4873 R
0 -31 V
3559 832 M
0 31 V
0 4873 R
0 -31 V
3826 832 M
0 31 V
0 4873 R
0 -31 V
4033 832 M
0 31 V
0 4873 R
0 -31 V
4202 832 M
0 31 V
0 4873 R
0 -31 V
4345 832 M
0 31 V
0 4873 R
0 -31 V
4468 832 M
0 31 V
0 4873 R
0 -31 V
4578 832 M
0 31 V
0 4873 R
0 -31 V
4675 832 M
0 63 V
0 4841 R
0 -63 V
stroke
4675 572 M
[ [(Helvetica) 260.0 0.0 true true 0 (10)]
[(Helvetica) 208.0 130.0 true true 0 (6)]
] -112.7 MCshow
1.000 UL
LTb
5318 832 M
0 31 V
0 4873 R
0 -31 V
5694 832 M
0 31 V
0 4873 R
0 -31 V
5961 832 M
0 31 V
0 4873 R
0 -31 V
6167 832 M
0 31 V
0 4873 R
0 -31 V
6336 832 M
0 31 V
0 4873 R
0 -31 V
6479 832 M
0 31 V
0 4873 R
0 -31 V
6603 832 M
0 31 V
0 4873 R
0 -31 V
6712 832 M
0 31 V
0 4873 R
0 -31 V
6810 832 M
0 63 V
0 4841 R
0 -63 V
stroke
6810 572 M
[ [(Helvetica) 260.0 0.0 true true 0 (10)]
[(Helvetica) 208.0 130.0 true true 0 (7)]
] -112.7 MCshow
1.000 UL
LTb
1.000 UL
LTb
1898 5736 N
0 -4904 V
4912 0 V
0 4904 V
-4912 0 V
Z stroke
LCb setrgbcolor
520 3284 M
currentpoint gsave translate 90 rotate 0 0 moveto
[ [(Helvetica) 260.0 0.0 true true 0 (c/c)]
[(Helvetica) 208.0 -78.0 true true 0 (inj)]
] -60.7 MCshow
grestore
LTb
LCb setrgbcolor
4354 182 M
[ [(Helvetica) 260.0 0.0 true true 0 (t \(seconds\))]
] -86.7 MCshow
LTb
1.000 UP
5051 3447 M 
[ [(Symbol) 260.0 0.0 true true 0 (f)]
[(Helvetica) 208.0 -78.0 true true 0 (m)]
[(Helvetica) 260.0 0.0 true true 0 ( = 0.060)]
] -60.7 MLshow
%%5051 3447 M
%%[ [(Symbol) 260.0 0.0 true true 0 (f)]
%%[(Helvetica) 208.0 -78.0 true true 0 (im)]
%%[(Helvetica) 260.0 0.0 true true 0 ( = 0.080)]
%%] -60.7 MLshow
5051 3121 M
[ [(Symbol) 260.0 0.0 true true 0 (a)]
[(Helvetica) 208.0 -78.0 true true 0 (L)]
[(Helvetica) 260.0 0.0 true true 0 ( = 2.98 cm)]
] -60.7 MLshow
5051 2794 M
[ [(Symbol) 260.0 0.0 true true 0 (m)]
[(Helvetica) 260.0 0.0 true true 0 ( = -0.498)]
] -86.7 MLshow
5051 2467 M
[ [(Symbol) 260.0 0.0 true true 0 (s)]
[(Helvetica) 260.0 0.0 true true 0 ( = 1.27)]
] -86.7 MLshow
5051 2140 M
[ [(Helvetica) 260.0 0.0 true true 0 (t)]
[(Helvetica) 208.0 -78.0 true true 0 (inj)]
[(Helvetica) 260.0 0.0 true true 0 ( = 1.56 hrs)]
] -60.7 MLshow
1996 5491 M
[ [(Helvetica) 260.0 0.0 true true 0 (\(a\) test B1)]
] -86.7 MLshow
1.000 UL
LTb
1.300 UP
1.000 UL
LT0
LTb
5967 5517 M
[ [(Helvetica) 260.0 0.0 true true 0 (data)]
] -86.7 MRshow
LT2
1937 857 Circle
1984 839 Circle
2074 877 Circle
2116 871 Circle
2156 882 Circle
2195 867 Circle
2232 868 Circle
2267 848 Circle
2291 854 Circle
2318 889 Circle
2350 851 Circle
2381 837 Circle
2411 862 Circle
2441 855 Circle
2469 873 Circle
2497 914 Circle
2551 914 Circle
2576 834 Circle
2601 873 Circle
2626 878 Circle
2650 870 Circle
2674 918 Circle
2696 987 Circle
2718 976 Circle
2740 987 Circle
2760 1042 Circle
2781 1056 Circle
2800 1104 Circle
2819 1106 Circle
2839 1165 Circle
2857 1256 Circle
2875 1293 Circle
2893 1336 Circle
2910 1400 Circle
2927 1499 Circle
2944 1519 Circle
2959 1544 Circle
2975 1750 Circle
2990 1797 Circle
3003 1725 Circle
3015 1816 Circle
3031 1969 Circle
3047 2044 Circle
3063 2170 Circle
3078 2177 Circle
3093 2507 Circle
3107 2366 Circle
3122 2435 Circle
3136 2736 Circle
3150 2608 Circle
3164 2718 Circle
3178 2772 Circle
3191 2807 Circle
3204 3092 Circle
3217 3021 Circle
3229 3252 Circle
3242 3181 Circle
3254 3395 Circle
3265 3448 Circle
3277 3519 Circle
3288 3430 Circle
3299 3572 Circle
3310 3466 Circle
3321 3608 Circle
3332 3679 Circle
3343 3733 Circle
3353 3733 Circle
3364 3750 Circle
3374 4017 Circle
3384 4106 Circle
3394 3982 Circle
3404 4071 Circle
3414 4000 Circle
3424 4213 Circle
3434 4142 Circle
3444 4142 Circle
3453 4178 Circle
3463 4320 Circle
3473 4231 Circle
3482 4142 Circle
3492 4106 Circle
3501 4195 Circle
3510 4213 Circle
3519 4266 Circle
3529 4444 Circle
3537 4320 Circle
3546 4178 Circle
3555 4391 Circle
3564 4480 Circle
3572 4427 Circle
3581 4124 Circle
3589 4266 Circle
3597 4284 Circle
3605 4124 Circle
3613 4409 Circle
3622 4106 Circle
3630 4266 Circle
3637 4266 Circle
3645 4053 Circle
3653 4320 Circle
3661 4284 Circle
3669 4000 Circle
3677 4160 Circle
3684 4178 Circle
3691 4017 Circle
3698 4017 Circle
3706 4231 Circle
3713 4000 Circle
3721 3911 Circle
3728 3911 Circle
3736 3911 Circle
3743 4000 Circle
3750 3911 Circle
3758 3893 Circle
3765 3697 Circle
3772 3964 Circle
3779 3875 Circle
3786 3733 Circle
3793 3893 Circle
3799 3857 Circle
3806 3875 Circle
3812 3679 Circle
3819 3804 Circle
3825 3679 Circle
3832 3537 Circle
3838 3661 Circle
3845 3555 Circle
3851 3644 Circle
3857 3644 Circle
3864 3644 Circle
3870 3608 Circle
3876 3590 Circle
3882 3483 Circle
3888 3377 Circle
3895 3341 Circle
3901 3412 Circle
3908 3412 Circle
3914 3288 Circle
3920 3252 Circle
3926 3412 Circle
3931 3377 Circle
3937 3412 Circle
3943 3234 Circle
3949 3234 Circle
3954 3252 Circle
3960 3074 Circle
3966 3217 Circle
3971 3270 Circle
3977 2985 Circle
3982 3021 Circle
3987 3021 Circle
3993 3021 Circle
3998 2985 Circle
4003 2878 Circle
4008 3039 Circle
4014 2985 Circle
4019 3021 Circle
4024 3039 Circle
4029 2789 Circle
4034 2807 Circle
4039 3021 Circle
4044 2825 Circle
4049 2878 Circle
4054 2896 Circle
4059 2772 Circle
4065 2861 Circle
4070 2683 Circle
4075 2861 Circle
4081 2736 Circle
4086 2701 Circle
4092 2718 Circle
4097 2843 Circle
4101 2736 Circle
4106 2754 Circle
4111 2612 Circle
4116 2683 Circle
4121 2601 Circle
4125 2574 Circle
4130 2718 Circle
4134 2505 Circle
4139 2416 Circle
4143 2453 Circle
4147 2563 Circle
4152 2599 Circle
4156 2450 Circle
4160 2348 Circle
4164 2418 Circle
4169 2546 Circle
4173 2439 Circle
4177 2563 Circle
4182 2261 Circle
4185 2571 Circle
4189 2378 Circle
4194 2336 Circle
4198 2320 Circle
4202 2362 Circle
4206 2243 Circle
4211 2350 Circle
4215 2325 Circle
4219 2270 Circle
4224 2245 Circle
4228 2168 Circle
4232 2208 Circle
4237 2224 Circle
4241 2126 Circle
4245 2168 Circle
4249 2224 Circle
4254 2101 Circle
4258 2062 Circle
4262 2144 Circle
4266 2012 Circle
4270 2220 Circle
4274 2208 Circle
4278 2145 Circle
4282 2074 Circle
4285 2126 Circle
4289 1989 Circle
4293 2152 Circle
4297 2129 Circle
4301 1950 Circle
4305 2055 Circle
4309 1930 Circle
4313 1980 Circle
4317 1989 Circle
4320 1948 Circle
4324 1989 Circle
4328 1999 Circle
4332 1944 Circle
4336 2060 Circle
4340 1869 Circle
4344 1934 Circle
4348 1869 Circle
4352 1857 Circle
4355 1990 Circle
4359 2012 Circle
4363 1887 Circle
4367 1885 Circle
4371 1919 Circle
4374 1862 Circle
4378 1832 Circle
4381 1848 Circle
4385 1894 Circle
4388 1878 Circle
4392 1912 Circle
4396 1777 Circle
4399 1875 Circle
4403 1832 Circle
4406 1811 Circle
4410 1780 Circle
4413 1770 Circle
4416 1836 Circle
4420 1777 Circle
4423 1800 Circle
4426 1793 Circle
4429 1788 Circle
4432 1764 Circle
4436 1825 Circle
4439 1777 Circle
4442 1775 Circle
4445 1877 Circle
4448 1839 Circle
4452 1807 Circle
4455 1777 Circle
4458 1700 Circle
4461 1729 Circle
4464 1700 Circle
4467 1738 Circle
4471 1743 Circle
4474 1704 Circle
4477 1775 Circle
4480 1683 Circle
4483 1718 Circle
4486 1667 Circle
4489 1679 Circle
4492 1711 Circle
4495 1684 Circle
4498 1654 Circle
4501 1658 Circle
4504 1674 Circle
4507 1652 Circle
4510 1729 Circle
4513 1620 Circle
4516 1652 Circle
4519 1642 Circle
4522 1649 Circle
4525 1576 Circle
4528 1608 Circle
4531 1624 Circle
4534 1654 Circle
4537 1611 Circle
4540 1556 Circle
4543 1587 Circle
4546 1565 Circle
4549 1610 Circle
4552 1617 Circle
4555 1538 Circle
4558 1576 Circle
4561 1572 Circle
4564 1619 Circle
4567 1517 Circle
4570 1533 Circle
4573 1464 Circle
4576 1538 Circle
4578 1494 Circle
4581 1542 Circle
4584 1501 Circle
4587 1512 Circle
4589 1533 Circle
4592 1510 Circle
4595 1487 Circle
4598 1503 Circle
4601 1506 Circle
4603 1510 Circle
4606 1508 Circle
4609 1458 Circle
4612 1466 Circle
4614 1437 Circle
4617 1449 Circle
4620 1389 Circle
4623 1478 Circle
4625 1473 Circle
4628 1414 Circle
4631 1458 Circle
4634 1435 Circle
4636 1457 Circle
4639 1410 Circle
4642 1401 Circle
4645 1433 Circle
4647 1437 Circle
4650 1401 Circle
4653 1384 Circle
4655 1446 Circle
4658 1391 Circle
4660 1425 Circle
4663 1384 Circle
4665 1348 Circle
4668 1398 Circle
4670 1398 Circle
4673 1384 Circle
4676 1435 Circle
4678 1373 Circle
4681 1368 Circle
4683 1393 Circle
4686 1357 Circle
4688 1375 Circle
4691 1366 Circle
4693 1352 Circle
4696 1368 Circle
4698 1355 Circle
4701 1361 Circle
4703 1339 Circle
4706 1350 Circle
4708 1361 Circle
4711 1332 Circle
4713 1330 Circle
4716 1336 Circle
4718 1345 Circle
4721 1343 Circle
4723 1368 Circle
4726 1334 Circle
4728 1346 Circle
4730 1353 Circle
4733 1320 Circle
4735 1300 Circle
4738 1314 Circle
4740 1289 Circle
4742 1311 Circle
4745 1263 Circle
4747 1304 Circle
4750 1279 Circle
4752 1286 Circle
4754 1280 Circle
4757 1291 Circle
4759 1288 Circle
4762 1273 Circle
4764 1272 Circle
4766 1263 Circle
4769 1257 Circle
4771 1282 Circle
4773 1273 Circle
4776 1272 Circle
4778 1229 Circle
6310 5517 Circle
2.000 UL
LT0
LTb
5967 5205 M
[ [(Helvetica) 260.0 0.0 true true 0 (single porosity)]
] -86.7 MRshow
LT0
6123 5205 M
375 0 V
1898 867 M
18 0 V
18 0 V
18 0 V
17 0 V
17 0 V
17 1 V
16 0 V
17 0 V
15 0 V
16 1 V
15 0 V
15 1 V
15 0 V
15 1 V
14 1 V
14 1 V
14 1 V
14 1 V
14 1 V
13 1 V
13 1 V
13 2 V
13 2 V
12 2 V
13 2 V
12 3 V
12 2 V
12 3 V
12 3 V
12 3 V
11 3 V
12 4 V
11 4 V
11 4 V
11 4 V
11 5 V
10 5 V
11 5 V
11 6 V
10 6 V
10 6 V
10 7 V
10 6 V
10 7 V
10 8 V
10 8 V
9 7 V
10 9 V
9 9 V
10 9 V
88 109 V
81 143 V
74 171 V
69 195 V
64 211 V
59 220 V
57 224 V
53 220 V
50 212 V
47 201 V
45 187 V
44 170 V
41 153 V
39 134 V
38 116 V
36 99 V
35 81 V
34 64 V
33 49 V
31 34 V
31 21 V
29 8 V
28 -3 V
28 -13 V
27 -22 V
26 -31 V
26 -37 V
24 -44 V
24 -49 V
24 -53 V
23 -58 V
22 -61 V
22 -63 V
21 -66 V
21 -67 V
20 -69 V
20 -69 V
20 -70 V
19 -70 V
19 -70 V
18 -70 V
18 -69 V
18 -69 V
17 -67 V
17 -67 V
17 -65 V
16 -64 V
16 -63 V
16 -62 V
16 -59 V
15 -59 V
15 -57 V
stroke 4232 2358 M
15 -55 V
15 -55 V
14 -52 V
14 -51 V
14 -49 V
14 -48 V
13 -46 V
14 -45 V
13 -44 V
13 -41 V
13 -41 V
12 -39 V
13 -37 V
12 -37 V
12 -35 V
12 -34 V
12 -32 V
11 -32 V
12 -30 V
11 -29 V
12 -28 V
11 -27 V
11 -26 V
10 -25 V
11 -24 V
11 -23 V
10 -22 V
11 -21 V
10 -21 V
10 -19 V
10 -19 V
10 -18 V
10 -18 V
9 -16 V
10 -16 V
10 -16 V
9 -14 V
9 -14 V
89 -114 V
80 -74 V
75 -48 V
68 -32 V
64 -21 V
60 -13 V
56 -9 V
53 -6 V
50 -3 V
48 -2 V
45 -2 V
43 -1 V
41 -1 V
40 0 V
38 0 V
36 -1 V
35 0 V
34 0 V
32 0 V
32 0 V
30 0 V
30 0 V
28 0 V
28 0 V
27 0 V
26 0 V
25 0 V
25 0 V
24 0 V
24 0 V
22 0 V
23 0 V
22 0 V
21 0 V
21 0 V
20 0 V
20 0 V
20 0 V
19 0 V
18 0 V
19 0 V
18 0 V
17 0 V
18 0 V
17 0 V
16 0 V
17 0 V
16 0 V
16 0 V
15 0 V
16 0 V
15 0 V
15 0 V
14 0 V
15 0 V
14 0 V
14 0 V
13 0 V
14 0 V
13 0 V
13 0 V
13 0 V
13 0 V
13 0 V
12 0 V
13 0 V
stroke 6556 832 M
12 0 V
12 0 V
11 0 V
12 0 V
12 0 V
11 0 V
11 0 V
11 0 V
11 0 V
11 0 V
11 0 V
10 0 V
11 0 V
10 0 V
11 0 V
10 0 V
10 0 V
10 0 V
9 0 V
10 0 V
10 0 V
9 0 V
10 0 V
stroke
LT6
LTb
5967 4893 M
[ [(Helvetica) 260.0 0.0 true true 0 (double porosity)]
] -86.7 MRshow
LT6
6123 4893 M
375 0 V
1898 867 M
18 0 V
18 0 V
18 0 V
17 0 V
17 0 V
17 0 V
16 0 V
17 0 V
15 0 V
16 0 V
15 0 V
15 0 V
15 0 V
15 0 V
14 0 V
14 0 V
14 0 V
14 0 V
14 0 V
13 0 V
13 0 V
13 1 V
13 0 V
12 0 V
13 0 V
12 1 V
12 0 V
12 1 V
12 0 V
12 1 V
11 0 V
12 1 V
11 1 V
11 1 V
11 1 V
11 1 V
10 1 V
11 1 V
11 2 V
10 1 V
10 2 V
10 2 V
10 2 V
10 3 V
10 2 V
10 3 V
9 3 V
10 3 V
9 3 V
10 4 V
88 52 V
81 85 V
74 124 V
69 165 V
64 202 V
59 233 V
57 256 V
53 270 V
50 273 V
47 268 V
45 256 V
44 236 V
41 214 V
39 187 V
38 160 V
36 131 V
35 102 V
34 76 V
33 50 V
31 27 V
31 6 V
29 -13 V
28 -29 V
28 -44 V
27 -56 V
26 -65 V
26 -74 V
24 -79 V
24 -84 V
24 -88 V
23 -90 V
22 -91 V
22 -91 V
21 -90 V
21 -90 V
20 -87 V
20 -86 V
20 -83 V
19 -80 V
19 -77 V
18 -74 V
18 -72 V
18 -68 V
17 -65 V
17 -62 V
17 -59 V
16 -56 V
16 -53 V
16 -50 V
16 -48 V
15 -45 V
15 -43 V
stroke 4232 2189 M
15 -40 V
15 -39 V
14 -36 V
14 -34 V
14 -33 V
14 -30 V
13 -30 V
14 -27 V
13 -26 V
13 -25 V
13 -24 V
12 -22 V
13 -22 V
12 -20 V
12 -19 V
12 -19 V
12 -17 V
11 -17 V
12 -16 V
11 -16 V
12 -15 V
11 -14 V
11 -14 V
10 -13 V
11 -13 V
11 -12 V
10 -12 V
11 -11 V
10 -12 V
10 -10 V
10 -11 V
10 -10 V
10 -10 V
9 -10 V
10 -9 V
10 -10 V
9 -8 V
9 -9 V
89 -79 V
80 -67 V
75 -58 V
68 -50 V
64 -45 V
60 -40 V
56 -36 V
53 -31 V
50 -28 V
48 -25 V
45 -22 V
43 -19 V
41 -17 V
40 -15 V
38 -14 V
36 -11 V
35 -11 V
34 -9 V
32 -8 V
32 -7 V
30 -6 V
30 -6 V
28 -4 V
28 -5 V
27 -3 V
26 -3 V
25 -3 V
25 -3 V
24 -2 V
24 -2 V
22 -2 V
23 -1 V
22 -1 V
21 -1 V
21 -1 V
20 -1 V
20 -1 V
20 -1 V
19 0 V
18 -1 V
19 0 V
18 0 V
17 -1 V
18 0 V
17 0 V
16 -1 V
17 0 V
16 0 V
16 0 V
15 0 V
16 0 V
15 0 V
15 0 V
14 -1 V
15 0 V
14 0 V
14 0 V
13 0 V
14 0 V
13 0 V
13 0 V
13 0 V
13 0 V
13 0 V
12 0 V
13 0 V
stroke 6556 832 M
12 0 V
12 0 V
11 0 V
12 0 V
12 0 V
11 0 V
11 0 V
11 0 V
11 0 V
11 0 V
11 0 V
10 0 V
11 0 V
10 0 V
11 0 V
10 0 V
10 0 V
10 0 V
9 0 V
10 0 V
10 0 V
9 0 V
10 0 V
stroke
6.000 UL
LT0
LTb
5967 4581 M
[ [(Helvetica) 260.0 0.0 true true 0 (multirate lognormal)]
] -86.7 MRshow
LT0
6123 4581 M
375 0 V
1898 867 M
18 0 V
18 0 V
18 0 V
17 0 V
17 0 V
17 0 V
16 0 V
17 0 V
15 0 V
16 0 V
15 0 V
15 0 V
15 0 V
15 0 V
14 0 V
14 0 V
14 0 V
14 0 V
14 0 V
13 0 V
13 0 V
13 0 V
13 0 V
12 0 V
13 0 V
12 0 V
12 0 V
12 0 V
12 0 V
12 1 V
11 0 V
12 0 V
11 0 V
11 1 V
11 0 V
11 0 V
10 1 V
11 0 V
11 1 V
10 1 V
10 0 V
10 1 V
10 1 V
10 1 V
10 1 V
10 2 V
9 1 V
10 2 V
9 2 V
10 2 V
88 32 V
81 64 V
74 105 V
69 154 V
64 201 V
59 245 V
57 278 V
53 298 V
50 304 V
47 299 V
45 282 V
44 257 V
41 227 V
39 192 V
38 158 V
36 123 V
35 90 V
34 59 V
33 32 V
31 9 V
31 -13 V
29 -30 V
28 -44 V
28 -57 V
27 -65 V
26 -73 V
26 -77 V
24 -81 V
24 -84 V
24 -85 V
23 -85 V
22 -85 V
22 -83 V
21 -83 V
21 -80 V
20 -78 V
20 -76 V
20 -74 V
19 -71 V
19 -69 V
18 -66 V
18 -63 V
18 -62 V
17 -59 V
17 -56 V
17 -55 V
16 -52 V
16 -50 V
16 -49 V
16 -46 V
15 -45 V
15 -43 V
stroke 4232 2255 M
15 -41 V
15 -39 V
14 -39 V
14 -36 V
14 -35 V
14 -34 V
13 -33 V
14 -32 V
13 -30 V
13 -29 V
13 -28 V
12 -28 V
13 -26 V
12 -26 V
12 -24 V
12 -24 V
12 -23 V
11 -22 V
12 -21 V
11 -21 V
12 -20 V
11 -20 V
11 -18 V
10 -18 V
11 -18 V
11 -17 V
10 -17 V
11 -16 V
10 -15 V
10 -16 V
10 -14 V
10 -15 V
10 -13 V
9 -14 V
10 -13 V
10 -13 V
9 -12 V
9 -12 V
89 -103 V
80 -80 V
75 -61 V
68 -50 V
64 -39 V
60 -32 V
56 -26 V
53 -22 V
50 -18 V
48 -15 V
45 -13 V
43 -11 V
41 -9 V
40 -8 V
38 -7 V
36 -6 V
35 -5 V
34 -5 V
32 -4 V
32 -3 V
30 -3 V
30 -3 V
28 -2 V
28 -3 V
27 -2 V
26 -1 V
25 -2 V
25 -1 V
24 -2 V
24 -1 V
22 -1 V
23 -1 V
22 -1 V
21 -1 V
21 0 V
20 -1 V
20 0 V
20 -1 V
19 0 V
18 -1 V
19 0 V
18 -1 V
17 0 V
18 -1 V
17 0 V
16 0 V
17 0 V
16 -1 V
16 0 V
15 0 V
16 0 V
15 -1 V
15 0 V
14 0 V
15 0 V
14 0 V
14 0 V
13 -1 V
14 0 V
13 0 V
13 0 V
13 0 V
13 0 V
13 0 V
12 0 V
13 0 V
stroke 6556 834 M
12 0 V
12 -1 V
11 0 V
12 0 V
12 0 V
11 0 V
11 0 V
11 0 V
11 0 V
11 0 V
11 0 V
10 0 V
11 0 V
10 0 V
11 0 V
10 0 V
10 0 V
10 0 V
9 0 V
10 0 V
10 0 V
9 0 V
10 0 V
stroke
1.000 UL
LTb
1898 5736 N
0 -4904 V
4912 0 V
0 4904 V
-4912 0 V
Z stroke
1.000 UP
1.000 UL
LTb
stroke
grestore
end
showpage
%%Trailer
%%DocumentFonts: Symbol Helvetica
