%!PS-Adobe-2.0 EPSF-2.0
%%Title: B1_3H_logn0b.eps
%%Creator: gnuplot 4.2 patchlevel 6 
%%CreationDate: Thu Aug  4 15:27:09 2011
%%DocumentFonts: (atend)
%%BoundingBox: 50 50 410 352
%%EndComments
%%BeginProlog
/gnudict 256 dict def
gnudict begin
%
% The following 6 true/false flags may be edited by hand if required
% The unit line width may also be changed
%
/Color false def
/Blacktext false def
/Solid false def
/Dashlength 1 def
/Landscape false def
/Level1 false def
/Rounded false def
/TransparentPatterns false def
/gnulinewidth 5.000 def
/userlinewidth gnulinewidth def
%
/vshift -86 def
/dl1 {
  10.0 Dashlength mul mul
  Rounded { currentlinewidth 0.75 mul sub dup 0 le { pop 0.01 } if } if
} def
/dl2 {
  10.0 Dashlength mul mul
  Rounded { currentlinewidth 0.75 mul add } if
} def
/hpt_ 31.5 def
/vpt_ 31.5 def
/hpt hpt_ def
/vpt vpt_ def
Level1 {} {
/SDict 10 dict def
systemdict /pdfmark known not {
  userdict /pdfmark systemdict /cleartomark get put
} if
SDict begin [
  /Title (B1_3H_logn0b.eps)
  /Subject (gnuplot plot)
  /Creator (gnuplot 4.2 patchlevel 6 )
  /Author (Bwalya Malama,,,)
%  /Producer (gnuplot)
%  /Keywords ()
  /CreationDate (Thu Aug  4 15:27:09 2011)
  /DOCINFO pdfmark
end
} ifelse
%
% Gnuplot Prolog Version 4.2 (August 2006)
%
/M {moveto} bind def
/L {lineto} bind def
/R {rmoveto} bind def
/V {rlineto} bind def
/N {newpath moveto} bind def
/Z {closepath} bind def
/C {setrgbcolor} bind def
/f {rlineto fill} bind def
/vpt2 vpt 2 mul def
/hpt2 hpt 2 mul def
/Lshow {currentpoint stroke M 0 vshift R 
	Blacktext {gsave 0 setgray show grestore} {show} ifelse} def
/Rshow {currentpoint stroke M dup stringwidth pop neg vshift R
	Blacktext {gsave 0 setgray show grestore} {show} ifelse} def
/Cshow {currentpoint stroke M dup stringwidth pop -2 div vshift R 
	Blacktext {gsave 0 setgray show grestore} {show} ifelse} def
/UP {dup vpt_ mul /vpt exch def hpt_ mul /hpt exch def
  /hpt2 hpt 2 mul def /vpt2 vpt 2 mul def} def
/DL {Color {setrgbcolor Solid {pop []} if 0 setdash}
 {pop pop pop 0 setgray Solid {pop []} if 0 setdash} ifelse} def
/BL {stroke userlinewidth 2 mul setlinewidth
	Rounded {1 setlinejoin 1 setlinecap} if} def
/AL {stroke userlinewidth 2 div setlinewidth
	Rounded {1 setlinejoin 1 setlinecap} if} def
/UL {dup gnulinewidth mul /userlinewidth exch def
	dup 1 lt {pop 1} if 10 mul /udl exch def} def
/PL {stroke userlinewidth setlinewidth
	Rounded {1 setlinejoin 1 setlinecap} if} def
% Default Line colors
/LCw {1 1 1} def
/LCb {0 0 0} def
/LCa {0 0 0} def
/LC0 {1 0 0} def
/LC1 {0 1 0} def
/LC2 {0 0 1} def
/LC3 {1 0 1} def
/LC4 {0 1 1} def
/LC5 {1 1 0} def
/LC6 {0 0 0} def
/LC7 {1 0.3 0} def
/LC8 {0.5 0.5 0.5} def
% Default Line Types
/LTw {PL [] 1 setgray} def
/LTb {BL [] LCb DL} def
/LTa {AL [1 udl mul 2 udl mul] 0 setdash LCa setrgbcolor} def
/LT0 {PL [] LC0 DL} def
/LT1 {PL [4 dl1 2 dl2] LC1 DL} def
/LT2 {PL [2 dl1 3 dl2] LC2 DL} def
/LT3 {PL [1 dl1 1.5 dl2] LC3 DL} def
/LT4 {PL [6 dl1 2 dl2 1 dl1 2 dl2] LC4 DL} def
/LT5 {PL [3 dl1 3 dl2 1 dl1 3 dl2] LC5 DL} def
/LT6 {PL [2 dl1 2 dl2 2 dl1 6 dl2] LC6 DL} def
/LT7 {PL [1 dl1 2 dl2 6 dl1 2 dl2 1 dl1 2 dl2] LC7 DL} def
/LT8 {PL [2 dl1 2 dl2 2 dl1 2 dl2 2 dl1 2 dl2 2 dl1 4 dl2] LC8 DL} def
/Pnt {stroke [] 0 setdash gsave 1 setlinecap M 0 0 V stroke grestore} def
/Dia {stroke [] 0 setdash 2 copy vpt add M
  hpt neg vpt neg V hpt vpt neg V
  hpt vpt V hpt neg vpt V closepath stroke
  Pnt} def
/Pls {stroke [] 0 setdash vpt sub M 0 vpt2 V
  currentpoint stroke M
  hpt neg vpt neg R hpt2 0 V stroke
 } def
/Box {stroke [] 0 setdash 2 copy exch hpt sub exch vpt add M
  0 vpt2 neg V hpt2 0 V 0 vpt2 V
  hpt2 neg 0 V closepath stroke
  Pnt} def
/Crs {stroke [] 0 setdash exch hpt sub exch vpt add M
  hpt2 vpt2 neg V currentpoint stroke M
  hpt2 neg 0 R hpt2 vpt2 V stroke} def
/TriU {stroke [] 0 setdash 2 copy vpt 1.12 mul add M
  hpt neg vpt -1.62 mul V
  hpt 2 mul 0 V
  hpt neg vpt 1.62 mul V closepath stroke
  Pnt} def
/Star {2 copy Pls Crs} def
/BoxF {stroke [] 0 setdash exch hpt sub exch vpt add M
  0 vpt2 neg V hpt2 0 V 0 vpt2 V
  hpt2 neg 0 V closepath fill} def
/TriUF {stroke [] 0 setdash vpt 1.12 mul add M
  hpt neg vpt -1.62 mul V
  hpt 2 mul 0 V
  hpt neg vpt 1.62 mul V closepath fill} def
/TriD {stroke [] 0 setdash 2 copy vpt 1.12 mul sub M
  hpt neg vpt 1.62 mul V
  hpt 2 mul 0 V
  hpt neg vpt -1.62 mul V closepath stroke
  Pnt} def
/TriDF {stroke [] 0 setdash vpt 1.12 mul sub M
  hpt neg vpt 1.62 mul V
  hpt 2 mul 0 V
  hpt neg vpt -1.62 mul V closepath fill} def
/DiaF {stroke [] 0 setdash vpt add M
  hpt neg vpt neg V hpt vpt neg V
  hpt vpt V hpt neg vpt V closepath fill} def
/Pent {stroke [] 0 setdash 2 copy gsave
  translate 0 hpt M 4 {72 rotate 0 hpt L} repeat
  closepath stroke grestore Pnt} def
/PentF {stroke [] 0 setdash gsave
  translate 0 hpt M 4 {72 rotate 0 hpt L} repeat
  closepath fill grestore} def
/Circle {stroke [] 0 setdash 2 copy
  hpt 0 360 arc stroke Pnt} def
/CircleF {stroke [] 0 setdash hpt 0 360 arc fill} def
/C0 {BL [] 0 setdash 2 copy moveto vpt 90 450 arc} bind def
/C1 {BL [] 0 setdash 2 copy moveto
	2 copy vpt 0 90 arc closepath fill
	vpt 0 360 arc closepath} bind def
/C2 {BL [] 0 setdash 2 copy moveto
	2 copy vpt 90 180 arc closepath fill
	vpt 0 360 arc closepath} bind def
/C3 {BL [] 0 setdash 2 copy moveto
	2 copy vpt 0 180 arc closepath fill
	vpt 0 360 arc closepath} bind def
/C4 {BL [] 0 setdash 2 copy moveto
	2 copy vpt 180 270 arc closepath fill
	vpt 0 360 arc closepath} bind def
/C5 {BL [] 0 setdash 2 copy moveto
	2 copy vpt 0 90 arc
	2 copy moveto
	2 copy vpt 180 270 arc closepath fill
	vpt 0 360 arc} bind def
/C6 {BL [] 0 setdash 2 copy moveto
	2 copy vpt 90 270 arc closepath fill
	vpt 0 360 arc closepath} bind def
/C7 {BL [] 0 setdash 2 copy moveto
	2 copy vpt 0 270 arc closepath fill
	vpt 0 360 arc closepath} bind def
/C8 {BL [] 0 setdash 2 copy moveto
	2 copy vpt 270 360 arc closepath fill
	vpt 0 360 arc closepath} bind def
/C9 {BL [] 0 setdash 2 copy moveto
	2 copy vpt 270 450 arc closepath fill
	vpt 0 360 arc closepath} bind def
/C10 {BL [] 0 setdash 2 copy 2 copy moveto vpt 270 360 arc closepath fill
	2 copy moveto
	2 copy vpt 90 180 arc closepath fill
	vpt 0 360 arc closepath} bind def
/C11 {BL [] 0 setdash 2 copy moveto
	2 copy vpt 0 180 arc closepath fill
	2 copy moveto
	2 copy vpt 270 360 arc closepath fill
	vpt 0 360 arc closepath} bind def
/C12 {BL [] 0 setdash 2 copy moveto
	2 copy vpt 180 360 arc closepath fill
	vpt 0 360 arc closepath} bind def
/C13 {BL [] 0 setdash 2 copy moveto
	2 copy vpt 0 90 arc closepath fill
	2 copy moveto
	2 copy vpt 180 360 arc closepath fill
	vpt 0 360 arc closepath} bind def
/C14 {BL [] 0 setdash 2 copy moveto
	2 copy vpt 90 360 arc closepath fill
	vpt 0 360 arc} bind def
/C15 {BL [] 0 setdash 2 copy vpt 0 360 arc closepath fill
	vpt 0 360 arc closepath} bind def
/Rec {newpath 4 2 roll moveto 1 index 0 rlineto 0 exch rlineto
	neg 0 rlineto closepath} bind def
/Square {dup Rec} bind def
/Bsquare {vpt sub exch vpt sub exch vpt2 Square} bind def
/S0 {BL [] 0 setdash 2 copy moveto 0 vpt rlineto BL Bsquare} bind def
/S1 {BL [] 0 setdash 2 copy vpt Square fill Bsquare} bind def
/S2 {BL [] 0 setdash 2 copy exch vpt sub exch vpt Square fill Bsquare} bind def
/S3 {BL [] 0 setdash 2 copy exch vpt sub exch vpt2 vpt Rec fill Bsquare} bind def
/S4 {BL [] 0 setdash 2 copy exch vpt sub exch vpt sub vpt Square fill Bsquare} bind def
/S5 {BL [] 0 setdash 2 copy 2 copy vpt Square fill
	exch vpt sub exch vpt sub vpt Square fill Bsquare} bind def
/S6 {BL [] 0 setdash 2 copy exch vpt sub exch vpt sub vpt vpt2 Rec fill Bsquare} bind def
/S7 {BL [] 0 setdash 2 copy exch vpt sub exch vpt sub vpt vpt2 Rec fill
	2 copy vpt Square fill Bsquare} bind def
/S8 {BL [] 0 setdash 2 copy vpt sub vpt Square fill Bsquare} bind def
/S9 {BL [] 0 setdash 2 copy vpt sub vpt vpt2 Rec fill Bsquare} bind def
/S10 {BL [] 0 setdash 2 copy vpt sub vpt Square fill 2 copy exch vpt sub exch vpt Square fill
	Bsquare} bind def
/S11 {BL [] 0 setdash 2 copy vpt sub vpt Square fill 2 copy exch vpt sub exch vpt2 vpt Rec fill
	Bsquare} bind def
/S12 {BL [] 0 setdash 2 copy exch vpt sub exch vpt sub vpt2 vpt Rec fill Bsquare} bind def
/S13 {BL [] 0 setdash 2 copy exch vpt sub exch vpt sub vpt2 vpt Rec fill
	2 copy vpt Square fill Bsquare} bind def
/S14 {BL [] 0 setdash 2 copy exch vpt sub exch vpt sub vpt2 vpt Rec fill
	2 copy exch vpt sub exch vpt Square fill Bsquare} bind def
/S15 {BL [] 0 setdash 2 copy Bsquare fill Bsquare} bind def
/D0 {gsave translate 45 rotate 0 0 S0 stroke grestore} bind def
/D1 {gsave translate 45 rotate 0 0 S1 stroke grestore} bind def
/D2 {gsave translate 45 rotate 0 0 S2 stroke grestore} bind def
/D3 {gsave translate 45 rotate 0 0 S3 stroke grestore} bind def
/D4 {gsave translate 45 rotate 0 0 S4 stroke grestore} bind def
/D5 {gsave translate 45 rotate 0 0 S5 stroke grestore} bind def
/D6 {gsave translate 45 rotate 0 0 S6 stroke grestore} bind def
/D7 {gsave translate 45 rotate 0 0 S7 stroke grestore} bind def
/D8 {gsave translate 45 rotate 0 0 S8 stroke grestore} bind def
/D9 {gsave translate 45 rotate 0 0 S9 stroke grestore} bind def
/D10 {gsave translate 45 rotate 0 0 S10 stroke grestore} bind def
/D11 {gsave translate 45 rotate 0 0 S11 stroke grestore} bind def
/D12 {gsave translate 45 rotate 0 0 S12 stroke grestore} bind def
/D13 {gsave translate 45 rotate 0 0 S13 stroke grestore} bind def
/D14 {gsave translate 45 rotate 0 0 S14 stroke grestore} bind def
/D15 {gsave translate 45 rotate 0 0 S15 stroke grestore} bind def
/DiaE {stroke [] 0 setdash vpt add M
  hpt neg vpt neg V hpt vpt neg V
  hpt vpt V hpt neg vpt V closepath stroke} def
/BoxE {stroke [] 0 setdash exch hpt sub exch vpt add M
  0 vpt2 neg V hpt2 0 V 0 vpt2 V
  hpt2 neg 0 V closepath stroke} def
/TriUE {stroke [] 0 setdash vpt 1.12 mul add M
  hpt neg vpt -1.62 mul V
  hpt 2 mul 0 V
  hpt neg vpt 1.62 mul V closepath stroke} def
/TriDE {stroke [] 0 setdash vpt 1.12 mul sub M
  hpt neg vpt 1.62 mul V
  hpt 2 mul 0 V
  hpt neg vpt -1.62 mul V closepath stroke} def
/PentE {stroke [] 0 setdash gsave
  translate 0 hpt M 4 {72 rotate 0 hpt L} repeat
  closepath stroke grestore} def
/CircE {stroke [] 0 setdash 
  hpt 0 360 arc stroke} def
/Opaque {gsave closepath 1 setgray fill grestore 0 setgray closepath} def
/DiaW {stroke [] 0 setdash vpt add M
  hpt neg vpt neg V hpt vpt neg V
  hpt vpt V hpt neg vpt V Opaque stroke} def
/BoxW {stroke [] 0 setdash exch hpt sub exch vpt add M
  0 vpt2 neg V hpt2 0 V 0 vpt2 V
  hpt2 neg 0 V Opaque stroke} def
/TriUW {stroke [] 0 setdash vpt 1.12 mul add M
  hpt neg vpt -1.62 mul V
  hpt 2 mul 0 V
  hpt neg vpt 1.62 mul V Opaque stroke} def
/TriDW {stroke [] 0 setdash vpt 1.12 mul sub M
  hpt neg vpt 1.62 mul V
  hpt 2 mul 0 V
  hpt neg vpt -1.62 mul V Opaque stroke} def
/PentW {stroke [] 0 setdash gsave
  translate 0 hpt M 4 {72 rotate 0 hpt L} repeat
  Opaque stroke grestore} def
/CircW {stroke [] 0 setdash 
  hpt 0 360 arc Opaque stroke} def
/BoxFill {gsave Rec 1 setgray fill grestore} def
/Density {
  /Fillden exch def
  currentrgbcolor
  /ColB exch def /ColG exch def /ColR exch def
  /ColR ColR Fillden mul Fillden sub 1 add def
  /ColG ColG Fillden mul Fillden sub 1 add def
  /ColB ColB Fillden mul Fillden sub 1 add def
  ColR ColG ColB setrgbcolor} def
/BoxColFill {gsave Rec PolyFill} def
/PolyFill {gsave Density fill grestore grestore} def
/h {rlineto rlineto rlineto gsave closepath fill grestore} bind def
%
% PostScript Level 1 Pattern Fill routine for rectangles
% Usage: x y w h s a XX PatternFill
%	x,y = lower left corner of box to be filled
%	w,h = width and height of box
%	  a = angle in degrees between lines and x-axis
%	 XX = 0/1 for no/yes cross-hatch
%
/PatternFill {gsave /PFa [ 9 2 roll ] def
  PFa 0 get PFa 2 get 2 div add PFa 1 get PFa 3 get 2 div add translate
  PFa 2 get -2 div PFa 3 get -2 div PFa 2 get PFa 3 get Rec
  gsave 1 setgray fill grestore clip
  currentlinewidth 0.5 mul setlinewidth
  /PFs PFa 2 get dup mul PFa 3 get dup mul add sqrt def
  0 0 M PFa 5 get rotate PFs -2 div dup translate
  0 1 PFs PFa 4 get div 1 add floor cvi
	{PFa 4 get mul 0 M 0 PFs V} for
  0 PFa 6 get ne {
	0 1 PFs PFa 4 get div 1 add floor cvi
	{PFa 4 get mul 0 2 1 roll M PFs 0 V} for
 } if
  stroke grestore} def
%
/languagelevel where
 {pop languagelevel} {1} ifelse
 2 lt
	{/InterpretLevel1 true def}
	{/InterpretLevel1 Level1 def}
 ifelse
%
% PostScript level 2 pattern fill definitions
%
/Level2PatternFill {
/Tile8x8 {/PaintType 2 /PatternType 1 /TilingType 1 /BBox [0 0 8 8] /XStep 8 /YStep 8}
	bind def
/KeepColor {currentrgbcolor [/Pattern /DeviceRGB] setcolorspace} bind def
<< Tile8x8
 /PaintProc {0.5 setlinewidth pop 0 0 M 8 8 L 0 8 M 8 0 L stroke} 
>> matrix makepattern
/Pat1 exch def
<< Tile8x8
 /PaintProc {0.5 setlinewidth pop 0 0 M 8 8 L 0 8 M 8 0 L stroke
	0 4 M 4 8 L 8 4 L 4 0 L 0 4 L stroke}
>> matrix makepattern
/Pat2 exch def
<< Tile8x8
 /PaintProc {0.5 setlinewidth pop 0 0 M 0 8 L
	8 8 L 8 0 L 0 0 L fill}
>> matrix makepattern
/Pat3 exch def
<< Tile8x8
 /PaintProc {0.5 setlinewidth pop -4 8 M 8 -4 L
	0 12 M 12 0 L stroke}
>> matrix makepattern
/Pat4 exch def
<< Tile8x8
 /PaintProc {0.5 setlinewidth pop -4 0 M 8 12 L
	0 -4 M 12 8 L stroke}
>> matrix makepattern
/Pat5 exch def
<< Tile8x8
 /PaintProc {0.5 setlinewidth pop -2 8 M 4 -4 L
	0 12 M 8 -4 L 4 12 M 10 0 L stroke}
>> matrix makepattern
/Pat6 exch def
<< Tile8x8
 /PaintProc {0.5 setlinewidth pop -2 0 M 4 12 L
	0 -4 M 8 12 L 4 -4 M 10 8 L stroke}
>> matrix makepattern
/Pat7 exch def
<< Tile8x8
 /PaintProc {0.5 setlinewidth pop 8 -2 M -4 4 L
	12 0 M -4 8 L 12 4 M 0 10 L stroke}
>> matrix makepattern
/Pat8 exch def
<< Tile8x8
 /PaintProc {0.5 setlinewidth pop 0 -2 M 12 4 L
	-4 0 M 12 8 L -4 4 M 8 10 L stroke}
>> matrix makepattern
/Pat9 exch def
/Pattern1 {PatternBgnd KeepColor Pat1 setpattern} bind def
/Pattern2 {PatternBgnd KeepColor Pat2 setpattern} bind def
/Pattern3 {PatternBgnd KeepColor Pat3 setpattern} bind def
/Pattern4 {PatternBgnd KeepColor Landscape {Pat5} {Pat4} ifelse setpattern} bind def
/Pattern5 {PatternBgnd KeepColor Landscape {Pat4} {Pat5} ifelse setpattern} bind def
/Pattern6 {PatternBgnd KeepColor Landscape {Pat9} {Pat6} ifelse setpattern} bind def
/Pattern7 {PatternBgnd KeepColor Landscape {Pat8} {Pat7} ifelse setpattern} bind def
} def
%
%
%End of PostScript Level 2 code
%
/PatternBgnd {
  TransparentPatterns {} {gsave 1 setgray fill grestore} ifelse
} def
%
% Substitute for Level 2 pattern fill codes with
% grayscale if Level 2 support is not selected.
%
/Level1PatternFill {
/Pattern1 {0.250 Density} bind def
/Pattern2 {0.500 Density} bind def
/Pattern3 {0.750 Density} bind def
/Pattern4 {0.125 Density} bind def
/Pattern5 {0.375 Density} bind def
/Pattern6 {0.625 Density} bind def
/Pattern7 {0.875 Density} bind def
} def
%
% Now test for support of Level 2 code
%
Level1 {Level1PatternFill} {Level2PatternFill} ifelse
%
/Symbol-Oblique /Symbol findfont [1 0 .167 1 0 0] makefont
dup length dict begin {1 index /FID eq {pop pop} {def} ifelse} forall
currentdict end definefont pop
/MFshow {
   { dup 5 get 3 ge
     { 5 get 3 eq {gsave} {grestore} ifelse }
     {dup dup 0 get findfont exch 1 get scalefont setfont
     [ currentpoint ] exch dup 2 get 0 exch R dup 5 get 2 ne {dup dup 6
     get exch 4 get {show} {stringwidth pop 0 R} ifelse }if dup 5 get 0 eq
     {dup 3 get {2 get neg 0 exch R pop} {pop aload pop M} ifelse} {dup 5
     get 1 eq {dup 2 get exch dup 3 get exch 6 get stringwidth pop -2 div
     dup 0 R} {dup 6 get stringwidth pop -2 div 0 R 6 get
     show 2 index {aload pop M neg 3 -1 roll neg R pop pop} {pop pop pop
     pop aload pop M} ifelse }ifelse }ifelse }
     ifelse }
   forall} bind def
/MFwidth {0 exch { dup 5 get 3 ge { 5 get 3 eq { 0 } { pop } ifelse }
 {dup 3 get{dup dup 0 get findfont exch 1 get scalefont setfont
     6 get stringwidth pop add} {pop} ifelse} ifelse} forall} bind def
/MLshow { currentpoint stroke M
  0 exch R
  Blacktext {gsave 0 setgray MFshow grestore} {MFshow} ifelse } bind def
/MRshow { currentpoint stroke M
  exch dup MFwidth neg 3 -1 roll R
  Blacktext {gsave 0 setgray MFshow grestore} {MFshow} ifelse } bind def
/MCshow { currentpoint stroke M
  exch dup MFwidth -2 div 3 -1 roll R
  Blacktext {gsave 0 setgray MFshow grestore} {MFshow} ifelse } bind def
/XYsave    { [( ) 1 2 true false 3 ()] } bind def
/XYrestore { [( ) 1 2 true false 4 ()] } bind def
end
%%EndProlog
gnudict begin
gsave
50 50 translate
0.050 0.050 scale
0 setgray
newpath
(Helvetica) findfont 260 scalefont setfont
1.000 UL
LTb
1430 832 M
31 0 V
5349 0 R
-31 0 V
1430 1135 M
31 0 V
5349 0 R
-31 0 V
1430 1279 M
63 0 V
5317 0 R
-63 0 V
stroke
1274 1279 M
[ [(Helvetica) 260.0 0.0 true true 0 (10)]
[(Helvetica) 208.0 130.0 true true 0 (-4)]
] -112.7 MRshow
1.000 UL
LTb
1430 1726 M
31 0 V
5349 0 R
-31 0 V
1430 2318 M
31 0 V
5349 0 R
-31 0 V
1430 2621 M
31 0 V
5349 0 R
-31 0 V
1430 2765 M
63 0 V
5317 0 R
-63 0 V
stroke
1274 2765 M
[ [(Helvetica) 260.0 0.0 true true 0 (10)]
[(Helvetica) 208.0 130.0 true true 0 (-3)]
] -112.7 MRshow
1.000 UL
LTb
1430 3212 M
31 0 V
5349 0 R
-31 0 V
1430 3803 M
31 0 V
5349 0 R
-31 0 V
1430 4106 M
31 0 V
5349 0 R
-31 0 V
1430 4250 M
63 0 V
5317 0 R
-63 0 V
stroke
1274 4250 M
[ [(Helvetica) 260.0 0.0 true true 0 (10)]
[(Helvetica) 208.0 130.0 true true 0 (-2)]
] -112.7 MRshow
1.000 UL
LTb
1430 4698 M
31 0 V
5349 0 R
-31 0 V
1430 5289 M
31 0 V
5349 0 R
-31 0 V
1430 5592 M
31 0 V
5349 0 R
-31 0 V
1430 5736 M
63 0 V
5317 0 R
-63 0 V
stroke
1274 5736 M
[ [(Helvetica) 260.0 0.0 true true 0 (10)]
[(Helvetica) 208.0 130.0 true true 0 (-1)]
] -112.7 MRshow
1.000 UL
LTb
1430 832 M
0 31 V
0 4873 R
0 -31 V
1696 832 M
0 31 V
0 4873 R
0 -31 V
1903 832 M
0 31 V
0 4873 R
0 -31 V
2072 832 M
0 31 V
0 4873 R
0 -31 V
2215 832 M
0 31 V
0 4873 R
0 -31 V
2338 832 M
0 31 V
0 4873 R
0 -31 V
2447 832 M
0 31 V
0 4873 R
0 -31 V
2545 832 M
0 63 V
0 4841 R
0 -63 V
stroke
2545 572 M
[ [(Helvetica) 260.0 0.0 true true 0 (10)]
[(Helvetica) 208.0 130.0 true true 0 (5)]
] -112.7 MCshow
1.000 UL
LTb
3187 832 M
0 31 V
0 4873 R
0 -31 V
3562 832 M
0 31 V
0 4873 R
0 -31 V
3829 832 M
0 31 V
0 4873 R
0 -31 V
4036 832 M
0 31 V
0 4873 R
0 -31 V
4204 832 M
0 31 V
0 4873 R
0 -31 V
4347 832 M
0 31 V
0 4873 R
0 -31 V
4471 832 M
0 31 V
0 4873 R
0 -31 V
4580 832 M
0 31 V
0 4873 R
0 -31 V
4678 832 M
0 63 V
0 4841 R
0 -63 V
stroke
4678 572 M
[ [(Helvetica) 260.0 0.0 true true 0 (10)]
[(Helvetica) 208.0 130.0 true true 0 (6)]
] -112.7 MCshow
1.000 UL
LTb
5319 832 M
0 31 V
0 4873 R
0 -31 V
5695 832 M
0 31 V
0 4873 R
0 -31 V
5961 832 M
0 31 V
0 4873 R
0 -31 V
6168 832 M
0 31 V
0 4873 R
0 -31 V
6337 832 M
0 31 V
0 4873 R
0 -31 V
6480 832 M
0 31 V
0 4873 R
0 -31 V
6603 832 M
0 31 V
0 4873 R
0 -31 V
6712 832 M
0 31 V
0 4873 R
0 -31 V
6810 832 M
0 63 V
0 4841 R
0 -63 V
stroke
6810 572 M
[ [(Helvetica) 260.0 0.0 true true 0 (10)]
[(Helvetica) 208.0 130.0 true true 0 (7)]
] -112.7 MCshow
1.000 UL
LTb
1.000 UL
LTb
1430 5736 N
0 -4904 V
5380 0 V
0 4904 V
-5380 0 V
Z stroke
LCb setrgbcolor
520 3284 M
currentpoint gsave translate 90 rotate 0 0 moveto
[ [(Helvetica) 260.0 0.0 true true 0 (c/c)]
[(Helvetica) 208.0 -78.0 true true 0 (inj)]
] -60.7 MCshow
grestore
LTb
LCb setrgbcolor
4120 182 M
[ [(Helvetica) 260.0 0.0 true true 0 (t \(seconds\))]
] -86.7 MCshow
1538 5491 M
[ [(Helvetica) 260.0 0.0 true true 0 (\(b\) test B1)]
] -86.7 MLshow
LTb
1.000 UP
1.000 UL
LTb
1.300 UP
1.000 UL
LT0
LTb
5967 5517 M
[ [(Helvetica) 260.0 0.0 true true 0 (data)]
] -86.7 MRshow
LT0
1588 1567 Circle
1782 1446 Circle
1838 1578 Circle
1891 1255 Circle
1942 1104 Circle
2079 1483 Circle
2121 1393 Circle
2161 1556 Circle
2199 1314 Circle
2236 1340 Circle
2296 1010 Circle
2323 1641 Circle
2355 912 Circle
2416 1218 Circle
2445 1051 Circle
2474 1433 Circle
2502 1876 Circle
2555 1873 Circle
2606 1421 Circle
2631 1493 Circle
2655 1369 Circle
2678 1903 Circle
2701 2283 Circle
2723 2235 Circle
2744 2285 Circle
2765 2479 Circle
2785 2521 Circle
2804 2647 Circle
2824 2651 Circle
2843 2776 Circle
2861 2932 Circle
2879 2986 Circle
2897 3044 Circle
2914 3121 Circle
2931 3225 Circle
2948 3244 Circle
2963 3267 Circle
2979 3431 Circle
2994 3463 Circle
3007 3413 Circle
3019 3476 Circle
3035 3569 Circle
3051 3610 Circle
3067 3674 Circle
3082 3678 Circle
3097 3819 Circle
3111 3762 Circle
3126 3791 Circle
3140 3902 Circle
3154 3857 Circle
3168 3896 Circle
3181 3914 Circle
3195 3925 Circle
3208 4012 Circle
3220 3992 Circle
3233 4056 Circle
3245 4037 Circle
3257 4093 Circle
3269 4107 Circle
3280 4124 Circle
3292 4102 Circle
3303 4137 Circle
3314 4111 Circle
3325 4145 Circle
3335 4161 Circle
3346 4173 Circle
3357 4173 Circle
3367 4177 Circle
3377 4234 Circle
3388 4251 Circle
3398 4226 Circle
3408 4244 Circle
3418 4230 Circle
3427 4272 Circle
3437 4258 Circle
3447 4258 Circle
3457 4265 Circle
3466 4292 Circle
3476 4275 Circle
3486 4258 Circle
3495 4251 Circle
3504 4269 Circle
3514 4272 Circle
3523 4282 Circle
3532 4315 Circle
3541 4292 Circle
3550 4265 Circle
3558 4305 Circle
3567 4321 Circle
3576 4312 Circle
3584 4255 Circle
3592 4282 Circle
3600 4286 Circle
3609 4255 Circle
3617 4308 Circle
3625 4251 Circle
3633 4282 Circle
3641 4282 Circle
3649 4241 Circle
3657 4292 Circle
3664 4286 Circle
3672 4230 Circle
3680 4262 Circle
3687 4265 Circle
3694 4234 Circle
3702 4234 Circle
3709 4275 Circle
3717 4230 Circle
3724 4212 Circle
3732 4212 Circle
3739 4212 Circle
3746 4230 Circle
3754 4212 Circle
3761 4208 Circle
3768 4165 Circle
3775 4223 Circle
3782 4204 Circle
3789 4173 Circle
3796 4208 Circle
3802 4200 Circle
3809 4204 Circle
3815 4161 Circle
3822 4189 Circle
3828 4161 Circle
3835 4128 Circle
3841 4157 Circle
3848 4132 Circle
3854 4153 Circle
3860 4153 Circle
3867 4153 Circle
3873 4145 Circle
3879 4141 Circle
3885 4115 Circle
3891 4089 Circle
3898 4080 Circle
3904 4098 Circle
3911 4098 Circle
3917 4066 Circle
3923 4056 Circle
3929 4098 Circle
3934 4089 Circle
3940 4098 Circle
3946 4052 Circle
3952 4052 Circle
3957 4056 Circle
3963 4007 Circle
3969 4047 Circle
3974 4061 Circle
3980 3981 Circle
3985 3992 Circle
3990 3992 Circle
3996 3992 Circle
4001 3981 Circle
4006 3948 Circle
4011 3997 Circle
4016 3981 Circle
4022 3992 Circle
4027 3997 Circle
4032 3919 Circle
4037 3925 Circle
4042 3992 Circle
4047 3931 Circle
4052 3948 Circle
4057 3954 Circle
4062 3914 Circle
4067 3943 Circle
4073 3883 Circle
4078 3943 Circle
4083 3902 Circle
4089 3889 Circle
4095 3896 Circle
4099 3937 Circle
4104 3902 Circle
4109 3908 Circle
4114 3858 Circle
4119 3883 Circle
4123 3854 Circle
4128 3844 Circle
4132 3896 Circle
4137 3818 Circle
4141 3783 Circle
4146 3798 Circle
4150 3840 Circle
4154 3853 Circle
4159 3796 Circle
4163 3755 Circle
4167 3784 Circle
4171 3834 Circle
4176 3792 Circle
4180 3840 Circle
4184 3716 Circle
4188 3843 Circle
4192 3767 Circle
4196 3749 Circle
4201 3742 Circle
4205 3761 Circle
4209 3708 Circle
4213 3755 Circle
4218 3745 Circle
4222 3720 Circle
4226 3709 Circle
4231 3673 Circle
4235 3692 Circle
4239 3699 Circle
4244 3652 Circle
4248 3673 Circle
4252 3699 Circle
4256 3640 Circle
4260 3620 Circle
4264 3661 Circle
4268 3593 Circle
4272 3698 Circle
4276 3692 Circle
4280 3662 Circle
4284 3626 Circle
4288 3652 Circle
4292 3580 Circle
4296 3665 Circle
4300 3654 Circle
4304 3558 Circle
4308 3616 Circle
4311 3546 Circle
4315 3575 Circle
4319 3580 Circle
4323 3557 Circle
4327 3580 Circle
4331 3586 Circle
4335 3555 Circle
4339 3619 Circle
4342 3510 Circle
4346 3549 Circle
4350 3510 Circle
4354 3502 Circle
4358 3581 Circle
4362 3593 Circle
4366 3521 Circle
4369 3520 Circle
4373 3540 Circle
4377 3505 Circle
4380 3486 Circle
4384 3496 Circle
4387 3525 Circle
4391 3515 Circle
4394 3536 Circle
4398 3450 Circle
4402 3513 Circle
4405 3486 Circle
4409 3472 Circle
4412 3452 Circle
4416 3445 Circle
4419 3488 Circle
4422 3450 Circle
4425 3465 Circle
4429 3460 Circle
4432 3457 Circle
4435 3441 Circle
4438 3482 Circle
4441 3450 Circle
4445 3448 Circle
4448 3514 Circle
4451 3491 Circle
4454 3470 Circle
4457 3450 Circle
4460 3395 Circle
4464 3416 Circle
4467 3395 Circle
4470 3422 Circle
4473 3426 Circle
4476 3398 Circle
4479 3448 Circle
4482 3382 Circle
4485 3408 Circle
4488 3369 Circle
4491 3379 Circle
4495 3403 Circle
4498 3383 Circle
4501 3360 Circle
4504 3363 Circle
4507 3375 Circle
4510 3358 Circle
4513 3416 Circle
4516 3333 Circle
4518 3358 Circle
4521 3350 Circle
4524 3356 Circle
4527 3295 Circle
4530 3322 Circle
4533 3336 Circle
4536 3360 Circle
4539 3325 Circle
4542 3278 Circle
4545 3304 Circle
4548 3286 Circle
4551 3324 Circle
4554 3330 Circle
4557 3262 Circle
4560 3295 Circle
4563 3292 Circle
4566 3331 Circle
4569 3242 Circle
4572 3257 Circle
4575 3190 Circle
4578 3262 Circle
4581 3220 Circle
4583 3265 Circle
4586 3227 Circle
4589 3237 Circle
4592 3257 Circle
4595 3235 Circle
4597 3213 Circle
4600 3229 Circle
4603 3232 Circle
4606 3235 Circle
4608 3234 Circle
4611 3184 Circle
4614 3192 Circle
4617 3162 Circle
4619 3175 Circle
4622 3109 Circle
4625 3204 Circle
4628 3199 Circle
4630 3137 Circle
4633 3184 Circle
4636 3160 Circle
4639 3182 Circle
4641 3133 Circle
4644 3123 Circle
4647 3158 Circle
4650 3162 Circle
4652 3123 Circle
4655 3102 Circle
4657 3171 Circle
4660 3111 Circle
4663 3149 Circle
4665 3102 Circle
4668 3059 Circle
4670 3119 Circle
4673 3119 Circle
4675 3102 Circle
4678 3160 Circle
4680 3090 Circle
4683 3083 Circle
4685 3113 Circle
4688 3070 Circle
4690 3092 Circle
4693 3081 Circle
4695 3064 Circle
4698 3083 Circle
4700 3068 Circle
4703 3075 Circle
4705 3048 Circle
4708 3062 Circle
4710 3075 Circle
4713 3039 Circle
4715 3037 Circle
4718 3044 Circle
4720 3055 Circle
4723 3053 Circle
4725 3083 Circle
4728 3041 Circle
4730 3057 Circle
4733 3066 Circle
4735 3023 Circle
4737 2996 Circle
4740 3016 Circle
4742 2981 Circle
4745 3011 Circle
4747 2943 Circle
4749 3001 Circle
4752 2966 Circle
4754 2976 Circle
4757 2969 Circle
4759 2984 Circle
4761 2979 Circle
4764 2958 Circle
4766 2956 Circle
4768 2943 Circle
4771 2935 Circle
4773 2971 Circle
4775 2958 Circle
4778 2956 Circle
4780 2890 Circle
6310 5517 Circle
3.000 UL
LT0
LTb
5967 5205 M
[ [(Helvetica) 260.0 0.0 true true 0 (single porosity)]
] -86.7 MRshow
LT0
6123 5205 M
375 0 V
1430 1317 M
30 0 V
30 0 V
28 0 V
28 0 V
27 0 V
26 0 V
25 0 V
25 0 V
24 0 V
23 0 V
23 0 V
23 0 V
21 0 V
22 0 V
21 0 V
20 0 V
20 0 V
19 0 V
19 0 V
19 0 V
18 6 V
18 0 V
18 0 V
17 6 V
17 0 V
17 6 V
16 0 V
17 6 V
15 6 V
16 5 V
15 12 V
15 5 V
15 12 V
15 10 V
14 11 V
14 16 V
14 15 V
14 15 V
13 20 V
14 19 V
13 18 V
13 23 V
13 26 V
12 24 V
13 24 V
12 31 V
12 25 V
12 32 V
12 30 V
11 29 V
12 33 V
11 32 V
11 33 V
12 34 V
11 32 V
10 35 V
11 34 V
11 33 V
10 35 V
10 34 V
11 34 V
10 34 V
10 33 V
10 34 V
10 33 V
9 34 V
10 32 V
9 32 V
10 33 V
9 31 V
88 294 V
81 251 V
74 212 V
69 177 V
64 150 V
59 127 V
56 106 V
53 91 V
50 77 V
48 65 V
45 55 V
43 46 V
41 39 V
40 32 V
38 27 V
36 22 V
35 18 V
34 13 V
32 10 V
31 7 V
31 4 V
29 2 V
29 -1 V
27 -2 V
27 -5 V
26 -6 V
26 -8 V
24 -9 V
24 -10 V
24 -12 V
23 -13 V
22 -13 V
stroke 3874 4160 M
22 -15 V
21 -15 V
21 -16 V
20 -17 V
20 -18 V
20 -18 V
19 -19 V
19 -19 V
18 -20 V
18 -21 V
18 -20 V
17 -22 V
17 -21 V
17 -22 V
16 -22 V
16 -23 V
16 -23 V
15 -23 V
16 -24 V
15 -23 V
15 -24 V
14 -24 V
15 -25 V
14 -24 V
14 -25 V
13 -25 V
14 -25 V
13 -25 V
13 -25 V
13 -26 V
13 -25 V
13 -26 V
12 -26 V
12 -26 V
12 -26 V
12 -26 V
12 -26 V
12 -27 V
11 -26 V
12 -26 V
11 -27 V
11 -27 V
11 -26 V
11 -27 V
11 -27 V
10 -27 V
11 -27 V
10 -27 V
10 -27 V
10 -27 V
10 -27 V
10 -27 V
10 -28 V
10 -27 V
9 -27 V
10 -27 V
9 -28 V
10 -27 V
88 -275 V
80 -276 V
74 -276 V
69 -279 V
64 -277 V
60 -279 V
56 -270 V
stroke
LT6
LTb
5967 4893 M
[ [(Helvetica) 260.0 0.0 true true 0 (double porosity)]
] -86.7 MRshow
LT6
6123 4893 M
375 0 V
1430 1317 M
30 0 V
30 0 V
28 0 V
28 0 V
27 0 V
26 0 V
25 0 V
25 0 V
24 0 V
23 0 V
23 0 V
23 0 V
21 0 V
22 0 V
21 0 V
20 0 V
20 0 V
19 0 V
19 0 V
19 0 V
18 0 V
18 0 V
18 0 V
17 0 V
17 0 V
17 0 V
16 0 V
17 0 V
15 0 V
16 0 V
15 0 V
15 0 V
15 0 V
15 0 V
14 0 V
14 6 V
14 0 V
14 0 V
13 0 V
14 6 V
13 0 V
13 6 V
13 0 V
12 6 V
13 6 V
12 5 V
12 6 V
12 11 V
12 6 V
11 11 V
12 11 V
11 11 V
11 10 V
12 15 V
11 15 V
10 20 V
11 14 V
11 23 V
10 18 V
10 22 V
11 25 V
10 24 V
10 24 V
10 26 V
10 29 V
9 27 V
10 30 V
9 31 V
10 30 V
9 31 V
88 335 V
81 331 V
74 297 V
69 256 V
64 219 V
59 184 V
56 156 V
53 131 V
50 111 V
48 93 V
45 77 V
43 64 V
41 53 V
40 43 V
38 35 V
36 27 V
35 21 V
34 14 V
32 10 V
31 5 V
31 1 V
29 -3 V
29 -5 V
27 -8 V
27 -11 V
26 -13 V
26 -15 V
24 -16 V
24 -18 V
24 -19 V
23 -20 V
22 -21 V
stroke 3874 4136 M
22 -22 V
21 -23 V
21 -23 V
20 -23 V
20 -24 V
20 -23 V
19 -24 V
19 -24 V
18 -24 V
18 -24 V
18 -23 V
17 -23 V
17 -23 V
17 -23 V
16 -22 V
16 -22 V
16 -21 V
15 -21 V
16 -21 V
15 -20 V
15 -19 V
14 -19 V
15 -19 V
14 -18 V
14 -18 V
13 -17 V
14 -16 V
13 -17 V
13 -15 V
13 -16 V
13 -14 V
13 -15 V
12 -14 V
12 -14 V
12 -13 V
12 -13 V
12 -12 V
12 -13 V
11 -12 V
12 -11 V
11 -12 V
11 -11 V
11 -11 V
11 -11 V
11 -10 V
10 -11 V
11 -10 V
10 -10 V
10 -9 V
10 -10 V
10 -10 V
10 -9 V
10 -9 V
10 -10 V
9 -9 V
10 -9 V
9 -8 V
10 -9 V
88 -85 V
80 -81 V
74 -80 V
69 -79 V
64 -80 V
60 -80 V
56 -81 V
53 -80 V
50 -82 V
47 -81 V
46 -82 V
43 -83 V
41 -84 V
39 -83 V
38 -84 V
36 -82 V
35 -85 V
34 -85 V
33 -83 V
31 -86 V
30 -86 V
30 -87 V
28 -83 V
28 -87 V
27 -84 V
26 -87 V
25 -90 V
25 -80 V
10 -38 V
stroke
8.000 UL
LT0
LTb
5967 4581 M
[ [(Helvetica) 260.0 0.0 true true 0 (multirate lognormal)]
] -86.7 MRshow
LT0
6123 4581 M
375 0 V
1430 1317 M
30 0 V
30 0 V
28 0 V
28 0 V
27 0 V
26 0 V
25 0 V
25 0 V
24 0 V
23 0 V
23 0 V
23 0 V
21 0 V
22 0 V
21 0 V
20 0 V
20 0 V
19 0 V
19 0 V
19 0 V
18 0 V
18 0 V
18 0 V
17 0 V
17 0 V
17 0 V
16 0 V
17 0 V
15 0 V
16 0 V
15 0 V
15 0 V
15 0 V
15 0 V
14 0 V
14 0 V
14 0 V
14 0 V
13 0 V
14 0 V
13 0 V
13 0 V
13 0 V
12 0 V
13 6 V
12 0 V
12 0 V
12 6 V
12 0 V
11 6 V
12 0 V
11 6 V
11 6 V
12 5 V
11 6 V
10 6 V
11 5 V
11 12 V
10 10 V
10 11 V
11 11 V
10 15 V
10 16 V
10 19 V
10 15 V
9 23 V
10 18 V
9 22 V
10 25 V
9 24 V
88 308 V
81 360 V
74 345 V
69 304 V
64 260 V
59 217 V
56 182 V
53 151 V
50 124 V
48 103 V
45 84 V
43 68 V
41 54 V
40 43 V
38 33 V
36 25 V
35 17 V
34 12 V
32 6 V
31 1 V
31 -2 V
29 -6 V
29 -8 V
27 -11 V
27 -13 V
26 -14 V
26 -16 V
24 -17 V
24 -19 V
24 -19 V
23 -19 V
22 -20 V
stroke 3874 4123 M
22 -20 V
21 -21 V
21 -21 V
20 -21 V
20 -21 V
20 -21 V
19 -22 V
19 -21 V
18 -21 V
18 -20 V
18 -21 V
17 -21 V
17 -20 V
17 -20 V
16 -20 V
16 -20 V
16 -20 V
15 -20 V
16 -19 V
15 -19 V
15 -19 V
14 -19 V
15 -18 V
14 -19 V
14 -18 V
13 -18 V
14 -18 V
13 -17 V
13 -18 V
13 -17 V
13 -18 V
13 -17 V
12 -16 V
12 -17 V
12 -17 V
12 -16 V
12 -17 V
12 -16 V
11 -16 V
12 -16 V
11 -15 V
11 -16 V
11 -15 V
11 -16 V
11 -15 V
10 -15 V
11 -15 V
10 -15 V
10 -15 V
10 -14 V
10 -15 V
10 -15 V
10 -14 V
10 -14 V
9 -14 V
10 -14 V
9 -14 V
10 -14 V
88 -134 V
80 -126 V
74 -118 V
69 -114 V
64 -106 V
60 -103 V
56 -99 V
53 -94 V
50 -90 V
47 -86 V
46 -86 V
43 -81 V
41 -77 V
39 -78 V
38 -73 V
36 -71 V
35 -70 V
34 -68 V
33 -64 V
31 -66 V
30 -59 V
30 -65 V
28 -55 V
28 -61 V
27 -57 V
26 -51 V
25 -57 V
25 -48 V
6 -13 V
stroke
1.000 UL
LTb
1430 5736 N
0 -4904 V
5380 0 V
0 4904 V
-5380 0 V
Z stroke
1.000 UP
1.000 UL
LTb
stroke
grestore
end
showpage
%%Trailer
%%DocumentFonts: Helvetica
