%!PS-Adobe-2.0 EPSF-2.0
%%Title: B2_22Na_logn0a.eps
%%Creator: gnuplot 4.2 patchlevel 6 
%%CreationDate: Thu Aug  4 15:25:25 2011
%%DocumentFonts: (atend)
%%BoundingBox: 50 50 410 352
%%EndComments
%%BeginProlog
/gnudict 256 dict def
gnudict begin
%
% The following 6 true/false flags may be edited by hand if required
% The unit line width may also be changed
%
/Color false def
/Blacktext false def
/Solid false def
/Dashlength 1 def
/Landscape false def
/Level1 false def
/Rounded false def
/TransparentPatterns false def
/gnulinewidth 5.000 def
/userlinewidth gnulinewidth def
%
/vshift -86 def
/dl1 {
  10.0 Dashlength mul mul
  Rounded { currentlinewidth 0.75 mul sub dup 0 le { pop 0.01 } if } if
} def
/dl2 {
  10.0 Dashlength mul mul
  Rounded { currentlinewidth 0.75 mul add } if
} def
/hpt_ 31.5 def
/vpt_ 31.5 def
/hpt hpt_ def
/vpt vpt_ def
Level1 {} {
/SDict 10 dict def
systemdict /pdfmark known not {
  userdict /pdfmark systemdict /cleartomark get put
} if
SDict begin [
  /Title (B2_22Na_logn0a.eps)
  /Subject (gnuplot plot)
  /Creator (gnuplot 4.2 patchlevel 6 )
  /Author (Bwalya Malama,,,)
%  /Producer (gnuplot)
%  /Keywords ()
  /CreationDate (Thu Aug  4 15:25:25 2011)
  /DOCINFO pdfmark
end
} ifelse
%
% Gnuplot Prolog Version 4.2 (August 2006)
%
/M {moveto} bind def
/L {lineto} bind def
/R {rmoveto} bind def
/V {rlineto} bind def
/N {newpath moveto} bind def
/Z {closepath} bind def
/C {setrgbcolor} bind def
/f {rlineto fill} bind def
/vpt2 vpt 2 mul def
/hpt2 hpt 2 mul def
/Lshow {currentpoint stroke M 0 vshift R 
	Blacktext {gsave 0 setgray show grestore} {show} ifelse} def
/Rshow {currentpoint stroke M dup stringwidth pop neg vshift R
	Blacktext {gsave 0 setgray show grestore} {show} ifelse} def
/Cshow {currentpoint stroke M dup stringwidth pop -2 div vshift R 
	Blacktext {gsave 0 setgray show grestore} {show} ifelse} def
/UP {dup vpt_ mul /vpt exch def hpt_ mul /hpt exch def
  /hpt2 hpt 2 mul def /vpt2 vpt 2 mul def} def
/DL {Color {setrgbcolor Solid {pop []} if 0 setdash}
 {pop pop pop 0 setgray Solid {pop []} if 0 setdash} ifelse} def
/BL {stroke userlinewidth 2 mul setlinewidth
	Rounded {1 setlinejoin 1 setlinecap} if} def
/AL {stroke userlinewidth 2 div setlinewidth
	Rounded {1 setlinejoin 1 setlinecap} if} def
/UL {dup gnulinewidth mul /userlinewidth exch def
	dup 1 lt {pop 1} if 10 mul /udl exch def} def
/PL {stroke userlinewidth setlinewidth
	Rounded {1 setlinejoin 1 setlinecap} if} def
% Default Line colors
/LCw {1 1 1} def
/LCb {0 0 0} def
/LCa {0 0 0} def
/LC0 {1 0 0} def
/LC1 {0 1 0} def
/LC2 {0 0 1} def
/LC3 {1 0 1} def
/LC4 {0 1 1} def
/LC5 {1 1 0} def
/LC6 {0 0 0} def
/LC7 {1 0.3 0} def
/LC8 {0.5 0.5 0.5} def
% Default Line Types
/LTw {PL [] 1 setgray} def
/LTb {BL [] LCb DL} def
/LTa {AL [1 udl mul 2 udl mul] 0 setdash LCa setrgbcolor} def
/LT0 {PL [] LC0 DL} def
/LT1 {PL [4 dl1 2 dl2] LC1 DL} def
/LT2 {PL [2 dl1 3 dl2] LC2 DL} def
/LT3 {PL [1 dl1 1.5 dl2] LC3 DL} def
/LT4 {PL [6 dl1 2 dl2 1 dl1 2 dl2] LC4 DL} def
/LT5 {PL [3 dl1 3 dl2 1 dl1 3 dl2] LC5 DL} def
/LT6 {PL [2 dl1 2 dl2 2 dl1 6 dl2] LC6 DL} def
/LT7 {PL [1 dl1 2 dl2 6 dl1 2 dl2 1 dl1 2 dl2] LC7 DL} def
/LT8 {PL [2 dl1 2 dl2 2 dl1 2 dl2 2 dl1 2 dl2 2 dl1 4 dl2] LC8 DL} def
/Pnt {stroke [] 0 setdash gsave 1 setlinecap M 0 0 V stroke grestore} def
/Dia {stroke [] 0 setdash 2 copy vpt add M
  hpt neg vpt neg V hpt vpt neg V
  hpt vpt V hpt neg vpt V closepath stroke
  Pnt} def
/Pls {stroke [] 0 setdash vpt sub M 0 vpt2 V
  currentpoint stroke M
  hpt neg vpt neg R hpt2 0 V stroke
 } def
/Box {stroke [] 0 setdash 2 copy exch hpt sub exch vpt add M
  0 vpt2 neg V hpt2 0 V 0 vpt2 V
  hpt2 neg 0 V closepath stroke
  Pnt} def
/Crs {stroke [] 0 setdash exch hpt sub exch vpt add M
  hpt2 vpt2 neg V currentpoint stroke M
  hpt2 neg 0 R hpt2 vpt2 V stroke} def
/TriU {stroke [] 0 setdash 2 copy vpt 1.12 mul add M
  hpt neg vpt -1.62 mul V
  hpt 2 mul 0 V
  hpt neg vpt 1.62 mul V closepath stroke
  Pnt} def
/Star {2 copy Pls Crs} def
/BoxF {stroke [] 0 setdash exch hpt sub exch vpt add M
  0 vpt2 neg V hpt2 0 V 0 vpt2 V
  hpt2 neg 0 V closepath fill} def
/TriUF {stroke [] 0 setdash vpt 1.12 mul add M
  hpt neg vpt -1.62 mul V
  hpt 2 mul 0 V
  hpt neg vpt 1.62 mul V closepath fill} def
/TriD {stroke [] 0 setdash 2 copy vpt 1.12 mul sub M
  hpt neg vpt 1.62 mul V
  hpt 2 mul 0 V
  hpt neg vpt -1.62 mul V closepath stroke
  Pnt} def
/TriDF {stroke [] 0 setdash vpt 1.12 mul sub M
  hpt neg vpt 1.62 mul V
  hpt 2 mul 0 V
  hpt neg vpt -1.62 mul V closepath fill} def
/DiaF {stroke [] 0 setdash vpt add M
  hpt neg vpt neg V hpt vpt neg V
  hpt vpt V hpt neg vpt V closepath fill} def
/Pent {stroke [] 0 setdash 2 copy gsave
  translate 0 hpt M 4 {72 rotate 0 hpt L} repeat
  closepath stroke grestore Pnt} def
/PentF {stroke [] 0 setdash gsave
  translate 0 hpt M 4 {72 rotate 0 hpt L} repeat
  closepath fill grestore} def
/Circle {stroke [] 0 setdash 2 copy
  hpt 0 360 arc stroke Pnt} def
/CircleF {stroke [] 0 setdash hpt 0 360 arc fill} def
/C0 {BL [] 0 setdash 2 copy moveto vpt 90 450 arc} bind def
/C1 {BL [] 0 setdash 2 copy moveto
	2 copy vpt 0 90 arc closepath fill
	vpt 0 360 arc closepath} bind def
/C2 {BL [] 0 setdash 2 copy moveto
	2 copy vpt 90 180 arc closepath fill
	vpt 0 360 arc closepath} bind def
/C3 {BL [] 0 setdash 2 copy moveto
	2 copy vpt 0 180 arc closepath fill
	vpt 0 360 arc closepath} bind def
/C4 {BL [] 0 setdash 2 copy moveto
	2 copy vpt 180 270 arc closepath fill
	vpt 0 360 arc closepath} bind def
/C5 {BL [] 0 setdash 2 copy moveto
	2 copy vpt 0 90 arc
	2 copy moveto
	2 copy vpt 180 270 arc closepath fill
	vpt 0 360 arc} bind def
/C6 {BL [] 0 setdash 2 copy moveto
	2 copy vpt 90 270 arc closepath fill
	vpt 0 360 arc closepath} bind def
/C7 {BL [] 0 setdash 2 copy moveto
	2 copy vpt 0 270 arc closepath fill
	vpt 0 360 arc closepath} bind def
/C8 {BL [] 0 setdash 2 copy moveto
	2 copy vpt 270 360 arc closepath fill
	vpt 0 360 arc closepath} bind def
/C9 {BL [] 0 setdash 2 copy moveto
	2 copy vpt 270 450 arc closepath fill
	vpt 0 360 arc closepath} bind def
/C10 {BL [] 0 setdash 2 copy 2 copy moveto vpt 270 360 arc closepath fill
	2 copy moveto
	2 copy vpt 90 180 arc closepath fill
	vpt 0 360 arc closepath} bind def
/C11 {BL [] 0 setdash 2 copy moveto
	2 copy vpt 0 180 arc closepath fill
	2 copy moveto
	2 copy vpt 270 360 arc closepath fill
	vpt 0 360 arc closepath} bind def
/C12 {BL [] 0 setdash 2 copy moveto
	2 copy vpt 180 360 arc closepath fill
	vpt 0 360 arc closepath} bind def
/C13 {BL [] 0 setdash 2 copy moveto
	2 copy vpt 0 90 arc closepath fill
	2 copy moveto
	2 copy vpt 180 360 arc closepath fill
	vpt 0 360 arc closepath} bind def
/C14 {BL [] 0 setdash 2 copy moveto
	2 copy vpt 90 360 arc closepath fill
	vpt 0 360 arc} bind def
/C15 {BL [] 0 setdash 2 copy vpt 0 360 arc closepath fill
	vpt 0 360 arc closepath} bind def
/Rec {newpath 4 2 roll moveto 1 index 0 rlineto 0 exch rlineto
	neg 0 rlineto closepath} bind def
/Square {dup Rec} bind def
/Bsquare {vpt sub exch vpt sub exch vpt2 Square} bind def
/S0 {BL [] 0 setdash 2 copy moveto 0 vpt rlineto BL Bsquare} bind def
/S1 {BL [] 0 setdash 2 copy vpt Square fill Bsquare} bind def
/S2 {BL [] 0 setdash 2 copy exch vpt sub exch vpt Square fill Bsquare} bind def
/S3 {BL [] 0 setdash 2 copy exch vpt sub exch vpt2 vpt Rec fill Bsquare} bind def
/S4 {BL [] 0 setdash 2 copy exch vpt sub exch vpt sub vpt Square fill Bsquare} bind def
/S5 {BL [] 0 setdash 2 copy 2 copy vpt Square fill
	exch vpt sub exch vpt sub vpt Square fill Bsquare} bind def
/S6 {BL [] 0 setdash 2 copy exch vpt sub exch vpt sub vpt vpt2 Rec fill Bsquare} bind def
/S7 {BL [] 0 setdash 2 copy exch vpt sub exch vpt sub vpt vpt2 Rec fill
	2 copy vpt Square fill Bsquare} bind def
/S8 {BL [] 0 setdash 2 copy vpt sub vpt Square fill Bsquare} bind def
/S9 {BL [] 0 setdash 2 copy vpt sub vpt vpt2 Rec fill Bsquare} bind def
/S10 {BL [] 0 setdash 2 copy vpt sub vpt Square fill 2 copy exch vpt sub exch vpt Square fill
	Bsquare} bind def
/S11 {BL [] 0 setdash 2 copy vpt sub vpt Square fill 2 copy exch vpt sub exch vpt2 vpt Rec fill
	Bsquare} bind def
/S12 {BL [] 0 setdash 2 copy exch vpt sub exch vpt sub vpt2 vpt Rec fill Bsquare} bind def
/S13 {BL [] 0 setdash 2 copy exch vpt sub exch vpt sub vpt2 vpt Rec fill
	2 copy vpt Square fill Bsquare} bind def
/S14 {BL [] 0 setdash 2 copy exch vpt sub exch vpt sub vpt2 vpt Rec fill
	2 copy exch vpt sub exch vpt Square fill Bsquare} bind def
/S15 {BL [] 0 setdash 2 copy Bsquare fill Bsquare} bind def
/D0 {gsave translate 45 rotate 0 0 S0 stroke grestore} bind def
/D1 {gsave translate 45 rotate 0 0 S1 stroke grestore} bind def
/D2 {gsave translate 45 rotate 0 0 S2 stroke grestore} bind def
/D3 {gsave translate 45 rotate 0 0 S3 stroke grestore} bind def
/D4 {gsave translate 45 rotate 0 0 S4 stroke grestore} bind def
/D5 {gsave translate 45 rotate 0 0 S5 stroke grestore} bind def
/D6 {gsave translate 45 rotate 0 0 S6 stroke grestore} bind def
/D7 {gsave translate 45 rotate 0 0 S7 stroke grestore} bind def
/D8 {gsave translate 45 rotate 0 0 S8 stroke grestore} bind def
/D9 {gsave translate 45 rotate 0 0 S9 stroke grestore} bind def
/D10 {gsave translate 45 rotate 0 0 S10 stroke grestore} bind def
/D11 {gsave translate 45 rotate 0 0 S11 stroke grestore} bind def
/D12 {gsave translate 45 rotate 0 0 S12 stroke grestore} bind def
/D13 {gsave translate 45 rotate 0 0 S13 stroke grestore} bind def
/D14 {gsave translate 45 rotate 0 0 S14 stroke grestore} bind def
/D15 {gsave translate 45 rotate 0 0 S15 stroke grestore} bind def
/DiaE {stroke [] 0 setdash vpt add M
  hpt neg vpt neg V hpt vpt neg V
  hpt vpt V hpt neg vpt V closepath stroke} def
/BoxE {stroke [] 0 setdash exch hpt sub exch vpt add M
  0 vpt2 neg V hpt2 0 V 0 vpt2 V
  hpt2 neg 0 V closepath stroke} def
/TriUE {stroke [] 0 setdash vpt 1.12 mul add M
  hpt neg vpt -1.62 mul V
  hpt 2 mul 0 V
  hpt neg vpt 1.62 mul V closepath stroke} def
/TriDE {stroke [] 0 setdash vpt 1.12 mul sub M
  hpt neg vpt 1.62 mul V
  hpt 2 mul 0 V
  hpt neg vpt -1.62 mul V closepath stroke} def
/PentE {stroke [] 0 setdash gsave
  translate 0 hpt M 4 {72 rotate 0 hpt L} repeat
  closepath stroke grestore} def
/CircE {stroke [] 0 setdash 
  hpt 0 360 arc stroke} def
/Opaque {gsave closepath 1 setgray fill grestore 0 setgray closepath} def
/DiaW {stroke [] 0 setdash vpt add M
  hpt neg vpt neg V hpt vpt neg V
  hpt vpt V hpt neg vpt V Opaque stroke} def
/BoxW {stroke [] 0 setdash exch hpt sub exch vpt add M
  0 vpt2 neg V hpt2 0 V 0 vpt2 V
  hpt2 neg 0 V Opaque stroke} def
/TriUW {stroke [] 0 setdash vpt 1.12 mul add M
  hpt neg vpt -1.62 mul V
  hpt 2 mul 0 V
  hpt neg vpt 1.62 mul V Opaque stroke} def
/TriDW {stroke [] 0 setdash vpt 1.12 mul sub M
  hpt neg vpt 1.62 mul V
  hpt 2 mul 0 V
  hpt neg vpt -1.62 mul V Opaque stroke} def
/PentW {stroke [] 0 setdash gsave
  translate 0 hpt M 4 {72 rotate 0 hpt L} repeat
  Opaque stroke grestore} def
/CircW {stroke [] 0 setdash 
  hpt 0 360 arc Opaque stroke} def
/BoxFill {gsave Rec 1 setgray fill grestore} def
/Density {
  /Fillden exch def
  currentrgbcolor
  /ColB exch def /ColG exch def /ColR exch def
  /ColR ColR Fillden mul Fillden sub 1 add def
  /ColG ColG Fillden mul Fillden sub 1 add def
  /ColB ColB Fillden mul Fillden sub 1 add def
  ColR ColG ColB setrgbcolor} def
/BoxColFill {gsave Rec PolyFill} def
/PolyFill {gsave Density fill grestore grestore} def
/h {rlineto rlineto rlineto gsave closepath fill grestore} bind def
%
% PostScript Level 1 Pattern Fill routine for rectangles
% Usage: x y w h s a XX PatternFill
%	x,y = lower left corner of box to be filled
%	w,h = width and height of box
%	  a = angle in degrees between lines and x-axis
%	 XX = 0/1 for no/yes cross-hatch
%
/PatternFill {gsave /PFa [ 9 2 roll ] def
  PFa 0 get PFa 2 get 2 div add PFa 1 get PFa 3 get 2 div add translate
  PFa 2 get -2 div PFa 3 get -2 div PFa 2 get PFa 3 get Rec
  gsave 1 setgray fill grestore clip
  currentlinewidth 0.5 mul setlinewidth
  /PFs PFa 2 get dup mul PFa 3 get dup mul add sqrt def
  0 0 M PFa 5 get rotate PFs -2 div dup translate
  0 1 PFs PFa 4 get div 1 add floor cvi
	{PFa 4 get mul 0 M 0 PFs V} for
  0 PFa 6 get ne {
	0 1 PFs PFa 4 get div 1 add floor cvi
	{PFa 4 get mul 0 2 1 roll M PFs 0 V} for
 } if
  stroke grestore} def
%
/languagelevel where
 {pop languagelevel} {1} ifelse
 2 lt
	{/InterpretLevel1 true def}
	{/InterpretLevel1 Level1 def}
 ifelse
%
% PostScript level 2 pattern fill definitions
%
/Level2PatternFill {
/Tile8x8 {/PaintType 2 /PatternType 1 /TilingType 1 /BBox [0 0 8 8] /XStep 8 /YStep 8}
	bind def
/KeepColor {currentrgbcolor [/Pattern /DeviceRGB] setcolorspace} bind def
<< Tile8x8
 /PaintProc {0.5 setlinewidth pop 0 0 M 8 8 L 0 8 M 8 0 L stroke} 
>> matrix makepattern
/Pat1 exch def
<< Tile8x8
 /PaintProc {0.5 setlinewidth pop 0 0 M 8 8 L 0 8 M 8 0 L stroke
	0 4 M 4 8 L 8 4 L 4 0 L 0 4 L stroke}
>> matrix makepattern
/Pat2 exch def
<< Tile8x8
 /PaintProc {0.5 setlinewidth pop 0 0 M 0 8 L
	8 8 L 8 0 L 0 0 L fill}
>> matrix makepattern
/Pat3 exch def
<< Tile8x8
 /PaintProc {0.5 setlinewidth pop -4 8 M 8 -4 L
	0 12 M 12 0 L stroke}
>> matrix makepattern
/Pat4 exch def
<< Tile8x8
 /PaintProc {0.5 setlinewidth pop -4 0 M 8 12 L
	0 -4 M 12 8 L stroke}
>> matrix makepattern
/Pat5 exch def
<< Tile8x8
 /PaintProc {0.5 setlinewidth pop -2 8 M 4 -4 L
	0 12 M 8 -4 L 4 12 M 10 0 L stroke}
>> matrix makepattern
/Pat6 exch def
<< Tile8x8
 /PaintProc {0.5 setlinewidth pop -2 0 M 4 12 L
	0 -4 M 8 12 L 4 -4 M 10 8 L stroke}
>> matrix makepattern
/Pat7 exch def
<< Tile8x8
 /PaintProc {0.5 setlinewidth pop 8 -2 M -4 4 L
	12 0 M -4 8 L 12 4 M 0 10 L stroke}
>> matrix makepattern
/Pat8 exch def
<< Tile8x8
 /PaintProc {0.5 setlinewidth pop 0 -2 M 12 4 L
	-4 0 M 12 8 L -4 4 M 8 10 L stroke}
>> matrix makepattern
/Pat9 exch def
/Pattern1 {PatternBgnd KeepColor Pat1 setpattern} bind def
/Pattern2 {PatternBgnd KeepColor Pat2 setpattern} bind def
/Pattern3 {PatternBgnd KeepColor Pat3 setpattern} bind def
/Pattern4 {PatternBgnd KeepColor Landscape {Pat5} {Pat4} ifelse setpattern} bind def
/Pattern5 {PatternBgnd KeepColor Landscape {Pat4} {Pat5} ifelse setpattern} bind def
/Pattern6 {PatternBgnd KeepColor Landscape {Pat9} {Pat6} ifelse setpattern} bind def
/Pattern7 {PatternBgnd KeepColor Landscape {Pat8} {Pat7} ifelse setpattern} bind def
} def
%
%
%End of PostScript Level 2 code
%
/PatternBgnd {
  TransparentPatterns {} {gsave 1 setgray fill grestore} ifelse
} def
%
% Substitute for Level 2 pattern fill codes with
% grayscale if Level 2 support is not selected.
%
/Level1PatternFill {
/Pattern1 {0.250 Density} bind def
/Pattern2 {0.500 Density} bind def
/Pattern3 {0.750 Density} bind def
/Pattern4 {0.125 Density} bind def
/Pattern5 {0.375 Density} bind def
/Pattern6 {0.625 Density} bind def
/Pattern7 {0.875 Density} bind def
} def
%
% Now test for support of Level 2 code
%
Level1 {Level1PatternFill} {Level2PatternFill} ifelse
%
/Symbol-Oblique /Symbol findfont [1 0 .167 1 0 0] makefont
dup length dict begin {1 index /FID eq {pop pop} {def} ifelse} forall
currentdict end definefont pop
/MFshow {
   { dup 5 get 3 ge
     { 5 get 3 eq {gsave} {grestore} ifelse }
     {dup dup 0 get findfont exch 1 get scalefont setfont
     [ currentpoint ] exch dup 2 get 0 exch R dup 5 get 2 ne {dup dup 6
     get exch 4 get {show} {stringwidth pop 0 R} ifelse }if dup 5 get 0 eq
     {dup 3 get {2 get neg 0 exch R pop} {pop aload pop M} ifelse} {dup 5
     get 1 eq {dup 2 get exch dup 3 get exch 6 get stringwidth pop -2 div
     dup 0 R} {dup 6 get stringwidth pop -2 div 0 R 6 get
     show 2 index {aload pop M neg 3 -1 roll neg R pop pop} {pop pop pop
     pop aload pop M} ifelse }ifelse }ifelse }
     ifelse }
   forall} bind def
/MFwidth {0 exch { dup 5 get 3 ge { 5 get 3 eq { 0 } { pop } ifelse }
 {dup 3 get{dup dup 0 get findfont exch 1 get scalefont setfont
     6 get stringwidth pop add} {pop} ifelse} ifelse} forall} bind def
/MLshow { currentpoint stroke M
  0 exch R
  Blacktext {gsave 0 setgray MFshow grestore} {MFshow} ifelse } bind def
/MRshow { currentpoint stroke M
  exch dup MFwidth neg 3 -1 roll R
  Blacktext {gsave 0 setgray MFshow grestore} {MFshow} ifelse } bind def
/MCshow { currentpoint stroke M
  exch dup MFwidth -2 div 3 -1 roll R
  Blacktext {gsave 0 setgray MFshow grestore} {MFshow} ifelse } bind def
/XYsave    { [( ) 1 2 true false 3 ()] } bind def
/XYrestore { [( ) 1 2 true false 4 ()] } bind def
end
%%EndProlog
gnudict begin
gsave
50 50 translate
0.050 0.050 scale
0 setgray
newpath
(Helvetica) findfont 260 scalefont setfont
1.000 UL
LTb
1742 832 M
63 0 V
5005 0 R
-63 0 V
stroke
1586 832 M
[ [(Helvetica) 260.0 0.0 true true 0 ( 0)]
] -86.7 MRshow
1.000 UL
LTb
1742 2467 M
63 0 V
5005 0 R
-63 0 V
stroke
1586 2467 M
[ [(Helvetica) 260.0 0.0 true true 0 ( 0.01)]
] -86.7 MRshow
1.000 UL
LTb
1742 4101 M
63 0 V
5005 0 R
-63 0 V
stroke
1586 4101 M
[ [(Helvetica) 260.0 0.0 true true 0 ( 0.02)]
] -86.7 MRshow
1.000 UL
LTb
1742 5736 M
63 0 V
5005 0 R
-63 0 V
stroke
1586 5736 M
[ [(Helvetica) 260.0 0.0 true true 0 ( 0.03)]
] -86.7 MRshow
1.000 UL
LTb
1742 832 M
0 31 V
0 4873 R
0 -31 V
1916 832 M
0 31 V
0 4873 R
0 -31 V
2064 832 M
0 31 V
0 4873 R
0 -31 V
2192 832 M
0 31 V
0 4873 R
0 -31 V
2304 832 M
0 31 V
0 4873 R
0 -31 V
2405 832 M
0 63 V
0 4841 R
0 -63 V
stroke
2405 572 M
[ [(Helvetica) 260.0 0.0 true true 0 (10)]
[(Helvetica) 208.0 130.0 true true 0 (5)]
] -112.7 MCshow
1.000 UL
LTb
3068 832 M
0 31 V
0 4873 R
0 -31 V
3456 832 M
0 31 V
0 4873 R
0 -31 V
3731 832 M
0 31 V
0 4873 R
0 -31 V
3944 832 M
0 31 V
0 4873 R
0 -31 V
4119 832 M
0 31 V
0 4873 R
0 -31 V
4266 832 M
0 31 V
0 4873 R
0 -31 V
4394 832 M
0 31 V
0 4873 R
0 -31 V
4507 832 M
0 31 V
0 4873 R
0 -31 V
4608 832 M
0 63 V
0 4841 R
0 -63 V
stroke
4608 572 M
[ [(Helvetica) 260.0 0.0 true true 0 (10)]
[(Helvetica) 208.0 130.0 true true 0 (6)]
] -112.7 MCshow
1.000 UL
LTb
5271 832 M
0 31 V
0 4873 R
0 -31 V
5658 832 M
0 31 V
0 4873 R
0 -31 V
5934 832 M
0 31 V
0 4873 R
0 -31 V
6147 832 M
0 31 V
0 4873 R
0 -31 V
6321 832 M
0 31 V
0 4873 R
0 -31 V
6469 832 M
0 31 V
0 4873 R
0 -31 V
6597 832 M
0 31 V
0 4873 R
0 -31 V
6709 832 M
0 31 V
0 4873 R
0 -31 V
6810 832 M
0 63 V
0 4841 R
0 -63 V
stroke
6810 572 M
[ [(Helvetica) 260.0 0.0 true true 0 (10)]
[(Helvetica) 208.0 130.0 true true 0 (7)]
] -112.7 MCshow
1.000 UL
LTb
1.000 UL
LTb
1742 5736 N
0 -4904 V
5068 0 V
0 4904 V
-5068 0 V
Z stroke
LCb setrgbcolor
520 3284 M
currentpoint gsave translate 90 rotate 0 0 moveto
[ [(Helvetica) 260.0 0.0 true true 0 (c/c)]
[(Helvetica) 208.0 -78.0 true true 0 (inj)]
] -60.7 MCshow
grestore
LTb
LCb setrgbcolor
4276 182 M
[ [(Helvetica) 260.0 0.0 true true 0 (t \(seconds\))]
] -86.7 MCshow
LTb
1.000 UP
4995 3447 M
[ [(Symbol) 260.0 0.0 true true 0 (f)]
[(Helvetica) 208.0 -78.0 true true 0 (m)]
[(Helvetica) 260.0 0.0 true true 0 ( = 0.042)]
] -60.7 MLshow
4995 3121 M
[ [(Symbol) 260.0 0.0 true true 0 (a)]
[(Helvetica) 208.0 -78.0 true true 0 (L)]
[(Helvetica) 260.0 0.0 true true 0 ( = 2.18 cm)]
] -60.7 MLshow
4995 2794 M
[ [(Symbol) 260.0 0.0 true true 0 (m)]
[(Helvetica) 260.0 0.0 true true 0 ( = -1.22)]
] -86.7 MLshow
4995 2467 M
[ [(Symbol) 260.0 0.0 true true 0 (s)]
[(Helvetica) 260.0 0.0 true true 0 ( = 1.98)]
] -86.7 MLshow
4995 2140 M
[ [(Helvetica) 260.0 0.0 true true 0 (t)]
[(Helvetica) 208.0 -78.0 true true 0 (inj)]
[(Helvetica) 260.0 0.0 true true 0 ( = 2.97 hrs)]
] -60.7 MLshow
1843 5491 M
[ [(Helvetica) 260.0 0.0 true true 0 (\(a\) test B2)]
] -86.7 MLshow
1.000 UL
LTb
1.300 UP
1.000 UL
LT0
LTb
5967 5517 M
[ [(Helvetica) 260.0 0.0 true true 0 (data)]
] -86.7 MRshow
LT0
1779 840 Circle
1828 841 Circle
1876 842 Circle
1923 839 Circle
1968 842 Circle
2011 843 Circle
2052 850 Circle
2090 844 Circle
2127 842 Circle
2163 853 Circle
2198 896 Circle
2231 851 Circle
2262 859 Circle
2293 859 Circle
2323 867 Circle
2352 882 Circle
2379 904 Circle
2407 917 Circle
2433 956 Circle
2459 1000 Circle
2484 1027 Circle
2508 1106 Circle
2531 1164 Circle
2555 1198 Circle
2577 1306 Circle
2599 1393 Circle
2621 1481 Circle
2642 1613 Circle
2662 1665 Circle
2683 1808 Circle
2703 1878 Circle
2722 2063 Circle
2741 2164 Circle
2795 2541 Circle
2813 2611 Circle
2831 2722 Circle
2849 2813 Circle
2866 3026 Circle
2883 3092 Circle
2900 3259 Circle
2917 3325 Circle
2933 3385 Circle
2949 3629 Circle
2964 3667 Circle
2979 3793 Circle
2994 3918 Circle
3008 4051 Circle
3023 4079 Circle
3037 4176 Circle
3051 4281 Circle
3065 4354 Circle
3078 4529 Circle
3104 4563 Circle
3116 4563 Circle
3129 4668 Circle
3142 4703 Circle
3189 4808 Circle
3202 4633 Circle
3213 4842 Circle
3225 4808 Circle
3236 4947 Circle
3248 4738 Circle
3259 4773 Circle
3270 4773 Circle
3281 4773 Circle
3292 4947 Circle
3302 4982 Circle
3313 4877 Circle
3323 4947 Circle
3333 4842 Circle
3343 4773 Circle
3353 4738 Circle
3363 4773 Circle
3373 4773 Circle
3382 4668 Circle
3392 4563 Circle
3402 4703 Circle
3411 4668 Circle
3420 4598 Circle
3429 4598 Circle
3439 4494 Circle
3448 4494 Circle
3457 4494 Circle
3466 4459 Circle
3475 4354 Circle
3484 4424 Circle
3493 4354 Circle
3502 4250 Circle
3510 4354 Circle
3519 4103 Circle
3528 4131 Circle
3537 4023 Circle
3545 3992 Circle
3554 4117 Circle
3562 4019 Circle
3570 4124 Circle
3578 3995 Circle
3585 4033 Circle
3593 3995 Circle
3600 3950 Circle
3608 3943 Circle
3637 3814 Circle
3644 3789 Circle
3651 3706 Circle
3658 3632 Circle
3665 3671 Circle
3672 3611 Circle
3679 3667 Circle
3686 3493 Circle
3693 3423 Circle
3700 3399 Circle
3707 3367 Circle
3714 3371 Circle
3721 3259 Circle
3729 3322 Circle
3736 3176 Circle
3743 3203 Circle
3750 3078 Circle
3757 3144 Circle
3764 2956 Circle
3771 3092 Circle
3778 3046 Circle
3785 2977 Circle
3791 3081 Circle
3798 2952 Circle
3804 3005 Circle
3811 2970 Circle
3817 2834 Circle
3823 2991 Circle
3829 2921 Circle
3835 2830 Circle
3842 2813 Circle
3848 2799 Circle
3854 2764 Circle
3873 2628 Circle
3878 2774 Circle
3889 2715 Circle
3895 2652 Circle
3901 2666 Circle
3906 2649 Circle
3912 2597 Circle
3917 2527 Circle
3923 2572 Circle
3928 2509 Circle
3934 2478 Circle
3940 2572 Circle
3945 2429 Circle
3950 2530 Circle
3955 2440 Circle
3961 2454 Circle
3966 2429 Circle
3971 2412 Circle
3976 2422 Circle
3981 2387 Circle
3986 2328 Circle
3992 2339 Circle
3997 2366 Circle
4002 2332 Circle
4016 2318 Circle
4021 2339 Circle
4026 2297 Circle
4031 2216 Circle
4035 2339 Circle
4040 2251 Circle
4049 2227 Circle
4054 2210 Circle
4058 2168 Circle
4063 2150 Circle
4068 2203 Circle
4072 2196 Circle
4077 2108 Circle
4081 2098 Circle
4086 2087 Circle
4090 2084 Circle
4095 2070 Circle
4099 2084 Circle
4104 2101 Circle
4108 2080 Circle
4113 2077 Circle
4117 2032 Circle
4121 1969 Circle
4126 1983 Circle
4130 1962 Circle
4134 1958 Circle
4138 1986 Circle
4143 1920 Circle
4147 1937 Circle
4151 1917 Circle
4155 1941 Circle
4159 1924 Circle
4163 1840 Circle
4168 1906 Circle
4172 1889 Circle
4176 1875 Circle
4180 1840 Circle
4184 1805 Circle
4188 1822 Circle
4193 1801 Circle
4197 1826 Circle
4201 1760 Circle
4205 1808 Circle
4209 1784 Circle
4213 1763 Circle
4217 1760 Circle
4221 1718 Circle
4225 1756 Circle
4232 1683 Circle
4236 1700 Circle
4240 1683 Circle
4244 1686 Circle
4248 1659 Circle
4252 1714 Circle
4255 1679 Circle
4259 1669 Circle
4263 1679 Circle
4267 1652 Circle
4271 1655 Circle
4275 1652 Circle
4278 1557 Circle
4282 1613 Circle
4286 1571 Circle
4290 1627 Circle
4293 1613 Circle
4297 1578 Circle
4301 1557 Circle
4305 1550 Circle
4312 1582 Circle
4326 1557 Circle
4341 1498 Circle
4355 1495 Circle
4369 1498 Circle
4382 1512 Circle
4396 1446 Circle
4409 1411 Circle
4422 1400 Circle
4436 1334 Circle
4449 1338 Circle
4462 1341 Circle
4474 1345 Circle
4486 1327 Circle
4498 1292 Circle
4511 1275 Circle
4523 1271 Circle
4535 1261 Circle
4546 1261 Circle
4558 1237 Circle
4569 1198 Circle
4580 1223 Circle
6310 5517 Circle
3.000 UL
LT0
LTb
5967 5205 M
[ [(Helvetica) 260.0 0.0 true true 0 (single porosity)]
] -86.7 MRshow
LT0
6123 5205 M
375 0 V
1742 842 M
19 0 V
19 0 V
18 1 V
18 1 V
17 0 V
17 1 V
17 1 V
17 1 V
16 2 V
16 1 V
16 2 V
16 2 V
15 2 V
15 2 V
15 3 V
15 3 V
14 3 V
14 4 V
14 4 V
14 4 V
13 5 V
14 5 V
13 6 V
13 6 V
13 7 V
13 7 V
12 7 V
12 8 V
13 9 V
12 9 V
11 9 V
12 11 V
12 10 V
11 12 V
12 12 V
11 12 V
11 13 V
11 14 V
11 14 V
10 15 V
11 15 V
10 16 V
11 17 V
10 17 V
10 18 V
10 18 V
10 19 V
10 20 V
9 20 V
10 21 V
91 236 V
83 280 V
77 309 V
71 325 V
66 325 V
62 315 V
58 294 V
54 268 V
52 237 V
49 204 V
47 171 V
44 137 V
43 105 V
40 75 V
39 47 V
38 23 V
36 0 V
35 -20 V
33 -37 V
33 -52 V
31 -65 V
31 -76 V
29 -84 V
29 -92 V
27 -97 V
27 -101 V
26 -104 V
26 -106 V
25 -107 V
24 -107 V
24 -108 V
23 -106 V
22 -104 V
22 -103 V
22 -101 V
21 -98 V
20 -95 V
20 -93 V
20 -90 V
19 -86 V
19 -84 V
19 -80 V
18 -78 V
18 -74 V
18 -72 V
17 -68 V
17 -65 V
16 -63 V
17 -59 V
16 -57 V
16 -54 V
15 -52 V
stroke 4150 1764 M
16 -49 V
15 -47 V
14 -45 V
15 -42 V
14 -40 V
15 -38 V
14 -37 V
13 -34 V
14 -33 V
13 -31 V
13 -29 V
13 -28 V
13 -26 V
13 -25 V
13 -24 V
12 -22 V
12 -21 V
12 -20 V
12 -19 V
12 -18 V
11 -17 V
12 -16 V
11 -15 V
11 -14 V
11 -14 V
11 -13 V
11 -11 V
11 -12 V
10 -11 V
11 -10 V
10 -9 V
10 -9 V
10 -9 V
10 -8 V
10 -8 V
10 -7 V
10 -7 V
10 -6 V
91 -48 V
83 -26 V
76 -15 V
71 -8 V
66 -5 V
62 -3 V
58 -1 V
55 -1 V
51 0 V
50 -1 V
46 0 V
45 0 V
42 0 V
41 0 V
39 0 V
37 0 V
37 0 V
34 0 V
34 0 V
32 0 V
32 0 V
30 0 V
30 0 V
28 0 V
28 0 V
27 0 V
26 0 V
25 0 V
25 0 V
25 0 V
23 0 V
23 0 V
23 0 V
22 0 V
21 0 V
21 0 V
21 0 V
20 0 V
20 0 V
19 0 V
19 0 V
18 0 V
19 0 V
18 0 V
17 0 V
17 0 V
17 0 V
17 0 V
16 0 V
16 0 V
16 0 V
16 0 V
15 0 V
15 0 V
15 0 V
15 0 V
14 0 V
14 0 V
14 0 V
14 0 V
13 0 V
14 0 V
13 0 V
13 0 V
13 0 V
12 0 V
stroke 6547 832 M
13 0 V
12 0 V
13 0 V
12 0 V
11 0 V
12 0 V
12 0 V
11 0 V
12 0 V
11 0 V
11 0 V
11 0 V
11 0 V
10 0 V
11 0 V
10 0 V
11 0 V
10 0 V
10 0 V
10 0 V
10 0 V
10 0 V
9 0 V
stroke
LT6
LTb
5967 4893 M
[ [(Helvetica) 260.0 0.0 true true 0 (double porosity)]
] -86.7 MRshow
LT6
6123 4893 M
375 0 V
1742 841 M
19 0 V
19 0 V
18 0 V
18 0 V
17 0 V
17 0 V
17 0 V
17 0 V
16 0 V
16 1 V
16 0 V
16 0 V
15 1 V
15 0 V
15 1 V
15 0 V
14 1 V
14 1 V
14 1 V
14 2 V
13 1 V
14 1 V
13 2 V
13 2 V
13 3 V
13 2 V
12 3 V
12 3 V
13 3 V
12 4 V
11 4 V
12 5 V
12 5 V
11 5 V
12 6 V
11 6 V
11 7 V
11 7 V
11 8 V
10 9 V
11 8 V
10 10 V
11 10 V
10 11 V
10 11 V
10 12 V
10 13 V
10 13 V
9 14 V
10 14 V
91 184 V
83 253 V
77 314 V
71 358 V
66 382 V
62 387 V
58 374 V
54 347 V
52 308 V
49 263 V
47 216 V
44 166 V
43 119 V
40 74 V
39 34 V
38 -1 V
36 -32 V
35 -58 V
33 -80 V
33 -96 V
31 -110 V
31 -120 V
29 -126 V
29 -130 V
27 -131 V
27 -132 V
26 -131 V
26 -127 V
25 -125 V
24 -119 V
24 -115 V
23 -110 V
22 -104 V
22 -99 V
22 -93 V
21 -88 V
20 -82 V
20 -78 V
20 -72 V
19 -67 V
19 -63 V
19 -59 V
18 -55 V
18 -50 V
18 -48 V
17 -44 V
17 -41 V
16 -38 V
17 -36 V
16 -33 V
16 -31 V
15 -28 V
stroke 4150 1878 M
16 -27 V
15 -25 V
14 -24 V
15 -22 V
14 -21 V
15 -19 V
14 -18 V
13 -18 V
14 -16 V
13 -15 V
13 -15 V
13 -14 V
13 -13 V
13 -13 V
13 -12 V
12 -11 V
12 -11 V
12 -11 V
12 -10 V
12 -10 V
11 -10 V
12 -9 V
11 -9 V
11 -8 V
11 -9 V
11 -8 V
11 -8 V
11 -8 V
10 -8 V
11 -7 V
10 -7 V
10 -8 V
10 -7 V
10 -6 V
10 -7 V
10 -7 V
10 -6 V
10 -7 V
91 -60 V
83 -52 V
76 -48 V
71 -42 V
66 -39 V
62 -35 V
58 -31 V
55 -28 V
51 -26 V
50 -23 V
46 -21 V
45 -18 V
42 -17 V
41 -15 V
39 -14 V
37 -12 V
37 -10 V
34 -10 V
34 -9 V
32 -8 V
32 -7 V
30 -6 V
30 -5 V
28 -5 V
28 -5 V
27 -4 V
26 -3 V
25 -3 V
25 -3 V
25 -3 V
23 -2 V
23 -2 V
23 -2 V
22 -1 V
21 -2 V
21 -1 V
21 -1 V
20 -1 V
20 -1 V
19 -1 V
19 0 V
18 -1 V
19 -1 V
18 0 V
17 -1 V
17 0 V
17 0 V
17 -1 V
16 0 V
16 0 V
16 0 V
16 -1 V
15 0 V
15 0 V
15 0 V
15 0 V
14 0 V
14 0 V
14 0 V
14 -1 V
13 0 V
14 0 V
13 0 V
13 0 V
13 0 V
12 0 V
stroke 6547 832 M
13 0 V
12 0 V
13 0 V
12 0 V
11 0 V
12 0 V
12 0 V
11 0 V
12 0 V
11 0 V
11 0 V
11 0 V
11 0 V
10 0 V
11 0 V
10 0 V
11 0 V
10 0 V
10 0 V
10 0 V
10 0 V
10 0 V
9 0 V
stroke
8.000 UL
LT0
LTb
5967 4581 M
[ [(Helvetica) 260.0 0.0 true true 0 (multirate lognormal)]
] -86.7 MRshow
LT0
6123 4581 M
375 0 V
1742 841 M
19 0 V
19 0 V
18 0 V
18 0 V
17 0 V
17 0 V
17 0 V
17 0 V
16 0 V
16 0 V
16 0 V
16 0 V
15 0 V
15 0 V
15 0 V
15 0 V
14 0 V
14 0 V
14 0 V
14 0 V
13 1 V
14 0 V
13 0 V
13 1 V
13 0 V
13 1 V
12 1 V
12 1 V
13 1 V
12 1 V
11 1 V
12 2 V
12 2 V
11 2 V
12 2 V
11 2 V
11 3 V
11 4 V
11 3 V
10 4 V
11 5 V
10 5 V
11 5 V
10 6 V
10 7 V
10 7 V
10 8 V
10 8 V
9 9 V
10 10 V
91 140 V
83 229 V
77 319 V
71 393 V
66 438 V
62 452 V
58 435 V
54 395 V
52 339 V
49 276 V
47 212 V
44 149 V
43 92 V
40 43 V
39 1 V
38 -34 V
36 -61 V
35 -81 V
33 -98 V
33 -108 V
31 -117 V
31 -120 V
29 -123 V
29 -122 V
27 -122 V
27 -119 V
26 -116 V
26 -113 V
25 -109 V
24 -104 V
24 -101 V
23 -96 V
22 -91 V
22 -88 V
22 -83 V
21 -80 V
20 -75 V
20 -73 V
20 -68 V
19 -65 V
19 -63 V
19 -59 V
18 -56 V
18 -54 V
18 -51 V
17 -48 V
17 -47 V
16 -44 V
17 -43 V
16 -40 V
16 -38 V
15 -37 V
stroke 4150 1909 M
16 -35 V
15 -34 V
14 -32 V
15 -31 V
14 -29 V
15 -29 V
14 -27 V
13 -26 V
14 -25 V
13 -23 V
13 -23 V
13 -22 V
13 -21 V
13 -21 V
13 -19 V
12 -19 V
12 -18 V
12 -18 V
12 -17 V
12 -16 V
11 -15 V
12 -15 V
11 -15 V
11 -14 V
11 -13 V
11 -13 V
11 -13 V
11 -12 V
10 -12 V
11 -11 V
10 -11 V
10 -11 V
10 -10 V
10 -10 V
10 -10 V
10 -9 V
10 -9 V
10 -9 V
91 -74 V
83 -56 V
76 -42 V
71 -34 V
66 -26 V
62 -21 V
58 -17 V
55 -14 V
51 -12 V
50 -10 V
46 -8 V
45 -7 V
42 -7 V
41 -5 V
39 -4 V
37 -4 V
37 -4 V
34 -3 V
34 -3 V
32 -2 V
32 -2 V
30 -2 V
30 -2 V
28 -2 V
28 -1 V
27 -1 V
26 -1 V
25 -1 V
25 -1 V
25 -1 V
23 -1 V
23 -1 V
23 0 V
22 -1 V
21 -1 V
21 0 V
21 -1 V
20 0 V
20 0 V
19 -1 V
19 0 V
18 0 V
19 -1 V
18 0 V
17 0 V
17 -1 V
17 0 V
17 0 V
16 0 V
16 0 V
16 -1 V
16 0 V
15 0 V
15 0 V
15 0 V
15 0 V
14 0 V
14 -1 V
14 0 V
14 0 V
13 0 V
14 0 V
13 0 V
13 0 V
13 0 V
12 0 V
stroke 6547 835 M
13 0 V
12 0 V
13 -1 V
12 0 V
11 0 V
12 0 V
12 0 V
11 0 V
12 0 V
11 0 V
11 0 V
11 0 V
11 0 V
10 0 V
11 0 V
10 0 V
11 0 V
10 0 V
10 0 V
10 0 V
10 0 V
10 0 V
9 0 V
stroke
1.000 UL
LTb
1742 5736 N
0 -4904 V
5068 0 V
0 4904 V
-5068 0 V
Z stroke
1.000 UP
1.000 UL
LTb
stroke
grestore
end
showpage
%%Trailer
%%DocumentFonts: Symbol Helvetica
