%!PS-Adobe-2.0 EPSF-2.0
%%Title: B2_22Na_logn0b.eps
%%Creator: gnuplot 4.2 patchlevel 6 
%%CreationDate: Thu Aug  4 15:26:16 2011
%%DocumentFonts: (atend)
%%BoundingBox: 50 50 410 352
%%EndComments
%%BeginProlog
/gnudict 256 dict def
gnudict begin
%
% The following 6 true/false flags may be edited by hand if required
% The unit line width may also be changed
%
/Color false def
/Blacktext false def
/Solid false def
/Dashlength 1 def
/Landscape false def
/Level1 false def
/Rounded false def
/TransparentPatterns false def
/gnulinewidth 5.000 def
/userlinewidth gnulinewidth def
%
/vshift -86 def
/dl1 {
  10.0 Dashlength mul mul
  Rounded { currentlinewidth 0.75 mul sub dup 0 le { pop 0.01 } if } if
} def
/dl2 {
  10.0 Dashlength mul mul
  Rounded { currentlinewidth 0.75 mul add } if
} def
/hpt_ 31.5 def
/vpt_ 31.5 def
/hpt hpt_ def
/vpt vpt_ def
Level1 {} {
/SDict 10 dict def
systemdict /pdfmark known not {
  userdict /pdfmark systemdict /cleartomark get put
} if
SDict begin [
  /Title (B2_22Na_logn0b.eps)
  /Subject (gnuplot plot)
  /Creator (gnuplot 4.2 patchlevel 6 )
  /Author (Bwalya Malama,,,)
%  /Producer (gnuplot)
%  /Keywords ()
  /CreationDate (Thu Aug  4 15:26:16 2011)
  /DOCINFO pdfmark
end
} ifelse
%
% Gnuplot Prolog Version 4.2 (August 2006)
%
/M {moveto} bind def
/L {lineto} bind def
/R {rmoveto} bind def
/V {rlineto} bind def
/N {newpath moveto} bind def
/Z {closepath} bind def
/C {setrgbcolor} bind def
/f {rlineto fill} bind def
/vpt2 vpt 2 mul def
/hpt2 hpt 2 mul def
/Lshow {currentpoint stroke M 0 vshift R 
	Blacktext {gsave 0 setgray show grestore} {show} ifelse} def
/Rshow {currentpoint stroke M dup stringwidth pop neg vshift R
	Blacktext {gsave 0 setgray show grestore} {show} ifelse} def
/Cshow {currentpoint stroke M dup stringwidth pop -2 div vshift R 
	Blacktext {gsave 0 setgray show grestore} {show} ifelse} def
/UP {dup vpt_ mul /vpt exch def hpt_ mul /hpt exch def
  /hpt2 hpt 2 mul def /vpt2 vpt 2 mul def} def
/DL {Color {setrgbcolor Solid {pop []} if 0 setdash}
 {pop pop pop 0 setgray Solid {pop []} if 0 setdash} ifelse} def
/BL {stroke userlinewidth 2 mul setlinewidth
	Rounded {1 setlinejoin 1 setlinecap} if} def
/AL {stroke userlinewidth 2 div setlinewidth
	Rounded {1 setlinejoin 1 setlinecap} if} def
/UL {dup gnulinewidth mul /userlinewidth exch def
	dup 1 lt {pop 1} if 10 mul /udl exch def} def
/PL {stroke userlinewidth setlinewidth
	Rounded {1 setlinejoin 1 setlinecap} if} def
% Default Line colors
/LCw {1 1 1} def
/LCb {0 0 0} def
/LCa {0 0 0} def
/LC0 {1 0 0} def
/LC1 {0 1 0} def
/LC2 {0 0 1} def
/LC3 {1 0 1} def
/LC4 {0 1 1} def
/LC5 {1 1 0} def
/LC6 {0 0 0} def
/LC7 {1 0.3 0} def
/LC8 {0.5 0.5 0.5} def
% Default Line Types
/LTw {PL [] 1 setgray} def
/LTb {BL [] LCb DL} def
/LTa {AL [1 udl mul 2 udl mul] 0 setdash LCa setrgbcolor} def
/LT0 {PL [] LC0 DL} def
/LT1 {PL [4 dl1 2 dl2] LC1 DL} def
/LT2 {PL [2 dl1 3 dl2] LC2 DL} def
/LT3 {PL [1 dl1 1.5 dl2] LC3 DL} def
/LT4 {PL [6 dl1 2 dl2 1 dl1 2 dl2] LC4 DL} def
/LT5 {PL [3 dl1 3 dl2 1 dl1 3 dl2] LC5 DL} def
/LT6 {PL [2 dl1 2 dl2 2 dl1 6 dl2] LC6 DL} def
/LT7 {PL [1 dl1 2 dl2 6 dl1 2 dl2 1 dl1 2 dl2] LC7 DL} def
/LT8 {PL [2 dl1 2 dl2 2 dl1 2 dl2 2 dl1 2 dl2 2 dl1 4 dl2] LC8 DL} def
/Pnt {stroke [] 0 setdash gsave 1 setlinecap M 0 0 V stroke grestore} def
/Dia {stroke [] 0 setdash 2 copy vpt add M
  hpt neg vpt neg V hpt vpt neg V
  hpt vpt V hpt neg vpt V closepath stroke
  Pnt} def
/Pls {stroke [] 0 setdash vpt sub M 0 vpt2 V
  currentpoint stroke M
  hpt neg vpt neg R hpt2 0 V stroke
 } def
/Box {stroke [] 0 setdash 2 copy exch hpt sub exch vpt add M
  0 vpt2 neg V hpt2 0 V 0 vpt2 V
  hpt2 neg 0 V closepath stroke
  Pnt} def
/Crs {stroke [] 0 setdash exch hpt sub exch vpt add M
  hpt2 vpt2 neg V currentpoint stroke M
  hpt2 neg 0 R hpt2 vpt2 V stroke} def
/TriU {stroke [] 0 setdash 2 copy vpt 1.12 mul add M
  hpt neg vpt -1.62 mul V
  hpt 2 mul 0 V
  hpt neg vpt 1.62 mul V closepath stroke
  Pnt} def
/Star {2 copy Pls Crs} def
/BoxF {stroke [] 0 setdash exch hpt sub exch vpt add M
  0 vpt2 neg V hpt2 0 V 0 vpt2 V
  hpt2 neg 0 V closepath fill} def
/TriUF {stroke [] 0 setdash vpt 1.12 mul add M
  hpt neg vpt -1.62 mul V
  hpt 2 mul 0 V
  hpt neg vpt 1.62 mul V closepath fill} def
/TriD {stroke [] 0 setdash 2 copy vpt 1.12 mul sub M
  hpt neg vpt 1.62 mul V
  hpt 2 mul 0 V
  hpt neg vpt -1.62 mul V closepath stroke
  Pnt} def
/TriDF {stroke [] 0 setdash vpt 1.12 mul sub M
  hpt neg vpt 1.62 mul V
  hpt 2 mul 0 V
  hpt neg vpt -1.62 mul V closepath fill} def
/DiaF {stroke [] 0 setdash vpt add M
  hpt neg vpt neg V hpt vpt neg V
  hpt vpt V hpt neg vpt V closepath fill} def
/Pent {stroke [] 0 setdash 2 copy gsave
  translate 0 hpt M 4 {72 rotate 0 hpt L} repeat
  closepath stroke grestore Pnt} def
/PentF {stroke [] 0 setdash gsave
  translate 0 hpt M 4 {72 rotate 0 hpt L} repeat
  closepath fill grestore} def
/Circle {stroke [] 0 setdash 2 copy
  hpt 0 360 arc stroke Pnt} def
/CircleF {stroke [] 0 setdash hpt 0 360 arc fill} def
/C0 {BL [] 0 setdash 2 copy moveto vpt 90 450 arc} bind def
/C1 {BL [] 0 setdash 2 copy moveto
	2 copy vpt 0 90 arc closepath fill
	vpt 0 360 arc closepath} bind def
/C2 {BL [] 0 setdash 2 copy moveto
	2 copy vpt 90 180 arc closepath fill
	vpt 0 360 arc closepath} bind def
/C3 {BL [] 0 setdash 2 copy moveto
	2 copy vpt 0 180 arc closepath fill
	vpt 0 360 arc closepath} bind def
/C4 {BL [] 0 setdash 2 copy moveto
	2 copy vpt 180 270 arc closepath fill
	vpt 0 360 arc closepath} bind def
/C5 {BL [] 0 setdash 2 copy moveto
	2 copy vpt 0 90 arc
	2 copy moveto
	2 copy vpt 180 270 arc closepath fill
	vpt 0 360 arc} bind def
/C6 {BL [] 0 setdash 2 copy moveto
	2 copy vpt 90 270 arc closepath fill
	vpt 0 360 arc closepath} bind def
/C7 {BL [] 0 setdash 2 copy moveto
	2 copy vpt 0 270 arc closepath fill
	vpt 0 360 arc closepath} bind def
/C8 {BL [] 0 setdash 2 copy moveto
	2 copy vpt 270 360 arc closepath fill
	vpt 0 360 arc closepath} bind def
/C9 {BL [] 0 setdash 2 copy moveto
	2 copy vpt 270 450 arc closepath fill
	vpt 0 360 arc closepath} bind def
/C10 {BL [] 0 setdash 2 copy 2 copy moveto vpt 270 360 arc closepath fill
	2 copy moveto
	2 copy vpt 90 180 arc closepath fill
	vpt 0 360 arc closepath} bind def
/C11 {BL [] 0 setdash 2 copy moveto
	2 copy vpt 0 180 arc closepath fill
	2 copy moveto
	2 copy vpt 270 360 arc closepath fill
	vpt 0 360 arc closepath} bind def
/C12 {BL [] 0 setdash 2 copy moveto
	2 copy vpt 180 360 arc closepath fill
	vpt 0 360 arc closepath} bind def
/C13 {BL [] 0 setdash 2 copy moveto
	2 copy vpt 0 90 arc closepath fill
	2 copy moveto
	2 copy vpt 180 360 arc closepath fill
	vpt 0 360 arc closepath} bind def
/C14 {BL [] 0 setdash 2 copy moveto
	2 copy vpt 90 360 arc closepath fill
	vpt 0 360 arc} bind def
/C15 {BL [] 0 setdash 2 copy vpt 0 360 arc closepath fill
	vpt 0 360 arc closepath} bind def
/Rec {newpath 4 2 roll moveto 1 index 0 rlineto 0 exch rlineto
	neg 0 rlineto closepath} bind def
/Square {dup Rec} bind def
/Bsquare {vpt sub exch vpt sub exch vpt2 Square} bind def
/S0 {BL [] 0 setdash 2 copy moveto 0 vpt rlineto BL Bsquare} bind def
/S1 {BL [] 0 setdash 2 copy vpt Square fill Bsquare} bind def
/S2 {BL [] 0 setdash 2 copy exch vpt sub exch vpt Square fill Bsquare} bind def
/S3 {BL [] 0 setdash 2 copy exch vpt sub exch vpt2 vpt Rec fill Bsquare} bind def
/S4 {BL [] 0 setdash 2 copy exch vpt sub exch vpt sub vpt Square fill Bsquare} bind def
/S5 {BL [] 0 setdash 2 copy 2 copy vpt Square fill
	exch vpt sub exch vpt sub vpt Square fill Bsquare} bind def
/S6 {BL [] 0 setdash 2 copy exch vpt sub exch vpt sub vpt vpt2 Rec fill Bsquare} bind def
/S7 {BL [] 0 setdash 2 copy exch vpt sub exch vpt sub vpt vpt2 Rec fill
	2 copy vpt Square fill Bsquare} bind def
/S8 {BL [] 0 setdash 2 copy vpt sub vpt Square fill Bsquare} bind def
/S9 {BL [] 0 setdash 2 copy vpt sub vpt vpt2 Rec fill Bsquare} bind def
/S10 {BL [] 0 setdash 2 copy vpt sub vpt Square fill 2 copy exch vpt sub exch vpt Square fill
	Bsquare} bind def
/S11 {BL [] 0 setdash 2 copy vpt sub vpt Square fill 2 copy exch vpt sub exch vpt2 vpt Rec fill
	Bsquare} bind def
/S12 {BL [] 0 setdash 2 copy exch vpt sub exch vpt sub vpt2 vpt Rec fill Bsquare} bind def
/S13 {BL [] 0 setdash 2 copy exch vpt sub exch vpt sub vpt2 vpt Rec fill
	2 copy vpt Square fill Bsquare} bind def
/S14 {BL [] 0 setdash 2 copy exch vpt sub exch vpt sub vpt2 vpt Rec fill
	2 copy exch vpt sub exch vpt Square fill Bsquare} bind def
/S15 {BL [] 0 setdash 2 copy Bsquare fill Bsquare} bind def
/D0 {gsave translate 45 rotate 0 0 S0 stroke grestore} bind def
/D1 {gsave translate 45 rotate 0 0 S1 stroke grestore} bind def
/D2 {gsave translate 45 rotate 0 0 S2 stroke grestore} bind def
/D3 {gsave translate 45 rotate 0 0 S3 stroke grestore} bind def
/D4 {gsave translate 45 rotate 0 0 S4 stroke grestore} bind def
/D5 {gsave translate 45 rotate 0 0 S5 stroke grestore} bind def
/D6 {gsave translate 45 rotate 0 0 S6 stroke grestore} bind def
/D7 {gsave translate 45 rotate 0 0 S7 stroke grestore} bind def
/D8 {gsave translate 45 rotate 0 0 S8 stroke grestore} bind def
/D9 {gsave translate 45 rotate 0 0 S9 stroke grestore} bind def
/D10 {gsave translate 45 rotate 0 0 S10 stroke grestore} bind def
/D11 {gsave translate 45 rotate 0 0 S11 stroke grestore} bind def
/D12 {gsave translate 45 rotate 0 0 S12 stroke grestore} bind def
/D13 {gsave translate 45 rotate 0 0 S13 stroke grestore} bind def
/D14 {gsave translate 45 rotate 0 0 S14 stroke grestore} bind def
/D15 {gsave translate 45 rotate 0 0 S15 stroke grestore} bind def
/DiaE {stroke [] 0 setdash vpt add M
  hpt neg vpt neg V hpt vpt neg V
  hpt vpt V hpt neg vpt V closepath stroke} def
/BoxE {stroke [] 0 setdash exch hpt sub exch vpt add M
  0 vpt2 neg V hpt2 0 V 0 vpt2 V
  hpt2 neg 0 V closepath stroke} def
/TriUE {stroke [] 0 setdash vpt 1.12 mul add M
  hpt neg vpt -1.62 mul V
  hpt 2 mul 0 V
  hpt neg vpt 1.62 mul V closepath stroke} def
/TriDE {stroke [] 0 setdash vpt 1.12 mul sub M
  hpt neg vpt 1.62 mul V
  hpt 2 mul 0 V
  hpt neg vpt -1.62 mul V closepath stroke} def
/PentE {stroke [] 0 setdash gsave
  translate 0 hpt M 4 {72 rotate 0 hpt L} repeat
  closepath stroke grestore} def
/CircE {stroke [] 0 setdash 
  hpt 0 360 arc stroke} def
/Opaque {gsave closepath 1 setgray fill grestore 0 setgray closepath} def
/DiaW {stroke [] 0 setdash vpt add M
  hpt neg vpt neg V hpt vpt neg V
  hpt vpt V hpt neg vpt V Opaque stroke} def
/BoxW {stroke [] 0 setdash exch hpt sub exch vpt add M
  0 vpt2 neg V hpt2 0 V 0 vpt2 V
  hpt2 neg 0 V Opaque stroke} def
/TriUW {stroke [] 0 setdash vpt 1.12 mul add M
  hpt neg vpt -1.62 mul V
  hpt 2 mul 0 V
  hpt neg vpt 1.62 mul V Opaque stroke} def
/TriDW {stroke [] 0 setdash vpt 1.12 mul sub M
  hpt neg vpt 1.62 mul V
  hpt 2 mul 0 V
  hpt neg vpt -1.62 mul V Opaque stroke} def
/PentW {stroke [] 0 setdash gsave
  translate 0 hpt M 4 {72 rotate 0 hpt L} repeat
  Opaque stroke grestore} def
/CircW {stroke [] 0 setdash 
  hpt 0 360 arc Opaque stroke} def
/BoxFill {gsave Rec 1 setgray fill grestore} def
/Density {
  /Fillden exch def
  currentrgbcolor
  /ColB exch def /ColG exch def /ColR exch def
  /ColR ColR Fillden mul Fillden sub 1 add def
  /ColG ColG Fillden mul Fillden sub 1 add def
  /ColB ColB Fillden mul Fillden sub 1 add def
  ColR ColG ColB setrgbcolor} def
/BoxColFill {gsave Rec PolyFill} def
/PolyFill {gsave Density fill grestore grestore} def
/h {rlineto rlineto rlineto gsave closepath fill grestore} bind def
%
% PostScript Level 1 Pattern Fill routine for rectangles
% Usage: x y w h s a XX PatternFill
%	x,y = lower left corner of box to be filled
%	w,h = width and height of box
%	  a = angle in degrees between lines and x-axis
%	 XX = 0/1 for no/yes cross-hatch
%
/PatternFill {gsave /PFa [ 9 2 roll ] def
  PFa 0 get PFa 2 get 2 div add PFa 1 get PFa 3 get 2 div add translate
  PFa 2 get -2 div PFa 3 get -2 div PFa 2 get PFa 3 get Rec
  gsave 1 setgray fill grestore clip
  currentlinewidth 0.5 mul setlinewidth
  /PFs PFa 2 get dup mul PFa 3 get dup mul add sqrt def
  0 0 M PFa 5 get rotate PFs -2 div dup translate
  0 1 PFs PFa 4 get div 1 add floor cvi
	{PFa 4 get mul 0 M 0 PFs V} for
  0 PFa 6 get ne {
	0 1 PFs PFa 4 get div 1 add floor cvi
	{PFa 4 get mul 0 2 1 roll M PFs 0 V} for
 } if
  stroke grestore} def
%
/languagelevel where
 {pop languagelevel} {1} ifelse
 2 lt
	{/InterpretLevel1 true def}
	{/InterpretLevel1 Level1 def}
 ifelse
%
% PostScript level 2 pattern fill definitions
%
/Level2PatternFill {
/Tile8x8 {/PaintType 2 /PatternType 1 /TilingType 1 /BBox [0 0 8 8] /XStep 8 /YStep 8}
	bind def
/KeepColor {currentrgbcolor [/Pattern /DeviceRGB] setcolorspace} bind def
<< Tile8x8
 /PaintProc {0.5 setlinewidth pop 0 0 M 8 8 L 0 8 M 8 0 L stroke} 
>> matrix makepattern
/Pat1 exch def
<< Tile8x8
 /PaintProc {0.5 setlinewidth pop 0 0 M 8 8 L 0 8 M 8 0 L stroke
	0 4 M 4 8 L 8 4 L 4 0 L 0 4 L stroke}
>> matrix makepattern
/Pat2 exch def
<< Tile8x8
 /PaintProc {0.5 setlinewidth pop 0 0 M 0 8 L
	8 8 L 8 0 L 0 0 L fill}
>> matrix makepattern
/Pat3 exch def
<< Tile8x8
 /PaintProc {0.5 setlinewidth pop -4 8 M 8 -4 L
	0 12 M 12 0 L stroke}
>> matrix makepattern
/Pat4 exch def
<< Tile8x8
 /PaintProc {0.5 setlinewidth pop -4 0 M 8 12 L
	0 -4 M 12 8 L stroke}
>> matrix makepattern
/Pat5 exch def
<< Tile8x8
 /PaintProc {0.5 setlinewidth pop -2 8 M 4 -4 L
	0 12 M 8 -4 L 4 12 M 10 0 L stroke}
>> matrix makepattern
/Pat6 exch def
<< Tile8x8
 /PaintProc {0.5 setlinewidth pop -2 0 M 4 12 L
	0 -4 M 8 12 L 4 -4 M 10 8 L stroke}
>> matrix makepattern
/Pat7 exch def
<< Tile8x8
 /PaintProc {0.5 setlinewidth pop 8 -2 M -4 4 L
	12 0 M -4 8 L 12 4 M 0 10 L stroke}
>> matrix makepattern
/Pat8 exch def
<< Tile8x8
 /PaintProc {0.5 setlinewidth pop 0 -2 M 12 4 L
	-4 0 M 12 8 L -4 4 M 8 10 L stroke}
>> matrix makepattern
/Pat9 exch def
/Pattern1 {PatternBgnd KeepColor Pat1 setpattern} bind def
/Pattern2 {PatternBgnd KeepColor Pat2 setpattern} bind def
/Pattern3 {PatternBgnd KeepColor Pat3 setpattern} bind def
/Pattern4 {PatternBgnd KeepColor Landscape {Pat5} {Pat4} ifelse setpattern} bind def
/Pattern5 {PatternBgnd KeepColor Landscape {Pat4} {Pat5} ifelse setpattern} bind def
/Pattern6 {PatternBgnd KeepColor Landscape {Pat9} {Pat6} ifelse setpattern} bind def
/Pattern7 {PatternBgnd KeepColor Landscape {Pat8} {Pat7} ifelse setpattern} bind def
} def
%
%
%End of PostScript Level 2 code
%
/PatternBgnd {
  TransparentPatterns {} {gsave 1 setgray fill grestore} ifelse
} def
%
% Substitute for Level 2 pattern fill codes with
% grayscale if Level 2 support is not selected.
%
/Level1PatternFill {
/Pattern1 {0.250 Density} bind def
/Pattern2 {0.500 Density} bind def
/Pattern3 {0.750 Density} bind def
/Pattern4 {0.125 Density} bind def
/Pattern5 {0.375 Density} bind def
/Pattern6 {0.625 Density} bind def
/Pattern7 {0.875 Density} bind def
} def
%
% Now test for support of Level 2 code
%
Level1 {Level1PatternFill} {Level2PatternFill} ifelse
%
/Symbol-Oblique /Symbol findfont [1 0 .167 1 0 0] makefont
dup length dict begin {1 index /FID eq {pop pop} {def} ifelse} forall
currentdict end definefont pop
/MFshow {
   { dup 5 get 3 ge
     { 5 get 3 eq {gsave} {grestore} ifelse }
     {dup dup 0 get findfont exch 1 get scalefont setfont
     [ currentpoint ] exch dup 2 get 0 exch R dup 5 get 2 ne {dup dup 6
     get exch 4 get {show} {stringwidth pop 0 R} ifelse }if dup 5 get 0 eq
     {dup 3 get {2 get neg 0 exch R pop} {pop aload pop M} ifelse} {dup 5
     get 1 eq {dup 2 get exch dup 3 get exch 6 get stringwidth pop -2 div
     dup 0 R} {dup 6 get stringwidth pop -2 div 0 R 6 get
     show 2 index {aload pop M neg 3 -1 roll neg R pop pop} {pop pop pop
     pop aload pop M} ifelse }ifelse }ifelse }
     ifelse }
   forall} bind def
/MFwidth {0 exch { dup 5 get 3 ge { 5 get 3 eq { 0 } { pop } ifelse }
 {dup 3 get{dup dup 0 get findfont exch 1 get scalefont setfont
     6 get stringwidth pop add} {pop} ifelse} ifelse} forall} bind def
/MLshow { currentpoint stroke M
  0 exch R
  Blacktext {gsave 0 setgray MFshow grestore} {MFshow} ifelse } bind def
/MRshow { currentpoint stroke M
  exch dup MFwidth neg 3 -1 roll R
  Blacktext {gsave 0 setgray MFshow grestore} {MFshow} ifelse } bind def
/MCshow { currentpoint stroke M
  exch dup MFwidth -2 div 3 -1 roll R
  Blacktext {gsave 0 setgray MFshow grestore} {MFshow} ifelse } bind def
/XYsave    { [( ) 1 2 true false 3 ()] } bind def
/XYrestore { [( ) 1 2 true false 4 ()] } bind def
end
%%EndProlog
gnudict begin
gsave
50 50 translate
0.050 0.050 scale
0 setgray
newpath
(Helvetica) findfont 260 scalefont setfont
1.000 UL
LTb
1430 832 M
63 0 V
5317 0 R
-63 0 V
stroke
1274 832 M
[ [(Helvetica) 260.0 0.0 true true 0 (10)]
[(Helvetica) 208.0 130.0 true true 0 (-5)]
] -112.7 MRshow
1.000 UL
LTb
1430 1162 M
31 0 V
5349 0 R
-31 0 V
1430 1355 M
31 0 V
5349 0 R
-31 0 V
1430 1491 M
31 0 V
5349 0 R
-31 0 V
1430 1598 M
31 0 V
5349 0 R
-31 0 V
-5349 86 R
31 0 V
5349 0 R
-31 0 V
-5349 74 R
31 0 V
5349 0 R
-31 0 V
-5349 63 R
31 0 V
5349 0 R
-31 0 V
-5349 56 R
31 0 V
5349 0 R
-31 0 V
-5349 50 R
63 0 V
5317 0 R
-63 0 V
stroke
1274 1927 M
[ [(Helvetica) 260.0 0.0 true true 0 (10)]
[(Helvetica) 208.0 130.0 true true 0 (-4)]
] -112.7 MRshow
1.000 UL
LTb
1430 2257 M
31 0 V
5349 0 R
-31 0 V
1430 2450 M
31 0 V
5349 0 R
-31 0 V
1430 2587 M
31 0 V
5349 0 R
-31 0 V
1430 2693 M
31 0 V
5349 0 R
-31 0 V
-5349 87 R
31 0 V
5349 0 R
-31 0 V
-5349 73 R
31 0 V
5349 0 R
-31 0 V
-5349 64 R
31 0 V
5349 0 R
-31 0 V
-5349 56 R
31 0 V
5349 0 R
-31 0 V
-5349 50 R
63 0 V
5317 0 R
-63 0 V
stroke
1274 3023 M
[ [(Helvetica) 260.0 0.0 true true 0 (10)]
[(Helvetica) 208.0 130.0 true true 0 (-3)]
] -112.7 MRshow
1.000 UL
LTb
1430 3352 M
31 0 V
5349 0 R
-31 0 V
1430 3545 M
31 0 V
5349 0 R
-31 0 V
1430 3682 M
31 0 V
5349 0 R
-31 0 V
1430 3788 M
31 0 V
5349 0 R
-31 0 V
-5349 87 R
31 0 V
5349 0 R
-31 0 V
-5349 73 R
31 0 V
5349 0 R
-31 0 V
-5349 64 R
31 0 V
5349 0 R
-31 0 V
-5349 56 R
31 0 V
5349 0 R
-31 0 V
-5349 50 R
63 0 V
5317 0 R
-63 0 V
stroke
1274 4118 M
[ [(Helvetica) 260.0 0.0 true true 0 (10)]
[(Helvetica) 208.0 130.0 true true 0 (-2)]
] -112.7 MRshow
1.000 UL
LTb
1430 4448 M
31 0 V
5349 0 R
-31 0 V
1430 4641 M
31 0 V
5349 0 R
-31 0 V
1430 4778 M
31 0 V
5349 0 R
-31 0 V
1430 4884 M
31 0 V
5349 0 R
-31 0 V
-5349 86 R
31 0 V
5349 0 R
-31 0 V
-5349 74 R
31 0 V
5349 0 R
-31 0 V
-5349 63 R
31 0 V
5349 0 R
-31 0 V
-5349 56 R
31 0 V
5349 0 R
-31 0 V
-5349 50 R
63 0 V
5317 0 R
-63 0 V
stroke
1274 5213 M
[ [(Helvetica) 260.0 0.0 true true 0 (10)]
[(Helvetica) 208.0 130.0 true true 0 (-1)]
] -112.7 MRshow
1.000 UL
LTb
1430 5543 M
31 0 V
5349 0 R
-31 0 V
1430 5736 M
31 0 V
5349 0 R
-31 0 V
1430 832 M
0 31 V
0 4873 R
0 -31 V
1696 832 M
0 31 V
0 4873 R
0 -31 V
1903 832 M
0 31 V
0 4873 R
0 -31 V
2072 832 M
0 31 V
0 4873 R
0 -31 V
2215 832 M
0 31 V
0 4873 R
0 -31 V
2338 832 M
0 31 V
0 4873 R
0 -31 V
2447 832 M
0 31 V
0 4873 R
0 -31 V
2545 832 M
0 63 V
0 4841 R
0 -63 V
stroke
2545 572 M
[ [(Helvetica) 260.0 0.0 true true 0 (10)]
[(Helvetica) 208.0 130.0 true true 0 (5)]
] -112.7 MCshow
1.000 UL
LTb
3187 832 M
0 31 V
0 4873 R
0 -31 V
3562 832 M
0 31 V
0 4873 R
0 -31 V
3829 832 M
0 31 V
0 4873 R
0 -31 V
4036 832 M
0 31 V
0 4873 R
0 -31 V
4204 832 M
0 31 V
0 4873 R
0 -31 V
4347 832 M
0 31 V
0 4873 R
0 -31 V
4471 832 M
0 31 V
0 4873 R
0 -31 V
4580 832 M
0 31 V
0 4873 R
0 -31 V
4678 832 M
0 63 V
0 4841 R
0 -63 V
stroke
4678 572 M
[ [(Helvetica) 260.0 0.0 true true 0 (10)]
[(Helvetica) 208.0 130.0 true true 0 (6)]
] -112.7 MCshow
1.000 UL
LTb
5319 832 M
0 31 V
0 4873 R
0 -31 V
5695 832 M
0 31 V
0 4873 R
0 -31 V
5961 832 M
0 31 V
0 4873 R
0 -31 V
6168 832 M
0 31 V
0 4873 R
0 -31 V
6337 832 M
0 31 V
0 4873 R
0 -31 V
6480 832 M
0 31 V
0 4873 R
0 -31 V
6603 832 M
0 31 V
0 4873 R
0 -31 V
6712 832 M
0 31 V
0 4873 R
0 -31 V
6810 832 M
0 63 V
0 4841 R
0 -63 V
stroke
6810 572 M
[ [(Helvetica) 260.0 0.0 true true 0 (10)]
[(Helvetica) 208.0 130.0 true true 0 (7)]
] -112.7 MCshow
1.000 UL
LTb
1.000 UL
LTb
1430 5736 N
0 -4904 V
5380 0 V
0 4904 V
-5380 0 V
Z stroke
LCb setrgbcolor
520 3284 M
currentpoint gsave translate 90 rotate 0 0 moveto
[ [(Helvetica) 260.0 0.0 true true 0 (c/c)]
[(Helvetica) 208.0 -78.0 true true 0 (inj)]
] -60.7 MCshow
grestore
LTb
LCb setrgbcolor
4120 182 M
[ [(Helvetica) 260.0 0.0 true true 0 (t \(seconds\))]
] -86.7 MCshow
LTb
1.000 UP
1538 5491 M
[ [(Helvetica) 260.0 0.0 true true 0 (\(b\) test B2)]
] -86.7 MLshow
1.000 UL
LTb
1.300 UP
1.000 UL
LT0
LTb
5967 5517 M
[ [(Helvetica) 260.0 0.0 true true 0 (data)]
] -86.7 MRshow
LT0
1458 1661 Circle
1534 1661 Circle
1604 1628 Circle
1668 1675 Circle
1728 1607 Circle
1785 1694 Circle
1839 1532 Circle
1891 1692 Circle
1939 1572 Circle
1986 1649 Circle
2033 1670 Circle
2079 1508 Circle
2122 1674 Circle
2164 1729 Circle
2203 1984 Circle
2240 1769 Circle
2276 1675 Circle
2311 2042 Circle
2344 2575 Circle
2376 2011 Circle
2407 2169 Circle
2437 2169 Circle
2466 2288 Circle
2493 2458 Circle
2520 2634 Circle
2547 2710 Circle
2572 2892 Circle
2597 3035 Circle
2621 3107 Circle
2645 3268 Circle
2667 3360 Circle
2690 3406 Circle
2712 3529 Circle
2733 3610 Circle
2754 3678 Circle
2774 3767 Circle
2794 3798 Circle
2814 3873 Circle
2833 3906 Circle
2852 3983 Circle
2871 4021 Circle
2922 4139 Circle
2940 4158 Circle
2957 4187 Circle
2974 4209 Circle
2991 4258 Circle
3008 4272 Circle
3024 4306 Circle
3040 4319 Circle
3056 4330 Circle
3071 4374 Circle
3086 4380 Circle
3101 4401 Circle
3115 4420 Circle
3129 4440 Circle
3143 4444 Circle
3157 4459 Circle
3171 4473 Circle
3184 4483 Circle
3196 4506 Circle
3222 4511 Circle
3234 4511 Circle
3246 4524 Circle
3258 4528 Circle
3305 4541 Circle
3316 4519 Circle
3328 4545 Circle
3339 4541 Circle
3350 4557 Circle
3361 4532 Circle
3372 4537 Circle
3383 4537 Circle
3393 4537 Circle
3404 4557 Circle
3414 4561 Circle
3424 4549 Circle
3434 4557 Circle
3444 4545 Circle
3453 4537 Circle
3463 4532 Circle
3473 4537 Circle
3482 4537 Circle
3491 4524 Circle
3501 4511 Circle
3510 4528 Circle
3519 4524 Circle
3528 4515 Circle
3537 4515 Circle
3546 4502 Circle
3555 4502 Circle
3563 4502 Circle
3572 4497 Circle
3581 4483 Circle
3590 4493 Circle
3598 4483 Circle
3607 4469 Circle
3615 4483 Circle
3624 4448 Circle
3632 4452 Circle
3641 4436 Circle
3649 4432 Circle
3657 4450 Circle
3665 4436 Circle
3673 4451 Circle
3680 4432 Circle
3688 4438 Circle
3695 4432 Circle
3702 4425 Circle
3710 4424 Circle
3738 4404 Circle
3745 4400 Circle
3751 4386 Circle
3758 4374 Circle
3765 4381 Circle
3772 4371 Circle
3779 4380 Circle
3786 4350 Circle
3792 4337 Circle
3799 4333 Circle
3806 4327 Circle
3813 4327 Circle
3820 4306 Circle
3827 4318 Circle
3833 4289 Circle
3840 4295 Circle
3847 4269 Circle
3854 4283 Circle
3861 4243 Circle
3868 4272 Circle
3874 4262 Circle
3881 4247 Circle
3887 4270 Circle
3894 4242 Circle
3900 4253 Circle
3906 4246 Circle
3912 4214 Circle
3918 4250 Circle
3924 4235 Circle
3930 4214 Circle
3936 4209 Circle
3942 4206 Circle
3948 4198 Circle
3966 4163 Circle
3972 4200 Circle
3982 4185 Circle
3988 4169 Circle
3993 4173 Circle
3998 4168 Circle
4004 4154 Circle
4009 4135 Circle
4015 4148 Circle
4020 4130 Circle
4025 4121 Circle
4031 4148 Circle
4036 4107 Circle
4041 4136 Circle
4046 4110 Circle
4051 4114 Circle
4056 4107 Circle
4061 4102 Circle
4066 4105 Circle
4071 4094 Circle
4076 4076 Circle
4081 4079 Circle
4086 4088 Circle
4091 4077 Circle
4105 4073 Circle
4110 4079 Circle
4114 4066 Circle
4119 4039 Circle
4123 4079 Circle
4128 4051 Circle
4137 4043 Circle
4141 4037 Circle
4146 4022 Circle
4150 4016 Circle
4155 4034 Circle
4159 4032 Circle
4164 4000 Circle
4168 3996 Circle
4172 3992 Circle
4177 3991 Circle
4181 3986 Circle
4186 3991 Circle
4190 3998 Circle
4194 3990 Circle
4198 3989 Circle
4202 3971 Circle
4207 3945 Circle
4211 3951 Circle
4215 3942 Circle
4219 3941 Circle
4223 3953 Circle
4227 3924 Circle
4231 3932 Circle
4236 3923 Circle
4240 3933 Circle
4244 3926 Circle
4248 3888 Circle
4252 3918 Circle
4256 3910 Circle
4260 3904 Circle
4264 3888 Circle
4268 3871 Circle
4272 3880 Circle
4276 3870 Circle
4280 3881 Circle
4284 3849 Circle
4288 3873 Circle
4292 3861 Circle
4296 3850 Circle
4299 3849 Circle
4303 3827 Circle
4307 3847 Circle
4314 3807 Circle
4318 3817 Circle
4321 3807 Circle
4325 3809 Circle
4329 3794 Circle
4333 3825 Circle
4337 3806 Circle
4340 3800 Circle
4344 3806 Circle
4348 3790 Circle
4351 3792 Circle
4355 3790 Circle
4359 3732 Circle
4363 3767 Circle
4366 3741 Circle
4370 3775 Circle
4373 3767 Circle
4377 3745 Circle
4381 3732 Circle
4384 3727 Circle
4391 3747 Circle
4405 3732 Circle
4419 3691 Circle
4433 3688 Circle
4446 3691 Circle
4459 3701 Circle
4472 3652 Circle
4485 3624 Circle
4498 3616 Circle
4511 3557 Circle
4524 3560 Circle
4536 3563 Circle
4548 3566 Circle
4560 3550 Circle
4572 3515 Circle
4584 3497 Circle
4595 3493 Circle
4607 3482 Circle
4618 3482 Circle
4630 3454 Circle
4641 3406 Circle
4651 3437 Circle
6310 5517 Circle
3.000 UL
LT0
LTb
5967 5205 M
[ [(Helvetica) 260.0 0.0 true true 0 (single porosity)]
] -86.7 MRshow
LT0
6123 5205 M
375 0 V
1430 1616 M
30 0 V
30 0 V
28 0 V
28 0 V
27 0 V
26 0 V
25 0 V
25 0 V
24 0 V
23 0 V
23 0 V
23 0 V
21 9 V
22 0 V
21 9 V
20 0 V
20 9 V
19 9 V
19 16 V
19 8 V
18 24 V
18 15 V
18 22 V
17 27 V
17 26 V
17 31 V
16 35 V
17 37 V
15 39 V
16 41 V
15 41 V
15 45 V
15 45 V
15 47 V
14 48 V
14 46 V
14 49 V
14 46 V
13 47 V
14 47 V
13 45 V
13 46 V
13 44 V
12 43 V
13 44 V
12 43 V
12 41 V
12 40 V
12 40 V
11 39 V
12 38 V
11 37 V
11 36 V
12 35 V
11 35 V
10 34 V
11 33 V
11 32 V
10 31 V
10 31 V
11 30 V
10 29 V
10 29 V
10 27 V
10 28 V
9 26 V
10 26 V
9 25 V
10 25 V
9 24 V
88 213 V
81 169 V
74 136 V
69 111 V
64 89 V
59 73 V
56 60 V
53 48 V
50 39 V
48 31 V
45 25 V
43 19 V
41 14 V
40 10 V
38 6 V
36 3 V
35 0 V
34 -3 V
32 -5 V
31 -6 V
31 -9 V
29 -10 V
29 -12 V
27 -12 V
27 -14 V
26 -15 V
26 -16 V
24 -17 V
24 -18 V
24 -18 V
23 -20 V
22 -19 V
stroke 3874 4322 M
22 -21 V
21 -20 V
21 -22 V
20 -21 V
20 -22 V
20 -23 V
19 -23 V
19 -23 V
18 -23 V
18 -24 V
18 -24 V
17 -24 V
17 -25 V
17 -24 V
16 -25 V
16 -25 V
16 -26 V
15 -25 V
16 -26 V
15 -25 V
15 -26 V
14 -26 V
15 -26 V
14 -26 V
14 -26 V
13 -27 V
14 -26 V
13 -27 V
13 -26 V
13 -27 V
13 -27 V
13 -27 V
12 -26 V
12 -27 V
12 -27 V
12 -27 V
12 -28 V
12 -27 V
11 -27 V
12 -27 V
11 -27 V
11 -27 V
11 -28 V
11 -27 V
11 -27 V
10 -28 V
11 -27 V
10 -28 V
10 -27 V
10 -27 V
10 -28 V
10 -27 V
10 -28 V
10 -27 V
9 -28 V
10 -28 V
9 -27 V
10 -28 V
88 -276 V
80 -277 V
74 -277 V
69 -272 V
64 -281 V
60 -279 V
56 -285 V
8 -45 V
stroke
LT6
LTb
5967 4893 M
[ [(Helvetica) 260.0 0.0 true true 0 (double porosity)]
] -86.7 MRshow
LT6
6123 4893 M
375 0 V
1430 1616 M
30 0 V
30 0 V
28 0 V
28 0 V
27 0 V
26 0 V
25 0 V
25 0 V
24 0 V
23 0 V
23 0 V
23 0 V
21 0 V
22 0 V
21 0 V
20 0 V
20 0 V
19 0 V
19 0 V
19 0 V
18 0 V
18 9 V
18 0 V
17 0 V
17 9 V
17 0 V
16 9 V
17 9 V
15 8 V
16 16 V
15 16 V
15 16 V
15 14 V
15 29 V
14 20 V
14 26 V
14 30 V
14 34 V
13 32 V
14 39 V
13 41 V
13 37 V
13 42 V
12 45 V
13 45 V
12 43 V
12 45 V
12 46 V
12 45 V
11 48 V
12 45 V
11 45 V
11 45 V
12 44 V
11 44 V
10 43 V
11 42 V
11 43 V
10 40 V
10 41 V
11 40 V
10 38 V
10 39 V
10 37 V
10 36 V
9 36 V
10 35 V
9 34 V
10 34 V
9 32 V
88 290 V
81 232 V
74 186 V
69 149 V
64 120 V
59 98 V
56 78 V
53 62 V
50 49 V
48 39 V
45 29 V
43 22 V
41 14 V
40 9 V
38 5 V
36 -1 V
35 -3 V
34 -8 V
32 -9 V
31 -12 V
31 -15 V
29 -16 V
29 -17 V
27 -19 V
27 -19 V
26 -21 V
26 -21 V
24 -22 V
24 -22 V
24 -23 V
23 -22 V
22 -23 V
stroke 3874 4271 M
22 -22 V
21 -23 V
21 -22 V
20 -22 V
20 -21 V
20 -21 V
19 -21 V
19 -20 V
18 -19 V
18 -19 V
18 -18 V
17 -18 V
17 -17 V
17 -16 V
16 -16 V
16 -15 V
16 -15 V
15 -14 V
16 -14 V
15 -12 V
15 -13 V
14 -12 V
15 -11 V
14 -11 V
14 -11 V
13 -10 V
14 -9 V
13 -10 V
13 -9 V
13 -8 V
13 -9 V
13 -8 V
12 -8 V
12 -7 V
12 -7 V
12 -8 V
12 -7 V
12 -6 V
11 -7 V
12 -6 V
11 -7 V
11 -6 V
11 -6 V
11 -6 V
11 -6 V
10 -6 V
11 -5 V
10 -6 V
10 -6 V
10 -5 V
10 -6 V
10 -5 V
10 -6 V
10 -5 V
9 -5 V
10 -6 V
9 -5 V
10 -5 V
88 -52 V
80 -50 V
74 -51 V
69 -51 V
64 -51 V
60 -51 V
56 -51 V
53 -52 V
50 -52 V
47 -52 V
46 -53 V
43 -52 V
41 -54 V
39 -52 V
38 -54 V
36 -54 V
35 -53 V
34 -54 V
33 -55 V
31 -53 V
30 -55 V
30 -55 V
28 -55 V
28 -54 V
27 -56 V
26 -55 V
25 -54 V
25 -57 V
24 -55 V
23 -54 V
23 -57 V
23 -55 V
21 -57 V
22 -58 V
20 -52 V
21 -59 V
20 -58 V
19 -56 V
19 -52 V
19 -59 V
18 -53 V
18 -59 V
18 -68 V
17 -59 V
17 -43 V
17 -73 V
stroke 6273 1112 M
16 -56 V
17 -64 V
15 -35 V
16 -80 V
15 -45 V
stroke
8.000 UL
LT0
LTb
5967 4581 M
[ [(Helvetica) 260.0 0.0 true true 0 (multirate lognormal)]
] -86.7 MRshow
LT0
6123 4581 M
375 0 V
1430 1616 M
30 0 V
30 0 V
28 0 V
28 0 V
27 0 V
26 0 V
25 0 V
25 0 V
24 0 V
23 0 V
23 0 V
23 0 V
21 0 V
22 0 V
21 0 V
20 0 V
20 0 V
19 0 V
19 0 V
19 0 V
18 0 V
18 0 V
18 0 V
17 0 V
17 0 V
17 0 V
16 0 V
17 0 V
15 0 V
16 0 V
15 0 V
15 0 V
15 9 V
15 0 V
14 0 V
14 9 V
14 9 V
14 0 V
13 9 V
14 16 V
13 8 V
13 16 V
13 16 V
12 22 V
13 21 V
12 27 V
12 31 V
12 30 V
12 33 V
11 41 V
12 38 V
11 43 V
11 43 V
12 44 V
11 46 V
10 47 V
11 49 V
11 48 V
10 50 V
10 48 V
11 50 V
10 48 V
10 49 V
10 48 V
10 47 V
9 46 V
10 46 V
9 46 V
10 44 V
9 44 V
88 389 V
81 309 V
74 243 V
69 190 V
64 149 V
59 116 V
56 90 V
53 70 V
50 52 V
48 39 V
45 28 V
43 18 V
41 11 V
40 5 V
38 1 V
36 -4 V
35 -8 V
34 -10 V
32 -12 V
31 -14 V
31 -15 V
29 -17 V
29 -17 V
27 -18 V
27 -19 V
26 -19 V
26 -19 V
24 -20 V
24 -20 V
24 -19 V
23 -20 V
22 -20 V
stroke 3874 4276 M
22 -19 V
21 -20 V
21 -19 V
20 -19 V
20 -19 V
20 -19 V
19 -18 V
19 -19 V
18 -18 V
18 -18 V
18 -18 V
17 -17 V
17 -18 V
17 -17 V
16 -17 V
16 -16 V
16 -17 V
15 -16 V
16 -17 V
15 -15 V
15 -16 V
14 -16 V
15 -15 V
14 -16 V
14 -15 V
13 -15 V
14 -14 V
13 -15 V
13 -14 V
13 -15 V
13 -14 V
13 -14 V
12 -13 V
12 -14 V
12 -13 V
12 -14 V
12 -13 V
12 -13 V
11 -13 V
12 -13 V
11 -13 V
11 -12 V
11 -12 V
11 -13 V
11 -12 V
10 -12 V
11 -12 V
10 -12 V
10 -12 V
10 -11 V
10 -12 V
10 -11 V
10 -12 V
10 -11 V
9 -11 V
10 -11 V
9 -11 V
10 -11 V
88 -103 V
80 -96 V
74 -88 V
69 -83 V
64 -78 V
60 -73 V
56 -69 V
53 -66 V
50 -63 V
47 -59 V
46 -57 V
43 -55 V
41 -52 V
39 -50 V
38 -48 V
36 -48 V
35 -45 V
34 -44 V
33 -43 V
31 -38 V
30 -43 V
30 -36 V
28 -39 V
28 -38 V
27 -33 V
26 -36 V
25 -33 V
25 -36 V
24 -28 V
23 -35 V
23 -31 V
23 -27 V
21 -29 V
22 -30 V
20 -24 V
21 -34 V
20 -27 V
19 -19 V
19 -30 V
19 -21 V
18 -22 V
18 -24 V
18 -24 V
17 -26 V
17 -27 V
17 -14 V
stroke 6273 1400 M
16 -15 V
17 -30 V
15 -17 V
16 -16 V
15 -18 V
15 -17 V
15 -19 V
15 -20 V
14 -20 V
14 -21 V
14 0 V
14 -22 V
13 -23 V
14 0 V
13 -25 V
13 -25 V
13 0 V
12 -28 V
13 0 V
12 0 V
12 -28 V
12 0 V
12 -31 V
11 0 V
12 0 V
11 -33 V
11 0 V
12 0 V
10 -35 V
11 0 V
11 0 V
11 -38 V
10 0 V
10 0 V
11 0 V
10 -42 V
10 0 V
10 0 V
9 0 V
10 -45 V
10 0 V
9 0 V
10 0 V
stroke
1.000 UL
LTb
1430 5736 N
0 -4904 V
5380 0 V
0 4904 V
-5380 0 V
Z stroke
1.000 UP
1.000 UL
LTb
stroke
grestore
end
showpage
%%Trailer
%%DocumentFonts: Helvetica
