%!PS-Adobe-2.0 EPSF-2.0
%%Title: B3_22Na_logn0b.eps
%%Creator: gnuplot 4.2 patchlevel 6 
%%CreationDate: Thu Aug  4 15:32:37 2011
%%DocumentFonts: (atend)
%%BoundingBox: 50 50 410 352
%%EndComments
%%BeginProlog
/gnudict 256 dict def
gnudict begin
%
% The following 6 true/false flags may be edited by hand if required
% The unit line width may also be changed
%
/Color false def
/Blacktext false def
/Solid false def
/Dashlength 1 def
/Landscape false def
/Level1 false def
/Rounded false def
/TransparentPatterns false def
/gnulinewidth 5.000 def
/userlinewidth gnulinewidth def
%
/vshift -86 def
/dl1 {
  10.0 Dashlength mul mul
  Rounded { currentlinewidth 0.75 mul sub dup 0 le { pop 0.01 } if } if
} def
/dl2 {
  10.0 Dashlength mul mul
  Rounded { currentlinewidth 0.75 mul add } if
} def
/hpt_ 31.5 def
/vpt_ 31.5 def
/hpt hpt_ def
/vpt vpt_ def
Level1 {} {
/SDict 10 dict def
systemdict /pdfmark known not {
  userdict /pdfmark systemdict /cleartomark get put
} if
SDict begin [
  /Title (B3_22Na_logn0b.eps)
  /Subject (gnuplot plot)
  /Creator (gnuplot 4.2 patchlevel 6 )
  /Author (Bwalya Malama,,,)
%  /Producer (gnuplot)
%  /Keywords ()
  /CreationDate (Thu Aug  4 15:32:37 2011)
  /DOCINFO pdfmark
end
} ifelse
%
% Gnuplot Prolog Version 4.2 (August 2006)
%
/M {moveto} bind def
/L {lineto} bind def
/R {rmoveto} bind def
/V {rlineto} bind def
/N {newpath moveto} bind def
/Z {closepath} bind def
/C {setrgbcolor} bind def
/f {rlineto fill} bind def
/vpt2 vpt 2 mul def
/hpt2 hpt 2 mul def
/Lshow {currentpoint stroke M 0 vshift R 
	Blacktext {gsave 0 setgray show grestore} {show} ifelse} def
/Rshow {currentpoint stroke M dup stringwidth pop neg vshift R
	Blacktext {gsave 0 setgray show grestore} {show} ifelse} def
/Cshow {currentpoint stroke M dup stringwidth pop -2 div vshift R 
	Blacktext {gsave 0 setgray show grestore} {show} ifelse} def
/UP {dup vpt_ mul /vpt exch def hpt_ mul /hpt exch def
  /hpt2 hpt 2 mul def /vpt2 vpt 2 mul def} def
/DL {Color {setrgbcolor Solid {pop []} if 0 setdash}
 {pop pop pop 0 setgray Solid {pop []} if 0 setdash} ifelse} def
/BL {stroke userlinewidth 2 mul setlinewidth
	Rounded {1 setlinejoin 1 setlinecap} if} def
/AL {stroke userlinewidth 2 div setlinewidth
	Rounded {1 setlinejoin 1 setlinecap} if} def
/UL {dup gnulinewidth mul /userlinewidth exch def
	dup 1 lt {pop 1} if 10 mul /udl exch def} def
/PL {stroke userlinewidth setlinewidth
	Rounded {1 setlinejoin 1 setlinecap} if} def
% Default Line colors
/LCw {1 1 1} def
/LCb {0 0 0} def
/LCa {0 0 0} def
/LC0 {1 0 0} def
/LC1 {0 1 0} def
/LC2 {0 0 1} def
/LC3 {1 0 1} def
/LC4 {0 1 1} def
/LC5 {1 1 0} def
/LC6 {0 0 0} def
/LC7 {1 0.3 0} def
/LC8 {0.5 0.5 0.5} def
% Default Line Types
/LTw {PL [] 1 setgray} def
/LTb {BL [] LCb DL} def
/LTa {AL [1 udl mul 2 udl mul] 0 setdash LCa setrgbcolor} def
/LT0 {PL [] LC0 DL} def
/LT1 {PL [4 dl1 2 dl2] LC1 DL} def
/LT2 {PL [2 dl1 3 dl2] LC2 DL} def
/LT3 {PL [1 dl1 1.5 dl2] LC3 DL} def
/LT4 {PL [6 dl1 2 dl2 1 dl1 2 dl2] LC4 DL} def
/LT5 {PL [3 dl1 3 dl2 1 dl1 3 dl2] LC5 DL} def
/LT6 {PL [2 dl1 2 dl2 2 dl1 6 dl2] LC6 DL} def
/LT7 {PL [1 dl1 2 dl2 6 dl1 2 dl2 1 dl1 2 dl2] LC7 DL} def
/LT8 {PL [2 dl1 2 dl2 2 dl1 2 dl2 2 dl1 2 dl2 2 dl1 4 dl2] LC8 DL} def
/Pnt {stroke [] 0 setdash gsave 1 setlinecap M 0 0 V stroke grestore} def
/Dia {stroke [] 0 setdash 2 copy vpt add M
  hpt neg vpt neg V hpt vpt neg V
  hpt vpt V hpt neg vpt V closepath stroke
  Pnt} def
/Pls {stroke [] 0 setdash vpt sub M 0 vpt2 V
  currentpoint stroke M
  hpt neg vpt neg R hpt2 0 V stroke
 } def
/Box {stroke [] 0 setdash 2 copy exch hpt sub exch vpt add M
  0 vpt2 neg V hpt2 0 V 0 vpt2 V
  hpt2 neg 0 V closepath stroke
  Pnt} def
/Crs {stroke [] 0 setdash exch hpt sub exch vpt add M
  hpt2 vpt2 neg V currentpoint stroke M
  hpt2 neg 0 R hpt2 vpt2 V stroke} def
/TriU {stroke [] 0 setdash 2 copy vpt 1.12 mul add M
  hpt neg vpt -1.62 mul V
  hpt 2 mul 0 V
  hpt neg vpt 1.62 mul V closepath stroke
  Pnt} def
/Star {2 copy Pls Crs} def
/BoxF {stroke [] 0 setdash exch hpt sub exch vpt add M
  0 vpt2 neg V hpt2 0 V 0 vpt2 V
  hpt2 neg 0 V closepath fill} def
/TriUF {stroke [] 0 setdash vpt 1.12 mul add M
  hpt neg vpt -1.62 mul V
  hpt 2 mul 0 V
  hpt neg vpt 1.62 mul V closepath fill} def
/TriD {stroke [] 0 setdash 2 copy vpt 1.12 mul sub M
  hpt neg vpt 1.62 mul V
  hpt 2 mul 0 V
  hpt neg vpt -1.62 mul V closepath stroke
  Pnt} def
/TriDF {stroke [] 0 setdash vpt 1.12 mul sub M
  hpt neg vpt 1.62 mul V
  hpt 2 mul 0 V
  hpt neg vpt -1.62 mul V closepath fill} def
/DiaF {stroke [] 0 setdash vpt add M
  hpt neg vpt neg V hpt vpt neg V
  hpt vpt V hpt neg vpt V closepath fill} def
/Pent {stroke [] 0 setdash 2 copy gsave
  translate 0 hpt M 4 {72 rotate 0 hpt L} repeat
  closepath stroke grestore Pnt} def
/PentF {stroke [] 0 setdash gsave
  translate 0 hpt M 4 {72 rotate 0 hpt L} repeat
  closepath fill grestore} def
/Circle {stroke [] 0 setdash 2 copy
  hpt 0 360 arc stroke Pnt} def
/CircleF {stroke [] 0 setdash hpt 0 360 arc fill} def
/C0 {BL [] 0 setdash 2 copy moveto vpt 90 450 arc} bind def
/C1 {BL [] 0 setdash 2 copy moveto
	2 copy vpt 0 90 arc closepath fill
	vpt 0 360 arc closepath} bind def
/C2 {BL [] 0 setdash 2 copy moveto
	2 copy vpt 90 180 arc closepath fill
	vpt 0 360 arc closepath} bind def
/C3 {BL [] 0 setdash 2 copy moveto
	2 copy vpt 0 180 arc closepath fill
	vpt 0 360 arc closepath} bind def
/C4 {BL [] 0 setdash 2 copy moveto
	2 copy vpt 180 270 arc closepath fill
	vpt 0 360 arc closepath} bind def
/C5 {BL [] 0 setdash 2 copy moveto
	2 copy vpt 0 90 arc
	2 copy moveto
	2 copy vpt 180 270 arc closepath fill
	vpt 0 360 arc} bind def
/C6 {BL [] 0 setdash 2 copy moveto
	2 copy vpt 90 270 arc closepath fill
	vpt 0 360 arc closepath} bind def
/C7 {BL [] 0 setdash 2 copy moveto
	2 copy vpt 0 270 arc closepath fill
	vpt 0 360 arc closepath} bind def
/C8 {BL [] 0 setdash 2 copy moveto
	2 copy vpt 270 360 arc closepath fill
	vpt 0 360 arc closepath} bind def
/C9 {BL [] 0 setdash 2 copy moveto
	2 copy vpt 270 450 arc closepath fill
	vpt 0 360 arc closepath} bind def
/C10 {BL [] 0 setdash 2 copy 2 copy moveto vpt 270 360 arc closepath fill
	2 copy moveto
	2 copy vpt 90 180 arc closepath fill
	vpt 0 360 arc closepath} bind def
/C11 {BL [] 0 setdash 2 copy moveto
	2 copy vpt 0 180 arc closepath fill
	2 copy moveto
	2 copy vpt 270 360 arc closepath fill
	vpt 0 360 arc closepath} bind def
/C12 {BL [] 0 setdash 2 copy moveto
	2 copy vpt 180 360 arc closepath fill
	vpt 0 360 arc closepath} bind def
/C13 {BL [] 0 setdash 2 copy moveto
	2 copy vpt 0 90 arc closepath fill
	2 copy moveto
	2 copy vpt 180 360 arc closepath fill
	vpt 0 360 arc closepath} bind def
/C14 {BL [] 0 setdash 2 copy moveto
	2 copy vpt 90 360 arc closepath fill
	vpt 0 360 arc} bind def
/C15 {BL [] 0 setdash 2 copy vpt 0 360 arc closepath fill
	vpt 0 360 arc closepath} bind def
/Rec {newpath 4 2 roll moveto 1 index 0 rlineto 0 exch rlineto
	neg 0 rlineto closepath} bind def
/Square {dup Rec} bind def
/Bsquare {vpt sub exch vpt sub exch vpt2 Square} bind def
/S0 {BL [] 0 setdash 2 copy moveto 0 vpt rlineto BL Bsquare} bind def
/S1 {BL [] 0 setdash 2 copy vpt Square fill Bsquare} bind def
/S2 {BL [] 0 setdash 2 copy exch vpt sub exch vpt Square fill Bsquare} bind def
/S3 {BL [] 0 setdash 2 copy exch vpt sub exch vpt2 vpt Rec fill Bsquare} bind def
/S4 {BL [] 0 setdash 2 copy exch vpt sub exch vpt sub vpt Square fill Bsquare} bind def
/S5 {BL [] 0 setdash 2 copy 2 copy vpt Square fill
	exch vpt sub exch vpt sub vpt Square fill Bsquare} bind def
/S6 {BL [] 0 setdash 2 copy exch vpt sub exch vpt sub vpt vpt2 Rec fill Bsquare} bind def
/S7 {BL [] 0 setdash 2 copy exch vpt sub exch vpt sub vpt vpt2 Rec fill
	2 copy vpt Square fill Bsquare} bind def
/S8 {BL [] 0 setdash 2 copy vpt sub vpt Square fill Bsquare} bind def
/S9 {BL [] 0 setdash 2 copy vpt sub vpt vpt2 Rec fill Bsquare} bind def
/S10 {BL [] 0 setdash 2 copy vpt sub vpt Square fill 2 copy exch vpt sub exch vpt Square fill
	Bsquare} bind def
/S11 {BL [] 0 setdash 2 copy vpt sub vpt Square fill 2 copy exch vpt sub exch vpt2 vpt Rec fill
	Bsquare} bind def
/S12 {BL [] 0 setdash 2 copy exch vpt sub exch vpt sub vpt2 vpt Rec fill Bsquare} bind def
/S13 {BL [] 0 setdash 2 copy exch vpt sub exch vpt sub vpt2 vpt Rec fill
	2 copy vpt Square fill Bsquare} bind def
/S14 {BL [] 0 setdash 2 copy exch vpt sub exch vpt sub vpt2 vpt Rec fill
	2 copy exch vpt sub exch vpt Square fill Bsquare} bind def
/S15 {BL [] 0 setdash 2 copy Bsquare fill Bsquare} bind def
/D0 {gsave translate 45 rotate 0 0 S0 stroke grestore} bind def
/D1 {gsave translate 45 rotate 0 0 S1 stroke grestore} bind def
/D2 {gsave translate 45 rotate 0 0 S2 stroke grestore} bind def
/D3 {gsave translate 45 rotate 0 0 S3 stroke grestore} bind def
/D4 {gsave translate 45 rotate 0 0 S4 stroke grestore} bind def
/D5 {gsave translate 45 rotate 0 0 S5 stroke grestore} bind def
/D6 {gsave translate 45 rotate 0 0 S6 stroke grestore} bind def
/D7 {gsave translate 45 rotate 0 0 S7 stroke grestore} bind def
/D8 {gsave translate 45 rotate 0 0 S8 stroke grestore} bind def
/D9 {gsave translate 45 rotate 0 0 S9 stroke grestore} bind def
/D10 {gsave translate 45 rotate 0 0 S10 stroke grestore} bind def
/D11 {gsave translate 45 rotate 0 0 S11 stroke grestore} bind def
/D12 {gsave translate 45 rotate 0 0 S12 stroke grestore} bind def
/D13 {gsave translate 45 rotate 0 0 S13 stroke grestore} bind def
/D14 {gsave translate 45 rotate 0 0 S14 stroke grestore} bind def
/D15 {gsave translate 45 rotate 0 0 S15 stroke grestore} bind def
/DiaE {stroke [] 0 setdash vpt add M
  hpt neg vpt neg V hpt vpt neg V
  hpt vpt V hpt neg vpt V closepath stroke} def
/BoxE {stroke [] 0 setdash exch hpt sub exch vpt add M
  0 vpt2 neg V hpt2 0 V 0 vpt2 V
  hpt2 neg 0 V closepath stroke} def
/TriUE {stroke [] 0 setdash vpt 1.12 mul add M
  hpt neg vpt -1.62 mul V
  hpt 2 mul 0 V
  hpt neg vpt 1.62 mul V closepath stroke} def
/TriDE {stroke [] 0 setdash vpt 1.12 mul sub M
  hpt neg vpt 1.62 mul V
  hpt 2 mul 0 V
  hpt neg vpt -1.62 mul V closepath stroke} def
/PentE {stroke [] 0 setdash gsave
  translate 0 hpt M 4 {72 rotate 0 hpt L} repeat
  closepath stroke grestore} def
/CircE {stroke [] 0 setdash 
  hpt 0 360 arc stroke} def
/Opaque {gsave closepath 1 setgray fill grestore 0 setgray closepath} def
/DiaW {stroke [] 0 setdash vpt add M
  hpt neg vpt neg V hpt vpt neg V
  hpt vpt V hpt neg vpt V Opaque stroke} def
/BoxW {stroke [] 0 setdash exch hpt sub exch vpt add M
  0 vpt2 neg V hpt2 0 V 0 vpt2 V
  hpt2 neg 0 V Opaque stroke} def
/TriUW {stroke [] 0 setdash vpt 1.12 mul add M
  hpt neg vpt -1.62 mul V
  hpt 2 mul 0 V
  hpt neg vpt 1.62 mul V Opaque stroke} def
/TriDW {stroke [] 0 setdash vpt 1.12 mul sub M
  hpt neg vpt 1.62 mul V
  hpt 2 mul 0 V
  hpt neg vpt -1.62 mul V Opaque stroke} def
/PentW {stroke [] 0 setdash gsave
  translate 0 hpt M 4 {72 rotate 0 hpt L} repeat
  Opaque stroke grestore} def
/CircW {stroke [] 0 setdash 
  hpt 0 360 arc Opaque stroke} def
/BoxFill {gsave Rec 1 setgray fill grestore} def
/Density {
  /Fillden exch def
  currentrgbcolor
  /ColB exch def /ColG exch def /ColR exch def
  /ColR ColR Fillden mul Fillden sub 1 add def
  /ColG ColG Fillden mul Fillden sub 1 add def
  /ColB ColB Fillden mul Fillden sub 1 add def
  ColR ColG ColB setrgbcolor} def
/BoxColFill {gsave Rec PolyFill} def
/PolyFill {gsave Density fill grestore grestore} def
/h {rlineto rlineto rlineto gsave closepath fill grestore} bind def
%
% PostScript Level 1 Pattern Fill routine for rectangles
% Usage: x y w h s a XX PatternFill
%	x,y = lower left corner of box to be filled
%	w,h = width and height of box
%	  a = angle in degrees between lines and x-axis
%	 XX = 0/1 for no/yes cross-hatch
%
/PatternFill {gsave /PFa [ 9 2 roll ] def
  PFa 0 get PFa 2 get 2 div add PFa 1 get PFa 3 get 2 div add translate
  PFa 2 get -2 div PFa 3 get -2 div PFa 2 get PFa 3 get Rec
  gsave 1 setgray fill grestore clip
  currentlinewidth 0.5 mul setlinewidth
  /PFs PFa 2 get dup mul PFa 3 get dup mul add sqrt def
  0 0 M PFa 5 get rotate PFs -2 div dup translate
  0 1 PFs PFa 4 get div 1 add floor cvi
	{PFa 4 get mul 0 M 0 PFs V} for
  0 PFa 6 get ne {
	0 1 PFs PFa 4 get div 1 add floor cvi
	{PFa 4 get mul 0 2 1 roll M PFs 0 V} for
 } if
  stroke grestore} def
%
/languagelevel where
 {pop languagelevel} {1} ifelse
 2 lt
	{/InterpretLevel1 true def}
	{/InterpretLevel1 Level1 def}
 ifelse
%
% PostScript level 2 pattern fill definitions
%
/Level2PatternFill {
/Tile8x8 {/PaintType 2 /PatternType 1 /TilingType 1 /BBox [0 0 8 8] /XStep 8 /YStep 8}
	bind def
/KeepColor {currentrgbcolor [/Pattern /DeviceRGB] setcolorspace} bind def
<< Tile8x8
 /PaintProc {0.5 setlinewidth pop 0 0 M 8 8 L 0 8 M 8 0 L stroke} 
>> matrix makepattern
/Pat1 exch def
<< Tile8x8
 /PaintProc {0.5 setlinewidth pop 0 0 M 8 8 L 0 8 M 8 0 L stroke
	0 4 M 4 8 L 8 4 L 4 0 L 0 4 L stroke}
>> matrix makepattern
/Pat2 exch def
<< Tile8x8
 /PaintProc {0.5 setlinewidth pop 0 0 M 0 8 L
	8 8 L 8 0 L 0 0 L fill}
>> matrix makepattern
/Pat3 exch def
<< Tile8x8
 /PaintProc {0.5 setlinewidth pop -4 8 M 8 -4 L
	0 12 M 12 0 L stroke}
>> matrix makepattern
/Pat4 exch def
<< Tile8x8
 /PaintProc {0.5 setlinewidth pop -4 0 M 8 12 L
	0 -4 M 12 8 L stroke}
>> matrix makepattern
/Pat5 exch def
<< Tile8x8
 /PaintProc {0.5 setlinewidth pop -2 8 M 4 -4 L
	0 12 M 8 -4 L 4 12 M 10 0 L stroke}
>> matrix makepattern
/Pat6 exch def
<< Tile8x8
 /PaintProc {0.5 setlinewidth pop -2 0 M 4 12 L
	0 -4 M 8 12 L 4 -4 M 10 8 L stroke}
>> matrix makepattern
/Pat7 exch def
<< Tile8x8
 /PaintProc {0.5 setlinewidth pop 8 -2 M -4 4 L
	12 0 M -4 8 L 12 4 M 0 10 L stroke}
>> matrix makepattern
/Pat8 exch def
<< Tile8x8
 /PaintProc {0.5 setlinewidth pop 0 -2 M 12 4 L
	-4 0 M 12 8 L -4 4 M 8 10 L stroke}
>> matrix makepattern
/Pat9 exch def
/Pattern1 {PatternBgnd KeepColor Pat1 setpattern} bind def
/Pattern2 {PatternBgnd KeepColor Pat2 setpattern} bind def
/Pattern3 {PatternBgnd KeepColor Pat3 setpattern} bind def
/Pattern4 {PatternBgnd KeepColor Landscape {Pat5} {Pat4} ifelse setpattern} bind def
/Pattern5 {PatternBgnd KeepColor Landscape {Pat4} {Pat5} ifelse setpattern} bind def
/Pattern6 {PatternBgnd KeepColor Landscape {Pat9} {Pat6} ifelse setpattern} bind def
/Pattern7 {PatternBgnd KeepColor Landscape {Pat8} {Pat7} ifelse setpattern} bind def
} def
%
%
%End of PostScript Level 2 code
%
/PatternBgnd {
  TransparentPatterns {} {gsave 1 setgray fill grestore} ifelse
} def
%
% Substitute for Level 2 pattern fill codes with
% grayscale if Level 2 support is not selected.
%
/Level1PatternFill {
/Pattern1 {0.250 Density} bind def
/Pattern2 {0.500 Density} bind def
/Pattern3 {0.750 Density} bind def
/Pattern4 {0.125 Density} bind def
/Pattern5 {0.375 Density} bind def
/Pattern6 {0.625 Density} bind def
/Pattern7 {0.875 Density} bind def
} def
%
% Now test for support of Level 2 code
%
Level1 {Level1PatternFill} {Level2PatternFill} ifelse
%
/Symbol-Oblique /Symbol findfont [1 0 .167 1 0 0] makefont
dup length dict begin {1 index /FID eq {pop pop} {def} ifelse} forall
currentdict end definefont pop
/MFshow {
   { dup 5 get 3 ge
     { 5 get 3 eq {gsave} {grestore} ifelse }
     {dup dup 0 get findfont exch 1 get scalefont setfont
     [ currentpoint ] exch dup 2 get 0 exch R dup 5 get 2 ne {dup dup 6
     get exch 4 get {show} {stringwidth pop 0 R} ifelse }if dup 5 get 0 eq
     {dup 3 get {2 get neg 0 exch R pop} {pop aload pop M} ifelse} {dup 5
     get 1 eq {dup 2 get exch dup 3 get exch 6 get stringwidth pop -2 div
     dup 0 R} {dup 6 get stringwidth pop -2 div 0 R 6 get
     show 2 index {aload pop M neg 3 -1 roll neg R pop pop} {pop pop pop
     pop aload pop M} ifelse }ifelse }ifelse }
     ifelse }
   forall} bind def
/MFwidth {0 exch { dup 5 get 3 ge { 5 get 3 eq { 0 } { pop } ifelse }
 {dup 3 get{dup dup 0 get findfont exch 1 get scalefont setfont
     6 get stringwidth pop add} {pop} ifelse} ifelse} forall} bind def
/MLshow { currentpoint stroke M
  0 exch R
  Blacktext {gsave 0 setgray MFshow grestore} {MFshow} ifelse } bind def
/MRshow { currentpoint stroke M
  exch dup MFwidth neg 3 -1 roll R
  Blacktext {gsave 0 setgray MFshow grestore} {MFshow} ifelse } bind def
/MCshow { currentpoint stroke M
  exch dup MFwidth -2 div 3 -1 roll R
  Blacktext {gsave 0 setgray MFshow grestore} {MFshow} ifelse } bind def
/XYsave    { [( ) 1 2 true false 3 ()] } bind def
/XYrestore { [( ) 1 2 true false 4 ()] } bind def
end
%%EndProlog
gnudict begin
gsave
50 50 translate
0.050 0.050 scale
0 setgray
newpath
(Helvetica) findfont 260 scalefont setfont
1.000 UL
LTb
1430 832 M
63 0 V
5317 0 R
-63 0 V
stroke
1274 832 M
[ [(Helvetica) 260.0 0.0 true true 0 (10)]
[(Helvetica) 208.0 130.0 true true 0 (-4)]
] -112.7 MRshow
1.000 UL
LTb
1430 1324 M
31 0 V
5349 0 R
-31 0 V
1430 1612 M
31 0 V
5349 0 R
-31 0 V
1430 1816 M
31 0 V
5349 0 R
-31 0 V
1430 1975 M
31 0 V
5349 0 R
-31 0 V
1430 2104 M
31 0 V
5349 0 R
-31 0 V
1430 2213 M
31 0 V
5349 0 R
-31 0 V
-5349 95 R
31 0 V
5349 0 R
-31 0 V
-5349 84 R
31 0 V
5349 0 R
-31 0 V
-5349 75 R
63 0 V
5317 0 R
-63 0 V
stroke
1274 2467 M
[ [(Helvetica) 260.0 0.0 true true 0 (10)]
[(Helvetica) 208.0 130.0 true true 0 (-3)]
] -112.7 MRshow
1.000 UL
LTb
1430 2959 M
31 0 V
5349 0 R
-31 0 V
1430 3247 M
31 0 V
5349 0 R
-31 0 V
1430 3451 M
31 0 V
5349 0 R
-31 0 V
1430 3609 M
31 0 V
5349 0 R
-31 0 V
1430 3739 M
31 0 V
5349 0 R
-31 0 V
1430 3848 M
31 0 V
5349 0 R
-31 0 V
-5349 95 R
31 0 V
5349 0 R
-31 0 V
-5349 84 R
31 0 V
5349 0 R
-31 0 V
-5349 74 R
63 0 V
5317 0 R
-63 0 V
stroke
1274 4101 M
[ [(Helvetica) 260.0 0.0 true true 0 (10)]
[(Helvetica) 208.0 130.0 true true 0 (-2)]
] -112.7 MRshow
1.000 UL
LTb
1430 4593 M
31 0 V
5349 0 R
-31 0 V
1430 4881 M
31 0 V
5349 0 R
-31 0 V
1430 5086 M
31 0 V
5349 0 R
-31 0 V
1430 5244 M
31 0 V
5349 0 R
-31 0 V
1430 5373 M
31 0 V
5349 0 R
-31 0 V
1430 5483 M
31 0 V
5349 0 R
-31 0 V
-5349 95 R
31 0 V
5349 0 R
-31 0 V
-5349 83 R
31 0 V
5349 0 R
-31 0 V
-5349 75 R
63 0 V
5317 0 R
-63 0 V
stroke
1274 5736 M
[ [(Helvetica) 260.0 0.0 true true 0 (10)]
[(Helvetica) 208.0 130.0 true true 0 (-1)]
] -112.7 MRshow
1.000 UL
LTb
1430 832 M
0 31 V
0 4873 R
0 -31 V
1615 832 M
0 31 V
0 4873 R
0 -31 V
1772 832 M
0 31 V
0 4873 R
0 -31 V
1907 832 M
0 31 V
0 4873 R
0 -31 V
2027 832 M
0 31 V
0 4873 R
0 -31 V
2134 832 M
0 63 V
0 4841 R
0 -63 V
stroke
2134 572 M
[ [(Helvetica) 260.0 0.0 true true 0 (10)]
[(Helvetica) 208.0 130.0 true true 0 (5)]
] -112.7 MCshow
1.000 UL
LTb
2838 832 M
0 31 V
0 4873 R
0 -31 V
3249 832 M
0 31 V
0 4873 R
0 -31 V
3541 832 M
0 31 V
0 4873 R
0 -31 V
3768 832 M
0 31 V
0 4873 R
0 -31 V
3953 832 M
0 31 V
0 4873 R
0 -31 V
4110 832 M
0 31 V
0 4873 R
0 -31 V
4245 832 M
0 31 V
0 4873 R
0 -31 V
4365 832 M
0 31 V
0 4873 R
0 -31 V
4472 832 M
0 63 V
0 4841 R
0 -63 V
stroke
4472 572 M
[ [(Helvetica) 260.0 0.0 true true 0 (10)]
[(Helvetica) 208.0 130.0 true true 0 (6)]
] -112.7 MCshow
1.000 UL
LTb
5176 832 M
0 31 V
0 4873 R
0 -31 V
5587 832 M
0 31 V
0 4873 R
0 -31 V
5880 832 M
0 31 V
0 4873 R
0 -31 V
6106 832 M
0 31 V
0 4873 R
0 -31 V
6291 832 M
0 31 V
0 4873 R
0 -31 V
6448 832 M
0 31 V
0 4873 R
0 -31 V
6583 832 M
0 31 V
0 4873 R
0 -31 V
6703 832 M
0 31 V
0 4873 R
0 -31 V
6810 832 M
0 63 V
0 4841 R
0 -63 V
stroke
6810 572 M
[ [(Helvetica) 260.0 0.0 true true 0 (10)]
[(Helvetica) 208.0 130.0 true true 0 (7)]
] -112.7 MCshow
1.000 UL
LTb
1.000 UL
LTb
1430 5736 N
0 -4904 V
5380 0 V
0 4904 V
-5380 0 V
Z stroke
LCb setrgbcolor
520 3284 M
currentpoint gsave translate 90 rotate 0 0 moveto
[ [(Helvetica) 260.0 0.0 true true 0 (c/c)]
[(Helvetica) 208.0 -78.0 true true 0 (inj)]
] -60.7 MCshow
grestore
LTb
LCb setrgbcolor
4120 182 M
[ [(Helvetica) 260.0 0.0 true true 0 (t \(seconds\))]
] -86.7 MCshow
LTb
1.000 UP
1538 5491 M
[ [(Helvetica) 260.0 0.0 true true 0 (\(b\) test B3)]
] -86.7 MLshow
1.000 UL
LTb
1.300 UP
1.000 UL
LT0
LTb
5967 5517 M
[ [(Helvetica) 260.0 0.0 true true 0 (data)]
] -86.7 MRshow
LT0
1757 2863 Circle
1795 2847 Circle
1833 2802 Circle
1869 2870 Circle
1904 2897 Circle
1938 2849 Circle
1971 2904 Circle
2003 2942 Circle
2035 2973 Circle
2066 3030 Circle
2096 3123 Circle
2126 3201 Circle
2154 3286 Circle
2182 3298 Circle
2209 3428 Circle
2236 3459 Circle
2262 3593 Circle
2286 3600 Circle
2310 3701 Circle
2334 3776 Circle
2357 3837 Circle
2380 3867 Circle
2402 3951 Circle
2423 4017 Circle
2444 4051 Circle
2465 4051 Circle
2484 4182 Circle
2503 4198 Circle
2522 4223 Circle
2541 4235 Circle
2559 4276 Circle
2577 4345 Circle
2594 4323 Circle
2611 4346 Circle
2628 4354 Circle
2645 4377 Circle
2662 4402 Circle
2678 4404 Circle
2695 4417 Circle
2711 4445 Circle
2727 4476 Circle
2742 4466 Circle
2758 4478 Circle
2773 4512 Circle
2787 4480 Circle
2802 4532 Circle
2816 4498 Circle
2830 4498 Circle
2844 4532 Circle
2857 4512 Circle
2870 4512 Circle
2884 4512 Circle
2896 4558 Circle
2908 4552 Circle
2921 4558 Circle
2933 4565 Circle
2945 4525 Circle
2957 4519 Circle
2970 4498 Circle
2981 4525 Circle
2993 4519 Circle
3004 4498 Circle
3016 4484 Circle
3028 4473 Circle
3040 4491 Circle
3051 4475 Circle
3063 4459 Circle
3074 4473 Circle
3085 4447 Circle
3097 4474 Circle
3107 4471 Circle
3118 4456 Circle
3129 4434 Circle
3139 4450 Circle
3150 4465 Circle
3160 4407 Circle
3170 4445 Circle
3181 4409 Circle
3191 4415 Circle
3201 4400 Circle
3229 4401 Circle
3258 4355 Circle
3285 4332 Circle
3311 4327 Circle
3338 4292 Circle
3364 4258 Circle
3389 4252 Circle
3414 4213 Circle
3438 4216 Circle
3461 4188 Circle
3484 4161 Circle
3506 4138 Circle
3528 4110 Circle
3550 4074 Circle
3571 4044 Circle
3592 4029 Circle
3612 4016 Circle
3632 3975 Circle
3651 4021 Circle
3670 3970 Circle
3688 3919 Circle
3707 3900 Circle
3724 3861 Circle
3742 3832 Circle
3760 3810 Circle
3778 3856 Circle
3795 3790 Circle
3812 3767 Circle
3828 3817 Circle
3844 3724 Circle
3860 3735 Circle
3875 3686 Circle
3890 3643 Circle
3905 3625 Circle
3920 3590 Circle
3935 3603 Circle
3950 3562 Circle
3964 3562 Circle
3978 3560 Circle
3992 3536 Circle
4005 3486 Circle
4019 3500 Circle
4032 3480 Circle
4045 3456 Circle
4057 3459 Circle
4070 3406 Circle
4083 3399 Circle
4096 3390 Circle
4108 3363 Circle
4121 3352 Circle
4132 3380 Circle
4144 3313 Circle
4156 3298 Circle
4167 3275 Circle
4178 3349 Circle
4189 3294 Circle
4200 3309 Circle
4211 3282 Circle
4222 3263 Circle
4232 3214 Circle
4242 3239 Circle
4252 3255 Circle
4263 3201 Circle
4273 3170 Circle
4283 3151 Circle
4293 3151 Circle
4303 3170 Circle
4313 3103 Circle
4323 3108 Circle
4333 3170 Circle
4342 3098 Circle
4351 3093 Circle
4364 3068 Circle
4376 3008 Circle
4389 2955 Circle
4401 3019 Circle
4414 2973 Circle
4426 2991 Circle
4437 2897 Circle
4449 2955 Circle
4461 2891 Circle
4472 2863 Circle
4484 2857 Circle
4496 2845 Circle
4507 2877 Circle
4518 2846 Circle
4528 2891 Circle
4543 2806 Circle
4553 2816 Circle
4560 2678 Circle
4570 2703 Circle
4580 2635 Circle
4590 2575 Circle
4600 2616 Circle
4610 2632 Circle
4620 2543 Circle
4630 2628 Circle
4640 2568 Circle
4650 2625 Circle
4659 2526 Circle
4668 2657 Circle
4675 2553 Circle
4686 2563 Circle
4695 2493 Circle
4704 2563 Circle
4714 2602 Circle
4723 2505 Circle
4732 2459 Circle
4740 2496 Circle
4748 2510 Circle
4757 2487 Circle
4765 2440 Circle
4774 2563 Circle
4782 2556 Circle
4790 2449 Circle
4798 2471 Circle
4806 2475 Circle
4814 2401 Circle
4822 2428 Circle
4830 2494 Circle
4838 2334 Circle
4846 2370 Circle
4853 2419 Circle
4861 2511 Circle
4869 2268 Circle
4876 2328 Circle
4884 2331 Circle
4891 2276 Circle
4898 2337 Circle
4906 2197 Circle
4913 2301 Circle
4920 2223 Circle
4927 2294 Circle
4934 2240 Circle
4942 2177 Circle
4950 2283 Circle
4957 2434 Circle
4964 2242 Circle
4971 2271 Circle
4977 2232 Circle
4984 2459 Circle
4991 2202 Circle
4998 2218 Circle
5005 2344 Circle
5012 2255 Circle
5019 2192 Circle
5025 2230 Circle
5032 2268 Circle
5038 2279 Circle
5045 2234 Circle
5052 2159 Circle
5058 2142 Circle
5065 2206 Circle
5071 2284 Circle
5077 2199 Circle
5083 2208 Circle
5089 2172 Circle
5096 2168 Circle
5102 2106 Circle
5108 2110 Circle
5114 2108 Circle
5119 2098 Circle
5125 2136 Circle
5131 2218 Circle
5137 2108 Circle
5143 2174 Circle
5148 2271 Circle
5154 2151 Circle
5159 2153 Circle
5165 2149 Circle
5170 2181 Circle
5176 2094 Circle
5181 2052 Circle
5187 2047 Circle
5192 2134 Circle
5198 2043 Circle
5203 2186 Circle
5209 2092 Circle
5214 2041 Circle
5220 2077 Circle
5225 2100 Circle
5231 2114 Circle
5236 2096 Circle
5241 2079 Circle
5248 2100 Circle
5252 2126 Circle
5265 2201 Circle
5271 2013 Circle
5276 2149 Circle
5282 2029 Circle
5287 2234 Circle
5292 2146 Circle
5298 2321 Circle
5301 2018 Circle
5305 2094 Circle
5310 2094 Circle
5314 2096 Circle
5317 2073 Circle
5321 2128 Circle
5325 2052 Circle
5329 2086 Circle
5333 2122 Circle
5336 2319 Circle
5340 2147 Circle
5344 2213 Circle
5347 2161 Circle
5351 2211 Circle
5354 2208 Circle
5358 2346 Circle
5362 2096 Circle
5365 2181 Circle
5369 2100 Circle
5372 2376 Circle
5376 2045 Circle
5379 2100 Circle
5383 1976 Circle
5386 2004 Circle
5389 2142 Circle
5393 2104 Circle
5396 2090 Circle
5399 2023 Circle
5403 2118 Circle
5406 2027 Circle
5409 2009 Circle
5412 2038 Circle
5416 2032 Circle
5419 1951 Circle
5422 2052 Circle
5425 2081 Circle
5428 2045 Circle
5432 1946 Circle
5434 2006 Circle
5437 2023 Circle
5441 2052 Circle
5444 2029 Circle
5447 1990 Circle
5449 2134 Circle
5451 2124 Circle
5454 2069 Circle
5457 1941 Circle
5461 1990 Circle
5464 1961 Circle
5470 1978 Circle
5473 2052 Circle
5476 1983 Circle
5479 1925 Circle
5482 1963 Circle
5486 1925 Circle
6310 5517 Circle
3.000 UL
LT0
LTb
5967 5205 M
[ [(Helvetica) 260.0 0.0 true true 0 (single porosity)]
] -86.7 MRshow
LT0
6123 5205 M
375 0 V
1430 2844 M
20 4 V
20 3 V
19 5 V
19 5 V
19 5 V
18 6 V
18 7 V
18 8 V
17 8 V
17 9 V
17 10 V
16 10 V
17 11 V
16 12 V
15 13 V
16 13 V
15 14 V
15 15 V
15 15 V
15 16 V
14 17 V
14 17 V
14 17 V
14 18 V
14 19 V
13 19 V
13 19 V
14 19 V
12 20 V
13 20 V
13 20 V
12 20 V
13 21 V
12 20 V
12 20 V
12 21 V
11 20 V
12 21 V
12 20 V
11 20 V
11 21 V
11 20 V
11 19 V
11 20 V
11 20 V
10 19 V
11 19 V
10 19 V
11 19 V
10 18 V
97 172 V
88 146 V
81 121 V
75 100 V
71 82 V
65 66 V
62 53 V
58 42 V
55 32 V
52 24 V
49 17 V
47 11 V
46 6 V
43 2 V
41 -3 V
40 -6 V
38 -9 V
37 -12 V
36 -14 V
34 -16 V
34 -19 V
32 -20 V
31 -21 V
30 -23 V
30 -25 V
29 -25 V
27 -26 V
27 -28 V
27 -28 V
25 -29 V
26 -30 V
24 -30 V
24 -31 V
23 -31 V
23 -33 V
22 -32 V
22 -33 V
22 -33 V
21 -34 V
20 -34 V
20 -34 V
20 -35 V
19 -35 V
19 -35 V
19 -35 V
18 -36 V
18 -35 V
18 -36 V
17 -36 V
17 -36 V
17 -37 V
17 -36 V
stroke 3987 3438 M
16 -37 V
16 -36 V
15 -38 V
16 -36 V
15 -37 V
15 -38 V
15 -37 V
15 -37 V
14 -37 V
14 -38 V
14 -37 V
14 -38 V
14 -37 V
13 -38 V
14 -37 V
13 -38 V
13 -38 V
12 -38 V
13 -38 V
12 -37 V
13 -38 V
12 -38 V
12 -37 V
12 -39 V
12 -38 V
11 -37 V
12 -38 V
11 -38 V
11 -38 V
11 -38 V
11 -38 V
11 -39 V
11 -37 V
10 -38 V
11 -38 V
10 -38 V
11 -38 V
10 -38 V
97 -380 V
88 -379 V
81 -376 V
9 -41 V
stroke
LT6
LTb
5967 4893 M
[ [(Helvetica) 260.0 0.0 true true 0 (double porosity)]
] -86.7 MRshow
LT6
6123 4893 M
375 0 V
1430 2831 M
20 0 V
20 1 V
19 1 V
19 2 V
19 1 V
18 2 V
18 2 V
18 2 V
17 3 V
17 3 V
17 4 V
16 4 V
17 5 V
16 5 V
15 6 V
16 6 V
15 8 V
15 7 V
15 9 V
15 9 V
14 10 V
14 11 V
14 12 V
14 12 V
14 13 V
13 13 V
13 15 V
14 15 V
12 16 V
13 17 V
13 17 V
12 18 V
13 18 V
12 18 V
12 20 V
12 19 V
11 20 V
12 21 V
12 20 V
11 21 V
11 21 V
11 21 V
11 22 V
11 21 V
11 22 V
10 22 V
11 21 V
10 22 V
11 21 V
10 22 V
97 206 V
88 183 V
81 155 V
75 129 V
71 104 V
65 83 V
62 66 V
58 50 V
55 37 V
52 26 V
49 17 V
47 9 V
46 2 V
43 -5 V
41 -9 V
40 -14 V
38 -18 V
37 -21 V
36 -23 V
34 -27 V
34 -28 V
32 -30 V
31 -31 V
30 -33 V
30 -34 V
29 -34 V
27 -35 V
27 -35 V
27 -36 V
25 -35 V
26 -36 V
24 -35 V
24 -36 V
23 -34 V
23 -34 V
22 -34 V
22 -33 V
22 -32 V
21 -32 V
20 -30 V
20 -30 V
20 -29 V
19 -28 V
19 -27 V
19 -26 V
18 -25 V
18 -25 V
18 -23 V
17 -22 V
17 -22 V
17 -21 V
17 -19 V
stroke 3987 3438 M
16 -19 V
16 -19 V
15 -17 V
16 -17 V
15 -16 V
15 -15 V
15 -15 V
15 -14 V
14 -14 V
14 -13 V
14 -12 V
14 -12 V
14 -12 V
13 -11 V
14 -11 V
13 -11 V
13 -10 V
12 -10 V
13 -9 V
12 -10 V
13 -9 V
12 -9 V
12 -8 V
12 -9 V
12 -8 V
11 -8 V
12 -8 V
11 -8 V
11 -8 V
11 -7 V
11 -8 V
11 -7 V
11 -7 V
10 -7 V
11 -8 V
10 -7 V
11 -7 V
10 -6 V
97 -68 V
88 -64 V
81 -65 V
76 -63 V
70 -64 V
65 -64 V
62 -64 V
58 -65 V
55 -64 V
52 -65 V
49 -65 V
48 -64 V
45 -65 V
43 -66 V
41 -66 V
40 -64 V
38 -67 V
37 -66 V
36 -65 V
34 -67 V
34 -67 V
32 -66 V
31 -66 V
31 -67 V
29 -67 V
29 -67 V
27 -66 V
27 -69 V
27 -67 V
26 -68 V
25 -65 V
24 -71 V
24 -65 V
10 -28 V
stroke
8.000 UL
LT0
LTb
5967 4581 M
[ [(Helvetica) 260.0 0.0 true true 0 (multirate lognormal)]
] -86.7 MRshow
LT0
6123 4581 M
375 0 V
1430 2828 M
20 0 V
20 0 V
19 0 V
19 0 V
19 0 V
18 0 V
18 1 V
18 0 V
17 0 V
17 0 V
17 0 V
16 0 V
17 1 V
16 0 V
15 1 V
16 1 V
15 1 V
15 2 V
15 1 V
15 2 V
14 2 V
14 3 V
14 3 V
14 3 V
14 4 V
13 5 V
13 6 V
14 6 V
12 6 V
13 8 V
13 9 V
12 9 V
13 10 V
12 11 V
12 13 V
12 13 V
11 14 V
12 15 V
12 17 V
11 17 V
11 18 V
11 19 V
11 20 V
11 21 V
11 22 V
10 22 V
11 23 V
10 24 V
11 24 V
10 24 V
97 259 V
88 247 V
81 211 V
75 170 V
71 132 V
65 99 V
62 71 V
58 50 V
55 32 V
52 19 V
49 7 V
47 -2 V
46 -8 V
43 -13 V
41 -17 V
40 -21 V
38 -23 V
37 -25 V
36 -26 V
34 -27 V
34 -27 V
32 -28 V
31 -28 V
30 -29 V
30 -28 V
29 -28 V
27 -28 V
27 -28 V
27 -28 V
25 -27 V
26 -27 V
24 -27 V
24 -26 V
23 -27 V
23 -25 V
22 -26 V
22 -25 V
22 -25 V
21 -24 V
20 -25 V
20 -24 V
20 -23 V
19 -24 V
19 -23 V
19 -22 V
18 -23 V
18 -22 V
18 -22 V
17 -22 V
17 -21 V
17 -21 V
17 -21 V
stroke 3987 3560 M
16 -21 V
16 -20 V
15 -20 V
16 -20 V
15 -20 V
15 -19 V
15 -20 V
15 -19 V
14 -19 V
14 -18 V
14 -19 V
14 -18 V
14 -18 V
13 -18 V
14 -18 V
13 -17 V
13 -18 V
12 -17 V
13 -17 V
12 -17 V
13 -17 V
12 -16 V
12 -17 V
12 -16 V
12 -16 V
11 -16 V
12 -16 V
11 -16 V
11 -15 V
11 -16 V
11 -15 V
11 -15 V
11 -15 V
10 -15 V
11 -15 V
10 -14 V
11 -15 V
10 -14 V
97 -138 V
88 -128 V
81 -119 V
76 -111 V
70 -105 V
65 -98 V
62 -93 V
58 -89 V
55 -84 V
52 -80 V
49 -76 V
48 -74 V
45 -71 V
43 -66 V
41 -66 V
40 -62 V
38 -59 V
37 -58 V
36 -58 V
34 -52 V
34 -55 V
32 -51 V
31 -49 V
31 -48 V
29 -45 V
29 -42 V
27 -44 V
27 -41 V
9 -14 V
stroke
1.000 UL
LTb
1430 5736 N
0 -4904 V
5380 0 V
0 4904 V
-5380 0 V
Z stroke
1.000 UP
1.000 UL
LTb
stroke
grestore
end
showpage
