%!PS-Adobe-2.0 EPSF-2.0
%%Title: B3_232U_logn0a.eps
%%Creator: gnuplot 4.4 patchlevel 4
%%CreationDate: Mon Jul 16 16:47:11 2012
%%DocumentFonts: (atend)
%%BoundingBox: 50 50 410 352
%%EndComments
%%BeginProlog
/gnudict 256 dict def
gnudict begin
%
% The following true/false flags may be edited by hand if desired.
% The unit line width and grayscale image gamma correction may also be changed.
%
/Color false def
/Blacktext false def
/Solid false def
/Dashlength 2 def
/Landscape false def
/Level1 false def
/Rounded false def
/ClipToBoundingBox false def
/TransparentPatterns false def
/gnulinewidth 5.000 def
/userlinewidth gnulinewidth def
/Gamma 1.0 def
%
/vshift -86 def
/dl1 {
  10.0 Dashlength mul mul
  Rounded { currentlinewidth 0.75 mul sub dup 0 le { pop 0.01 } if } if
} def
/dl2 {
  10.0 Dashlength mul mul
  Rounded { currentlinewidth 0.75 mul add } if
} def
/hpt_ 31.5 def
/vpt_ 31.5 def
/hpt hpt_ def
/vpt vpt_ def
Level1 {} {
/SDict 10 dict def
systemdict /pdfmark known not {
  userdict /pdfmark systemdict /cleartomark get put
} if
SDict begin [
  /Title (B3_232U_logn0a.eps)
  /Subject (gnuplot plot)
  /Creator (gnuplot 4.4 patchlevel 4)
  /Author (bmalama)
%  /Producer (gnuplot)
%  /Keywords ()
  /CreationDate (Mon Jul 16 16:47:11 2012)
  /DOCINFO pdfmark
end
} ifelse
/doclip {
  ClipToBoundingBox {
    newpath 50 50 moveto 410 50 lineto 410 352 lineto 50 352 lineto closepath
    clip
  } if
} def
%
% Gnuplot Prolog Version 4.4 (August 2010)
%
%/SuppressPDFMark true def
%
/M {moveto} bind def
/L {lineto} bind def
/R {rmoveto} bind def
/V {rlineto} bind def
/N {newpath moveto} bind def
/Z {closepath} bind def
/C {setrgbcolor} bind def
/f {rlineto fill} bind def
/g {setgray} bind def
/Gshow {show} def   % May be redefined later in the file to support UTF-8
/vpt2 vpt 2 mul def
/hpt2 hpt 2 mul def
/Lshow {currentpoint stroke M 0 vshift R 
	Blacktext {gsave 0 setgray show grestore} {show} ifelse} def
/Rshow {currentpoint stroke M dup stringwidth pop neg vshift R
	Blacktext {gsave 0 setgray show grestore} {show} ifelse} def
/Cshow {currentpoint stroke M dup stringwidth pop -2 div vshift R 
	Blacktext {gsave 0 setgray show grestore} {show} ifelse} def
/UP {dup vpt_ mul /vpt exch def hpt_ mul /hpt exch def
  /hpt2 hpt 2 mul def /vpt2 vpt 2 mul def} def
/DL {Color {setrgbcolor Solid {pop []} if 0 setdash}
 {pop pop pop 0 setgray Solid {pop []} if 0 setdash} ifelse} def
/BL {stroke userlinewidth 2 mul setlinewidth
	Rounded {1 setlinejoin 1 setlinecap} if} def
/AL {stroke userlinewidth 2 div setlinewidth
	Rounded {1 setlinejoin 1 setlinecap} if} def
/UL {dup gnulinewidth mul /userlinewidth exch def
	dup 1 lt {pop 1} if 10 mul /udl exch def} def
/PL {stroke userlinewidth setlinewidth
	Rounded {1 setlinejoin 1 setlinecap} if} def
3.8 setmiterlimit
% Default Line colors
/LCw {1 1 1} def
/LCb {0 0 0} def
/LCa {0 0 0} def
/LC0 {1 0 0} def
/LC1 {0 1 0} def
/LC2 {0 0 1} def
/LC3 {1 0 1} def
/LC4 {0 1 1} def
/LC5 {1 1 0} def
/LC6 {0 0 0} def
/LC7 {1 0.3 0} def
/LC8 {0.5 0.5 0.5} def
% Default Line Types
/LTw {PL [] 1 setgray} def
/LTb {BL [] LCb DL} def
/LTa {AL [1 udl mul 2 udl mul] 0 setdash LCa setrgbcolor} def
/LT0 {PL [] LC0 DL} def
/LT1 {PL [4 dl1 2 dl2] LC1 DL} def
/LT2 {PL [2 dl1 3 dl2] LC2 DL} def
/LT3 {PL [1 dl1 1.5 dl2] LC3 DL} def
/LT4 {PL [6 dl1 2 dl2 1 dl1 2 dl2] LC4 DL} def
/LT5 {PL [3 dl1 3 dl2 1 dl1 3 dl2] LC5 DL} def
/LT6 {PL [2 dl1 2 dl2 2 dl1 6 dl2] LC6 DL} def
/LT7 {PL [1 dl1 2 dl2 6 dl1 2 dl2 1 dl1 2 dl2] LC7 DL} def
/LT8 {PL [2 dl1 2 dl2 2 dl1 2 dl2 2 dl1 2 dl2 2 dl1 4 dl2] LC8 DL} def
/Pnt {stroke [] 0 setdash gsave 1 setlinecap M 0 0 V stroke grestore} def
/Dia {stroke [] 0 setdash 2 copy vpt add M
  hpt neg vpt neg V hpt vpt neg V
  hpt vpt V hpt neg vpt V closepath stroke
  Pnt} def
/Pls {stroke [] 0 setdash vpt sub M 0 vpt2 V
  currentpoint stroke M
  hpt neg vpt neg R hpt2 0 V stroke
 } def
/Box {stroke [] 0 setdash 2 copy exch hpt sub exch vpt add M
  0 vpt2 neg V hpt2 0 V 0 vpt2 V
  hpt2 neg 0 V closepath stroke
  Pnt} def
/Crs {stroke [] 0 setdash exch hpt sub exch vpt add M
  hpt2 vpt2 neg V currentpoint stroke M
  hpt2 neg 0 R hpt2 vpt2 V stroke} def
/TriU {stroke [] 0 setdash 2 copy vpt 1.12 mul add M
  hpt neg vpt -1.62 mul V
  hpt 2 mul 0 V
  hpt neg vpt 1.62 mul V closepath stroke
  Pnt} def
/Star {2 copy Pls Crs} def
/BoxF {stroke [] 0 setdash exch hpt sub exch vpt add M
  0 vpt2 neg V hpt2 0 V 0 vpt2 V
  hpt2 neg 0 V closepath fill} def
/TriUF {stroke [] 0 setdash vpt 1.12 mul add M
  hpt neg vpt -1.62 mul V
  hpt 2 mul 0 V
  hpt neg vpt 1.62 mul V closepath fill} def
/TriD {stroke [] 0 setdash 2 copy vpt 1.12 mul sub M
  hpt neg vpt 1.62 mul V
  hpt 2 mul 0 V
  hpt neg vpt -1.62 mul V closepath stroke
  Pnt} def
/TriDF {stroke [] 0 setdash vpt 1.12 mul sub M
  hpt neg vpt 1.62 mul V
  hpt 2 mul 0 V
  hpt neg vpt -1.62 mul V closepath fill} def
/DiaF {stroke [] 0 setdash vpt add M
  hpt neg vpt neg V hpt vpt neg V
  hpt vpt V hpt neg vpt V closepath fill} def
/Pent {stroke [] 0 setdash 2 copy gsave
  translate 0 hpt M 4 {72 rotate 0 hpt L} repeat
  closepath stroke grestore Pnt} def
/PentF {stroke [] 0 setdash gsave
  translate 0 hpt M 4 {72 rotate 0 hpt L} repeat
  closepath fill grestore} def
/Circle {stroke [] 0 setdash 2 copy
  hpt 0 360 arc stroke Pnt} def
/CircleF {stroke [] 0 setdash hpt 0 360 arc fill} def
/C0 {BL [] 0 setdash 2 copy moveto vpt 90 450 arc} bind def
/C1 {BL [] 0 setdash 2 copy moveto
	2 copy vpt 0 90 arc closepath fill
	vpt 0 360 arc closepath} bind def
/C2 {BL [] 0 setdash 2 copy moveto
	2 copy vpt 90 180 arc closepath fill
	vpt 0 360 arc closepath} bind def
/C3 {BL [] 0 setdash 2 copy moveto
	2 copy vpt 0 180 arc closepath fill
	vpt 0 360 arc closepath} bind def
/C4 {BL [] 0 setdash 2 copy moveto
	2 copy vpt 180 270 arc closepath fill
	vpt 0 360 arc closepath} bind def
/C5 {BL [] 0 setdash 2 copy moveto
	2 copy vpt 0 90 arc
	2 copy moveto
	2 copy vpt 180 270 arc closepath fill
	vpt 0 360 arc} bind def
/C6 {BL [] 0 setdash 2 copy moveto
	2 copy vpt 90 270 arc closepath fill
	vpt 0 360 arc closepath} bind def
/C7 {BL [] 0 setdash 2 copy moveto
	2 copy vpt 0 270 arc closepath fill
	vpt 0 360 arc closepath} bind def
/C8 {BL [] 0 setdash 2 copy moveto
	2 copy vpt 270 360 arc closepath fill
	vpt 0 360 arc closepath} bind def
/C9 {BL [] 0 setdash 2 copy moveto
	2 copy vpt 270 450 arc closepath fill
	vpt 0 360 arc closepath} bind def
/C10 {BL [] 0 setdash 2 copy 2 copy moveto vpt 270 360 arc closepath fill
	2 copy moveto
	2 copy vpt 90 180 arc closepath fill
	vpt 0 360 arc closepath} bind def
/C11 {BL [] 0 setdash 2 copy moveto
	2 copy vpt 0 180 arc closepath fill
	2 copy moveto
	2 copy vpt 270 360 arc closepath fill
	vpt 0 360 arc closepath} bind def
/C12 {BL [] 0 setdash 2 copy moveto
	2 copy vpt 180 360 arc closepath fill
	vpt 0 360 arc closepath} bind def
/C13 {BL [] 0 setdash 2 copy moveto
	2 copy vpt 0 90 arc closepath fill
	2 copy moveto
	2 copy vpt 180 360 arc closepath fill
	vpt 0 360 arc closepath} bind def
/C14 {BL [] 0 setdash 2 copy moveto
	2 copy vpt 90 360 arc closepath fill
	vpt 0 360 arc} bind def
/C15 {BL [] 0 setdash 2 copy vpt 0 360 arc closepath fill
	vpt 0 360 arc closepath} bind def
/Rec {newpath 4 2 roll moveto 1 index 0 rlineto 0 exch rlineto
	neg 0 rlineto closepath} bind def
/Square {dup Rec} bind def
/Bsquare {vpt sub exch vpt sub exch vpt2 Square} bind def
/S0 {BL [] 0 setdash 2 copy moveto 0 vpt rlineto BL Bsquare} bind def
/S1 {BL [] 0 setdash 2 copy vpt Square fill Bsquare} bind def
/S2 {BL [] 0 setdash 2 copy exch vpt sub exch vpt Square fill Bsquare} bind def
/S3 {BL [] 0 setdash 2 copy exch vpt sub exch vpt2 vpt Rec fill Bsquare} bind def
/S4 {BL [] 0 setdash 2 copy exch vpt sub exch vpt sub vpt Square fill Bsquare} bind def
/S5 {BL [] 0 setdash 2 copy 2 copy vpt Square fill
	exch vpt sub exch vpt sub vpt Square fill Bsquare} bind def
/S6 {BL [] 0 setdash 2 copy exch vpt sub exch vpt sub vpt vpt2 Rec fill Bsquare} bind def
/S7 {BL [] 0 setdash 2 copy exch vpt sub exch vpt sub vpt vpt2 Rec fill
	2 copy vpt Square fill Bsquare} bind def
/S8 {BL [] 0 setdash 2 copy vpt sub vpt Square fill Bsquare} bind def
/S9 {BL [] 0 setdash 2 copy vpt sub vpt vpt2 Rec fill Bsquare} bind def
/S10 {BL [] 0 setdash 2 copy vpt sub vpt Square fill 2 copy exch vpt sub exch vpt Square fill
	Bsquare} bind def
/S11 {BL [] 0 setdash 2 copy vpt sub vpt Square fill 2 copy exch vpt sub exch vpt2 vpt Rec fill
	Bsquare} bind def
/S12 {BL [] 0 setdash 2 copy exch vpt sub exch vpt sub vpt2 vpt Rec fill Bsquare} bind def
/S13 {BL [] 0 setdash 2 copy exch vpt sub exch vpt sub vpt2 vpt Rec fill
	2 copy vpt Square fill Bsquare} bind def
/S14 {BL [] 0 setdash 2 copy exch vpt sub exch vpt sub vpt2 vpt Rec fill
	2 copy exch vpt sub exch vpt Square fill Bsquare} bind def
/S15 {BL [] 0 setdash 2 copy Bsquare fill Bsquare} bind def
/D0 {gsave translate 45 rotate 0 0 S0 stroke grestore} bind def
/D1 {gsave translate 45 rotate 0 0 S1 stroke grestore} bind def
/D2 {gsave translate 45 rotate 0 0 S2 stroke grestore} bind def
/D3 {gsave translate 45 rotate 0 0 S3 stroke grestore} bind def
/D4 {gsave translate 45 rotate 0 0 S4 stroke grestore} bind def
/D5 {gsave translate 45 rotate 0 0 S5 stroke grestore} bind def
/D6 {gsave translate 45 rotate 0 0 S6 stroke grestore} bind def
/D7 {gsave translate 45 rotate 0 0 S7 stroke grestore} bind def
/D8 {gsave translate 45 rotate 0 0 S8 stroke grestore} bind def
/D9 {gsave translate 45 rotate 0 0 S9 stroke grestore} bind def
/D10 {gsave translate 45 rotate 0 0 S10 stroke grestore} bind def
/D11 {gsave translate 45 rotate 0 0 S11 stroke grestore} bind def
/D12 {gsave translate 45 rotate 0 0 S12 stroke grestore} bind def
/D13 {gsave translate 45 rotate 0 0 S13 stroke grestore} bind def
/D14 {gsave translate 45 rotate 0 0 S14 stroke grestore} bind def
/D15 {gsave translate 45 rotate 0 0 S15 stroke grestore} bind def
/DiaE {stroke [] 0 setdash vpt add M
  hpt neg vpt neg V hpt vpt neg V
  hpt vpt V hpt neg vpt V closepath stroke} def
/BoxE {stroke [] 0 setdash exch hpt sub exch vpt add M
  0 vpt2 neg V hpt2 0 V 0 vpt2 V
  hpt2 neg 0 V closepath stroke} def
/TriUE {stroke [] 0 setdash vpt 1.12 mul add M
  hpt neg vpt -1.62 mul V
  hpt 2 mul 0 V
  hpt neg vpt 1.62 mul V closepath stroke} def
/TriDE {stroke [] 0 setdash vpt 1.12 mul sub M
  hpt neg vpt 1.62 mul V
  hpt 2 mul 0 V
  hpt neg vpt -1.62 mul V closepath stroke} def
/PentE {stroke [] 0 setdash gsave
  translate 0 hpt M 4 {72 rotate 0 hpt L} repeat
  closepath stroke grestore} def
/CircE {stroke [] 0 setdash 
  hpt 0 360 arc stroke} def
/Opaque {gsave closepath 1 setgray fill grestore 0 setgray closepath} def
/DiaW {stroke [] 0 setdash vpt add M
  hpt neg vpt neg V hpt vpt neg V
  hpt vpt V hpt neg vpt V Opaque stroke} def
/BoxW {stroke [] 0 setdash exch hpt sub exch vpt add M
  0 vpt2 neg V hpt2 0 V 0 vpt2 V
  hpt2 neg 0 V Opaque stroke} def
/TriUW {stroke [] 0 setdash vpt 1.12 mul add M
  hpt neg vpt -1.62 mul V
  hpt 2 mul 0 V
  hpt neg vpt 1.62 mul V Opaque stroke} def
/TriDW {stroke [] 0 setdash vpt 1.12 mul sub M
  hpt neg vpt 1.62 mul V
  hpt 2 mul 0 V
  hpt neg vpt -1.62 mul V Opaque stroke} def
/PentW {stroke [] 0 setdash gsave
  translate 0 hpt M 4 {72 rotate 0 hpt L} repeat
  Opaque stroke grestore} def
/CircW {stroke [] 0 setdash 
  hpt 0 360 arc Opaque stroke} def
/BoxFill {gsave Rec 1 setgray fill grestore} def
/Density {
  /Fillden exch def
  currentrgbcolor
  /ColB exch def /ColG exch def /ColR exch def
  /ColR ColR Fillden mul Fillden sub 1 add def
  /ColG ColG Fillden mul Fillden sub 1 add def
  /ColB ColB Fillden mul Fillden sub 1 add def
  ColR ColG ColB setrgbcolor} def
/BoxColFill {gsave Rec PolyFill} def
/PolyFill {gsave Density fill grestore grestore} def
/h {rlineto rlineto rlineto gsave closepath fill grestore} bind def
%
% PostScript Level 1 Pattern Fill routine for rectangles
% Usage: x y w h s a XX PatternFill
%	x,y = lower left corner of box to be filled
%	w,h = width and height of box
%	  a = angle in degrees between lines and x-axis
%	 XX = 0/1 for no/yes cross-hatch
%
/PatternFill {gsave /PFa [ 9 2 roll ] def
  PFa 0 get PFa 2 get 2 div add PFa 1 get PFa 3 get 2 div add translate
  PFa 2 get -2 div PFa 3 get -2 div PFa 2 get PFa 3 get Rec
  gsave 1 setgray fill grestore clip
  currentlinewidth 0.5 mul setlinewidth
  /PFs PFa 2 get dup mul PFa 3 get dup mul add sqrt def
  0 0 M PFa 5 get rotate PFs -2 div dup translate
  0 1 PFs PFa 4 get div 1 add floor cvi
	{PFa 4 get mul 0 M 0 PFs V} for
  0 PFa 6 get ne {
	0 1 PFs PFa 4 get div 1 add floor cvi
	{PFa 4 get mul 0 2 1 roll M PFs 0 V} for
 } if
  stroke grestore} def
%
/languagelevel where
 {pop languagelevel} {1} ifelse
 2 lt
	{/InterpretLevel1 true def}
	{/InterpretLevel1 Level1 def}
 ifelse
%
% PostScript level 2 pattern fill definitions
%
/Level2PatternFill {
/Tile8x8 {/PaintType 2 /PatternType 1 /TilingType 1 /BBox [0 0 8 8] /XStep 8 /YStep 8}
	bind def
/KeepColor {currentrgbcolor [/Pattern /DeviceRGB] setcolorspace} bind def
<< Tile8x8
 /PaintProc {0.5 setlinewidth pop 0 0 M 8 8 L 0 8 M 8 0 L stroke} 
>> matrix makepattern
/Pat1 exch def
<< Tile8x8
 /PaintProc {0.5 setlinewidth pop 0 0 M 8 8 L 0 8 M 8 0 L stroke
	0 4 M 4 8 L 8 4 L 4 0 L 0 4 L stroke}
>> matrix makepattern
/Pat2 exch def
<< Tile8x8
 /PaintProc {0.5 setlinewidth pop 0 0 M 0 8 L
	8 8 L 8 0 L 0 0 L fill}
>> matrix makepattern
/Pat3 exch def
<< Tile8x8
 /PaintProc {0.5 setlinewidth pop -4 8 M 8 -4 L
	0 12 M 12 0 L stroke}
>> matrix makepattern
/Pat4 exch def
<< Tile8x8
 /PaintProc {0.5 setlinewidth pop -4 0 M 8 12 L
	0 -4 M 12 8 L stroke}
>> matrix makepattern
/Pat5 exch def
<< Tile8x8
 /PaintProc {0.5 setlinewidth pop -2 8 M 4 -4 L
	0 12 M 8 -4 L 4 12 M 10 0 L stroke}
>> matrix makepattern
/Pat6 exch def
<< Tile8x8
 /PaintProc {0.5 setlinewidth pop -2 0 M 4 12 L
	0 -4 M 8 12 L 4 -4 M 10 8 L stroke}
>> matrix makepattern
/Pat7 exch def
<< Tile8x8
 /PaintProc {0.5 setlinewidth pop 8 -2 M -4 4 L
	12 0 M -4 8 L 12 4 M 0 10 L stroke}
>> matrix makepattern
/Pat8 exch def
<< Tile8x8
 /PaintProc {0.5 setlinewidth pop 0 -2 M 12 4 L
	-4 0 M 12 8 L -4 4 M 8 10 L stroke}
>> matrix makepattern
/Pat9 exch def
/Pattern1 {PatternBgnd KeepColor Pat1 setpattern} bind def
/Pattern2 {PatternBgnd KeepColor Pat2 setpattern} bind def
/Pattern3 {PatternBgnd KeepColor Pat3 setpattern} bind def
/Pattern4 {PatternBgnd KeepColor Landscape {Pat5} {Pat4} ifelse setpattern} bind def
/Pattern5 {PatternBgnd KeepColor Landscape {Pat4} {Pat5} ifelse setpattern} bind def
/Pattern6 {PatternBgnd KeepColor Landscape {Pat9} {Pat6} ifelse setpattern} bind def
/Pattern7 {PatternBgnd KeepColor Landscape {Pat8} {Pat7} ifelse setpattern} bind def
} def
%
%
%End of PostScript Level 2 code
%
/PatternBgnd {
  TransparentPatterns {} {gsave 1 setgray fill grestore} ifelse
} def
%
% Substitute for Level 2 pattern fill codes with
% grayscale if Level 2 support is not selected.
%
/Level1PatternFill {
/Pattern1 {0.250 Density} bind def
/Pattern2 {0.500 Density} bind def
/Pattern3 {0.750 Density} bind def
/Pattern4 {0.125 Density} bind def
/Pattern5 {0.375 Density} bind def
/Pattern6 {0.625 Density} bind def
/Pattern7 {0.875 Density} bind def
} def
%
% Now test for support of Level 2 code
%
Level1 {Level1PatternFill} {Level2PatternFill} ifelse
%
/Symbol-Oblique /Symbol findfont [1 0 .167 1 0 0] makefont
dup length dict begin {1 index /FID eq {pop pop} {def} ifelse} forall
currentdict end definefont pop
/MFshow {
   { dup 5 get 3 ge
     { 5 get 3 eq {gsave} {grestore} ifelse }
     {dup dup 0 get findfont exch 1 get scalefont setfont
     [ currentpoint ] exch dup 2 get 0 exch R dup 5 get 2 ne {dup dup 6
     get exch 4 get {Gshow} {stringwidth pop 0 R} ifelse }if dup 5 get 0 eq
     {dup 3 get {2 get neg 0 exch R pop} {pop aload pop M} ifelse} {dup 5
     get 1 eq {dup 2 get exch dup 3 get exch 6 get stringwidth pop -2 div
     dup 0 R} {dup 6 get stringwidth pop -2 div 0 R 6 get
     show 2 index {aload pop M neg 3 -1 roll neg R pop pop} {pop pop pop
     pop aload pop M} ifelse }ifelse }ifelse }
     ifelse }
   forall} def
/Gswidth {dup type /stringtype eq {stringwidth} {pop (n) stringwidth} ifelse} def
/MFwidth {0 exch { dup 5 get 3 ge { 5 get 3 eq { 0 } { pop } ifelse }
 {dup 3 get{dup dup 0 get findfont exch 1 get scalefont setfont
     6 get Gswidth pop add} {pop} ifelse} ifelse} forall} def
/MLshow { currentpoint stroke M
  0 exch R
  Blacktext {gsave 0 setgray MFshow grestore} {MFshow} ifelse } bind def
/MRshow { currentpoint stroke M
  exch dup MFwidth neg 3 -1 roll R
  Blacktext {gsave 0 setgray MFshow grestore} {MFshow} ifelse } bind def
/MCshow { currentpoint stroke M
  exch dup MFwidth -2 div 3 -1 roll R
  Blacktext {gsave 0 setgray MFshow grestore} {MFshow} ifelse } bind def
/XYsave    { [( ) 1 2 true false 3 ()] } bind def
/XYrestore { [( ) 1 2 true false 4 ()] } bind def
end
%%EndProlog
gnudict begin
gsave
doclip
50 50 translate
0.050 0.050 scale
0 setgray
newpath
(Helvetica) findfont 260 scalefont setfont
1.000 UL
LTb
1586 832 M
63 0 V
5082 0 R
-63 0 V
stroke
1430 832 M
[ [(Helvetica) 260.0 0.0 true true 0 ( 0)]
] -86.7 MRshow
1.000 UL
LTb
1586 1532 M
63 0 V
5082 0 R
-63 0 V
stroke
1430 1532 M
[ [(Helvetica) 260.0 0.0 true true 0 ( 0.001)]
] -86.7 MRshow
1.000 UL
LTb
1586 2233 M
63 0 V
5082 0 R
-63 0 V
stroke
1430 2233 M
[ [(Helvetica) 260.0 0.0 true true 0 ( 0.002)]
] -86.7 MRshow
1.000 UL
LTb
1586 2933 M
63 0 V
5082 0 R
-63 0 V
stroke
1430 2933 M
[ [(Helvetica) 260.0 0.0 true true 0 ( 0.003)]
] -86.7 MRshow
1.000 UL
LTb
1586 3634 M
63 0 V
5082 0 R
-63 0 V
stroke
1430 3634 M
[ [(Helvetica) 260.0 0.0 true true 0 ( 0.004)]
] -86.7 MRshow
1.000 UL
LTb
1586 4334 M
63 0 V
5082 0 R
-63 0 V
stroke
1430 4334 M
[ [(Helvetica) 260.0 0.0 true true 0 ( 0.005)]
] -86.7 MRshow
1.000 UL
LTb
1586 5035 M
63 0 V
5082 0 R
-63 0 V
stroke
1430 5035 M
[ [(Helvetica) 260.0 0.0 true true 0 ( 0.006)]
] -86.7 MRshow
1.000 UL
LTb
1586 5735 M
63 0 V
5082 0 R
-63 0 V
stroke
1430 5735 M
[ [(Helvetica) 260.0 0.0 true true 0 ( 0.007)]
] -86.7 MRshow
1.000 UL
LTb
1586 832 M
0 63 V
0 4840 R
0 -63 V
stroke
1586 572 M
[ [(Helvetica) 260.0 0.0 true true 0 (10)]
[(Helvetica) 208.0 130.0 true true 0 (4)]
] -112.7 MCshow
1.000 UL
LTb
2102 832 M
0 31 V
0 4872 R
0 -31 V
2404 832 M
0 31 V
0 4872 R
0 -31 V
2619 832 M
0 31 V
0 4872 R
0 -31 V
2785 832 M
0 31 V
0 4872 R
0 -31 V
2921 832 M
0 31 V
0 4872 R
0 -31 V
3035 832 M
0 31 V
0 4872 R
0 -31 V
3135 832 M
0 31 V
0 4872 R
0 -31 V
3223 832 M
0 31 V
0 4872 R
0 -31 V
3301 832 M
0 63 V
0 4840 R
0 -63 V
stroke
3301 572 M
[ [(Helvetica) 260.0 0.0 true true 0 (10)]
[(Helvetica) 208.0 130.0 true true 0 (5)]
] -112.7 MCshow
1.000 UL
LTb
3817 832 M
0 31 V
0 4872 R
0 -31 V
4119 832 M
0 31 V
0 4872 R
0 -31 V
4334 832 M
0 31 V
0 4872 R
0 -31 V
4500 832 M
0 31 V
0 4872 R
0 -31 V
4636 832 M
0 31 V
0 4872 R
0 -31 V
4750 832 M
0 31 V
0 4872 R
0 -31 V
4850 832 M
0 31 V
0 4872 R
0 -31 V
4938 832 M
0 31 V
0 4872 R
0 -31 V
5016 832 M
0 63 V
0 4840 R
0 -63 V
stroke
5016 572 M
[ [(Helvetica) 260.0 0.0 true true 0 (10)]
[(Helvetica) 208.0 130.0 true true 0 (6)]
] -112.7 MCshow
1.000 UL
LTb
5532 832 M
0 31 V
0 4872 R
0 -31 V
5834 832 M
0 31 V
0 4872 R
0 -31 V
6049 832 M
0 31 V
0 4872 R
0 -31 V
6215 832 M
0 31 V
0 4872 R
0 -31 V
6351 832 M
0 31 V
0 4872 R
0 -31 V
6465 832 M
0 31 V
0 4872 R
0 -31 V
6565 832 M
0 31 V
0 4872 R
0 -31 V
6653 832 M
0 31 V
0 4872 R
0 -31 V
6731 832 M
0 63 V
0 4840 R
0 -63 V
stroke
6731 572 M
[ [(Helvetica) 260.0 0.0 true true 0 (10)]
[(Helvetica) 208.0 130.0 true true 0 (7)]
] -112.7 MCshow
1.000 UL
LTb
1.000 UL
LTb
1586 5735 N
0 -4903 V
5145 0 V
0 4903 V
-5145 0 V
Z stroke
LCb setrgbcolor
208 3283 M
currentpoint gsave translate -270 rotate 0 0 moveto
[ [(Helvetica) 260.0 0.0 true true 0 (c/c)]
[(Helvetica) 208.0 -78.0 true true 0 (inj)]
] -60.7 MCshow
grestore
LTb
LCb setrgbcolor
4158 182 M
[ [(Helvetica) 260.0 0.0 true true 0 (t \(s\))]
] -86.7 MCshow
LTb
1.000 UP
1888 3634 M
[ [(Symbol) 260.0 0.0 true true 0 (m)]
[(Helvetica) 260.0 0.0 true true 0 ( = -1.86)]
] -86.7 MLshow
1888 3284 M
[ [(Symbol) 260.0 0.0 true true 0 (s)]
[(Helvetica) 260.0 0.0 true true 0 ( = 2.11)]
] -86.7 MLshow
1888 2933 M
[ [(Helvetica) 260.0 0.0 true true 0 (R)]
[(Helvetica) 208.0 -78.0 true true 0 (m)]
[(Helvetica) 260.0 0.0 true true 0 ( = 1.63)]
] -60.7 MLshow
1888 2583 M
[ [(Helvetica) 260.0 0.0 true true 0 (R)]
[(Helvetica) 208.0 -78.0 true true 0 (im)]
[(Helvetica) 260.0 0.0 true true 0 ( = 5.68)]
] -60.7 MLshow
1888 2233 M
[ [(Helvetica) 260.0 0.0 true true 0 (t)]
[(Helvetica) 208.0 -78.0 true true 0 (inj)]
[(Helvetica) 260.0 0.0 true true 0 ( = 3.00 hrs)]
] -60.7 MLshow
1689 5490 M
[ [(Helvetica) 260.0 0.0 true true 0 (\(a\) test B3, )]
[(Helvetica) 208.0 130.0 true true 0 (232)]
[(Helvetica) 260.0 0.0 true true 0 (U)]
] -112.7 MLshow
1.000 UL
LTb
% Begin plot #1
1.300 UP
1.000 UL
LT0
LCb setrgbcolor
5888 5516 M
[ [(Helvetica) 260.0 0.0 true true 0 (data)]
] -86.7 MRshow
LT0
1727 847 Circle
1998 847 Circle
2200 847 Circle
2359 847 Circle
2490 847 Circle
2603 846 Circle
2701 846 Circle
2788 846 Circle
2866 846 Circle
2934 846 Circle
2995 846 Circle
3053 846 Circle
3107 848 Circle
3157 848 Circle
3205 847 Circle
3251 853 Circle
3295 856 Circle
3336 863 Circle
3376 868 Circle
3413 877 Circle
3448 888 Circle
3481 897 Circle
3513 906 Circle
3544 917 Circle
3572 930 Circle
3599 937 Circle
3626 956 Circle
3651 964 Circle
3676 979 Circle
3700 994 Circle
3724 1021 Circle
3747 1043 Circle
3770 1065 Circle
3791 1095 Circle
3812 1102 Circle
3831 1170 Circle
3851 1195 Circle
3869 1244 Circle
3887 1285 Circle
3905 1307 Circle
3923 1353 Circle
3940 1393 Circle
3957 1479 Circle
3974 1523 Circle
3991 1584 Circle
4007 1662 Circle
4023 1689 Circle
4061 1836 Circle
4098 1994 Circle
4132 2083 Circle
4165 2188 Circle
4197 2342 Circle
4228 2482 Circle
4258 2635 Circle
4286 2789 Circle
4313 2831 Circle
4340 2957 Circle
4365 3069 Circle
4390 3083 Circle
4414 3125 Circle
4437 3237 Circle
4459 3348 Circle
4481 3334 Circle
4503 3418 Circle
4524 3460 Circle
4544 3278 Circle
4563 3628 Circle
4582 3488 Circle
4600 3656 Circle
4618 3684 Circle
4637 3684 Circle
4654 3726 Circle
4670 3810 Circle
4687 3656 Circle
4703 3656 Circle
4718 3656 Circle
4734 3656 Circle
4749 3642 Circle
4764 3768 Circle
4778 3642 Circle
4792 3782 Circle
4806 3852 Circle
4820 3936 Circle
4832 3852 Circle
4845 3977 Circle
4858 3838 Circle
4870 3963 Circle
4895 3908 Circle
4919 3754 Circle
4941 3880 Circle
4964 3754 Circle
4986 3698 Circle
5008 3670 Circle
5029 3628 Circle
5049 3600 Circle
5068 3516 Circle
5084 3628 Circle
5103 3446 Circle
5121 3516 Circle
5139 3418 Circle
5157 3432 Circle
5173 3348 Circle
5190 3278 Circle
5206 3195 Circle
5222 3348 Circle
5237 3195 Circle
5252 3181 Circle
5267 3139 Circle
5282 3139 Circle
5296 3069 Circle
5310 2985 Circle
5324 2887 Circle
5337 2985 Circle
5350 2943 Circle
5364 2817 Circle
5377 2789 Circle
5389 2775 Circle
5402 2705 Circle
5415 2635 Circle
5427 2565 Circle
5439 2607 Circle
5451 2482 Circle
5456 2510 Circle
5462 2538 Circle
5468 2468 Circle
5474 2468 Circle
5479 2440 Circle
5484 2440 Circle
5490 2454 Circle
5495 2454 Circle
5501 2482 Circle
5506 2482 Circle
5511 2426 Circle
5516 2426 Circle
5521 2426 Circle
5526 2412 Circle
5531 2342 Circle
5536 2356 Circle
5542 2300 Circle
5546 2328 Circle
5552 2272 Circle
5556 2300 Circle
5562 2213 Circle
5567 2244 Circle
5572 2201 Circle
5576 2187 Circle
5581 2187 Circle
5586 2224 Circle
5591 2244 Circle
5595 2244 Circle
5598 2192 Circle
5603 2212 Circle
5607 2159 Circle
5612 2145 Circle
5616 2149 Circle
5623 2191 Circle
5625 2159 Circle
5634 2153 Circle
5644 2136 Circle
5653 2108 Circle
5662 2051 Circle
5670 2052 Circle
5679 2006 Circle
5688 2078 Circle
5695 2117 Circle
5703 2061 Circle
5711 2054 Circle
5719 2012 Circle
5727 2013 Circle
5734 2033 Circle
5741 2024 Circle
5748 1994 Circle
5756 1995 Circle
5760 2006 Circle
6231 5516 Circle
% End plot #1
% Begin plot #2
3.000 UL
LT1
LCb setrgbcolor
5888 5204 M
[ [(Helvetica) 260.0 0.0 true true 0 (single porosity)]
] -86.7 MRshow
LT1
6044 5204 M
375 0 V
1586 845 M
71 0 V
65 0 V
59 0 V
56 0 V
51 0 V
48 0 V
45 0 V
43 0 V
40 0 V
38 0 V
37 0 V
34 0 V
33 0 V
32 0 V
30 0 V
30 0 V
28 0 V
27 0 V
26 0 V
25 0 V
25 0 V
23 0 V
23 0 V
22 0 V
22 0 V
21 0 V
20 0 V
20 0 V
20 0 V
19 0 V
18 0 V
18 0 V
17 0 V
18 0 V
16 0 V
17 0 V
16 0 V
15 0 V
16 0 V
15 0 V
14 0 V
15 0 V
14 0 V
14 0 V
14 0 V
13 0 V
13 0 V
13 0 V
13 0 V
13 0 V
12 0 V
12 0 V
12 0 V
12 0 V
11 0 V
12 0 V
11 0 V
11 0 V
11 0 V
10 0 V
11 0 V
10 0 V
11 0 V
10 0 V
10 0 V
10 0 V
9 0 V
10 0 V
9 0 V
10 0 V
9 0 V
9 0 V
9 0 V
9 0 V
9 0 V
9 0 V
8 0 V
9 0 V
8 0 V
9 0 V
8 0 V
8 0 V
8 0 V
8 0 V
8 0 V
8 0 V
7 0 V
8 0 V
8 0 V
7 0 V
71 0 V
65 1 V
59 0 V
56 1 V
51 1 V
48 2 V
45 4 V
43 6 V
40 9 V
38 12 V
37 15 V
34 21 V
stroke 3888 917 M
33 25 V
32 31 V
30 36 V
30 42 V
28 46 V
27 54 V
26 58 V
25 64 V
25 68 V
23 74 V
23 77 V
22 81 V
22 85 V
21 87 V
20 90 V
20 91 V
20 93 V
19 95 V
18 94 V
18 95 V
17 95 V
18 94 V
16 93 V
17 93 V
16 90 V
15 89 V
16 87 V
15 85 V
14 83 V
15 80 V
14 78 V
14 75 V
14 72 V
13 70 V
13 66 V
13 64 V
13 60 V
13 58 V
12 55 V
12 51 V
12 49 V
12 46 V
11 42 V
12 40 V
11 37 V
11 35 V
11 31 V
10 30 V
11 26 V
10 23 V
11 22 V
10 19 V
10 17 V
10 14 V
9 12 V
10 10 V
9 9 V
10 5 V
9 4 V
9 3 V
9 1 V
9 -1 V
9 -3 V
9 -4 V
8 -6 V
9 -7 V
8 -8 V
9 -10 V
8 -11 V
8 -12 V
8 -13 V
8 -14 V
8 -15 V
8 -17 V
7 -16 V
8 -19 V
8 -18 V
7 -19 V
71 -225 V
65 -258 V
59 -266 V
56 -259 V
51 -241 V
48 -222 V
45 -199 V
43 -177 V
40 -157 V
38 -136 V
37 -120 V
34 -105 V
33 -91 V
32 -80 V
30 -69 V
30 -61 V
28 -53 V
27 -47 V
26 -42 V
25 -37 V
25 -33 V
23 -29 V
23 -27 V
22 -24 V
22 -21 V
21 -19 V
stroke 5970 1125 M
20 -18 V
20 -17 V
20 -15 V
19 -14 V
18 -13 V
18 -11 V
17 -12 V
18 -10 V
16 -9 V
17 -9 V
16 -10 V
15 -7 V
16 -8 V
15 -7 V
14 -7 V
15 -6 V
14 -6 V
14 -5 V
14 -6 V
13 -5 V
13 -5 V
13 -5 V
13 -4 V
13 -4 V
12 -4 V
12 -4 V
12 -3 V
12 -4 V
11 -3 V
12 -2 V
11 -4 V
11 -3 V
11 -2 V
10 -3 V
11 -2 V
10 -2 V
11 -2 V
10 -2 V
10 -2 V
10 -2 V
9 -2 V
10 -2 V
9 -1 V
10 -2 V
9 -1 V
9 -1 V
9 -2 V
9 -1 V
9 -1 V
9 -1 V
8 -1 V
9 -1 V
8 -1 V
9 -1 V
8 -1 V
8 -1 V
8 -1 V
8 0 V
8 -1 V
8 -1 V
7 0 V
8 -1 V
8 -1 V
% End plot #2
% Begin plot #3
stroke
LT2
LCb setrgbcolor
5888 4892 M
[ [(Helvetica) 260.0 0.0 true true 0 (double porosity)]
] -86.7 MRshow
LT2
6044 4892 M
375 0 V
1586 845 M
71 0 V
65 0 V
59 0 V
56 0 V
51 0 V
48 0 V
45 0 V
43 0 V
40 0 V
38 0 V
37 0 V
34 0 V
33 0 V
32 0 V
30 0 V
30 0 V
28 0 V
27 0 V
26 0 V
25 0 V
25 0 V
23 0 V
23 0 V
22 0 V
22 0 V
21 0 V
20 0 V
20 0 V
20 0 V
19 0 V
18 0 V
18 0 V
17 0 V
18 0 V
16 0 V
17 0 V
16 0 V
15 0 V
16 0 V
15 0 V
14 0 V
15 0 V
14 0 V
14 0 V
14 0 V
13 0 V
13 0 V
13 0 V
13 0 V
13 0 V
12 0 V
12 0 V
12 0 V
12 0 V
11 0 V
12 0 V
11 0 V
11 0 V
11 0 V
10 0 V
11 0 V
10 0 V
11 0 V
10 0 V
10 0 V
10 0 V
9 0 V
10 0 V
9 0 V
10 0 V
9 0 V
9 0 V
9 0 V
9 0 V
9 0 V
9 0 V
8 0 V
9 0 V
8 0 V
9 0 V
8 0 V
8 0 V
8 0 V
8 0 V
8 1 V
8 0 V
7 0 V
8 0 V
8 0 V
7 0 V
71 1 V
65 1 V
59 4 V
56 7 V
51 12 V
48 18 V
45 27 V
43 36 V
40 46 V
38 57 V
37 66 V
34 77 V
stroke 3888 1198 M
33 86 V
32 95 V
30 100 V
30 107 V
28 110 V
27 112 V
26 113 V
25 113 V
25 112 V
23 110 V
23 107 V
22 103 V
22 99 V
21 94 V
20 90 V
20 85 V
20 79 V
19 74 V
18 70 V
18 64 V
17 60 V
18 55 V
16 50 V
17 47 V
16 42 V
15 39 V
16 35 V
15 32 V
14 29 V
15 26 V
14 23 V
14 21 V
14 19 V
13 18 V
13 15 V
13 13 V
13 12 V
13 10 V
12 9 V
12 8 V
12 7 V
12 6 V
11 5 V
12 4 V
11 3 V
11 3 V
11 2 V
10 1 V
11 1 V
10 0 V
11 0 V
10 0 V
10 -1 V
10 -1 V
9 -3 V
10 -2 V
9 -2 V
10 -3 V
9 -2 V
9 -4 V
9 -3 V
9 -5 V
9 -4 V
9 -4 V
8 -5 V
9 -5 V
8 -5 V
9 -5 V
8 -6 V
8 -5 V
8 -6 V
8 -6 V
8 -7 V
8 -7 V
7 -7 V
8 -7 V
8 -7 V
7 -7 V
71 -84 V
65 -100 V
59 -112 V
56 -120 V
51 -127 V
48 -130 V
45 -131 V
43 -129 V
40 -126 V
38 -124 V
37 -117 V
34 -114 V
33 -107 V
32 -101 V
30 -95 V
30 -89 V
28 -83 V
27 -77 V
26 -71 V
25 -66 V
25 -61 V
23 -56 V
23 -51 V
22 -47 V
22 -43 V
21 -39 V
stroke 5970 1197 M
20 -35 V
20 -33 V
20 -29 V
19 -27 V
18 -24 V
18 -22 V
17 -19 V
18 -18 V
16 -17 V
17 -14 V
16 -13 V
15 -12 V
16 -10 V
15 -10 V
14 -8 V
15 -8 V
14 -7 V
14 -6 V
14 -6 V
13 -5 V
13 -4 V
13 -4 V
13 -4 V
13 -3 V
12 -3 V
12 -3 V
12 -2 V
12 -2 V
11 -2 V
12 -2 V
11 -1 V
11 -1 V
11 -1 V
10 -2 V
11 0 V
10 -1 V
11 -1 V
10 0 V
10 -1 V
10 -1 V
9 0 V
10 0 V
9 -1 V
10 0 V
9 -1 V
9 0 V
9 0 V
9 -1 V
9 0 V
9 0 V
8 0 V
9 0 V
8 0 V
9 0 V
8 0 V
8 0 V
8 0 V
8 0 V
8 0 V
8 0 V
7 0 V
8 -1 V
8 0 V
% End plot #3
% Begin plot #4
stroke
8.000 UL
LT0
LCb setrgbcolor
5888 4580 M
[ [(Helvetica) 260.0 0.0 true true 0 (multirate lognormal)]
] -86.7 MRshow
LT0
6044 4580 M
375 0 V
1586 845 M
71 0 V
65 0 V
59 0 V
56 0 V
51 0 V
48 0 V
45 0 V
43 0 V
40 0 V
38 0 V
37 0 V
34 0 V
33 0 V
32 0 V
30 0 V
30 0 V
28 0 V
27 0 V
26 0 V
25 0 V
25 0 V
23 0 V
23 0 V
22 0 V
22 0 V
21 0 V
20 0 V
20 0 V
20 0 V
19 0 V
18 0 V
18 0 V
17 0 V
18 0 V
16 0 V
17 0 V
16 0 V
15 0 V
16 0 V
15 0 V
14 0 V
15 0 V
14 0 V
14 0 V
14 0 V
13 0 V
13 0 V
13 0 V
13 0 V
13 0 V
12 0 V
12 0 V
12 0 V
12 0 V
11 0 V
12 0 V
11 0 V
11 0 V
11 0 V
10 0 V
11 0 V
10 0 V
11 0 V
10 0 V
10 0 V
10 0 V
9 0 V
10 0 V
9 0 V
10 0 V
9 0 V
9 0 V
9 0 V
9 0 V
9 0 V
9 0 V
8 0 V
9 0 V
8 0 V
9 0 V
8 0 V
8 0 V
8 0 V
8 0 V
8 1 V
8 0 V
7 0 V
8 0 V
8 0 V
7 0 V
71 1 V
65 3 V
59 5 V
56 12 V
51 19 V
48 28 V
45 38 V
43 50 V
40 59 V
38 69 V
37 77 V
34 85 V
stroke 3888 1292 M
33 90 V
32 94 V
30 96 V
30 99 V
28 100 V
27 98 V
26 98 V
25 97 V
25 95 V
23 92 V
23 90 V
22 87 V
22 84 V
21 81 V
20 78 V
20 75 V
20 70 V
19 69 V
18 65 V
18 62 V
17 59 V
18 56 V
16 53 V
17 50 V
16 47 V
15 45 V
16 43 V
15 39 V
14 38 V
15 35 V
14 33 V
14 31 V
14 28 V
13 26 V
13 25 V
13 23 V
13 22 V
13 18 V
12 19 V
12 16 V
12 14 V
12 14 V
11 12 V
12 10 V
11 10 V
11 8 V
11 7 V
10 6 V
11 5 V
10 4 V
11 3 V
10 2 V
10 1 V
10 0 V
9 0 V
10 -2 V
9 -2 V
10 -3 V
9 -2 V
9 -5 V
9 -4 V
9 -5 V
9 -6 V
9 -6 V
8 -7 V
9 -7 V
8 -8 V
9 -8 V
8 -8 V
8 -9 V
8 -9 V
8 -10 V
8 -10 V
8 -10 V
7 -10 V
8 -11 V
8 -12 V
7 -11 V
71 -122 V
65 -136 V
59 -140 V
56 -139 V
51 -136 V
48 -130 V
45 -124 V
43 -118 V
40 -110 V
38 -103 V
37 -97 V
34 -89 V
33 -84 V
32 -77 V
30 -72 V
30 -68 V
28 -62 V
27 -58 V
26 -54 V
25 -50 V
25 -47 V
23 -45 V
23 -40 V
22 -38 V
22 -36 V
21 -33 V
stroke 5970 1441 M
20 -31 V
20 -29 V
20 -27 V
19 -26 V
18 -24 V
18 -22 V
17 -21 V
18 -21 V
16 -18 V
17 -18 V
16 -16 V
15 -16 V
16 -15 V
15 -14 V
14 -13 V
15 -12 V
14 -12 V
14 -11 V
14 -11 V
13 -10 V
13 -9 V
13 -10 V
13 -9 V
13 -7 V
12 -8 V
12 -8 V
12 -7 V
12 -6 V
11 -6 V
12 -7 V
11 -5 V
11 -6 V
11 -5 V
10 -5 V
11 -5 V
10 -5 V
11 -4 V
10 -4 V
10 -4 V
10 -4 V
9 -3 V
10 -4 V
9 -3 V
10 -4 V
9 -2 V
9 -3 V
9 -3 V
9 -3 V
9 -3 V
9 -2 V
8 -3 V
9 -2 V
8 -2 V
9 -2 V
8 -2 V
8 -2 V
8 -1 V
8 -3 V
8 -1 V
8 -2 V
7 -1 V
8 -2 V
8 -1 V
% End plot #4
stroke
1.000 UL
LTb
1586 5735 N
0 -4903 V
5145 0 V
0 4903 V
-5145 0 V
Z stroke
1.000 UP
1.000 UL
LTb
stroke
grestore
end
showpage
%%Trailer
%%DocumentFonts: Symbol Helvetica
