%!PS-Adobe-2.0 EPSF-2.0
%%Title: B3_22Na_logn0a.eps
%%Creator: gnuplot 4.2 patchlevel 6 
%%CreationDate: Thu Aug  4 15:31:22 2011
%%DocumentFonts: (atend)
%%BoundingBox: 50 50 410 352
%%EndComments
%%BeginProlog
/gnudict 256 dict def
gnudict begin
%
% The following 6 true/false flags may be edited by hand if required
% The unit line width may also be changed
%
/Color false def
/Blacktext false def
/Solid false def
/Dashlength 1 def
/Landscape false def
/Level1 false def
/Rounded false def
/TransparentPatterns false def
/gnulinewidth 5.000 def
/userlinewidth gnulinewidth def
%
/vshift -86 def
/dl1 {
  10.0 Dashlength mul mul
  Rounded { currentlinewidth 0.75 mul sub dup 0 le { pop 0.01 } if } if
} def
/dl2 {
  10.0 Dashlength mul mul
  Rounded { currentlinewidth 0.75 mul add } if
} def
/hpt_ 31.5 def
/vpt_ 31.5 def
/hpt hpt_ def
/vpt vpt_ def
Level1 {} {
/SDict 10 dict def
systemdict /pdfmark known not {
  userdict /pdfmark systemdict /cleartomark get put
} if
SDict begin [
  /Title (B3_22Na_logn0a.eps)
  /Subject (gnuplot plot)
  /Creator (gnuplot 4.2 patchlevel 6 )
  /Author (Bwalya Malama,,,)
%  /Producer (gnuplot)
%  /Keywords ()
  /CreationDate (Thu Aug  4 15:31:22 2011)
  /DOCINFO pdfmark
end
} ifelse
%
% Gnuplot Prolog Version 4.2 (August 2006)
%
/M {moveto} bind def
/L {lineto} bind def
/R {rmoveto} bind def
/V {rlineto} bind def
/N {newpath moveto} bind def
/Z {closepath} bind def
/C {setrgbcolor} bind def
/f {rlineto fill} bind def
/vpt2 vpt 2 mul def
/hpt2 hpt 2 mul def
/Lshow {currentpoint stroke M 0 vshift R 
	Blacktext {gsave 0 setgray show grestore} {show} ifelse} def
/Rshow {currentpoint stroke M dup stringwidth pop neg vshift R
	Blacktext {gsave 0 setgray show grestore} {show} ifelse} def
/Cshow {currentpoint stroke M dup stringwidth pop -2 div vshift R 
	Blacktext {gsave 0 setgray show grestore} {show} ifelse} def
/UP {dup vpt_ mul /vpt exch def hpt_ mul /hpt exch def
  /hpt2 hpt 2 mul def /vpt2 vpt 2 mul def} def
/DL {Color {setrgbcolor Solid {pop []} if 0 setdash}
 {pop pop pop 0 setgray Solid {pop []} if 0 setdash} ifelse} def
/BL {stroke userlinewidth 2 mul setlinewidth
	Rounded {1 setlinejoin 1 setlinecap} if} def
/AL {stroke userlinewidth 2 div setlinewidth
	Rounded {1 setlinejoin 1 setlinecap} if} def
/UL {dup gnulinewidth mul /userlinewidth exch def
	dup 1 lt {pop 1} if 10 mul /udl exch def} def
/PL {stroke userlinewidth setlinewidth
	Rounded {1 setlinejoin 1 setlinecap} if} def
% Default Line colors
/LCw {1 1 1} def
/LCb {0 0 0} def
/LCa {0 0 0} def
/LC0 {1 0 0} def
/LC1 {0 1 0} def
/LC2 {0 0 1} def
/LC3 {1 0 1} def
/LC4 {0 1 1} def
/LC5 {1 1 0} def
/LC6 {0 0 0} def
/LC7 {1 0.3 0} def
/LC8 {0.5 0.5 0.5} def
% Default Line Types
/LTw {PL [] 1 setgray} def
/LTb {BL [] LCb DL} def
/LTa {AL [1 udl mul 2 udl mul] 0 setdash LCa setrgbcolor} def
/LT0 {PL [] LC0 DL} def
/LT1 {PL [4 dl1 2 dl2] LC1 DL} def
/LT2 {PL [2 dl1 3 dl2] LC2 DL} def
/LT3 {PL [1 dl1 1.5 dl2] LC3 DL} def
/LT4 {PL [6 dl1 2 dl2 1 dl1 2 dl2] LC4 DL} def
/LT5 {PL [3 dl1 3 dl2 1 dl1 3 dl2] LC5 DL} def
/LT6 {PL [2 dl1 2 dl2 2 dl1 6 dl2] LC6 DL} def
/LT7 {PL [1 dl1 2 dl2 6 dl1 2 dl2 1 dl1 2 dl2] LC7 DL} def
/LT8 {PL [2 dl1 2 dl2 2 dl1 2 dl2 2 dl1 2 dl2 2 dl1 4 dl2] LC8 DL} def
/Pnt {stroke [] 0 setdash gsave 1 setlinecap M 0 0 V stroke grestore} def
/Dia {stroke [] 0 setdash 2 copy vpt add M
  hpt neg vpt neg V hpt vpt neg V
  hpt vpt V hpt neg vpt V closepath stroke
  Pnt} def
/Pls {stroke [] 0 setdash vpt sub M 0 vpt2 V
  currentpoint stroke M
  hpt neg vpt neg R hpt2 0 V stroke
 } def
/Box {stroke [] 0 setdash 2 copy exch hpt sub exch vpt add M
  0 vpt2 neg V hpt2 0 V 0 vpt2 V
  hpt2 neg 0 V closepath stroke
  Pnt} def
/Crs {stroke [] 0 setdash exch hpt sub exch vpt add M
  hpt2 vpt2 neg V currentpoint stroke M
  hpt2 neg 0 R hpt2 vpt2 V stroke} def
/TriU {stroke [] 0 setdash 2 copy vpt 1.12 mul add M
  hpt neg vpt -1.62 mul V
  hpt 2 mul 0 V
  hpt neg vpt 1.62 mul V closepath stroke
  Pnt} def
/Star {2 copy Pls Crs} def
/BoxF {stroke [] 0 setdash exch hpt sub exch vpt add M
  0 vpt2 neg V hpt2 0 V 0 vpt2 V
  hpt2 neg 0 V closepath fill} def
/TriUF {stroke [] 0 setdash vpt 1.12 mul add M
  hpt neg vpt -1.62 mul V
  hpt 2 mul 0 V
  hpt neg vpt 1.62 mul V closepath fill} def
/TriD {stroke [] 0 setdash 2 copy vpt 1.12 mul sub M
  hpt neg vpt 1.62 mul V
  hpt 2 mul 0 V
  hpt neg vpt -1.62 mul V closepath stroke
  Pnt} def
/TriDF {stroke [] 0 setdash vpt 1.12 mul sub M
  hpt neg vpt 1.62 mul V
  hpt 2 mul 0 V
  hpt neg vpt -1.62 mul V closepath fill} def
/DiaF {stroke [] 0 setdash vpt add M
  hpt neg vpt neg V hpt vpt neg V
  hpt vpt V hpt neg vpt V closepath fill} def
/Pent {stroke [] 0 setdash 2 copy gsave
  translate 0 hpt M 4 {72 rotate 0 hpt L} repeat
  closepath stroke grestore Pnt} def
/PentF {stroke [] 0 setdash gsave
  translate 0 hpt M 4 {72 rotate 0 hpt L} repeat
  closepath fill grestore} def
/Circle {stroke [] 0 setdash 2 copy
  hpt 0 360 arc stroke Pnt} def
/CircleF {stroke [] 0 setdash hpt 0 360 arc fill} def
/C0 {BL [] 0 setdash 2 copy moveto vpt 90 450 arc} bind def
/C1 {BL [] 0 setdash 2 copy moveto
	2 copy vpt 0 90 arc closepath fill
	vpt 0 360 arc closepath} bind def
/C2 {BL [] 0 setdash 2 copy moveto
	2 copy vpt 90 180 arc closepath fill
	vpt 0 360 arc closepath} bind def
/C3 {BL [] 0 setdash 2 copy moveto
	2 copy vpt 0 180 arc closepath fill
	vpt 0 360 arc closepath} bind def
/C4 {BL [] 0 setdash 2 copy moveto
	2 copy vpt 180 270 arc closepath fill
	vpt 0 360 arc closepath} bind def
/C5 {BL [] 0 setdash 2 copy moveto
	2 copy vpt 0 90 arc
	2 copy moveto
	2 copy vpt 180 270 arc closepath fill
	vpt 0 360 arc} bind def
/C6 {BL [] 0 setdash 2 copy moveto
	2 copy vpt 90 270 arc closepath fill
	vpt 0 360 arc closepath} bind def
/C7 {BL [] 0 setdash 2 copy moveto
	2 copy vpt 0 270 arc closepath fill
	vpt 0 360 arc closepath} bind def
/C8 {BL [] 0 setdash 2 copy moveto
	2 copy vpt 270 360 arc closepath fill
	vpt 0 360 arc closepath} bind def
/C9 {BL [] 0 setdash 2 copy moveto
	2 copy vpt 270 450 arc closepath fill
	vpt 0 360 arc closepath} bind def
/C10 {BL [] 0 setdash 2 copy 2 copy moveto vpt 270 360 arc closepath fill
	2 copy moveto
	2 copy vpt 90 180 arc closepath fill
	vpt 0 360 arc closepath} bind def
/C11 {BL [] 0 setdash 2 copy moveto
	2 copy vpt 0 180 arc closepath fill
	2 copy moveto
	2 copy vpt 270 360 arc closepath fill
	vpt 0 360 arc closepath} bind def
/C12 {BL [] 0 setdash 2 copy moveto
	2 copy vpt 180 360 arc closepath fill
	vpt 0 360 arc closepath} bind def
/C13 {BL [] 0 setdash 2 copy moveto
	2 copy vpt 0 90 arc closepath fill
	2 copy moveto
	2 copy vpt 180 360 arc closepath fill
	vpt 0 360 arc closepath} bind def
/C14 {BL [] 0 setdash 2 copy moveto
	2 copy vpt 90 360 arc closepath fill
	vpt 0 360 arc} bind def
/C15 {BL [] 0 setdash 2 copy vpt 0 360 arc closepath fill
	vpt 0 360 arc closepath} bind def
/Rec {newpath 4 2 roll moveto 1 index 0 rlineto 0 exch rlineto
	neg 0 rlineto closepath} bind def
/Square {dup Rec} bind def
/Bsquare {vpt sub exch vpt sub exch vpt2 Square} bind def
/S0 {BL [] 0 setdash 2 copy moveto 0 vpt rlineto BL Bsquare} bind def
/S1 {BL [] 0 setdash 2 copy vpt Square fill Bsquare} bind def
/S2 {BL [] 0 setdash 2 copy exch vpt sub exch vpt Square fill Bsquare} bind def
/S3 {BL [] 0 setdash 2 copy exch vpt sub exch vpt2 vpt Rec fill Bsquare} bind def
/S4 {BL [] 0 setdash 2 copy exch vpt sub exch vpt sub vpt Square fill Bsquare} bind def
/S5 {BL [] 0 setdash 2 copy 2 copy vpt Square fill
	exch vpt sub exch vpt sub vpt Square fill Bsquare} bind def
/S6 {BL [] 0 setdash 2 copy exch vpt sub exch vpt sub vpt vpt2 Rec fill Bsquare} bind def
/S7 {BL [] 0 setdash 2 copy exch vpt sub exch vpt sub vpt vpt2 Rec fill
	2 copy vpt Square fill Bsquare} bind def
/S8 {BL [] 0 setdash 2 copy vpt sub vpt Square fill Bsquare} bind def
/S9 {BL [] 0 setdash 2 copy vpt sub vpt vpt2 Rec fill Bsquare} bind def
/S10 {BL [] 0 setdash 2 copy vpt sub vpt Square fill 2 copy exch vpt sub exch vpt Square fill
	Bsquare} bind def
/S11 {BL [] 0 setdash 2 copy vpt sub vpt Square fill 2 copy exch vpt sub exch vpt2 vpt Rec fill
	Bsquare} bind def
/S12 {BL [] 0 setdash 2 copy exch vpt sub exch vpt sub vpt2 vpt Rec fill Bsquare} bind def
/S13 {BL [] 0 setdash 2 copy exch vpt sub exch vpt sub vpt2 vpt Rec fill
	2 copy vpt Square fill Bsquare} bind def
/S14 {BL [] 0 setdash 2 copy exch vpt sub exch vpt sub vpt2 vpt Rec fill
	2 copy exch vpt sub exch vpt Square fill Bsquare} bind def
/S15 {BL [] 0 setdash 2 copy Bsquare fill Bsquare} bind def
/D0 {gsave translate 45 rotate 0 0 S0 stroke grestore} bind def
/D1 {gsave translate 45 rotate 0 0 S1 stroke grestore} bind def
/D2 {gsave translate 45 rotate 0 0 S2 stroke grestore} bind def
/D3 {gsave translate 45 rotate 0 0 S3 stroke grestore} bind def
/D4 {gsave translate 45 rotate 0 0 S4 stroke grestore} bind def
/D5 {gsave translate 45 rotate 0 0 S5 stroke grestore} bind def
/D6 {gsave translate 45 rotate 0 0 S6 stroke grestore} bind def
/D7 {gsave translate 45 rotate 0 0 S7 stroke grestore} bind def
/D8 {gsave translate 45 rotate 0 0 S8 stroke grestore} bind def
/D9 {gsave translate 45 rotate 0 0 S9 stroke grestore} bind def
/D10 {gsave translate 45 rotate 0 0 S10 stroke grestore} bind def
/D11 {gsave translate 45 rotate 0 0 S11 stroke grestore} bind def
/D12 {gsave translate 45 rotate 0 0 S12 stroke grestore} bind def
/D13 {gsave translate 45 rotate 0 0 S13 stroke grestore} bind def
/D14 {gsave translate 45 rotate 0 0 S14 stroke grestore} bind def
/D15 {gsave translate 45 rotate 0 0 S15 stroke grestore} bind def
/DiaE {stroke [] 0 setdash vpt add M
  hpt neg vpt neg V hpt vpt neg V
  hpt vpt V hpt neg vpt V closepath stroke} def
/BoxE {stroke [] 0 setdash exch hpt sub exch vpt add M
  0 vpt2 neg V hpt2 0 V 0 vpt2 V
  hpt2 neg 0 V closepath stroke} def
/TriUE {stroke [] 0 setdash vpt 1.12 mul add M
  hpt neg vpt -1.62 mul V
  hpt 2 mul 0 V
  hpt neg vpt 1.62 mul V closepath stroke} def
/TriDE {stroke [] 0 setdash vpt 1.12 mul sub M
  hpt neg vpt 1.62 mul V
  hpt 2 mul 0 V
  hpt neg vpt -1.62 mul V closepath stroke} def
/PentE {stroke [] 0 setdash gsave
  translate 0 hpt M 4 {72 rotate 0 hpt L} repeat
  closepath stroke grestore} def
/CircE {stroke [] 0 setdash 
  hpt 0 360 arc stroke} def
/Opaque {gsave closepath 1 setgray fill grestore 0 setgray closepath} def
/DiaW {stroke [] 0 setdash vpt add M
  hpt neg vpt neg V hpt vpt neg V
  hpt vpt V hpt neg vpt V Opaque stroke} def
/BoxW {stroke [] 0 setdash exch hpt sub exch vpt add M
  0 vpt2 neg V hpt2 0 V 0 vpt2 V
  hpt2 neg 0 V Opaque stroke} def
/TriUW {stroke [] 0 setdash vpt 1.12 mul add M
  hpt neg vpt -1.62 mul V
  hpt 2 mul 0 V
  hpt neg vpt 1.62 mul V Opaque stroke} def
/TriDW {stroke [] 0 setdash vpt 1.12 mul sub M
  hpt neg vpt 1.62 mul V
  hpt 2 mul 0 V
  hpt neg vpt -1.62 mul V Opaque stroke} def
/PentW {stroke [] 0 setdash gsave
  translate 0 hpt M 4 {72 rotate 0 hpt L} repeat
  Opaque stroke grestore} def
/CircW {stroke [] 0 setdash 
  hpt 0 360 arc Opaque stroke} def
/BoxFill {gsave Rec 1 setgray fill grestore} def
/Density {
  /Fillden exch def
  currentrgbcolor
  /ColB exch def /ColG exch def /ColR exch def
  /ColR ColR Fillden mul Fillden sub 1 add def
  /ColG ColG Fillden mul Fillden sub 1 add def
  /ColB ColB Fillden mul Fillden sub 1 add def
  ColR ColG ColB setrgbcolor} def
/BoxColFill {gsave Rec PolyFill} def
/PolyFill {gsave Density fill grestore grestore} def
/h {rlineto rlineto rlineto gsave closepath fill grestore} bind def
%
% PostScript Level 1 Pattern Fill routine for rectangles
% Usage: x y w h s a XX PatternFill
%	x,y = lower left corner of box to be filled
%	w,h = width and height of box
%	  a = angle in degrees between lines and x-axis
%	 XX = 0/1 for no/yes cross-hatch
%
/PatternFill {gsave /PFa [ 9 2 roll ] def
  PFa 0 get PFa 2 get 2 div add PFa 1 get PFa 3 get 2 div add translate
  PFa 2 get -2 div PFa 3 get -2 div PFa 2 get PFa 3 get Rec
  gsave 1 setgray fill grestore clip
  currentlinewidth 0.5 mul setlinewidth
  /PFs PFa 2 get dup mul PFa 3 get dup mul add sqrt def
  0 0 M PFa 5 get rotate PFs -2 div dup translate
  0 1 PFs PFa 4 get div 1 add floor cvi
	{PFa 4 get mul 0 M 0 PFs V} for
  0 PFa 6 get ne {
	0 1 PFs PFa 4 get div 1 add floor cvi
	{PFa 4 get mul 0 2 1 roll M PFs 0 V} for
 } if
  stroke grestore} def
%
/languagelevel where
 {pop languagelevel} {1} ifelse
 2 lt
	{/InterpretLevel1 true def}
	{/InterpretLevel1 Level1 def}
 ifelse
%
% PostScript level 2 pattern fill definitions
%
/Level2PatternFill {
/Tile8x8 {/PaintType 2 /PatternType 1 /TilingType 1 /BBox [0 0 8 8] /XStep 8 /YStep 8}
	bind def
/KeepColor {currentrgbcolor [/Pattern /DeviceRGB] setcolorspace} bind def
<< Tile8x8
 /PaintProc {0.5 setlinewidth pop 0 0 M 8 8 L 0 8 M 8 0 L stroke} 
>> matrix makepattern
/Pat1 exch def
<< Tile8x8
 /PaintProc {0.5 setlinewidth pop 0 0 M 8 8 L 0 8 M 8 0 L stroke
	0 4 M 4 8 L 8 4 L 4 0 L 0 4 L stroke}
>> matrix makepattern
/Pat2 exch def
<< Tile8x8
 /PaintProc {0.5 setlinewidth pop 0 0 M 0 8 L
	8 8 L 8 0 L 0 0 L fill}
>> matrix makepattern
/Pat3 exch def
<< Tile8x8
 /PaintProc {0.5 setlinewidth pop -4 8 M 8 -4 L
	0 12 M 12 0 L stroke}
>> matrix makepattern
/Pat4 exch def
<< Tile8x8
 /PaintProc {0.5 setlinewidth pop -4 0 M 8 12 L
	0 -4 M 12 8 L stroke}
>> matrix makepattern
/Pat5 exch def
<< Tile8x8
 /PaintProc {0.5 setlinewidth pop -2 8 M 4 -4 L
	0 12 M 8 -4 L 4 12 M 10 0 L stroke}
>> matrix makepattern
/Pat6 exch def
<< Tile8x8
 /PaintProc {0.5 setlinewidth pop -2 0 M 4 12 L
	0 -4 M 8 12 L 4 -4 M 10 8 L stroke}
>> matrix makepattern
/Pat7 exch def
<< Tile8x8
 /PaintProc {0.5 setlinewidth pop 8 -2 M -4 4 L
	12 0 M -4 8 L 12 4 M 0 10 L stroke}
>> matrix makepattern
/Pat8 exch def
<< Tile8x8
 /PaintProc {0.5 setlinewidth pop 0 -2 M 12 4 L
	-4 0 M 12 8 L -4 4 M 8 10 L stroke}
>> matrix makepattern
/Pat9 exch def
/Pattern1 {PatternBgnd KeepColor Pat1 setpattern} bind def
/Pattern2 {PatternBgnd KeepColor Pat2 setpattern} bind def
/Pattern3 {PatternBgnd KeepColor Pat3 setpattern} bind def
/Pattern4 {PatternBgnd KeepColor Landscape {Pat5} {Pat4} ifelse setpattern} bind def
/Pattern5 {PatternBgnd KeepColor Landscape {Pat4} {Pat5} ifelse setpattern} bind def
/Pattern6 {PatternBgnd KeepColor Landscape {Pat9} {Pat6} ifelse setpattern} bind def
/Pattern7 {PatternBgnd KeepColor Landscape {Pat8} {Pat7} ifelse setpattern} bind def
} def
%
%
%End of PostScript Level 2 code
%
/PatternBgnd {
  TransparentPatterns {} {gsave 1 setgray fill grestore} ifelse
} def
%
% Substitute for Level 2 pattern fill codes with
% grayscale if Level 2 support is not selected.
%
/Level1PatternFill {
/Pattern1 {0.250 Density} bind def
/Pattern2 {0.500 Density} bind def
/Pattern3 {0.750 Density} bind def
/Pattern4 {0.125 Density} bind def
/Pattern5 {0.375 Density} bind def
/Pattern6 {0.625 Density} bind def
/Pattern7 {0.875 Density} bind def
} def
%
% Now test for support of Level 2 code
%
Level1 {Level1PatternFill} {Level2PatternFill} ifelse
%
/Symbol-Oblique /Symbol findfont [1 0 .167 1 0 0] makefont
dup length dict begin {1 index /FID eq {pop pop} {def} ifelse} forall
currentdict end definefont pop
/MFshow {
   { dup 5 get 3 ge
     { 5 get 3 eq {gsave} {grestore} ifelse }
     {dup dup 0 get findfont exch 1 get scalefont setfont
     [ currentpoint ] exch dup 2 get 0 exch R dup 5 get 2 ne {dup dup 6
     get exch 4 get {show} {stringwidth pop 0 R} ifelse }if dup 5 get 0 eq
     {dup 3 get {2 get neg 0 exch R pop} {pop aload pop M} ifelse} {dup 5
     get 1 eq {dup 2 get exch dup 3 get exch 6 get stringwidth pop -2 div
     dup 0 R} {dup 6 get stringwidth pop -2 div 0 R 6 get
     show 2 index {aload pop M neg 3 -1 roll neg R pop pop} {pop pop pop
     pop aload pop M} ifelse }ifelse }ifelse }
     ifelse }
   forall} bind def
/MFwidth {0 exch { dup 5 get 3 ge { 5 get 3 eq { 0 } { pop } ifelse }
 {dup 3 get{dup dup 0 get findfont exch 1 get scalefont setfont
     6 get stringwidth pop add} {pop} ifelse} ifelse} forall} bind def
/MLshow { currentpoint stroke M
  0 exch R
  Blacktext {gsave 0 setgray MFshow grestore} {MFshow} ifelse } bind def
/MRshow { currentpoint stroke M
  exch dup MFwidth neg 3 -1 roll R
  Blacktext {gsave 0 setgray MFshow grestore} {MFshow} ifelse } bind def
/MCshow { currentpoint stroke M
  exch dup MFwidth -2 div 3 -1 roll R
  Blacktext {gsave 0 setgray MFshow grestore} {MFshow} ifelse } bind def
/XYsave    { [( ) 1 2 true false 3 ()] } bind def
/XYrestore { [( ) 1 2 true false 4 ()] } bind def
end
%%EndProlog
gnudict begin
gsave
50 50 translate
0.050 0.050 scale
0 setgray
newpath
(Helvetica) findfont 260 scalefont setfont
1.000 UL
LTb
1898 832 M
63 0 V
4849 0 R
-63 0 V
stroke
1742 832 M
[ [(Helvetica) 260.0 0.0 true true 0 ( 0)]
] -86.7 MRshow
1.000 UL
LTb
1898 1813 M
63 0 V
4849 0 R
-63 0 V
stroke
1742 1813 M
[ [(Helvetica) 260.0 0.0 true true 0 ( 0.005)]
] -86.7 MRshow
1.000 UL
LTb
1898 2794 M
63 0 V
4849 0 R
-63 0 V
stroke
1742 2794 M
[ [(Helvetica) 260.0 0.0 true true 0 ( 0.01)]
] -86.7 MRshow
1.000 UL
LTb
1898 3774 M
63 0 V
4849 0 R
-63 0 V
stroke
1742 3774 M
[ [(Helvetica) 260.0 0.0 true true 0 ( 0.015)]
] -86.7 MRshow
1.000 UL
LTb
1898 4755 M
63 0 V
4849 0 R
-63 0 V
stroke
1742 4755 M
[ [(Helvetica) 260.0 0.0 true true 0 ( 0.02)]
] -86.7 MRshow
1.000 UL
LTb
1898 5736 M
63 0 V
4849 0 R
-63 0 V
stroke
1742 5736 M
[ [(Helvetica) 260.0 0.0 true true 0 ( 0.025)]
] -86.7 MRshow
1.000 UL
LTb
1898 832 M
0 31 V
0 4873 R
0 -31 V
2067 832 M
0 31 V
0 4873 R
0 -31 V
2210 832 M
0 31 V
0 4873 R
0 -31 V
2334 832 M
0 31 V
0 4873 R
0 -31 V
2443 832 M
0 31 V
0 4873 R
0 -31 V
2541 832 M
0 63 V
0 4841 R
0 -63 V
stroke
2541 572 M
[ [(Helvetica) 260.0 0.0 true true 0 (10)]
[(Helvetica) 208.0 130.0 true true 0 (5)]
] -112.7 MCshow
1.000 UL
LTb
3183 832 M
0 31 V
0 4873 R
0 -31 V
3559 832 M
0 31 V
0 4873 R
0 -31 V
3826 832 M
0 31 V
0 4873 R
0 -31 V
4033 832 M
0 31 V
0 4873 R
0 -31 V
4202 832 M
0 31 V
0 4873 R
0 -31 V
4345 832 M
0 31 V
0 4873 R
0 -31 V
4468 832 M
0 31 V
0 4873 R
0 -31 V
4578 832 M
0 31 V
0 4873 R
0 -31 V
4675 832 M
0 63 V
0 4841 R
0 -63 V
stroke
4675 572 M
[ [(Helvetica) 260.0 0.0 true true 0 (10)]
[(Helvetica) 208.0 130.0 true true 0 (6)]
] -112.7 MCshow
1.000 UL
LTb
5318 832 M
0 31 V
0 4873 R
0 -31 V
5694 832 M
0 31 V
0 4873 R
0 -31 V
5961 832 M
0 31 V
0 4873 R
0 -31 V
6167 832 M
0 31 V
0 4873 R
0 -31 V
6336 832 M
0 31 V
0 4873 R
0 -31 V
6479 832 M
0 31 V
0 4873 R
0 -31 V
6603 832 M
0 31 V
0 4873 R
0 -31 V
6712 832 M
0 31 V
0 4873 R
0 -31 V
6810 832 M
0 63 V
0 4841 R
0 -63 V
stroke
6810 572 M
[ [(Helvetica) 260.0 0.0 true true 0 (10)]
[(Helvetica) 208.0 130.0 true true 0 (7)]
] -112.7 MCshow
1.000 UL
LTb
1.000 UL
LTb
1898 5736 N
0 -4904 V
4912 0 V
0 4904 V
-4912 0 V
Z stroke
LCb setrgbcolor
520 3284 M
currentpoint gsave translate 90 rotate 0 0 moveto
[ [(Helvetica) 260.0 0.0 true true 0 (c/c)]
[(Helvetica) 208.0 -78.0 true true 0 (inj)]
] -60.7 MCshow
grestore
LTb
LCb setrgbcolor
4354 182 M
[ [(Helvetica) 260.0 0.0 true true 0 (t \(seconds\))]
] -86.7 MCshow
LTb
1.000 UP
5051 3382 M
[ [(Symbol) 260.0 0.0 true true 0 (f)]
[(Helvetica) 208.0 -78.0 true true 0 (m)]
[(Helvetica) 260.0 0.0 true true 0 ( = 0.037)]
] -60.7 MLshow
5051 2990 M
[ [(Symbol) 260.0 0.0 true true 0 (a)]
[(Helvetica) 208.0 -78.0 true true 0 (L)]
[(Helvetica) 260.0 0.0 true true 0 ( = 2.03 cm)]
] -60.7 MLshow
5051 2597 M
[ [(Symbol) 260.0 0.0 true true 0 (m)]
[(Helvetica) 260.0 0.0 true true 0 ( = -1.28)]
] -86.7 MLshow
5051 2205 M
[ [(Symbol) 260.0 0.0 true true 0 (s)]
[(Helvetica) 260.0 0.0 true true 0 ( = 1.85)]
] -86.7 MLshow
5051 1813 M
[ [(Helvetica) 260.0 0.0 true true 0 (t)]
[(Helvetica) 208.0 -78.0 true true 0 (inj)]
[(Helvetica) 260.0 0.0 true true 0 ( = 2.01 hrs)]
] -60.7 MLshow
1996 5491 M
[ [(Helvetica) 260.0 0.0 true true 0 (\(a\) test B3)]
] -86.7 MLshow
1.000 UL
LTb
1.300 UP
1.000 UL
LT0
LTb
5967 5517 M
[ [(Helvetica) 260.0 0.0 true true 0 (data)]
] -86.7 MRshow
LT0
2196 1175 Circle
2231 1167 Circle
2266 1147 Circle
2299 1178 Circle
2331 1192 Circle
2362 1168 Circle
2392 1195 Circle
2422 1215 Circle
2450 1232 Circle
2479 1266 Circle
2506 1326 Circle
2533 1384 Circle
2559 1454 Circle
2584 1464 Circle
2609 1592 Circle
2634 1626 Circle
2658 1791 Circle
2680 1801 Circle
2702 1949 Circle
2723 2073 Circle
2744 2184 Circle
2765 2241 Circle
2785 2419 Circle
2804 2574 Circle
2823 2658 Circle
2843 2658 Circle
2861 3028 Circle
2878 3079 Circle
2895 3159 Circle
2912 3200 Circle
2929 3341 Circle
2945 3597 Circle
2961 3513 Circle
2977 3600 Circle
2992 3634 Circle
3007 3724 Circle
3023 3829 Circle
3038 3835 Circle
3053 3893 Circle
3067 4014 Circle
3082 4158 Circle
3096 4111 Circle
3110 4168 Circle
3124 4330 Circle
3137 4175 Circle
3151 4431 Circle
3163 4263 Circle
3176 4263 Circle
3189 4431 Circle
3201 4330 Circle
3213 4330 Circle
3225 4330 Circle
3237 4565 Circle
3248 4532 Circle
3259 4565 Circle
3270 4599 Circle
3281 4397 Circle
3292 4363 Circle
3304 4263 Circle
3314 4397 Circle
3325 4363 Circle
3335 4263 Circle
3346 4195 Circle
3357 4145 Circle
3368 4229 Circle
3378 4152 Circle
3389 4078 Circle
3399 4145 Circle
3409 4024 Circle
3420 4148 Circle
3430 4135 Circle
3439 4064 Circle
3449 3967 Circle
3459 4037 Circle
3468 4105 Circle
3478 3849 Circle
3487 4017 Circle
3496 3856 Circle
3505 3883 Circle
3515 3819 Circle
3541 3825 Circle
3567 3637 Circle
3592 3546 Circle
3616 3526 Circle
3640 3398 Circle
3664 3277 Circle
3687 3257 Circle
3709 3129 Circle
3731 3136 Circle
3752 3048 Circle
3773 2964 Circle
3794 2897 Circle
3814 2816 Circle
3833 2719 Circle
3853 2641 Circle
3872 2604 Circle
3891 2571 Circle
3909 2473 Circle
3926 2584 Circle
3943 2463 Circle
3960 2349 Circle
3977 2308 Circle
3993 2231 Circle
4009 2174 Circle
4025 2134 Circle
4042 2221 Circle
4057 2097 Circle
4073 2056 Circle
4088 2147 Circle
4102 1986 Circle
4116 2002 Circle
4130 1925 Circle
4144 1861 Circle
4158 1834 Circle
4171 1787 Circle
4185 1804 Circle
4198 1750 Circle
4211 1750 Circle
4224 1747 Circle
4237 1717 Circle
4249 1656 Circle
4262 1673 Circle
4274 1649 Circle
4285 1622 Circle
4297 1626 Circle
4309 1569 Circle
4321 1562 Circle
4332 1552 Circle
4343 1525 Circle
4355 1515 Circle
4365 1542 Circle
4376 1478 Circle
4387 1464 Circle
4397 1444 Circle
4407 1511 Circle
4417 1461 Circle
4427 1474 Circle
4437 1451 Circle
4447 1434 Circle
4456 1394 Circle
4466 1414 Circle
4475 1427 Circle
4484 1384 Circle
4493 1360 Circle
4503 1347 Circle
4512 1347 Circle
4521 1360 Circle
4530 1313 Circle
4539 1316 Circle
4548 1360 Circle
4557 1310 Circle
4565 1306 Circle
4577 1289 Circle
4588 1252 Circle
4600 1222 Circle
4611 1259 Circle
4622 1232 Circle
4633 1242 Circle
4644 1192 Circle
4654 1222 Circle
4665 1189 Circle
4676 1175 Circle
4686 1172 Circle
4697 1166 Circle
4707 1182 Circle
4717 1167 Circle
4727 1189 Circle
4740 1148 Circle
4749 1153 Circle
4756 1096 Circle
4765 1106 Circle
4774 1081 Circle
4783 1060 Circle
4792 1074 Circle
4801 1080 Circle
4810 1050 Circle
4820 1078 Circle
4829 1058 Circle
4837 1077 Circle
4846 1045 Circle
4855 1089 Circle
4861 1054 Circle
4871 1057 Circle
4879 1035 Circle
4888 1057 Circle
4896 1069 Circle
4904 1039 Circle
4912 1026 Circle
4920 1036 Circle
4928 1041 Circle
4936 1034 Circle
4943 1021 Circle
4951 1057 Circle
4958 1054 Circle
4966 1023 Circle
4973 1029 Circle
4980 1030 Circle
4988 1011 Circle
4995 1018 Circle
5002 1036 Circle
5009 995 Circle
5017 1003 Circle
5024 1015 Circle
5031 1041 Circle
5038 980 Circle
5045 993 Circle
5051 994 Circle
5058 982 Circle
5065 995 Circle
5071 966 Circle
5078 987 Circle
5084 971 Circle
5091 986 Circle
5098 975 Circle
5105 962 Circle
5111 983 Circle
5118 1019 Circle
5124 975 Circle
5131 981 Circle
5137 973 Circle
5143 1026 Circle
5149 967 Circle
5156 970 Circle
5162 997 Circle
5169 978 Circle
5175 965 Circle
5181 973 Circle
5186 980 Circle
5192 983 Circle
5199 973 Circle
5205 959 Circle
5211 956 Circle
5216 968 Circle
5222 984 Circle
5228 967 Circle
5233 968 Circle
5239 961 Circle
5245 961 Circle
5250 950 Circle
5256 951 Circle
5261 950 Circle
5267 949 Circle
5272 955 Circle
5277 970 Circle
5282 950 Circle
5288 962 Circle
5293 981 Circle
5298 958 Circle
5303 958 Circle
5308 957 Circle
5313 963 Circle
5318 948 Circle
5323 941 Circle
5328 941 Circle
5333 955 Circle
5338 940 Circle
5343 964 Circle
5348 948 Circle
5353 940 Circle
5358 945 Circle
5363 949 Circle
5368 951 Circle
5373 948 Circle
5378 946 Circle
5384 949 Circle
5387 953 Circle
5399 967 Circle
5405 936 Circle
5410 957 Circle
5414 938 Circle
5419 973 Circle
5424 957 Circle
5429 992 Circle
5433 936 Circle
5436 948 Circle
5441 948 Circle
5444 948 Circle
5447 945 Circle
5451 954 Circle
5454 941 Circle
5458 947 Circle
5461 953 Circle
5465 991 Circle
5468 957 Circle
5471 969 Circle
5475 959 Circle
5478 969 Circle
5481 968 Circle
5484 997 Circle
5488 948 Circle
5491 963 Circle
5494 949 Circle
5497 1005 Circle
5501 940 Circle
5504 949 Circle
5507 930 Circle
5510 934 Circle
5513 956 Circle
5516 950 Circle
5519 947 Circle
5522 937 Circle
5525 952 Circle
5528 938 Circle
5531 935 Circle
5534 939 Circle
5537 938 Circle
5540 927 Circle
5543 941 Circle
5546 946 Circle
5549 940 Circle
5552 926 Circle
5554 935 Circle
5557 937 Circle
5560 941 Circle
5563 938 Circle
5566 932 Circle
5568 955 Circle
5569 953 Circle
5572 944 Circle
5575 926 Circle
5578 932 Circle
5581 928 Circle
5586 931 Circle
5589 941 Circle
5592 931 Circle
5595 923 Circle
5598 929 Circle
5601 923 Circle
6310 5517 Circle
3.000 UL
LT0
LTb
5967 5205 M
[ [(Helvetica) 260.0 0.0 true true 0 (single porosity)]
] -86.7 MRshow
LT0
6123 5205 M
375 0 V
1898 1166 M
18 1 V
18 2 V
18 2 V
17 3 V
17 2 V
17 3 V
16 4 V
17 3 V
15 5 V
16 4 V
15 5 V
15 5 V
15 7 V
15 6 V
14 7 V
14 7 V
14 8 V
14 9 V
14 9 V
13 10 V
13 10 V
13 11 V
13 11 V
12 12 V
13 13 V
12 13 V
12 14 V
12 14 V
12 15 V
12 16 V
11 16 V
12 17 V
11 18 V
11 17 V
11 19 V
11 19 V
10 20 V
11 20 V
11 20 V
10 22 V
10 21 V
10 23 V
10 22 V
10 23 V
10 24 V
10 24 V
9 24 V
10 25 V
9 25 V
10 25 V
88 271 V
81 287 V
74 288 V
69 278 V
64 258 V
59 231 V
57 202 V
53 170 V
50 138 V
47 107 V
45 79 V
44 52 V
41 29 V
39 6 V
38 -12 V
36 -28 V
35 -43 V
34 -55 V
33 -64 V
31 -73 V
31 -79 V
29 -84 V
28 -89 V
28 -91 V
27 -93 V
26 -94 V
26 -94 V
24 -94 V
24 -93 V
24 -92 V
23 -90 V
22 -89 V
22 -87 V
21 -84 V
21 -82 V
20 -79 V
20 -77 V
20 -74 V
19 -72 V
19 -68 V
18 -67 V
18 -63 V
18 -61 V
17 -59 V
17 -56 V
17 -54 V
16 -51 V
16 -49 V
16 -47 V
16 -45 V
15 -42 V
15 -41 V
stroke 4232 1602 M
15 -38 V
15 -37 V
14 -36 V
14 -33 V
14 -32 V
14 -30 V
13 -29 V
14 -27 V
13 -26 V
13 -25 V
13 -23 V
12 -23 V
13 -21 V
12 -20 V
12 -19 V
12 -18 V
12 -17 V
11 -17 V
12 -15 V
11 -15 V
12 -14 V
11 -13 V
11 -13 V
10 -12 V
11 -11 V
11 -11 V
10 -10 V
11 -9 V
10 -10 V
10 -8 V
10 -9 V
10 -7 V
10 -8 V
9 -7 V
10 -6 V
10 -7 V
9 -6 V
9 -5 V
89 -43 V
80 -25 V
75 -14 V
68 -9 V
64 -5 V
60 -3 V
56 -1 V
53 -1 V
50 -1 V
48 0 V
45 -1 V
43 0 V
41 0 V
40 0 V
38 0 V
36 0 V
35 0 V
34 0 V
32 0 V
32 0 V
30 0 V
30 0 V
28 0 V
28 0 V
27 0 V
26 0 V
25 0 V
25 0 V
24 0 V
24 0 V
22 0 V
23 0 V
22 0 V
21 0 V
21 0 V
20 0 V
20 0 V
20 0 V
19 0 V
18 0 V
19 0 V
18 0 V
17 0 V
18 0 V
17 0 V
16 0 V
17 0 V
16 0 V
16 0 V
15 0 V
16 0 V
15 0 V
15 0 V
14 0 V
15 0 V
14 0 V
14 0 V
13 0 V
14 0 V
13 0 V
13 0 V
13 0 V
13 0 V
13 0 V
12 0 V
13 0 V
stroke 6556 832 M
12 0 V
12 0 V
11 0 V
12 0 V
12 0 V
11 0 V
11 0 V
11 0 V
11 0 V
11 0 V
11 0 V
10 0 V
11 0 V
10 0 V
11 0 V
10 0 V
10 0 V
10 0 V
9 0 V
10 0 V
10 0 V
9 0 V
10 0 V
stroke
LT6
LTb
5967 4893 M
[ [(Helvetica) 260.0 0.0 true true 0 (double porosity)]
] -86.7 MRshow
LT6
6123 4893 M
375 0 V
1898 1160 M
18 0 V
18 0 V
18 1 V
17 0 V
17 1 V
17 1 V
16 1 V
17 1 V
15 1 V
16 2 V
15 1 V
15 2 V
15 3 V
15 2 V
14 3 V
14 3 V
14 4 V
14 4 V
14 4 V
13 5 V
13 5 V
13 6 V
13 6 V
12 7 V
13 7 V
12 8 V
12 8 V
12 9 V
12 10 V
12 10 V
11 11 V
12 11 V
11 12 V
11 13 V
11 13 V
11 14 V
10 15 V
11 16 V
11 16 V
10 17 V
10 17 V
10 18 V
10 19 V
10 20 V
10 20 V
10 21 V
9 21 V
10 23 V
9 22 V
10 24 V
88 265 V
81 309 V
74 332 V
69 335 V
64 321 V
59 292 V
57 255 V
53 212 V
50 167 V
47 124 V
45 81 V
44 43 V
41 8 V
39 -21 V
38 -46 V
36 -66 V
35 -84 V
34 -96 V
33 -106 V
31 -113 V
31 -117 V
29 -119 V
28 -120 V
28 -119 V
27 -117 V
26 -114 V
26 -110 V
24 -106 V
24 -101 V
24 -97 V
23 -92 V
22 -86 V
22 -82 V
21 -78 V
21 -72 V
20 -68 V
20 -63 V
20 -60 V
19 -55 V
19 -52 V
18 -48 V
18 -44 V
18 -42 V
17 -39 V
17 -36 V
17 -34 V
16 -31 V
16 -29 V
16 -27 V
16 -25 V
15 -23 V
15 -22 V
stroke 4232 1602 M
15 -20 V
15 -19 V
14 -18 V
14 -17 V
14 -15 V
14 -15 V
13 -14 V
14 -12 V
13 -12 V
13 -12 V
13 -11 V
12 -10 V
13 -10 V
12 -9 V
12 -9 V
12 -8 V
12 -8 V
11 -7 V
12 -8 V
11 -7 V
12 -6 V
11 -7 V
11 -6 V
10 -6 V
11 -6 V
11 -6 V
10 -5 V
11 -6 V
10 -5 V
10 -5 V
10 -5 V
10 -4 V
10 -5 V
9 -5 V
10 -4 V
10 -5 V
9 -4 V
9 -4 V
89 -40 V
80 -34 V
75 -31 V
68 -29 V
64 -26 V
60 -23 V
56 -22 V
53 -20 V
50 -18 V
48 -17 V
45 -15 V
43 -14 V
41 -13 V
40 -12 V
38 -10 V
36 -10 V
35 -9 V
34 -8 V
32 -7 V
32 -7 V
30 -7 V
30 -5 V
28 -5 V
28 -5 V
27 -4 V
26 -4 V
25 -4 V
25 -3 V
24 -3 V
24 -3 V
22 -2 V
23 -3 V
22 -2 V
21 -1 V
21 -2 V
20 -2 V
20 -1 V
20 -1 V
19 -1 V
18 -2 V
19 -1 V
18 0 V
17 -1 V
18 -1 V
17 -1 V
16 0 V
17 -1 V
16 0 V
16 -1 V
15 0 V
16 0 V
15 -1 V
15 0 V
14 0 V
15 -1 V
14 0 V
14 0 V
13 0 V
14 0 V
13 0 V
13 -1 V
13 0 V
13 0 V
13 0 V
12 0 V
13 0 V
stroke 6556 833 M
12 0 V
12 0 V
11 0 V
12 0 V
12 0 V
11 -1 V
11 0 V
11 0 V
11 0 V
11 0 V
11 0 V
10 0 V
11 0 V
10 0 V
11 0 V
10 0 V
10 0 V
10 0 V
9 0 V
10 0 V
10 0 V
9 0 V
10 0 V
stroke
8.000 UL
LT0
LTb
5967 4581 M
[ [(Helvetica) 260.0 0.0 true true 0 (multirate lognormal)]
] -86.7 MRshow
LT0
6123 4581 M
375 0 V
1898 1158 M
18 0 V
18 0 V
18 0 V
17 0 V
17 0 V
17 0 V
16 1 V
17 0 V
15 0 V
16 0 V
15 0 V
15 0 V
15 0 V
15 0 V
14 1 V
14 0 V
14 1 V
14 0 V
14 1 V
13 1 V
13 1 V
13 1 V
13 2 V
12 1 V
13 2 V
12 2 V
12 3 V
12 3 V
12 3 V
12 4 V
11 4 V
12 5 V
11 5 V
11 6 V
11 7 V
11 7 V
10 8 V
11 8 V
11 10 V
10 10 V
10 11 V
10 12 V
10 12 V
10 14 V
10 15 V
10 15 V
9 17 V
10 17 V
9 19 V
10 19 V
88 252 V
81 345 V
74 406 V
69 427 V
64 408 V
59 359 V
57 294 V
53 223 V
50 153 V
47 89 V
45 37 V
44 -7 V
41 -40 V
39 -66 V
38 -84 V
36 -96 V
35 -104 V
34 -109 V
33 -110 V
31 -110 V
31 -108 V
29 -106 V
28 -102 V
28 -99 V
27 -95 V
26 -91 V
26 -86 V
24 -83 V
24 -79 V
24 -76 V
23 -71 V
22 -69 V
22 -65 V
21 -61 V
21 -59 V
20 -56 V
20 -54 V
20 -51 V
19 -48 V
19 -47 V
18 -44 V
18 -42 V
18 -40 V
17 -39 V
17 -37 V
17 -35 V
16 -34 V
16 -32 V
16 -31 V
16 -30 V
15 -29 V
15 -27 V
stroke 4232 1747 M
15 -26 V
15 -25 V
14 -24 V
14 -24 V
14 -22 V
14 -22 V
13 -20 V
14 -20 V
13 -20 V
13 -18 V
13 -18 V
12 -17 V
13 -17 V
12 -16 V
12 -15 V
12 -15 V
12 -15 V
11 -14 V
12 -13 V
11 -13 V
12 -13 V
11 -12 V
11 -12 V
10 -11 V
11 -11 V
11 -11 V
10 -10 V
11 -10 V
10 -10 V
10 -9 V
10 -10 V
10 -8 V
10 -9 V
9 -9 V
10 -8 V
10 -8 V
9 -7 V
9 -8 V
89 -64 V
80 -50 V
75 -39 V
68 -30 V
64 -25 V
60 -20 V
56 -17 V
53 -14 V
50 -12 V
48 -10 V
45 -9 V
43 -7 V
41 -7 V
40 -5 V
38 -5 V
36 -4 V
35 -4 V
34 -3 V
32 -4 V
32 -2 V
30 -3 V
30 -2 V
28 -2 V
28 -1 V
27 -2 V
26 -1 V
25 -2 V
25 -1 V
24 -1 V
24 -1 V
22 -1 V
23 -1 V
22 -1 V
21 0 V
21 -1 V
20 -1 V
20 0 V
20 -1 V
19 0 V
18 -1 V
19 0 V
18 -1 V
17 0 V
18 0 V
17 -1 V
16 0 V
17 0 V
16 -1 V
16 0 V
15 0 V
16 -1 V
15 0 V
15 0 V
14 0 V
15 0 V
14 -1 V
14 0 V
13 0 V
14 0 V
13 0 V
13 0 V
13 0 V
13 -1 V
13 0 V
12 0 V
13 0 V
stroke 6556 837 M
12 0 V
12 0 V
11 0 V
12 0 V
12 0 V
11 0 V
11 -1 V
11 0 V
11 0 V
11 0 V
11 0 V
10 0 V
11 0 V
10 0 V
11 0 V
10 0 V
10 0 V
10 0 V
9 -1 V
10 0 V
10 0 V
9 0 V
10 0 V
stroke
1.000 UL
LTb
1898 5736 N
0 -4904 V
4912 0 V
0 4904 V
-4912 0 V
Z stroke
1.000 UP
1.000 UL
LTb
stroke
grestore
end
showpage
%%Trailer
%%DocumentFonts: Symbol Helvetica
