%!PS-Adobe-2.0 EPSF-2.0
%%Title: B3_NaU.eps
%%Creator: gnuplot 4.4 patchlevel 4
%%CreationDate: Mon Jul 16 15:11:14 2012
%%DocumentFonts: (atend)
%%BoundingBox: 50 50 410 352
%%EndComments
%%BeginProlog
/gnudict 256 dict def
gnudict begin
%
% The following true/false flags may be edited by hand if desired.
% The unit line width and grayscale image gamma correction may also be changed.
%
/Color false def
/Blacktext false def
/Solid false def
/Dashlength 1 def
/Landscape false def
/Level1 false def
/Rounded false def
/ClipToBoundingBox false def
/TransparentPatterns false def
/gnulinewidth 5.000 def
/userlinewidth gnulinewidth def
/Gamma 1.0 def
%
/vshift -86 def
/dl1 {
  10.0 Dashlength mul mul
  Rounded { currentlinewidth 0.75 mul sub dup 0 le { pop 0.01 } if } if
} def
/dl2 {
  10.0 Dashlength mul mul
  Rounded { currentlinewidth 0.75 mul add } if
} def
/hpt_ 31.5 def
/vpt_ 31.5 def
/hpt hpt_ def
/vpt vpt_ def
Level1 {} {
/SDict 10 dict def
systemdict /pdfmark known not {
  userdict /pdfmark systemdict /cleartomark get put
} if
SDict begin [
  /Title (B3_NaU.eps)
  /Subject (gnuplot plot)
  /Creator (gnuplot 4.4 patchlevel 4)
  /Author (bmalama)
%  /Producer (gnuplot)
%  /Keywords ()
  /CreationDate (Mon Jul 16 15:11:14 2012)
  /DOCINFO pdfmark
end
} ifelse
/doclip {
  ClipToBoundingBox {
    newpath 50 50 moveto 410 50 lineto 410 352 lineto 50 352 lineto closepath
    clip
  } if
} def
%
% Gnuplot Prolog Version 4.4 (August 2010)
%
%/SuppressPDFMark true def
%
/M {moveto} bind def
/L {lineto} bind def
/R {rmoveto} bind def
/V {rlineto} bind def
/N {newpath moveto} bind def
/Z {closepath} bind def
/C {setrgbcolor} bind def
/f {rlineto fill} bind def
/g {setgray} bind def
/Gshow {show} def   % May be redefined later in the file to support UTF-8
/vpt2 vpt 2 mul def
/hpt2 hpt 2 mul def
/Lshow {currentpoint stroke M 0 vshift R 
	Blacktext {gsave 0 setgray show grestore} {show} ifelse} def
/Rshow {currentpoint stroke M dup stringwidth pop neg vshift R
	Blacktext {gsave 0 setgray show grestore} {show} ifelse} def
/Cshow {currentpoint stroke M dup stringwidth pop -2 div vshift R 
	Blacktext {gsave 0 setgray show grestore} {show} ifelse} def
/UP {dup vpt_ mul /vpt exch def hpt_ mul /hpt exch def
  /hpt2 hpt 2 mul def /vpt2 vpt 2 mul def} def
/DL {Color {setrgbcolor Solid {pop []} if 0 setdash}
 {pop pop pop 0 setgray Solid {pop []} if 0 setdash} ifelse} def
/BL {stroke userlinewidth 2 mul setlinewidth
	Rounded {1 setlinejoin 1 setlinecap} if} def
/AL {stroke userlinewidth 2 div setlinewidth
	Rounded {1 setlinejoin 1 setlinecap} if} def
/UL {dup gnulinewidth mul /userlinewidth exch def
	dup 1 lt {pop 1} if 10 mul /udl exch def} def
/PL {stroke userlinewidth setlinewidth
	Rounded {1 setlinejoin 1 setlinecap} if} def
3.8 setmiterlimit
% Default Line colors
/LCw {1 1 1} def
/LCb {0 0 0} def
/LCa {0 0 0} def
/LC0 {1 0 0} def
/LC1 {0 1 0} def
/LC2 {0 0 1} def
/LC3 {1 0 1} def
/LC4 {0 1 1} def
/LC5 {1 1 0} def
/LC6 {0 0 0} def
/LC7 {1 0.3 0} def
/LC8 {0.5 0.5 0.5} def
% Default Line Types
/LTw {PL [] 1 setgray} def
/LTb {BL [] LCb DL} def
/LTa {AL [1 udl mul 2 udl mul] 0 setdash LCa setrgbcolor} def
/LT0 {PL [] LC0 DL} def
/LT1 {PL [4 dl1 2 dl2] LC1 DL} def
/LT2 {PL [2 dl1 3 dl2] LC2 DL} def
/LT3 {PL [1 dl1 1.5 dl2] LC3 DL} def
/LT4 {PL [6 dl1 2 dl2 1 dl1 2 dl2] LC4 DL} def
/LT5 {PL [3 dl1 3 dl2 1 dl1 3 dl2] LC5 DL} def
/LT6 {PL [2 dl1 2 dl2 2 dl1 6 dl2] LC6 DL} def
/LT7 {PL [1 dl1 2 dl2 6 dl1 2 dl2 1 dl1 2 dl2] LC7 DL} def
/LT8 {PL [2 dl1 2 dl2 2 dl1 2 dl2 2 dl1 2 dl2 2 dl1 4 dl2] LC8 DL} def
/Pnt {stroke [] 0 setdash gsave 1 setlinecap M 0 0 V stroke grestore} def
/Dia {stroke [] 0 setdash 2 copy vpt add M
  hpt neg vpt neg V hpt vpt neg V
  hpt vpt V hpt neg vpt V closepath stroke
  Pnt} def
/Pls {stroke [] 0 setdash vpt sub M 0 vpt2 V
  currentpoint stroke M
  hpt neg vpt neg R hpt2 0 V stroke
 } def
/Box {stroke [] 0 setdash 2 copy exch hpt sub exch vpt add M
  0 vpt2 neg V hpt2 0 V 0 vpt2 V
  hpt2 neg 0 V closepath stroke
  Pnt} def
/Crs {stroke [] 0 setdash exch hpt sub exch vpt add M
  hpt2 vpt2 neg V currentpoint stroke M
  hpt2 neg 0 R hpt2 vpt2 V stroke} def
/TriU {stroke [] 0 setdash 2 copy vpt 1.12 mul add M
  hpt neg vpt -1.62 mul V
  hpt 2 mul 0 V
  hpt neg vpt 1.62 mul V closepath stroke
  Pnt} def
/Star {2 copy Pls Crs} def
/BoxF {stroke [] 0 setdash exch hpt sub exch vpt add M
  0 vpt2 neg V hpt2 0 V 0 vpt2 V
  hpt2 neg 0 V closepath fill} def
/TriUF {stroke [] 0 setdash vpt 1.12 mul add M
  hpt neg vpt -1.62 mul V
  hpt 2 mul 0 V
  hpt neg vpt 1.62 mul V closepath fill} def
/TriD {stroke [] 0 setdash 2 copy vpt 1.12 mul sub M
  hpt neg vpt 1.62 mul V
  hpt 2 mul 0 V
  hpt neg vpt -1.62 mul V closepath stroke
  Pnt} def
/TriDF {stroke [] 0 setdash vpt 1.12 mul sub M
  hpt neg vpt 1.62 mul V
  hpt 2 mul 0 V
  hpt neg vpt -1.62 mul V closepath fill} def
/DiaF {stroke [] 0 setdash vpt add M
  hpt neg vpt neg V hpt vpt neg V
  hpt vpt V hpt neg vpt V closepath fill} def
/Pent {stroke [] 0 setdash 2 copy gsave
  translate 0 hpt M 4 {72 rotate 0 hpt L} repeat
  closepath stroke grestore Pnt} def
/PentF {stroke [] 0 setdash gsave
  translate 0 hpt M 4 {72 rotate 0 hpt L} repeat
  closepath fill grestore} def
/Circle {stroke [] 0 setdash 2 copy
  hpt 0 360 arc stroke Pnt} def
/CircleF {stroke [] 0 setdash hpt 0 360 arc fill} def
/C0 {BL [] 0 setdash 2 copy moveto vpt 90 450 arc} bind def
/C1 {BL [] 0 setdash 2 copy moveto
	2 copy vpt 0 90 arc closepath fill
	vpt 0 360 arc closepath} bind def
/C2 {BL [] 0 setdash 2 copy moveto
	2 copy vpt 90 180 arc closepath fill
	vpt 0 360 arc closepath} bind def
/C3 {BL [] 0 setdash 2 copy moveto
	2 copy vpt 0 180 arc closepath fill
	vpt 0 360 arc closepath} bind def
/C4 {BL [] 0 setdash 2 copy moveto
	2 copy vpt 180 270 arc closepath fill
	vpt 0 360 arc closepath} bind def
/C5 {BL [] 0 setdash 2 copy moveto
	2 copy vpt 0 90 arc
	2 copy moveto
	2 copy vpt 180 270 arc closepath fill
	vpt 0 360 arc} bind def
/C6 {BL [] 0 setdash 2 copy moveto
	2 copy vpt 90 270 arc closepath fill
	vpt 0 360 arc closepath} bind def
/C7 {BL [] 0 setdash 2 copy moveto
	2 copy vpt 0 270 arc closepath fill
	vpt 0 360 arc closepath} bind def
/C8 {BL [] 0 setdash 2 copy moveto
	2 copy vpt 270 360 arc closepath fill
	vpt 0 360 arc closepath} bind def
/C9 {BL [] 0 setdash 2 copy moveto
	2 copy vpt 270 450 arc closepath fill
	vpt 0 360 arc closepath} bind def
/C10 {BL [] 0 setdash 2 copy 2 copy moveto vpt 270 360 arc closepath fill
	2 copy moveto
	2 copy vpt 90 180 arc closepath fill
	vpt 0 360 arc closepath} bind def
/C11 {BL [] 0 setdash 2 copy moveto
	2 copy vpt 0 180 arc closepath fill
	2 copy moveto
	2 copy vpt 270 360 arc closepath fill
	vpt 0 360 arc closepath} bind def
/C12 {BL [] 0 setdash 2 copy moveto
	2 copy vpt 180 360 arc closepath fill
	vpt 0 360 arc closepath} bind def
/C13 {BL [] 0 setdash 2 copy moveto
	2 copy vpt 0 90 arc closepath fill
	2 copy moveto
	2 copy vpt 180 360 arc closepath fill
	vpt 0 360 arc closepath} bind def
/C14 {BL [] 0 setdash 2 copy moveto
	2 copy vpt 90 360 arc closepath fill
	vpt 0 360 arc} bind def
/C15 {BL [] 0 setdash 2 copy vpt 0 360 arc closepath fill
	vpt 0 360 arc closepath} bind def
/Rec {newpath 4 2 roll moveto 1 index 0 rlineto 0 exch rlineto
	neg 0 rlineto closepath} bind def
/Square {dup Rec} bind def
/Bsquare {vpt sub exch vpt sub exch vpt2 Square} bind def
/S0 {BL [] 0 setdash 2 copy moveto 0 vpt rlineto BL Bsquare} bind def
/S1 {BL [] 0 setdash 2 copy vpt Square fill Bsquare} bind def
/S2 {BL [] 0 setdash 2 copy exch vpt sub exch vpt Square fill Bsquare} bind def
/S3 {BL [] 0 setdash 2 copy exch vpt sub exch vpt2 vpt Rec fill Bsquare} bind def
/S4 {BL [] 0 setdash 2 copy exch vpt sub exch vpt sub vpt Square fill Bsquare} bind def
/S5 {BL [] 0 setdash 2 copy 2 copy vpt Square fill
	exch vpt sub exch vpt sub vpt Square fill Bsquare} bind def
/S6 {BL [] 0 setdash 2 copy exch vpt sub exch vpt sub vpt vpt2 Rec fill Bsquare} bind def
/S7 {BL [] 0 setdash 2 copy exch vpt sub exch vpt sub vpt vpt2 Rec fill
	2 copy vpt Square fill Bsquare} bind def
/S8 {BL [] 0 setdash 2 copy vpt sub vpt Square fill Bsquare} bind def
/S9 {BL [] 0 setdash 2 copy vpt sub vpt vpt2 Rec fill Bsquare} bind def
/S10 {BL [] 0 setdash 2 copy vpt sub vpt Square fill 2 copy exch vpt sub exch vpt Square fill
	Bsquare} bind def
/S11 {BL [] 0 setdash 2 copy vpt sub vpt Square fill 2 copy exch vpt sub exch vpt2 vpt Rec fill
	Bsquare} bind def
/S12 {BL [] 0 setdash 2 copy exch vpt sub exch vpt sub vpt2 vpt Rec fill Bsquare} bind def
/S13 {BL [] 0 setdash 2 copy exch vpt sub exch vpt sub vpt2 vpt Rec fill
	2 copy vpt Square fill Bsquare} bind def
/S14 {BL [] 0 setdash 2 copy exch vpt sub exch vpt sub vpt2 vpt Rec fill
	2 copy exch vpt sub exch vpt Square fill Bsquare} bind def
/S15 {BL [] 0 setdash 2 copy Bsquare fill Bsquare} bind def
/D0 {gsave translate 45 rotate 0 0 S0 stroke grestore} bind def
/D1 {gsave translate 45 rotate 0 0 S1 stroke grestore} bind def
/D2 {gsave translate 45 rotate 0 0 S2 stroke grestore} bind def
/D3 {gsave translate 45 rotate 0 0 S3 stroke grestore} bind def
/D4 {gsave translate 45 rotate 0 0 S4 stroke grestore} bind def
/D5 {gsave translate 45 rotate 0 0 S5 stroke grestore} bind def
/D6 {gsave translate 45 rotate 0 0 S6 stroke grestore} bind def
/D7 {gsave translate 45 rotate 0 0 S7 stroke grestore} bind def
/D8 {gsave translate 45 rotate 0 0 S8 stroke grestore} bind def
/D9 {gsave translate 45 rotate 0 0 S9 stroke grestore} bind def
/D10 {gsave translate 45 rotate 0 0 S10 stroke grestore} bind def
/D11 {gsave translate 45 rotate 0 0 S11 stroke grestore} bind def
/D12 {gsave translate 45 rotate 0 0 S12 stroke grestore} bind def
/D13 {gsave translate 45 rotate 0 0 S13 stroke grestore} bind def
/D14 {gsave translate 45 rotate 0 0 S14 stroke grestore} bind def
/D15 {gsave translate 45 rotate 0 0 S15 stroke grestore} bind def
/DiaE {stroke [] 0 setdash vpt add M
  hpt neg vpt neg V hpt vpt neg V
  hpt vpt V hpt neg vpt V closepath stroke} def
/BoxE {stroke [] 0 setdash exch hpt sub exch vpt add M
  0 vpt2 neg V hpt2 0 V 0 vpt2 V
  hpt2 neg 0 V closepath stroke} def
/TriUE {stroke [] 0 setdash vpt 1.12 mul add M
  hpt neg vpt -1.62 mul V
  hpt 2 mul 0 V
  hpt neg vpt 1.62 mul V closepath stroke} def
/TriDE {stroke [] 0 setdash vpt 1.12 mul sub M
  hpt neg vpt 1.62 mul V
  hpt 2 mul 0 V
  hpt neg vpt -1.62 mul V closepath stroke} def
/PentE {stroke [] 0 setdash gsave
  translate 0 hpt M 4 {72 rotate 0 hpt L} repeat
  closepath stroke grestore} def
/CircE {stroke [] 0 setdash 
  hpt 0 360 arc stroke} def
/Opaque {gsave closepath 1 setgray fill grestore 0 setgray closepath} def
/DiaW {stroke [] 0 setdash vpt add M
  hpt neg vpt neg V hpt vpt neg V
  hpt vpt V hpt neg vpt V Opaque stroke} def
/BoxW {stroke [] 0 setdash exch hpt sub exch vpt add M
  0 vpt2 neg V hpt2 0 V 0 vpt2 V
  hpt2 neg 0 V Opaque stroke} def
/TriUW {stroke [] 0 setdash vpt 1.12 mul add M
  hpt neg vpt -1.62 mul V
  hpt 2 mul 0 V
  hpt neg vpt 1.62 mul V Opaque stroke} def
/TriDW {stroke [] 0 setdash vpt 1.12 mul sub M
  hpt neg vpt 1.62 mul V
  hpt 2 mul 0 V
  hpt neg vpt -1.62 mul V Opaque stroke} def
/PentW {stroke [] 0 setdash gsave
  translate 0 hpt M 4 {72 rotate 0 hpt L} repeat
  Opaque stroke grestore} def
/CircW {stroke [] 0 setdash 
  hpt 0 360 arc Opaque stroke} def
/BoxFill {gsave Rec 1 setgray fill grestore} def
/Density {
  /Fillden exch def
  currentrgbcolor
  /ColB exch def /ColG exch def /ColR exch def
  /ColR ColR Fillden mul Fillden sub 1 add def
  /ColG ColG Fillden mul Fillden sub 1 add def
  /ColB ColB Fillden mul Fillden sub 1 add def
  ColR ColG ColB setrgbcolor} def
/BoxColFill {gsave Rec PolyFill} def
/PolyFill {gsave Density fill grestore grestore} def
/h {rlineto rlineto rlineto gsave closepath fill grestore} bind def
%
% PostScript Level 1 Pattern Fill routine for rectangles
% Usage: x y w h s a XX PatternFill
%	x,y = lower left corner of box to be filled
%	w,h = width and height of box
%	  a = angle in degrees between lines and x-axis
%	 XX = 0/1 for no/yes cross-hatch
%
/PatternFill {gsave /PFa [ 9 2 roll ] def
  PFa 0 get PFa 2 get 2 div add PFa 1 get PFa 3 get 2 div add translate
  PFa 2 get -2 div PFa 3 get -2 div PFa 2 get PFa 3 get Rec
  gsave 1 setgray fill grestore clip
  currentlinewidth 0.5 mul setlinewidth
  /PFs PFa 2 get dup mul PFa 3 get dup mul add sqrt def
  0 0 M PFa 5 get rotate PFs -2 div dup translate
  0 1 PFs PFa 4 get div 1 add floor cvi
	{PFa 4 get mul 0 M 0 PFs V} for
  0 PFa 6 get ne {
	0 1 PFs PFa 4 get div 1 add floor cvi
	{PFa 4 get mul 0 2 1 roll M PFs 0 V} for
 } if
  stroke grestore} def
%
/languagelevel where
 {pop languagelevel} {1} ifelse
 2 lt
	{/InterpretLevel1 true def}
	{/InterpretLevel1 Level1 def}
 ifelse
%
% PostScript level 2 pattern fill definitions
%
/Level2PatternFill {
/Tile8x8 {/PaintType 2 /PatternType 1 /TilingType 1 /BBox [0 0 8 8] /XStep 8 /YStep 8}
	bind def
/KeepColor {currentrgbcolor [/Pattern /DeviceRGB] setcolorspace} bind def
<< Tile8x8
 /PaintProc {0.5 setlinewidth pop 0 0 M 8 8 L 0 8 M 8 0 L stroke} 
>> matrix makepattern
/Pat1 exch def
<< Tile8x8
 /PaintProc {0.5 setlinewidth pop 0 0 M 8 8 L 0 8 M 8 0 L stroke
	0 4 M 4 8 L 8 4 L 4 0 L 0 4 L stroke}
>> matrix makepattern
/Pat2 exch def
<< Tile8x8
 /PaintProc {0.5 setlinewidth pop 0 0 M 0 8 L
	8 8 L 8 0 L 0 0 L fill}
>> matrix makepattern
/Pat3 exch def
<< Tile8x8
 /PaintProc {0.5 setlinewidth pop -4 8 M 8 -4 L
	0 12 M 12 0 L stroke}
>> matrix makepattern
/Pat4 exch def
<< Tile8x8
 /PaintProc {0.5 setlinewidth pop -4 0 M 8 12 L
	0 -4 M 12 8 L stroke}
>> matrix makepattern
/Pat5 exch def
<< Tile8x8
 /PaintProc {0.5 setlinewidth pop -2 8 M 4 -4 L
	0 12 M 8 -4 L 4 12 M 10 0 L stroke}
>> matrix makepattern
/Pat6 exch def
<< Tile8x8
 /PaintProc {0.5 setlinewidth pop -2 0 M 4 12 L
	0 -4 M 8 12 L 4 -4 M 10 8 L stroke}
>> matrix makepattern
/Pat7 exch def
<< Tile8x8
 /PaintProc {0.5 setlinewidth pop 8 -2 M -4 4 L
	12 0 M -4 8 L 12 4 M 0 10 L stroke}
>> matrix makepattern
/Pat8 exch def
<< Tile8x8
 /PaintProc {0.5 setlinewidth pop 0 -2 M 12 4 L
	-4 0 M 12 8 L -4 4 M 8 10 L stroke}
>> matrix makepattern
/Pat9 exch def
/Pattern1 {PatternBgnd KeepColor Pat1 setpattern} bind def
/Pattern2 {PatternBgnd KeepColor Pat2 setpattern} bind def
/Pattern3 {PatternBgnd KeepColor Pat3 setpattern} bind def
/Pattern4 {PatternBgnd KeepColor Landscape {Pat5} {Pat4} ifelse setpattern} bind def
/Pattern5 {PatternBgnd KeepColor Landscape {Pat4} {Pat5} ifelse setpattern} bind def
/Pattern6 {PatternBgnd KeepColor Landscape {Pat9} {Pat6} ifelse setpattern} bind def
/Pattern7 {PatternBgnd KeepColor Landscape {Pat8} {Pat7} ifelse setpattern} bind def
} def
%
%
%End of PostScript Level 2 code
%
/PatternBgnd {
  TransparentPatterns {} {gsave 1 setgray fill grestore} ifelse
} def
%
% Substitute for Level 2 pattern fill codes with
% grayscale if Level 2 support is not selected.
%
/Level1PatternFill {
/Pattern1 {0.250 Density} bind def
/Pattern2 {0.500 Density} bind def
/Pattern3 {0.750 Density} bind def
/Pattern4 {0.125 Density} bind def
/Pattern5 {0.375 Density} bind def
/Pattern6 {0.625 Density} bind def
/Pattern7 {0.875 Density} bind def
} def
%
% Now test for support of Level 2 code
%
Level1 {Level1PatternFill} {Level2PatternFill} ifelse
%
/Symbol-Oblique /Symbol findfont [1 0 .167 1 0 0] makefont
dup length dict begin {1 index /FID eq {pop pop} {def} ifelse} forall
currentdict end definefont pop
/MFshow {
   { dup 5 get 3 ge
     { 5 get 3 eq {gsave} {grestore} ifelse }
     {dup dup 0 get findfont exch 1 get scalefont setfont
     [ currentpoint ] exch dup 2 get 0 exch R dup 5 get 2 ne {dup dup 6
     get exch 4 get {Gshow} {stringwidth pop 0 R} ifelse }if dup 5 get 0 eq
     {dup 3 get {2 get neg 0 exch R pop} {pop aload pop M} ifelse} {dup 5
     get 1 eq {dup 2 get exch dup 3 get exch 6 get stringwidth pop -2 div
     dup 0 R} {dup 6 get stringwidth pop -2 div 0 R 6 get
     show 2 index {aload pop M neg 3 -1 roll neg R pop pop} {pop pop pop
     pop aload pop M} ifelse }ifelse }ifelse }
     ifelse }
   forall} def
/Gswidth {dup type /stringtype eq {stringwidth} {pop (n) stringwidth} ifelse} def
/MFwidth {0 exch { dup 5 get 3 ge { 5 get 3 eq { 0 } { pop } ifelse }
 {dup 3 get{dup dup 0 get findfont exch 1 get scalefont setfont
     6 get Gswidth pop add} {pop} ifelse} ifelse} forall} def
/MLshow { currentpoint stroke M
  0 exch R
  Blacktext {gsave 0 setgray MFshow grestore} {MFshow} ifelse } bind def
/MRshow { currentpoint stroke M
  exch dup MFwidth neg 3 -1 roll R
  Blacktext {gsave 0 setgray MFshow grestore} {MFshow} ifelse } bind def
/MCshow { currentpoint stroke M
  exch dup MFwidth -2 div 3 -1 roll R
  Blacktext {gsave 0 setgray MFshow grestore} {MFshow} ifelse } bind def
/XYsave    { [( ) 1 2 true false 3 ()] } bind def
/XYrestore { [( ) 1 2 true false 4 ()] } bind def
end
%%EndProlog
gnudict begin
gsave
doclip
50 50 translate
0.050 0.050 scale
0 setgray
newpath
(Helvetica) findfont 260 scalefont setfont
1.000 UL
LTb
1586 832 M
63 0 V
5082 0 R
-63 0 V
stroke
1430 832 M
[ [(Helvetica) 260.0 0.0 true true 0 ( 0)]
] -86.7 MRshow
1.000 UL
LTb
1586 1813 M
63 0 V
5082 0 R
-63 0 V
stroke
1430 1813 M
[ [(Helvetica) 260.0 0.0 true true 0 ( 0.005)]
] -86.7 MRshow
1.000 UL
LTb
1586 2793 M
63 0 V
5082 0 R
-63 0 V
stroke
1430 2793 M
[ [(Helvetica) 260.0 0.0 true true 0 ( 0.01)]
] -86.7 MRshow
1.000 UL
LTb
1586 3774 M
63 0 V
5082 0 R
-63 0 V
stroke
1430 3774 M
[ [(Helvetica) 260.0 0.0 true true 0 ( 0.015)]
] -86.7 MRshow
1.000 UL
LTb
1586 4754 M
63 0 V
5082 0 R
-63 0 V
stroke
1430 4754 M
[ [(Helvetica) 260.0 0.0 true true 0 ( 0.02)]
] -86.7 MRshow
1.000 UL
LTb
1586 5735 M
63 0 V
5082 0 R
-63 0 V
stroke
1430 5735 M
[ [(Helvetica) 260.0 0.0 true true 0 ( 0.025)]
] -86.7 MRshow
1.000 UL
LTb
1586 832 M
0 63 V
0 4840 R
0 -63 V
stroke
1586 572 M
[ [(Helvetica) 260.0 0.0 true true 0 (10)]
[(Helvetica) 208.0 130.0 true true 0 (-2)]
] -112.7 MCshow
1.000 UL
LTb
2102 832 M
0 31 V
0 4872 R
0 -31 V
2404 832 M
0 31 V
0 4872 R
0 -31 V
2619 832 M
0 31 V
0 4872 R
0 -31 V
2785 832 M
0 31 V
0 4872 R
0 -31 V
2921 832 M
0 31 V
0 4872 R
0 -31 V
3035 832 M
0 31 V
0 4872 R
0 -31 V
3135 832 M
0 31 V
0 4872 R
0 -31 V
3223 832 M
0 31 V
0 4872 R
0 -31 V
3301 832 M
0 63 V
0 4840 R
0 -63 V
stroke
3301 572 M
[ [(Helvetica) 260.0 0.0 true true 0 (10)]
[(Helvetica) 208.0 130.0 true true 0 (-1)]
] -112.7 MCshow
1.000 UL
LTb
3817 832 M
0 31 V
0 4872 R
0 -31 V
4119 832 M
0 31 V
0 4872 R
0 -31 V
4334 832 M
0 31 V
0 4872 R
0 -31 V
4500 832 M
0 31 V
0 4872 R
0 -31 V
4636 832 M
0 31 V
0 4872 R
0 -31 V
4750 832 M
0 31 V
0 4872 R
0 -31 V
4850 832 M
0 31 V
0 4872 R
0 -31 V
4938 832 M
0 31 V
0 4872 R
0 -31 V
5016 832 M
0 63 V
0 4840 R
0 -63 V
stroke
5016 572 M
[ [(Helvetica) 260.0 0.0 true true 0 (10)]
[(Helvetica) 208.0 130.0 true true 0 (0)]
] -112.7 MCshow
1.000 UL
LTb
5532 832 M
0 31 V
0 4872 R
0 -31 V
5834 832 M
0 31 V
0 4872 R
0 -31 V
6049 832 M
0 31 V
0 4872 R
0 -31 V
6215 832 M
0 31 V
0 4872 R
0 -31 V
6351 832 M
0 31 V
0 4872 R
0 -31 V
6465 832 M
0 31 V
0 4872 R
0 -31 V
6565 832 M
0 31 V
0 4872 R
0 -31 V
6653 832 M
0 31 V
0 4872 R
0 -31 V
6731 832 M
0 63 V
0 4840 R
0 -63 V
stroke
6731 572 M
[ [(Helvetica) 260.0 0.0 true true 0 (10)]
[(Helvetica) 208.0 130.0 true true 0 (1)]
] -112.7 MCshow
1.000 UL
LTb
1.000 UL
LTb
1586 5735 N
0 -4903 V
5145 0 V
0 4903 V
-5145 0 V
Z stroke
LCb setrgbcolor
208 3283 M
currentpoint gsave translate -270 rotate 0 0 moveto
[ [(Helvetica) 260.0 0.0 true true 0 (Concentration \()]
[(Symbol) 260.0 0.0 true true 0 (m)]
[(Helvetica) 260.0 0.0 true true 0 (Ci\))]
] -86.7 MCshow
grestore
LTb
LCb setrgbcolor
4158 182 M
[ [(Helvetica) 260.0 0.0 true true 0 (Pore Volume)]
] -86.7 MCshow
LTb
1.000 UP
1689 5490 M
[ [(Helvetica) 260.0 0.0 true true 0 (\(a\))]
] -86.7 MLshow
3.000 UL
LTb
5016 832 M
0 4903 V
stroke
1.000 UL
LTb
% Begin plot #1
1.500 UP
1.000 UL
LT0
LCb setrgbcolor
2614 4598 M
[ [(Helvetica) 208.0 130.0 true true 0 (22)]
[(Helvetica) 260.0 0.0 true true 0 (Na)]
] -112.7 MRshow
LT0
3262 1038 CircleF
3290 1033 CircleF
3317 1021 CircleF
3344 1040 CircleF
3370 1048 CircleF
3395 1034 CircleF
3419 1050 CircleF
3443 1062 CircleF
3466 1072 CircleF
3489 1093 CircleF
3511 1129 CircleF
3532 1163 CircleF
3553 1206 CircleF
3574 1212 CircleF
3593 1289 CircleF
3613 1309 CircleF
3632 1408 CircleF
3650 1414 CircleF
3668 1503 CircleF
3685 1577 CircleF
3702 1644 CircleF
3719 1678 CircleF
3735 1785 CircleF
3750 1878 CircleF
3766 1929 CircleF
3781 1929 CircleF
3796 2151 CircleF
3809 2181 CircleF
3823 2230 CircleF
3837 2254 CircleF
3850 2339 CircleF
3863 2492 CircleF
3876 2442 CircleF
3889 2494 CircleF
3901 2515 CircleF
3913 2569 CircleF
3926 2632 CircleF
3938 2636 CircleF
3950 2670 CircleF
3961 2743 CircleF
3973 2830 CircleF
3985 2802 CircleF
3996 2836 CircleF
4007 2933 CircleF
4018 2840 CircleF
4028 2993 CircleF
4039 2892 CircleF
4049 2892 CircleF
4059 2993 CircleF
4069 2933 CircleF
4079 2933 CircleF
4088 2933 CircleF
4098 3074 CircleF
4106 3054 CircleF
4115 3074 CircleF
4124 3094 CircleF
4133 2973 CircleF
4142 2953 CircleF
4151 2892 CircleF
4160 2973 CircleF
4168 2953 CircleF
4177 2892 CircleF
4186 2852 CircleF
4194 2822 CircleF
4203 2872 CircleF
4211 2826 CircleF
4220 2781 CircleF
4228 2822 CircleF
4236 2749 CircleF
4244 2824 CircleF
4253 2816 CircleF
4260 2773 CircleF
4268 2715 CircleF
4276 2757 CircleF
4284 2797 CircleF
4291 2644 CircleF
4299 2745 CircleF
4306 2648 CircleF
4314 2664 CircleF
4321 2626 CircleF
4342 2630 CircleF
4363 2517 CircleF
4383 2462 CircleF
4402 2450 CircleF
4421 2373 CircleF
4441 2301 CircleF
4459 2288 CircleF
4477 2212 CircleF
4495 2216 CircleF
4512 2163 CircleF
4529 2113 CircleF
4545 2072 CircleF
4561 2024 CircleF
4577 1965 CircleF
4592 1919 CircleF
4608 1897 CircleF
4623 1876 CircleF
4637 1818 CircleF
4651 1884 CircleF
4665 1812 CircleF
4679 1743 CircleF
4692 1719 CircleF
4705 1672 CircleF
4718 1638 CircleF
4731 1614 CircleF
4744 1666 CircleF
4757 1592 CircleF
4769 1567 CircleF
4781 1622 CircleF
4793 1525 CircleF
4804 1535 CircleF
4815 1489 CircleF
4826 1450 CircleF
4837 1434 CircleF
4848 1406 CircleF
4859 1416 CircleF
4870 1383 CircleF
4881 1383 CircleF
4891 1381 CircleF
4901 1363 CircleF
4911 1327 CircleF
4921 1337 CircleF
4931 1323 CircleF
4940 1307 CircleF
4949 1309 CircleF
4959 1274 CircleF
4968 1270 CircleF
4978 1264 CircleF
4987 1248 CircleF
4996 1242 CircleF
5004 1258 CircleF
5013 1220 CircleF
5021 1212 CircleF
5030 1200 CircleF
5038 1240 CircleF
5046 1210 CircleF
5054 1218 CircleF
5062 1204 CircleF
5070 1194 CircleF
5077 1169 CircleF
5085 1181 CircleF
5092 1190 CircleF
5100 1163 CircleF
5107 1149 CircleF
5115 1141 CircleF
5122 1141 CircleF
5129 1149 CircleF
5137 1121 CircleF
5144 1123 CircleF
5151 1149 CircleF
5158 1119 CircleF
5165 1117 CircleF
5174 1107 CircleF
5183 1085 CircleF
5193 1066 CircleF
5202 1089 CircleF
5211 1072 CircleF
5219 1078 CircleF
5228 1048 CircleF
5237 1066 CircleF
5245 1046 CircleF
5254 1038 CircleF
5262 1036 CircleF
5271 1033 CircleF
5279 1042 CircleF
5287 1033 CircleF
5295 1046 CircleF
5305 1022 CircleF
5313 1025 CircleF
5318 991 CircleF
5325 996 CircleF
5333 981 CircleF
5340 969 CircleF
5347 977 CircleF
5355 981 CircleF
5362 963 CircleF
5369 980 CircleF
5377 968 CircleF
5384 979 CircleF
5390 960 CircleF
5397 986 CircleF
5402 965 CircleF
5410 967 CircleF
5417 954 CircleF
5424 967 CircleF
5431 975 CircleF
5437 956 CircleF
5444 949 CircleF
5450 955 CircleF
5456 957 CircleF
5462 953 CircleF
5469 946 CircleF
5475 967 CircleF
5481 966 CircleF
5487 947 CircleF
5493 951 CircleF
5498 951 CircleF
5504 939 CircleF
5510 944 CircleF
5516 954 CircleF
5522 930 CircleF
5528 935 CircleF
5533 942 CircleF
5539 957 CircleF
5544 921 CircleF
5550 929 CircleF
5556 929 CircleF
5561 922 CircleF
5566 930 CircleF
5571 913 CircleF
5577 925 CircleF
5582 916 CircleF
5587 924 CircleF
5593 918 CircleF
5598 910 CircleF
5604 923 CircleF
5609 945 CircleF
5614 918 CircleF
5619 921 CircleF
5624 917 CircleF
5629 949 CircleF
5634 913 CircleF
5639 915 CircleF
5645 931 CircleF
5650 919 CircleF
5654 912 CircleF
5659 916 CircleF
5664 921 CircleF
5669 922 CircleF
5674 917 CircleF
5679 908 CircleF
5683 907 CircleF
5688 914 CircleF
5693 923 CircleF
5697 913 CircleF
5702 914 CircleF
5706 910 CircleF
5711 909 CircleF
5715 903 CircleF
5720 903 CircleF
5724 903 CircleF
5728 902 CircleF
5733 906 CircleF
5737 915 CircleF
5741 903 CircleF
5745 910 CircleF
5749 921 CircleF
5753 908 CircleF
5757 908 CircleF
5761 907 CircleF
5765 911 CircleF
5770 902 CircleF
5774 898 CircleF
5778 897 CircleF
5782 906 CircleF
5786 897 CircleF
5790 911 CircleF
5794 901 CircleF
5798 897 CircleF
5802 900 CircleF
5806 902 CircleF
5810 904 CircleF
5814 902 CircleF
5818 900 CircleF
5823 902 CircleF
5825 905 CircleF
5835 913 CircleF
5840 894 CircleF
5843 907 CircleF
5847 896 CircleF
5851 917 CircleF
5855 907 CircleF
5859 928 CircleF
5862 895 CircleF
5865 902 CircleF
5868 902 CircleF
5871 902 CircleF
5873 900 CircleF
5876 905 CircleF
5879 898 CircleF
5882 901 CircleF
5885 905 CircleF
5887 928 CircleF
5890 907 CircleF
5893 914 CircleF
5896 909 CircleF
5898 914 CircleF
5901 914 CircleF
5903 931 CircleF
5906 902 CircleF
5909 911 CircleF
5911 902 CircleF
5914 936 CircleF
5916 897 CircleF
5919 902 CircleF
5921 891 CircleF
5924 893 CircleF
5926 907 CircleF
5929 903 CircleF
5931 901 CircleF
5934 895 CircleF
5936 904 CircleF
5938 895 CircleF
5941 894 CircleF
5943 896 CircleF
5946 896 CircleF
5948 889 CircleF
5950 898 CircleF
5953 900 CircleF
5955 897 CircleF
5957 889 CircleF
5959 894 CircleF
5962 895 CircleF
5964 898 CircleF
5966 896 CircleF
5969 892 CircleF
5970 906 CircleF
5972 905 CircleF
5974 899 CircleF
5976 888 CircleF
5979 892 CircleF
5981 890 CircleF
5985 891 CircleF
5988 898 CircleF
5990 892 CircleF
5992 887 CircleF
5995 890 CircleF
5997 887 CircleF
2957 4598 CircleF
% End plot #1
% Begin plot #2
1.500 UP
1.000 UL
LT1
LCb setrgbcolor
2614 4286 M
[ [(Helvetica) 208.0 130.0 true true 0 (232)]
[(Helvetica) 260.0 0.0 true true 0 (U)]
] -112.7 MRshow
LT1
1964 854 Circle
2235 854 Circle
2437 854 Circle
2597 854 Circle
2728 853 Circle
2841 853 Circle
2939 853 Circle
3025 852 Circle
3103 853 Circle
3171 853 Circle
3232 852 Circle
3290 853 Circle
3344 854 Circle
3395 855 Circle
3443 854 Circle
3489 862 Circle
3532 867 Circle
3574 876 Circle
3613 884 Circle
3650 897 Circle
3685 913 Circle
3719 926 Circle
3750 938 Circle
3781 955 Circle
3809 973 Circle
3837 984 Circle
3863 1011 Circle
3889 1023 Circle
3913 1044 Circle
3938 1066 Circle
3961 1105 Circle
3985 1137 Circle
4007 1169 Circle
4028 1212 Circle
4049 1222 Circle
4069 1321 Circle
4088 1357 Circle
4106 1428 Circle
4124 1486 Circle
4142 1519 Circle
4160 1585 Circle
4177 1642 Circle
4194 1767 Circle
4211 1830 Circle
4228 1919 Circle
4244 2032 Circle
4260 2070 Circle
4299 2282 Circle
4335 2511 Circle
4369 2640 Circle
4402 2791 Circle
4434 3014 Circle
4465 3216 Circle
4495 3438 Circle
4523 3660 Circle
4550 3721 Circle
4577 3902 Circle
4603 4064 Circle
4628 4084 Circle
4651 4145 Circle
4674 4306 Circle
4696 4468 Circle
4718 4448 Circle
4740 4569 Circle
4761 4630 Circle
4781 4367 Circle
4800 4872 Circle
4819 4670 Circle
4837 4912 Circle
4856 4953 Circle
4874 4953 Circle
4891 5013 Circle
4908 5135 Circle
4924 4912 Circle
4940 4912 Circle
4956 4912 Circle
4972 4912 Circle
4987 4892 Circle
5001 5074 Circle
5016 4892 Circle
5030 5094 Circle
5043 5195 Circle
5057 5316 Circle
5070 5195 Circle
5082 5377 Circle
5095 5175 Circle
5107 5357 Circle
5132 5276 Circle
5156 5054 Circle
5179 5236 Circle
5202 5054 Circle
5224 4973 Circle
5245 4933 Circle
5266 4872 Circle
5287 4832 Circle
5305 4710 Circle
5322 4872 Circle
5340 4609 Circle
5358 4710 Circle
5377 4569 Circle
5394 4589 Circle
5410 4468 Circle
5427 4367 Circle
5444 4246 Circle
5459 4468 Circle
5475 4246 Circle
5490 4226 Circle
5504 4165 Circle
5519 4165 Circle
5533 4064 Circle
5547 3943 Circle
5561 3801 Circle
5574 3943 Circle
5587 3882 Circle
5601 3700 Circle
5614 3660 Circle
5626 3640 Circle
5639 3539 Circle
5652 3438 Circle
5664 3337 Circle
5676 3397 Circle
5688 3216 Circle
5694 3256 Circle
5699 3296 Circle
5705 3195 Circle
5711 3195 Circle
5716 3155 Circle
5722 3155 Circle
5727 3175 Circle
5733 3175 Circle
5738 3216 Circle
5743 3216 Circle
5748 3135 Circle
5753 3135 Circle
5758 3135 Circle
5763 3115 Circle
5769 3014 Circle
5774 3034 Circle
5779 2953 Circle
5784 2993 Circle
5789 2913 Circle
5794 2953 Circle
5799 2828 Circle
5804 2872 Circle
5809 2810 Circle
5814 2789 Circle
5819 2789 Circle
5823 2844 Circle
5828 2872 Circle
5832 2872 Circle
5835 2797 Circle
5841 2826 Circle
5844 2749 Circle
5849 2729 Circle
5854 2735 Circle
5860 2795 Circle
5863 2749 Circle
5872 2741 Circle
5881 2717 Circle
5890 2676 Circle
5899 2593 Circle
5908 2595 Circle
5916 2529 Circle
5925 2632 Circle
5933 2688 Circle
5941 2608 Circle
5949 2598 Circle
5957 2537 Circle
5964 2539 Circle
5971 2567 Circle
5978 2555 Circle
5985 2511 Circle
5993 2513 Circle
5997 2529 Circle
2957 4286 Circle
% End plot #2
1.000 UL
LTb
1586 5735 N
0 -4903 V
5145 0 V
0 4903 V
-5145 0 V
Z stroke
1.000 UP
1.000 UL
LTb
stroke
grestore
end
showpage
%%Trailer
%%DocumentFonts: Symbol Helvetica
