%!PS-Adobe-2.0 EPSF-2.0
%%Title: B4_22Na_logn0b.eps
%%Creator: gnuplot 4.2 patchlevel 6 
%%CreationDate: Thu Aug  4 15:36:05 2011
%%DocumentFonts: (atend)
%%BoundingBox: 50 50 410 352
%%EndComments
%%BeginProlog
/gnudict 256 dict def
gnudict begin
%
% The following 6 true/false flags may be edited by hand if required
% The unit line width may also be changed
%
/Color false def
/Blacktext false def
/Solid false def
/Dashlength 1 def
/Landscape false def
/Level1 false def
/Rounded false def
/TransparentPatterns false def
/gnulinewidth 5.000 def
/userlinewidth gnulinewidth def
%
/vshift -86 def
/dl1 {
  10.0 Dashlength mul mul
  Rounded { currentlinewidth 0.75 mul sub dup 0 le { pop 0.01 } if } if
} def
/dl2 {
  10.0 Dashlength mul mul
  Rounded { currentlinewidth 0.75 mul add } if
} def
/hpt_ 31.5 def
/vpt_ 31.5 def
/hpt hpt_ def
/vpt vpt_ def
Level1 {} {
/SDict 10 dict def
systemdict /pdfmark known not {
  userdict /pdfmark systemdict /cleartomark get put
} if
SDict begin [
  /Title (B4_22Na_logn0b.eps)
  /Subject (gnuplot plot)
  /Creator (gnuplot 4.2 patchlevel 6 )
  /Author (Bwalya Malama,,,)
%  /Producer (gnuplot)
%  /Keywords ()
  /CreationDate (Thu Aug  4 15:36:05 2011)
  /DOCINFO pdfmark
end
} ifelse
%
% Gnuplot Prolog Version 4.2 (August 2006)
%
/M {moveto} bind def
/L {lineto} bind def
/R {rmoveto} bind def
/V {rlineto} bind def
/N {newpath moveto} bind def
/Z {closepath} bind def
/C {setrgbcolor} bind def
/f {rlineto fill} bind def
/vpt2 vpt 2 mul def
/hpt2 hpt 2 mul def
/Lshow {currentpoint stroke M 0 vshift R 
	Blacktext {gsave 0 setgray show grestore} {show} ifelse} def
/Rshow {currentpoint stroke M dup stringwidth pop neg vshift R
	Blacktext {gsave 0 setgray show grestore} {show} ifelse} def
/Cshow {currentpoint stroke M dup stringwidth pop -2 div vshift R 
	Blacktext {gsave 0 setgray show grestore} {show} ifelse} def
/UP {dup vpt_ mul /vpt exch def hpt_ mul /hpt exch def
  /hpt2 hpt 2 mul def /vpt2 vpt 2 mul def} def
/DL {Color {setrgbcolor Solid {pop []} if 0 setdash}
 {pop pop pop 0 setgray Solid {pop []} if 0 setdash} ifelse} def
/BL {stroke userlinewidth 2 mul setlinewidth
	Rounded {1 setlinejoin 1 setlinecap} if} def
/AL {stroke userlinewidth 2 div setlinewidth
	Rounded {1 setlinejoin 1 setlinecap} if} def
/UL {dup gnulinewidth mul /userlinewidth exch def
	dup 1 lt {pop 1} if 10 mul /udl exch def} def
/PL {stroke userlinewidth setlinewidth
	Rounded {1 setlinejoin 1 setlinecap} if} def
% Default Line colors
/LCw {1 1 1} def
/LCb {0 0 0} def
/LCa {0 0 0} def
/LC0 {1 0 0} def
/LC1 {0 1 0} def
/LC2 {0 0 1} def
/LC3 {1 0 1} def
/LC4 {0 1 1} def
/LC5 {1 1 0} def
/LC6 {0 0 0} def
/LC7 {1 0.3 0} def
/LC8 {0.5 0.5 0.5} def
% Default Line Types
/LTw {PL [] 1 setgray} def
/LTb {BL [] LCb DL} def
/LTa {AL [1 udl mul 2 udl mul] 0 setdash LCa setrgbcolor} def
/LT0 {PL [] LC0 DL} def
/LT1 {PL [4 dl1 2 dl2] LC1 DL} def
/LT2 {PL [2 dl1 3 dl2] LC2 DL} def
/LT3 {PL [1 dl1 1.5 dl2] LC3 DL} def
/LT4 {PL [6 dl1 2 dl2 1 dl1 2 dl2] LC4 DL} def
/LT5 {PL [3 dl1 3 dl2 1 dl1 3 dl2] LC5 DL} def
/LT6 {PL [2 dl1 2 dl2 2 dl1 6 dl2] LC6 DL} def
/LT7 {PL [1 dl1 2 dl2 6 dl1 2 dl2 1 dl1 2 dl2] LC7 DL} def
/LT8 {PL [2 dl1 2 dl2 2 dl1 2 dl2 2 dl1 2 dl2 2 dl1 4 dl2] LC8 DL} def
/Pnt {stroke [] 0 setdash gsave 1 setlinecap M 0 0 V stroke grestore} def
/Dia {stroke [] 0 setdash 2 copy vpt add M
  hpt neg vpt neg V hpt vpt neg V
  hpt vpt V hpt neg vpt V closepath stroke
  Pnt} def
/Pls {stroke [] 0 setdash vpt sub M 0 vpt2 V
  currentpoint stroke M
  hpt neg vpt neg R hpt2 0 V stroke
 } def
/Box {stroke [] 0 setdash 2 copy exch hpt sub exch vpt add M
  0 vpt2 neg V hpt2 0 V 0 vpt2 V
  hpt2 neg 0 V closepath stroke
  Pnt} def
/Crs {stroke [] 0 setdash exch hpt sub exch vpt add M
  hpt2 vpt2 neg V currentpoint stroke M
  hpt2 neg 0 R hpt2 vpt2 V stroke} def
/TriU {stroke [] 0 setdash 2 copy vpt 1.12 mul add M
  hpt neg vpt -1.62 mul V
  hpt 2 mul 0 V
  hpt neg vpt 1.62 mul V closepath stroke
  Pnt} def
/Star {2 copy Pls Crs} def
/BoxF {stroke [] 0 setdash exch hpt sub exch vpt add M
  0 vpt2 neg V hpt2 0 V 0 vpt2 V
  hpt2 neg 0 V closepath fill} def
/TriUF {stroke [] 0 setdash vpt 1.12 mul add M
  hpt neg vpt -1.62 mul V
  hpt 2 mul 0 V
  hpt neg vpt 1.62 mul V closepath fill} def
/TriD {stroke [] 0 setdash 2 copy vpt 1.12 mul sub M
  hpt neg vpt 1.62 mul V
  hpt 2 mul 0 V
  hpt neg vpt -1.62 mul V closepath stroke
  Pnt} def
/TriDF {stroke [] 0 setdash vpt 1.12 mul sub M
  hpt neg vpt 1.62 mul V
  hpt 2 mul 0 V
  hpt neg vpt -1.62 mul V closepath fill} def
/DiaF {stroke [] 0 setdash vpt add M
  hpt neg vpt neg V hpt vpt neg V
  hpt vpt V hpt neg vpt V closepath fill} def
/Pent {stroke [] 0 setdash 2 copy gsave
  translate 0 hpt M 4 {72 rotate 0 hpt L} repeat
  closepath stroke grestore Pnt} def
/PentF {stroke [] 0 setdash gsave
  translate 0 hpt M 4 {72 rotate 0 hpt L} repeat
  closepath fill grestore} def
/Circle {stroke [] 0 setdash 2 copy
  hpt 0 360 arc stroke Pnt} def
/CircleF {stroke [] 0 setdash hpt 0 360 arc fill} def
/C0 {BL [] 0 setdash 2 copy moveto vpt 90 450 arc} bind def
/C1 {BL [] 0 setdash 2 copy moveto
	2 copy vpt 0 90 arc closepath fill
	vpt 0 360 arc closepath} bind def
/C2 {BL [] 0 setdash 2 copy moveto
	2 copy vpt 90 180 arc closepath fill
	vpt 0 360 arc closepath} bind def
/C3 {BL [] 0 setdash 2 copy moveto
	2 copy vpt 0 180 arc closepath fill
	vpt 0 360 arc closepath} bind def
/C4 {BL [] 0 setdash 2 copy moveto
	2 copy vpt 180 270 arc closepath fill
	vpt 0 360 arc closepath} bind def
/C5 {BL [] 0 setdash 2 copy moveto
	2 copy vpt 0 90 arc
	2 copy moveto
	2 copy vpt 180 270 arc closepath fill
	vpt 0 360 arc} bind def
/C6 {BL [] 0 setdash 2 copy moveto
	2 copy vpt 90 270 arc closepath fill
	vpt 0 360 arc closepath} bind def
/C7 {BL [] 0 setdash 2 copy moveto
	2 copy vpt 0 270 arc closepath fill
	vpt 0 360 arc closepath} bind def
/C8 {BL [] 0 setdash 2 copy moveto
	2 copy vpt 270 360 arc closepath fill
	vpt 0 360 arc closepath} bind def
/C9 {BL [] 0 setdash 2 copy moveto
	2 copy vpt 270 450 arc closepath fill
	vpt 0 360 arc closepath} bind def
/C10 {BL [] 0 setdash 2 copy 2 copy moveto vpt 270 360 arc closepath fill
	2 copy moveto
	2 copy vpt 90 180 arc closepath fill
	vpt 0 360 arc closepath} bind def
/C11 {BL [] 0 setdash 2 copy moveto
	2 copy vpt 0 180 arc closepath fill
	2 copy moveto
	2 copy vpt 270 360 arc closepath fill
	vpt 0 360 arc closepath} bind def
/C12 {BL [] 0 setdash 2 copy moveto
	2 copy vpt 180 360 arc closepath fill
	vpt 0 360 arc closepath} bind def
/C13 {BL [] 0 setdash 2 copy moveto
	2 copy vpt 0 90 arc closepath fill
	2 copy moveto
	2 copy vpt 180 360 arc closepath fill
	vpt 0 360 arc closepath} bind def
/C14 {BL [] 0 setdash 2 copy moveto
	2 copy vpt 90 360 arc closepath fill
	vpt 0 360 arc} bind def
/C15 {BL [] 0 setdash 2 copy vpt 0 360 arc closepath fill
	vpt 0 360 arc closepath} bind def
/Rec {newpath 4 2 roll moveto 1 index 0 rlineto 0 exch rlineto
	neg 0 rlineto closepath} bind def
/Square {dup Rec} bind def
/Bsquare {vpt sub exch vpt sub exch vpt2 Square} bind def
/S0 {BL [] 0 setdash 2 copy moveto 0 vpt rlineto BL Bsquare} bind def
/S1 {BL [] 0 setdash 2 copy vpt Square fill Bsquare} bind def
/S2 {BL [] 0 setdash 2 copy exch vpt sub exch vpt Square fill Bsquare} bind def
/S3 {BL [] 0 setdash 2 copy exch vpt sub exch vpt2 vpt Rec fill Bsquare} bind def
/S4 {BL [] 0 setdash 2 copy exch vpt sub exch vpt sub vpt Square fill Bsquare} bind def
/S5 {BL [] 0 setdash 2 copy 2 copy vpt Square fill
	exch vpt sub exch vpt sub vpt Square fill Bsquare} bind def
/S6 {BL [] 0 setdash 2 copy exch vpt sub exch vpt sub vpt vpt2 Rec fill Bsquare} bind def
/S7 {BL [] 0 setdash 2 copy exch vpt sub exch vpt sub vpt vpt2 Rec fill
	2 copy vpt Square fill Bsquare} bind def
/S8 {BL [] 0 setdash 2 copy vpt sub vpt Square fill Bsquare} bind def
/S9 {BL [] 0 setdash 2 copy vpt sub vpt vpt2 Rec fill Bsquare} bind def
/S10 {BL [] 0 setdash 2 copy vpt sub vpt Square fill 2 copy exch vpt sub exch vpt Square fill
	Bsquare} bind def
/S11 {BL [] 0 setdash 2 copy vpt sub vpt Square fill 2 copy exch vpt sub exch vpt2 vpt Rec fill
	Bsquare} bind def
/S12 {BL [] 0 setdash 2 copy exch vpt sub exch vpt sub vpt2 vpt Rec fill Bsquare} bind def
/S13 {BL [] 0 setdash 2 copy exch vpt sub exch vpt sub vpt2 vpt Rec fill
	2 copy vpt Square fill Bsquare} bind def
/S14 {BL [] 0 setdash 2 copy exch vpt sub exch vpt sub vpt2 vpt Rec fill
	2 copy exch vpt sub exch vpt Square fill Bsquare} bind def
/S15 {BL [] 0 setdash 2 copy Bsquare fill Bsquare} bind def
/D0 {gsave translate 45 rotate 0 0 S0 stroke grestore} bind def
/D1 {gsave translate 45 rotate 0 0 S1 stroke grestore} bind def
/D2 {gsave translate 45 rotate 0 0 S2 stroke grestore} bind def
/D3 {gsave translate 45 rotate 0 0 S3 stroke grestore} bind def
/D4 {gsave translate 45 rotate 0 0 S4 stroke grestore} bind def
/D5 {gsave translate 45 rotate 0 0 S5 stroke grestore} bind def
/D6 {gsave translate 45 rotate 0 0 S6 stroke grestore} bind def
/D7 {gsave translate 45 rotate 0 0 S7 stroke grestore} bind def
/D8 {gsave translate 45 rotate 0 0 S8 stroke grestore} bind def
/D9 {gsave translate 45 rotate 0 0 S9 stroke grestore} bind def
/D10 {gsave translate 45 rotate 0 0 S10 stroke grestore} bind def
/D11 {gsave translate 45 rotate 0 0 S11 stroke grestore} bind def
/D12 {gsave translate 45 rotate 0 0 S12 stroke grestore} bind def
/D13 {gsave translate 45 rotate 0 0 S13 stroke grestore} bind def
/D14 {gsave translate 45 rotate 0 0 S14 stroke grestore} bind def
/D15 {gsave translate 45 rotate 0 0 S15 stroke grestore} bind def
/DiaE {stroke [] 0 setdash vpt add M
  hpt neg vpt neg V hpt vpt neg V
  hpt vpt V hpt neg vpt V closepath stroke} def
/BoxE {stroke [] 0 setdash exch hpt sub exch vpt add M
  0 vpt2 neg V hpt2 0 V 0 vpt2 V
  hpt2 neg 0 V closepath stroke} def
/TriUE {stroke [] 0 setdash vpt 1.12 mul add M
  hpt neg vpt -1.62 mul V
  hpt 2 mul 0 V
  hpt neg vpt 1.62 mul V closepath stroke} def
/TriDE {stroke [] 0 setdash vpt 1.12 mul sub M
  hpt neg vpt 1.62 mul V
  hpt 2 mul 0 V
  hpt neg vpt -1.62 mul V closepath stroke} def
/PentE {stroke [] 0 setdash gsave
  translate 0 hpt M 4 {72 rotate 0 hpt L} repeat
  closepath stroke grestore} def
/CircE {stroke [] 0 setdash 
  hpt 0 360 arc stroke} def
/Opaque {gsave closepath 1 setgray fill grestore 0 setgray closepath} def
/DiaW {stroke [] 0 setdash vpt add M
  hpt neg vpt neg V hpt vpt neg V
  hpt vpt V hpt neg vpt V Opaque stroke} def
/BoxW {stroke [] 0 setdash exch hpt sub exch vpt add M
  0 vpt2 neg V hpt2 0 V 0 vpt2 V
  hpt2 neg 0 V Opaque stroke} def
/TriUW {stroke [] 0 setdash vpt 1.12 mul add M
  hpt neg vpt -1.62 mul V
  hpt 2 mul 0 V
  hpt neg vpt 1.62 mul V Opaque stroke} def
/TriDW {stroke [] 0 setdash vpt 1.12 mul sub M
  hpt neg vpt 1.62 mul V
  hpt 2 mul 0 V
  hpt neg vpt -1.62 mul V Opaque stroke} def
/PentW {stroke [] 0 setdash gsave
  translate 0 hpt M 4 {72 rotate 0 hpt L} repeat
  Opaque stroke grestore} def
/CircW {stroke [] 0 setdash 
  hpt 0 360 arc Opaque stroke} def
/BoxFill {gsave Rec 1 setgray fill grestore} def
/Density {
  /Fillden exch def
  currentrgbcolor
  /ColB exch def /ColG exch def /ColR exch def
  /ColR ColR Fillden mul Fillden sub 1 add def
  /ColG ColG Fillden mul Fillden sub 1 add def
  /ColB ColB Fillden mul Fillden sub 1 add def
  ColR ColG ColB setrgbcolor} def
/BoxColFill {gsave Rec PolyFill} def
/PolyFill {gsave Density fill grestore grestore} def
/h {rlineto rlineto rlineto gsave closepath fill grestore} bind def
%
% PostScript Level 1 Pattern Fill routine for rectangles
% Usage: x y w h s a XX PatternFill
%	x,y = lower left corner of box to be filled
%	w,h = width and height of box
%	  a = angle in degrees between lines and x-axis
%	 XX = 0/1 for no/yes cross-hatch
%
/PatternFill {gsave /PFa [ 9 2 roll ] def
  PFa 0 get PFa 2 get 2 div add PFa 1 get PFa 3 get 2 div add translate
  PFa 2 get -2 div PFa 3 get -2 div PFa 2 get PFa 3 get Rec
  gsave 1 setgray fill grestore clip
  currentlinewidth 0.5 mul setlinewidth
  /PFs PFa 2 get dup mul PFa 3 get dup mul add sqrt def
  0 0 M PFa 5 get rotate PFs -2 div dup translate
  0 1 PFs PFa 4 get div 1 add floor cvi
	{PFa 4 get mul 0 M 0 PFs V} for
  0 PFa 6 get ne {
	0 1 PFs PFa 4 get div 1 add floor cvi
	{PFa 4 get mul 0 2 1 roll M PFs 0 V} for
 } if
  stroke grestore} def
%
/languagelevel where
 {pop languagelevel} {1} ifelse
 2 lt
	{/InterpretLevel1 true def}
	{/InterpretLevel1 Level1 def}
 ifelse
%
% PostScript level 2 pattern fill definitions
%
/Level2PatternFill {
/Tile8x8 {/PaintType 2 /PatternType 1 /TilingType 1 /BBox [0 0 8 8] /XStep 8 /YStep 8}
	bind def
/KeepColor {currentrgbcolor [/Pattern /DeviceRGB] setcolorspace} bind def
<< Tile8x8
 /PaintProc {0.5 setlinewidth pop 0 0 M 8 8 L 0 8 M 8 0 L stroke} 
>> matrix makepattern
/Pat1 exch def
<< Tile8x8
 /PaintProc {0.5 setlinewidth pop 0 0 M 8 8 L 0 8 M 8 0 L stroke
	0 4 M 4 8 L 8 4 L 4 0 L 0 4 L stroke}
>> matrix makepattern
/Pat2 exch def
<< Tile8x8
 /PaintProc {0.5 setlinewidth pop 0 0 M 0 8 L
	8 8 L 8 0 L 0 0 L fill}
>> matrix makepattern
/Pat3 exch def
<< Tile8x8
 /PaintProc {0.5 setlinewidth pop -4 8 M 8 -4 L
	0 12 M 12 0 L stroke}
>> matrix makepattern
/Pat4 exch def
<< Tile8x8
 /PaintProc {0.5 setlinewidth pop -4 0 M 8 12 L
	0 -4 M 12 8 L stroke}
>> matrix makepattern
/Pat5 exch def
<< Tile8x8
 /PaintProc {0.5 setlinewidth pop -2 8 M 4 -4 L
	0 12 M 8 -4 L 4 12 M 10 0 L stroke}
>> matrix makepattern
/Pat6 exch def
<< Tile8x8
 /PaintProc {0.5 setlinewidth pop -2 0 M 4 12 L
	0 -4 M 8 12 L 4 -4 M 10 8 L stroke}
>> matrix makepattern
/Pat7 exch def
<< Tile8x8
 /PaintProc {0.5 setlinewidth pop 8 -2 M -4 4 L
	12 0 M -4 8 L 12 4 M 0 10 L stroke}
>> matrix makepattern
/Pat8 exch def
<< Tile8x8
 /PaintProc {0.5 setlinewidth pop 0 -2 M 12 4 L
	-4 0 M 12 8 L -4 4 M 8 10 L stroke}
>> matrix makepattern
/Pat9 exch def
/Pattern1 {PatternBgnd KeepColor Pat1 setpattern} bind def
/Pattern2 {PatternBgnd KeepColor Pat2 setpattern} bind def
/Pattern3 {PatternBgnd KeepColor Pat3 setpattern} bind def
/Pattern4 {PatternBgnd KeepColor Landscape {Pat5} {Pat4} ifelse setpattern} bind def
/Pattern5 {PatternBgnd KeepColor Landscape {Pat4} {Pat5} ifelse setpattern} bind def
/Pattern6 {PatternBgnd KeepColor Landscape {Pat9} {Pat6} ifelse setpattern} bind def
/Pattern7 {PatternBgnd KeepColor Landscape {Pat8} {Pat7} ifelse setpattern} bind def
} def
%
%
%End of PostScript Level 2 code
%
/PatternBgnd {
  TransparentPatterns {} {gsave 1 setgray fill grestore} ifelse
} def
%
% Substitute for Level 2 pattern fill codes with
% grayscale if Level 2 support is not selected.
%
/Level1PatternFill {
/Pattern1 {0.250 Density} bind def
/Pattern2 {0.500 Density} bind def
/Pattern3 {0.750 Density} bind def
/Pattern4 {0.125 Density} bind def
/Pattern5 {0.375 Density} bind def
/Pattern6 {0.625 Density} bind def
/Pattern7 {0.875 Density} bind def
} def
%
% Now test for support of Level 2 code
%
Level1 {Level1PatternFill} {Level2PatternFill} ifelse
%
/Symbol-Oblique /Symbol findfont [1 0 .167 1 0 0] makefont
dup length dict begin {1 index /FID eq {pop pop} {def} ifelse} forall
currentdict end definefont pop
/MFshow {
   { dup 5 get 3 ge
     { 5 get 3 eq {gsave} {grestore} ifelse }
     {dup dup 0 get findfont exch 1 get scalefont setfont
     [ currentpoint ] exch dup 2 get 0 exch R dup 5 get 2 ne {dup dup 6
     get exch 4 get {show} {stringwidth pop 0 R} ifelse }if dup 5 get 0 eq
     {dup 3 get {2 get neg 0 exch R pop} {pop aload pop M} ifelse} {dup 5
     get 1 eq {dup 2 get exch dup 3 get exch 6 get stringwidth pop -2 div
     dup 0 R} {dup 6 get stringwidth pop -2 div 0 R 6 get
     show 2 index {aload pop M neg 3 -1 roll neg R pop pop} {pop pop pop
     pop aload pop M} ifelse }ifelse }ifelse }
     ifelse }
   forall} bind def
/MFwidth {0 exch { dup 5 get 3 ge { 5 get 3 eq { 0 } { pop } ifelse }
 {dup 3 get{dup dup 0 get findfont exch 1 get scalefont setfont
     6 get stringwidth pop add} {pop} ifelse} ifelse} forall} bind def
/MLshow { currentpoint stroke M
  0 exch R
  Blacktext {gsave 0 setgray MFshow grestore} {MFshow} ifelse } bind def
/MRshow { currentpoint stroke M
  exch dup MFwidth neg 3 -1 roll R
  Blacktext {gsave 0 setgray MFshow grestore} {MFshow} ifelse } bind def
/MCshow { currentpoint stroke M
  exch dup MFwidth -2 div 3 -1 roll R
  Blacktext {gsave 0 setgray MFshow grestore} {MFshow} ifelse } bind def
/XYsave    { [( ) 1 2 true false 3 ()] } bind def
/XYrestore { [( ) 1 2 true false 4 ()] } bind def
end
%%EndProlog
gnudict begin
gsave
50 50 translate
0.050 0.050 scale
0 setgray
newpath
(Helvetica) findfont 260 scalefont setfont
1.000 UL
LTb
1430 832 M
63 0 V
5317 0 R
-63 0 V
stroke
1274 832 M
[ [(Helvetica) 260.0 0.0 true true 0 (10)]
[(Helvetica) 208.0 130.0 true true 0 (-4)]
] -112.7 MRshow
1.000 UL
LTb
1430 1257 M
31 0 V
5349 0 R
-31 0 V
1430 1505 M
31 0 V
5349 0 R
-31 0 V
1430 1681 M
31 0 V
5349 0 R
-31 0 V
1430 1818 M
31 0 V
5349 0 R
-31 0 V
1430 1929 M
31 0 V
5349 0 R
-31 0 V
-5349 95 R
31 0 V
5349 0 R
-31 0 V
-5349 82 R
31 0 V
5349 0 R
-31 0 V
-5349 72 R
31 0 V
5349 0 R
-31 0 V
-5349 64 R
63 0 V
5317 0 R
-63 0 V
stroke
1274 2242 M
[ [(Helvetica) 260.0 0.0 true true 0 (10)]
[(Helvetica) 208.0 130.0 true true 0 (-3)]
] -112.7 MRshow
1.000 UL
LTb
1430 2667 M
31 0 V
5349 0 R
-31 0 V
1430 2915 M
31 0 V
5349 0 R
-31 0 V
1430 3091 M
31 0 V
5349 0 R
-31 0 V
1430 3228 M
31 0 V
5349 0 R
-31 0 V
1430 3340 M
31 0 V
5349 0 R
-31 0 V
-5349 94 R
31 0 V
5349 0 R
-31 0 V
-5349 82 R
31 0 V
5349 0 R
-31 0 V
-5349 72 R
31 0 V
5349 0 R
-31 0 V
-5349 65 R
63 0 V
5317 0 R
-63 0 V
stroke
1274 3653 M
[ [(Helvetica) 260.0 0.0 true true 0 (10)]
[(Helvetica) 208.0 130.0 true true 0 (-2)]
] -112.7 MRshow
1.000 UL
LTb
1430 4077 M
31 0 V
5349 0 R
-31 0 V
1430 4326 M
31 0 V
5349 0 R
-31 0 V
1430 4502 M
31 0 V
5349 0 R
-31 0 V
1430 4639 M
31 0 V
5349 0 R
-31 0 V
1430 4750 M
31 0 V
5349 0 R
-31 0 V
-5349 95 R
31 0 V
5349 0 R
-31 0 V
-5349 81 R
31 0 V
5349 0 R
-31 0 V
-5349 73 R
31 0 V
5349 0 R
-31 0 V
-5349 64 R
63 0 V
5317 0 R
-63 0 V
stroke
1274 5063 M
[ [(Helvetica) 260.0 0.0 true true 0 (10)]
[(Helvetica) 208.0 130.0 true true 0 (-1)]
] -112.7 MRshow
1.000 UL
LTb
1430 5488 M
31 0 V
5349 0 R
-31 0 V
1430 5736 M
31 0 V
5349 0 R
-31 0 V
1430 832 M
0 31 V
0 4873 R
0 -31 V
1696 832 M
0 31 V
0 4873 R
0 -31 V
1903 832 M
0 31 V
0 4873 R
0 -31 V
2072 832 M
0 31 V
0 4873 R
0 -31 V
2215 832 M
0 31 V
0 4873 R
0 -31 V
2338 832 M
0 31 V
0 4873 R
0 -31 V
2447 832 M
0 31 V
0 4873 R
0 -31 V
2545 832 M
0 63 V
0 4841 R
0 -63 V
stroke
2545 572 M
[ [(Helvetica) 260.0 0.0 true true 0 (10)]
[(Helvetica) 208.0 130.0 true true 0 (5)]
] -112.7 MCshow
1.000 UL
LTb
3187 832 M
0 31 V
0 4873 R
0 -31 V
3562 832 M
0 31 V
0 4873 R
0 -31 V
3829 832 M
0 31 V
0 4873 R
0 -31 V
4036 832 M
0 31 V
0 4873 R
0 -31 V
4204 832 M
0 31 V
0 4873 R
0 -31 V
4347 832 M
0 31 V
0 4873 R
0 -31 V
4471 832 M
0 31 V
0 4873 R
0 -31 V
4580 832 M
0 31 V
0 4873 R
0 -31 V
4678 832 M
0 63 V
0 4841 R
0 -63 V
stroke
4678 572 M
[ [(Helvetica) 260.0 0.0 true true 0 (10)]
[(Helvetica) 208.0 130.0 true true 0 (6)]
] -112.7 MCshow
1.000 UL
LTb
5319 832 M
0 31 V
0 4873 R
0 -31 V
5695 832 M
0 31 V
0 4873 R
0 -31 V
5961 832 M
0 31 V
0 4873 R
0 -31 V
6168 832 M
0 31 V
0 4873 R
0 -31 V
6337 832 M
0 31 V
0 4873 R
0 -31 V
6480 832 M
0 31 V
0 4873 R
0 -31 V
6603 832 M
0 31 V
0 4873 R
0 -31 V
6712 832 M
0 31 V
0 4873 R
0 -31 V
6810 832 M
0 63 V
0 4841 R
0 -63 V
stroke
6810 572 M
[ [(Helvetica) 260.0 0.0 true true 0 (10)]
[(Helvetica) 208.0 130.0 true true 0 (7)]
] -112.7 MCshow
1.000 UL
LTb
1.000 UL
LTb
1430 5736 N
0 -4904 V
5380 0 V
0 4904 V
-5380 0 V
Z stroke
LCb setrgbcolor
520 3284 M
currentpoint gsave translate 90 rotate 0 0 moveto
[ [(Helvetica) 260.0 0.0 true true 0 (c \()]
[(Symbol) 260.0 0.0 true true 0 (m)]
[(Helvetica) 260.0 0.0 true true 0 (Ci/ml\))]
] -86.7 MCshow
grestore
LTb
LCb setrgbcolor
4120 182 M
[ [(Helvetica) 260.0 0.0 true true 0 (t \(seconds\))]
] -86.7 MCshow
LTb
1.000 UP
1538 5491 M
[ [(Helvetica) 260.0 0.0 true true 0 (\(b\) test B4)]
] -86.7 MLshow
1.000 UL
LTb
1.300 UP
1.000 UL
LT0
LTb
4550 1987 M
[ [(Helvetica) 260.0 0.0 true true 0 (data)]
] -86.7 MRshow
LT0
1473 1555 Circle
1549 1523 Circle
1619 1452 Circle
1684 1487 Circle
1746 1449 Circle
1803 1513 Circle
1858 1525 Circle
1909 1509 Circle
1959 1500 Circle
2005 1494 Circle
2049 1517 Circle
2092 1358 Circle
2134 1545 Circle
2173 1481 Circle
2211 1440 Circle
2248 1487 Circle
2284 1467 Circle
2318 1607 Circle
2352 1541 Circle
2383 1707 Circle
2414 1502 Circle
2444 1576 Circle
2473 1541 Circle
2501 1519 Circle
2528 1626 Circle
2554 1801 Circle
2579 1847 Circle
2603 1956 Circle
2627 2068 Circle
2650 2220 Circle
2672 2302 Circle
2693 2357 Circle
2714 2475 Circle
2735 2631 Circle
2773 2829 Circle
2819 3040 Circle
2854 3187 Circle
2889 3322 Circle
2908 3403 Circle
2943 3529 Circle
2977 3657 Circle
3010 3751 Circle
3042 3850 Circle
3072 3903 Circle
3102 4017 Circle
3116 4095 Circle
3144 4165 Circle
3171 4310 Circle
3183 4254 Circle
3220 4350 Circle
3256 4398 Circle
3291 4469 Circle
3326 4501 Circle
3359 4611 Circle
3381 4637 Circle
3411 4691 Circle
3441 4731 Circle
3469 4760 Circle
3497 4769 Circle
3523 4811 Circle
3549 4883 Circle
3574 4895 Circle
3598 4900 Circle
3623 4927 Circle
3647 4938 Circle
3670 4971 Circle
3692 5006 Circle
3713 4976 Circle
3734 5032 Circle
3754 5035 Circle
3775 5027 Circle
3795 5036 Circle
3815 5058 Circle
3853 5059 Circle
3871 5093 Circle
3889 5099 Circle
3924 5099 Circle
3942 5117 Circle
3958 5111 Circle
3975 5134 Circle
3992 5123 Circle
4008 5128 Circle
4039 5188 Circle
4054 5188 Circle
4069 5198 Circle
4083 5203 Circle
4097 5208 Circle
4111 5203 Circle
4125 5198 Circle
4139 5167 Circle
4152 5188 Circle
4166 5193 Circle
4179 5198 Circle
4193 5218 Circle
4205 5183 Circle
4254 5193 Circle
4267 5208 Circle
4279 5223 Circle
4291 5247 Circle
4302 5228 Circle
4314 5247 Circle
4325 5232 Circle
4347 5260 Circle
4358 5228 Circle
4369 5260 Circle
4380 5218 Circle
4391 5218 Circle
4401 5256 Circle
4412 5247 Circle
4422 5274 Circle
4433 5251 Circle
4443 5237 Circle
4453 5247 Circle
4463 5300 Circle
4482 5292 Circle
4491 5274 Circle
4510 5292 Circle
4519 5305 Circle
4528 5305 Circle
4537 5309 Circle
4545 5283 Circle
4554 5305 Circle
4563 5292 Circle
4571 5278 Circle
4580 5270 Circle
4589 5283 Circle
4598 5300 Circle
4607 5296 Circle
4615 5283 Circle
4623 5313 Circle
4631 5309 Circle
4647 5317 Circle
4655 5300 Circle
4663 5278 Circle
4678 5313 Circle
4686 5313 Circle
4723 5317 Circle
4730 5309 Circle
4738 5283 Circle
4740 5300 Circle
4745 5300 Circle
4753 5296 Circle
4758 5305 Circle
4784 5334 Circle
4789 5287 Circle
4793 5292 Circle
4798 5300 Circle
4803 5296 Circle
4807 5313 Circle
4812 5321 Circle
4816 5321 Circle
4820 5309 Circle
4837 5330 Circle
4842 5313 Circle
4850 5300 Circle
4855 5283 Circle
4859 5309 Circle
4863 5305 Circle
4868 5309 Circle
4872 5292 Circle
4876 5287 Circle
4880 5305 Circle
4884 5305 Circle
4888 5309 Circle
4892 5287 Circle
4896 5270 Circle
4901 5278 Circle
4905 5274 Circle
4909 5260 Circle
4913 5242 Circle
4917 5223 Circle
4921 5218 Circle
4925 5213 Circle
4929 5208 Circle
4933 5193 Circle
4937 5198 Circle
4952 5161 Circle
4956 5161 Circle
4959 5140 Circle
4963 5105 Circle
4967 5099 Circle
4971 5065 Circle
4975 5045 Circle
4978 5035 Circle
4982 5049 Circle
4986 5017 Circle
4990 5035 Circle
4993 5018 Circle
4997 5000 Circle
5001 5003 Circle
5006 5004 Circle
5011 4988 Circle
5016 4942 Circle
5022 4918 Circle
5027 4911 Circle
5033 4849 Circle
5038 4877 Circle
5043 4857 Circle
5048 4851 Circle
5054 4770 Circle
5063 4794 Circle
5068 4756 Circle
5074 4718 Circle
5084 4711 Circle
5089 4700 Circle
5094 4705 Circle
5099 4691 Circle
5103 4662 Circle
5108 4668 Circle
5113 4621 Circle
5117 4620 Circle
5122 4630 Circle
5127 4564 Circle
5132 4545 Circle
5137 4538 Circle
5142 4547 Circle
5146 4547 Circle
5151 4520 Circle
5155 4509 Circle
5164 4489 Circle
5168 4443 Circle
5173 4447 Circle
5178 4422 Circle
5182 4389 Circle
5187 4383 Circle
5191 4381 Circle
5196 4368 Circle
5200 4372 Circle
5204 4333 Circle
5208 4333 Circle
5212 4354 Circle
5217 4299 Circle
5221 4312 Circle
5225 4263 Circle
5230 4222 Circle
5232 4290 Circle
5235 4293 Circle
5238 4235 Circle
5241 4277 Circle
5244 4279 Circle
5246 4217 Circle
5249 4237 Circle
5254 4202 Circle
5257 4215 Circle
5263 4176 Circle
5266 4186 Circle
5268 4168 Circle
5274 4186 Circle
5277 4140 Circle
5279 4159 Circle
5282 4159 Circle
5284 4199 Circle
5288 4034 Circle
5292 4157 Circle
5295 4122 Circle
5297 4083 Circle
5300 4098 Circle
5303 4083 Circle
5306 4051 Circle
5308 4086 Circle
5311 4086 Circle
5314 4064 Circle
5316 4057 Circle
5321 4077 Circle
5324 4044 Circle
5327 4034 Circle
5329 4048 Circle
5336 4077 Circle
5339 4057 Circle
5341 4044 Circle
5344 4024 Circle
5346 4051 Circle
5348 4044 Circle
5351 4057 Circle
5353 4034 Circle
5355 4003 Circle
5358 4014 Circle
5360 3959 Circle
5363 3992 Circle
5365 3955 Circle
5367 3955 Circle
5370 3935 Circle
5372 3939 Circle
5375 3855 Circle
5378 3864 Circle
5380 3890 Circle
5383 3923 Circle
5386 3931 Circle
5390 3927 Circle
5393 3919 Circle
5397 3903 Circle
5400 3873 Circle
5404 3886 Circle
5407 3777 Circle
5411 3850 Circle
5414 3832 Circle
5418 3855 Circle
5421 3850 Circle
5425 3846 Circle
5428 3677 Circle
5432 3822 Circle
5435 3793 Circle
5439 3859 Circle
5442 3783 Circle
5446 3788 Circle
5449 3772 Circle
5453 3793 Circle
5456 3756 Circle
5459 3751 Circle
5462 3762 Circle
5466 3751 Circle
5475 3767 Circle
5478 3740 Circle
5481 3712 Circle
5485 3729 Circle
5488 3657 Circle
5491 3724 Circle
5498 3677 Circle
5501 3617 Circle
5504 3662 Circle
5508 3650 Circle
5511 3630 Circle
5514 3695 Circle
5517 3657 Circle
5520 3633 Circle
5523 3683 Circle
5526 3657 Circle
5529 3646 Circle
5532 3592 Circle
4893 1987 Circle
3.000 UL
LT0
LTb
4550 1675 M
[ [(Helvetica) 260.0 0.0 true true 0 (single porosity)]
] -86.7 MRshow
LT0
4706 1675 M
375 0 V
1430 1516 M
30 3 V
30 5 V
28 6 V
28 7 V
27 8 V
26 10 V
25 12 V
25 13 V
24 15 V
23 17 V
23 19 V
23 21 V
21 23 V
22 24 V
21 27 V
20 28 V
20 29 V
19 31 V
19 32 V
19 33 V
18 35 V
18 35 V
18 35 V
17 37 V
17 36 V
17 37 V
16 37 V
17 37 V
15 38 V
16 37 V
15 36 V
15 37 V
15 36 V
15 36 V
14 36 V
14 35 V
14 35 V
14 34 V
13 34 V
14 33 V
13 33 V
13 32 V
13 31 V
12 32 V
13 30 V
12 31 V
12 29 V
12 29 V
12 29 V
11 28 V
12 28 V
11 27 V
11 26 V
12 27 V
11 25 V
10 26 V
11 25 V
11 24 V
10 24 V
10 23 V
11 24 V
10 22 V
10 23 V
10 22 V
10 21 V
9 21 V
10 21 V
9 21 V
10 20 V
9 20 V
88 181 V
81 155 V
74 134 V
69 117 V
64 103 V
59 91 V
56 81 V
53 73 V
50 66 V
48 60 V
45 54 V
43 50 V
41 46 V
40 42 V
38 39 V
36 36 V
35 33 V
34 31 V
32 29 V
31 27 V
31 25 V
29 24 V
29 22 V
27 21 V
27 20 V
26 18 V
26 18 V
24 17 V
24 15 V
24 15 V
23 14 V
22 14 V
stroke 3874 5040 M
22 12 V
21 12 V
21 12 V
20 11 V
20 10 V
20 10 V
19 10 V
19 9 V
18 8 V
18 9 V
18 7 V
17 8 V
17 7 V
17 7 V
16 7 V
16 6 V
16 6 V
15 6 V
16 6 V
15 5 V
15 5 V
14 5 V
15 5 V
14 5 V
14 4 V
13 4 V
14 4 V
13 4 V
13 4 V
13 4 V
13 3 V
13 3 V
12 4 V
12 3 V
12 3 V
12 3 V
12 3 V
12 2 V
11 3 V
12 2 V
11 3 V
11 2 V
11 2 V
11 3 V
11 2 V
10 2 V
11 2 V
10 2 V
10 1 V
10 2 V
10 2 V
10 1 V
10 2 V
10 2 V
9 1 V
10 1 V
9 2 V
10 1 V
88 13 V
80 -8 V
74 -105 V
69 -170 V
64 -186 V
60 -189 V
56 -190 V
53 -188 V
50 -185 V
47 -183 V
46 -181 V
43 -178 V
41 -176 V
39 -174 V
38 -173 V
36 -170 V
35 -169 V
34 -168 V
33 -166 V
31 -165 V
30 -164 V
30 -163 V
28 -163 V
28 -161 V
27 -162 V
26 -160 V
25 -161 V
25 -160 V
12 -77 V
stroke
LT6
LTb
4550 1363 M
[ [(Helvetica) 260.0 0.0 true true 0 (double porosity)]
] -86.7 MRshow
LT6
4706 1363 M
375 0 V
1430 1505 M
30 0 V
30 0 V
28 0 V
28 0 V
27 0 V
26 1 V
25 0 V
25 0 V
24 1 V
23 0 V
23 1 V
23 1 V
21 2 V
22 2 V
21 2 V
20 3 V
20 3 V
19 4 V
19 4 V
19 5 V
18 6 V
18 8 V
18 8 V
17 9 V
17 10 V
17 12 V
16 13 V
17 14 V
15 15 V
16 17 V
15 18 V
15 20 V
15 21 V
15 22 V
14 23 V
14 25 V
14 26 V
14 26 V
13 28 V
14 29 V
13 29 V
13 31 V
13 30 V
12 32 V
13 32 V
12 32 V
12 33 V
12 32 V
12 33 V
11 34 V
12 33 V
11 33 V
11 33 V
12 33 V
11 33 V
10 32 V
11 33 V
11 32 V
10 32 V
10 31 V
11 32 V
10 30 V
10 31 V
10 30 V
10 30 V
9 30 V
10 29 V
9 29 V
10 29 V
9 28 V
88 260 V
81 225 V
74 194 V
69 169 V
64 147 V
59 129 V
56 114 V
53 101 V
50 91 V
48 81 V
45 72 V
43 66 V
41 60 V
40 54 V
38 49 V
36 45 V
35 41 V
34 38 V
32 35 V
31 32 V
31 30 V
29 27 V
29 26 V
27 23 V
27 22 V
26 20 V
26 19 V
24 18 V
24 17 V
24 15 V
23 14 V
22 14 V
stroke 3874 5073 M
22 12 V
21 12 V
21 11 V
20 11 V
20 9 V
20 10 V
19 8 V
19 8 V
18 8 V
18 7 V
18 7 V
17 7 V
17 6 V
17 6 V
16 5 V
16 5 V
16 5 V
15 5 V
16 4 V
15 4 V
15 4 V
14 4 V
15 4 V
14 3 V
14 4 V
13 3 V
14 3 V
13 3 V
13 2 V
13 3 V
13 2 V
13 3 V
12 2 V
12 2 V
12 2 V
12 2 V
12 2 V
12 2 V
11 2 V
12 2 V
11 2 V
11 1 V
11 2 V
11 1 V
11 2 V
10 1 V
11 2 V
10 1 V
10 1 V
10 2 V
10 1 V
10 1 V
10 1 V
10 1 V
9 1 V
10 1 V
9 1 V
10 1 V
88 10 V
80 5 V
74 -81 V
69 -195 V
64 -231 V
60 -219 V
56 -186 V
53 -148 V
50 -113 V
47 -88 V
46 -67 V
43 -54 V
41 -44 V
39 -40 V
38 -37 V
36 -35 V
35 -34 V
34 -33 V
33 -33 V
31 -33 V
30 -32 V
30 -33 V
28 -32 V
28 -33 V
27 -32 V
26 -33 V
25 -32 V
25 -33 V
24 -32 V
23 -33 V
23 -32 V
23 -33 V
21 -32 V
22 -33 V
20 -32 V
21 -33 V
20 -32 V
19 -33 V
19 -32 V
19 -33 V
18 -32 V
18 -33 V
18 -33 V
17 -32 V
17 -33 V
17 -32 V
stroke 6273 2799 M
16 -33 V
17 -33 V
15 -32 V
16 -33 V
15 -33 V
15 -32 V
15 -33 V
15 -33 V
14 -32 V
14 -33 V
14 -33 V
14 -32 V
13 -33 V
14 -33 V
13 -33 V
13 -32 V
13 -33 V
12 -33 V
13 -33 V
12 -32 V
12 -33 V
12 -33 V
12 -32 V
11 -33 V
12 -33 V
11 -33 V
11 -33 V
12 -33 V
10 -32 V
11 -33 V
11 -33 V
11 -33 V
10 -33 V
10 -33 V
11 -33 V
10 -32 V
10 -33 V
10 -33 V
9 -33 V
10 -33 V
10 -33 V
9 -33 V
10 -33 V
stroke
8.000 UL
LT0
LTb
4550 1051 M
[ [(Helvetica) 260.0 0.0 true true 0 (multirate lognormal)]
] -86.7 MRshow
LT0
4706 1051 M
375 0 V
1430 1501 M
30 0 V
30 0 V
28 0 V
28 0 V
27 0 V
26 0 V
25 0 V
25 0 V
24 0 V
23 0 V
23 0 V
23 0 V
21 0 V
22 0 V
21 0 V
20 0 V
20 0 V
19 0 V
19 0 V
19 0 V
18 0 V
18 0 V
18 1 V
17 0 V
17 0 V
17 0 V
16 1 V
17 1 V
15 0 V
16 1 V
15 1 V
15 2 V
15 2 V
15 2 V
14 2 V
14 3 V
14 3 V
14 5 V
13 4 V
14 6 V
13 6 V
13 7 V
13 8 V
12 10 V
13 10 V
12 11 V
12 13 V
12 14 V
12 15 V
11 17 V
12 18 V
11 20 V
11 21 V
12 22 V
11 23 V
10 25 V
11 26 V
11 28 V
10 28 V
10 30 V
11 30 V
10 31 V
10 32 V
10 33 V
10 33 V
9 34 V
10 34 V
9 35 V
10 35 V
9 35 V
88 348 V
81 321 V
74 281 V
69 242 V
64 208 V
59 178 V
56 154 V
53 133 V
50 115 V
48 101 V
45 88 V
43 78 V
41 69 V
40 61 V
38 54 V
36 49 V
35 43 V
34 39 V
32 35 V
31 32 V
31 29 V
29 26 V
29 24 V
27 22 V
27 21 V
26 18 V
26 17 V
24 16 V
24 15 V
24 14 V
23 12 V
22 12 V
stroke 3874 5074 M
22 11 V
21 11 V
21 9 V
20 10 V
20 8 V
20 8 V
19 8 V
19 7 V
18 7 V
18 7 V
18 6 V
17 6 V
17 6 V
17 5 V
16 5 V
16 5 V
16 5 V
15 4 V
16 5 V
15 4 V
15 4 V
14 4 V
15 3 V
14 4 V
14 3 V
13 3 V
14 4 V
13 3 V
13 3 V
13 2 V
13 3 V
13 3 V
12 2 V
12 3 V
12 2 V
12 3 V
12 2 V
12 2 V
11 2 V
12 2 V
11 2 V
11 2 V
11 2 V
11 2 V
11 2 V
10 2 V
11 1 V
10 2 V
10 2 V
10 1 V
10 2 V
10 1 V
10 2 V
10 1 V
9 2 V
10 1 V
9 1 V
10 1 V
88 13 V
80 8 V
74 -79 V
69 -222 V
64 -228 V
60 -191 V
56 -160 V
53 -138 V
50 -123 V
47 -111 V
46 -102 V
43 -94 V
41 -88 V
39 -82 V
38 -78 V
36 -73 V
35 -70 V
34 -67 V
33 -64 V
31 -61 V
30 -59 V
30 -57 V
28 -54 V
28 -53 V
27 -51 V
26 -50 V
25 -48 V
25 -47 V
24 -45 V
23 -44 V
23 -43 V
23 -42 V
21 -41 V
22 -40 V
20 -39 V
21 -38 V
20 -37 V
19 -36 V
19 -35 V
19 -35 V
18 -34 V
18 -33 V
18 -32 V
17 -32 V
17 -30 V
17 -30 V
stroke 6273 2202 M
16 -30 V
17 -29 V
15 -28 V
16 -27 V
15 -27 V
15 -26 V
15 -26 V
15 -25 V
14 -24 V
14 -24 V
14 -23 V
14 -23 V
13 -22 V
14 -22 V
13 -21 V
13 -21 V
13 -20 V
12 -19 V
13 -20 V
12 -18 V
12 -19 V
12 -18 V
12 -18 V
11 -17 V
12 -17 V
11 -16 V
11 -16 V
12 -16 V
10 -16 V
11 -15 V
11 -15 V
11 -15 V
10 -14 V
10 -14 V
11 -14 V
10 -14 V
10 -13 V
10 -14 V
9 -13 V
10 -13 V
10 -13 V
9 -12 V
10 -13 V
stroke
1.000 UL
LTb
1430 5736 N
0 -4904 V
5380 0 V
0 4904 V
-5380 0 V
Z stroke
1.000 UP
1.000 UL
LTb
stroke
grestore
end
showpage
%%Trailer
%%DocumentFonts: Symbol Helvetica
