%!PS-Adobe-2.0 EPSF-2.0
%%Title: B4_22Na_lateline.eps
%%Creator: gnuplot 4.4 patchlevel 4
%%CreationDate: Mon Jun 18 11:22:58 2012
%%DocumentFonts: (atend)
%%BoundingBox: 50 50 410 352
%%EndComments
%%BeginProlog
/gnudict 256 dict def
gnudict begin
%
% The following true/false flags may be edited by hand if desired.
% The unit line width and grayscale image gamma correction may also be changed.
%
/Color false def
/Blacktext false def
/Solid false def
/Dashlength 1 def
/Landscape false def
/Level1 false def
/Rounded false def
/ClipToBoundingBox false def
/TransparentPatterns false def
/gnulinewidth 5.000 def
/userlinewidth gnulinewidth def
/Gamma 1.0 def
%
/vshift -86 def
/dl1 {
  10.0 Dashlength mul mul
  Rounded { currentlinewidth 0.75 mul sub dup 0 le { pop 0.01 } if } if
} def
/dl2 {
  10.0 Dashlength mul mul
  Rounded { currentlinewidth 0.75 mul add } if
} def
/hpt_ 31.5 def
/vpt_ 31.5 def
/hpt hpt_ def
/vpt vpt_ def
Level1 {} {
/SDict 10 dict def
systemdict /pdfmark known not {
  userdict /pdfmark systemdict /cleartomark get put
} if
SDict begin [
  /Title (B4_22Na_lateline.eps)
  /Subject (gnuplot plot)
  /Creator (gnuplot 4.4 patchlevel 4)
  /Author (bmalama)
%  /Producer (gnuplot)
%  /Keywords ()
  /CreationDate (Mon Jun 18 11:22:58 2012)
  /DOCINFO pdfmark
end
} ifelse
/doclip {
  ClipToBoundingBox {
    newpath 50 50 moveto 410 50 lineto 410 352 lineto 50 352 lineto closepath
    clip
  } if
} def
%
% Gnuplot Prolog Version 4.4 (August 2010)
%
%/SuppressPDFMark true def
%
/M {moveto} bind def
/L {lineto} bind def
/R {rmoveto} bind def
/V {rlineto} bind def
/N {newpath moveto} bind def
/Z {closepath} bind def
/C {setrgbcolor} bind def
/f {rlineto fill} bind def
/g {setgray} bind def
/Gshow {show} def   % May be redefined later in the file to support UTF-8
/vpt2 vpt 2 mul def
/hpt2 hpt 2 mul def
/Lshow {currentpoint stroke M 0 vshift R 
	Blacktext {gsave 0 setgray show grestore} {show} ifelse} def
/Rshow {currentpoint stroke M dup stringwidth pop neg vshift R
	Blacktext {gsave 0 setgray show grestore} {show} ifelse} def
/Cshow {currentpoint stroke M dup stringwidth pop -2 div vshift R 
	Blacktext {gsave 0 setgray show grestore} {show} ifelse} def
/UP {dup vpt_ mul /vpt exch def hpt_ mul /hpt exch def
  /hpt2 hpt 2 mul def /vpt2 vpt 2 mul def} def
/DL {Color {setrgbcolor Solid {pop []} if 0 setdash}
 {pop pop pop 0 setgray Solid {pop []} if 0 setdash} ifelse} def
/BL {stroke userlinewidth 2 mul setlinewidth
	Rounded {1 setlinejoin 1 setlinecap} if} def
/AL {stroke userlinewidth 2 div setlinewidth
	Rounded {1 setlinejoin 1 setlinecap} if} def
/UL {dup gnulinewidth mul /userlinewidth exch def
	dup 1 lt {pop 1} if 10 mul /udl exch def} def
/PL {stroke userlinewidth setlinewidth
	Rounded {1 setlinejoin 1 setlinecap} if} def
3.8 setmiterlimit
% Default Line colors
/LCw {1 1 1} def
/LCb {0 0 0} def
/LCa {0 0 0} def
/LC0 {1 0 0} def
/LC1 {0 1 0} def
/LC2 {0 0 1} def
/LC3 {1 0 1} def
/LC4 {0 1 1} def
/LC5 {1 1 0} def
/LC6 {0 0 0} def
/LC7 {1 0.3 0} def
/LC8 {0.5 0.5 0.5} def
% Default Line Types
/LTw {PL [] 1 setgray} def
/LTb {BL [] LCb DL} def
/LTa {AL [1 udl mul 2 udl mul] 0 setdash LCa setrgbcolor} def
/LT0 {PL [] LC0 DL} def
/LT1 {PL [4 dl1 2 dl2] LC1 DL} def
/LT2 {PL [2 dl1 3 dl2] LC2 DL} def
/LT3 {PL [1 dl1 1.5 dl2] LC3 DL} def
/LT4 {PL [6 dl1 2 dl2 1 dl1 2 dl2] LC4 DL} def
/LT5 {PL [3 dl1 3 dl2 1 dl1 3 dl2] LC5 DL} def
/LT6 {PL [2 dl1 2 dl2 2 dl1 6 dl2] LC6 DL} def
/LT7 {PL [1 dl1 2 dl2 6 dl1 2 dl2 1 dl1 2 dl2] LC7 DL} def
/LT8 {PL [2 dl1 2 dl2 2 dl1 2 dl2 2 dl1 2 dl2 2 dl1 4 dl2] LC8 DL} def
/Pnt {stroke [] 0 setdash gsave 1 setlinecap M 0 0 V stroke grestore} def
/Dia {stroke [] 0 setdash 2 copy vpt add M
  hpt neg vpt neg V hpt vpt neg V
  hpt vpt V hpt neg vpt V closepath stroke
  Pnt} def
/Pls {stroke [] 0 setdash vpt sub M 0 vpt2 V
  currentpoint stroke M
  hpt neg vpt neg R hpt2 0 V stroke
 } def
/Box {stroke [] 0 setdash 2 copy exch hpt sub exch vpt add M
  0 vpt2 neg V hpt2 0 V 0 vpt2 V
  hpt2 neg 0 V closepath stroke
  Pnt} def
/Crs {stroke [] 0 setdash exch hpt sub exch vpt add M
  hpt2 vpt2 neg V currentpoint stroke M
  hpt2 neg 0 R hpt2 vpt2 V stroke} def
/TriU {stroke [] 0 setdash 2 copy vpt 1.12 mul add M
  hpt neg vpt -1.62 mul V
  hpt 2 mul 0 V
  hpt neg vpt 1.62 mul V closepath stroke
  Pnt} def
/Star {2 copy Pls Crs} def
/BoxF {stroke [] 0 setdash exch hpt sub exch vpt add M
  0 vpt2 neg V hpt2 0 V 0 vpt2 V
  hpt2 neg 0 V closepath fill} def
/TriUF {stroke [] 0 setdash vpt 1.12 mul add M
  hpt neg vpt -1.62 mul V
  hpt 2 mul 0 V
  hpt neg vpt 1.62 mul V closepath fill} def
/TriD {stroke [] 0 setdash 2 copy vpt 1.12 mul sub M
  hpt neg vpt 1.62 mul V
  hpt 2 mul 0 V
  hpt neg vpt -1.62 mul V closepath stroke
  Pnt} def
/TriDF {stroke [] 0 setdash vpt 1.12 mul sub M
  hpt neg vpt 1.62 mul V
  hpt 2 mul 0 V
  hpt neg vpt -1.62 mul V closepath fill} def
/DiaF {stroke [] 0 setdash vpt add M
  hpt neg vpt neg V hpt vpt neg V
  hpt vpt V hpt neg vpt V closepath fill} def
/Pent {stroke [] 0 setdash 2 copy gsave
  translate 0 hpt M 4 {72 rotate 0 hpt L} repeat
  closepath stroke grestore Pnt} def
/PentF {stroke [] 0 setdash gsave
  translate 0 hpt M 4 {72 rotate 0 hpt L} repeat
  closepath fill grestore} def
/Circle {stroke [] 0 setdash 2 copy
  hpt 0 360 arc stroke Pnt} def
/CircleF {stroke [] 0 setdash hpt 0 360 arc fill} def
/C0 {BL [] 0 setdash 2 copy moveto vpt 90 450 arc} bind def
/C1 {BL [] 0 setdash 2 copy moveto
	2 copy vpt 0 90 arc closepath fill
	vpt 0 360 arc closepath} bind def
/C2 {BL [] 0 setdash 2 copy moveto
	2 copy vpt 90 180 arc closepath fill
	vpt 0 360 arc closepath} bind def
/C3 {BL [] 0 setdash 2 copy moveto
	2 copy vpt 0 180 arc closepath fill
	vpt 0 360 arc closepath} bind def
/C4 {BL [] 0 setdash 2 copy moveto
	2 copy vpt 180 270 arc closepath fill
	vpt 0 360 arc closepath} bind def
/C5 {BL [] 0 setdash 2 copy moveto
	2 copy vpt 0 90 arc
	2 copy moveto
	2 copy vpt 180 270 arc closepath fill
	vpt 0 360 arc} bind def
/C6 {BL [] 0 setdash 2 copy moveto
	2 copy vpt 90 270 arc closepath fill
	vpt 0 360 arc closepath} bind def
/C7 {BL [] 0 setdash 2 copy moveto
	2 copy vpt 0 270 arc closepath fill
	vpt 0 360 arc closepath} bind def
/C8 {BL [] 0 setdash 2 copy moveto
	2 copy vpt 270 360 arc closepath fill
	vpt 0 360 arc closepath} bind def
/C9 {BL [] 0 setdash 2 copy moveto
	2 copy vpt 270 450 arc closepath fill
	vpt 0 360 arc closepath} bind def
/C10 {BL [] 0 setdash 2 copy 2 copy moveto vpt 270 360 arc closepath fill
	2 copy moveto
	2 copy vpt 90 180 arc closepath fill
	vpt 0 360 arc closepath} bind def
/C11 {BL [] 0 setdash 2 copy moveto
	2 copy vpt 0 180 arc closepath fill
	2 copy moveto
	2 copy vpt 270 360 arc closepath fill
	vpt 0 360 arc closepath} bind def
/C12 {BL [] 0 setdash 2 copy moveto
	2 copy vpt 180 360 arc closepath fill
	vpt 0 360 arc closepath} bind def
/C13 {BL [] 0 setdash 2 copy moveto
	2 copy vpt 0 90 arc closepath fill
	2 copy moveto
	2 copy vpt 180 360 arc closepath fill
	vpt 0 360 arc closepath} bind def
/C14 {BL [] 0 setdash 2 copy moveto
	2 copy vpt 90 360 arc closepath fill
	vpt 0 360 arc} bind def
/C15 {BL [] 0 setdash 2 copy vpt 0 360 arc closepath fill
	vpt 0 360 arc closepath} bind def
/Rec {newpath 4 2 roll moveto 1 index 0 rlineto 0 exch rlineto
	neg 0 rlineto closepath} bind def
/Square {dup Rec} bind def
/Bsquare {vpt sub exch vpt sub exch vpt2 Square} bind def
/S0 {BL [] 0 setdash 2 copy moveto 0 vpt rlineto BL Bsquare} bind def
/S1 {BL [] 0 setdash 2 copy vpt Square fill Bsquare} bind def
/S2 {BL [] 0 setdash 2 copy exch vpt sub exch vpt Square fill Bsquare} bind def
/S3 {BL [] 0 setdash 2 copy exch vpt sub exch vpt2 vpt Rec fill Bsquare} bind def
/S4 {BL [] 0 setdash 2 copy exch vpt sub exch vpt sub vpt Square fill Bsquare} bind def
/S5 {BL [] 0 setdash 2 copy 2 copy vpt Square fill
	exch vpt sub exch vpt sub vpt Square fill Bsquare} bind def
/S6 {BL [] 0 setdash 2 copy exch vpt sub exch vpt sub vpt vpt2 Rec fill Bsquare} bind def
/S7 {BL [] 0 setdash 2 copy exch vpt sub exch vpt sub vpt vpt2 Rec fill
	2 copy vpt Square fill Bsquare} bind def
/S8 {BL [] 0 setdash 2 copy vpt sub vpt Square fill Bsquare} bind def
/S9 {BL [] 0 setdash 2 copy vpt sub vpt vpt2 Rec fill Bsquare} bind def
/S10 {BL [] 0 setdash 2 copy vpt sub vpt Square fill 2 copy exch vpt sub exch vpt Square fill
	Bsquare} bind def
/S11 {BL [] 0 setdash 2 copy vpt sub vpt Square fill 2 copy exch vpt sub exch vpt2 vpt Rec fill
	Bsquare} bind def
/S12 {BL [] 0 setdash 2 copy exch vpt sub exch vpt sub vpt2 vpt Rec fill Bsquare} bind def
/S13 {BL [] 0 setdash 2 copy exch vpt sub exch vpt sub vpt2 vpt Rec fill
	2 copy vpt Square fill Bsquare} bind def
/S14 {BL [] 0 setdash 2 copy exch vpt sub exch vpt sub vpt2 vpt Rec fill
	2 copy exch vpt sub exch vpt Square fill Bsquare} bind def
/S15 {BL [] 0 setdash 2 copy Bsquare fill Bsquare} bind def
/D0 {gsave translate 45 rotate 0 0 S0 stroke grestore} bind def
/D1 {gsave translate 45 rotate 0 0 S1 stroke grestore} bind def
/D2 {gsave translate 45 rotate 0 0 S2 stroke grestore} bind def
/D3 {gsave translate 45 rotate 0 0 S3 stroke grestore} bind def
/D4 {gsave translate 45 rotate 0 0 S4 stroke grestore} bind def
/D5 {gsave translate 45 rotate 0 0 S5 stroke grestore} bind def
/D6 {gsave translate 45 rotate 0 0 S6 stroke grestore} bind def
/D7 {gsave translate 45 rotate 0 0 S7 stroke grestore} bind def
/D8 {gsave translate 45 rotate 0 0 S8 stroke grestore} bind def
/D9 {gsave translate 45 rotate 0 0 S9 stroke grestore} bind def
/D10 {gsave translate 45 rotate 0 0 S10 stroke grestore} bind def
/D11 {gsave translate 45 rotate 0 0 S11 stroke grestore} bind def
/D12 {gsave translate 45 rotate 0 0 S12 stroke grestore} bind def
/D13 {gsave translate 45 rotate 0 0 S13 stroke grestore} bind def
/D14 {gsave translate 45 rotate 0 0 S14 stroke grestore} bind def
/D15 {gsave translate 45 rotate 0 0 S15 stroke grestore} bind def
/DiaE {stroke [] 0 setdash vpt add M
  hpt neg vpt neg V hpt vpt neg V
  hpt vpt V hpt neg vpt V closepath stroke} def
/BoxE {stroke [] 0 setdash exch hpt sub exch vpt add M
  0 vpt2 neg V hpt2 0 V 0 vpt2 V
  hpt2 neg 0 V closepath stroke} def
/TriUE {stroke [] 0 setdash vpt 1.12 mul add M
  hpt neg vpt -1.62 mul V
  hpt 2 mul 0 V
  hpt neg vpt 1.62 mul V closepath stroke} def
/TriDE {stroke [] 0 setdash vpt 1.12 mul sub M
  hpt neg vpt 1.62 mul V
  hpt 2 mul 0 V
  hpt neg vpt -1.62 mul V closepath stroke} def
/PentE {stroke [] 0 setdash gsave
  translate 0 hpt M 4 {72 rotate 0 hpt L} repeat
  closepath stroke grestore} def
/CircE {stroke [] 0 setdash 
  hpt 0 360 arc stroke} def
/Opaque {gsave closepath 1 setgray fill grestore 0 setgray closepath} def
/DiaW {stroke [] 0 setdash vpt add M
  hpt neg vpt neg V hpt vpt neg V
  hpt vpt V hpt neg vpt V Opaque stroke} def
/BoxW {stroke [] 0 setdash exch hpt sub exch vpt add M
  0 vpt2 neg V hpt2 0 V 0 vpt2 V
  hpt2 neg 0 V Opaque stroke} def
/TriUW {stroke [] 0 setdash vpt 1.12 mul add M
  hpt neg vpt -1.62 mul V
  hpt 2 mul 0 V
  hpt neg vpt 1.62 mul V Opaque stroke} def
/TriDW {stroke [] 0 setdash vpt 1.12 mul sub M
  hpt neg vpt 1.62 mul V
  hpt 2 mul 0 V
  hpt neg vpt -1.62 mul V Opaque stroke} def
/PentW {stroke [] 0 setdash gsave
  translate 0 hpt M 4 {72 rotate 0 hpt L} repeat
  Opaque stroke grestore} def
/CircW {stroke [] 0 setdash 
  hpt 0 360 arc Opaque stroke} def
/BoxFill {gsave Rec 1 setgray fill grestore} def
/Density {
  /Fillden exch def
  currentrgbcolor
  /ColB exch def /ColG exch def /ColR exch def
  /ColR ColR Fillden mul Fillden sub 1 add def
  /ColG ColG Fillden mul Fillden sub 1 add def
  /ColB ColB Fillden mul Fillden sub 1 add def
  ColR ColG ColB setrgbcolor} def
/BoxColFill {gsave Rec PolyFill} def
/PolyFill {gsave Density fill grestore grestore} def
/h {rlineto rlineto rlineto gsave closepath fill grestore} bind def
%
% PostScript Level 1 Pattern Fill routine for rectangles
% Usage: x y w h s a XX PatternFill
%	x,y = lower left corner of box to be filled
%	w,h = width and height of box
%	  a = angle in degrees between lines and x-axis
%	 XX = 0/1 for no/yes cross-hatch
%
/PatternFill {gsave /PFa [ 9 2 roll ] def
  PFa 0 get PFa 2 get 2 div add PFa 1 get PFa 3 get 2 div add translate
  PFa 2 get -2 div PFa 3 get -2 div PFa 2 get PFa 3 get Rec
  gsave 1 setgray fill grestore clip
  currentlinewidth 0.5 mul setlinewidth
  /PFs PFa 2 get dup mul PFa 3 get dup mul add sqrt def
  0 0 M PFa 5 get rotate PFs -2 div dup translate
  0 1 PFs PFa 4 get div 1 add floor cvi
	{PFa 4 get mul 0 M 0 PFs V} for
  0 PFa 6 get ne {
	0 1 PFs PFa 4 get div 1 add floor cvi
	{PFa 4 get mul 0 2 1 roll M PFs 0 V} for
 } if
  stroke grestore} def
%
/languagelevel where
 {pop languagelevel} {1} ifelse
 2 lt
	{/InterpretLevel1 true def}
	{/InterpretLevel1 Level1 def}
 ifelse
%
% PostScript level 2 pattern fill definitions
%
/Level2PatternFill {
/Tile8x8 {/PaintType 2 /PatternType 1 /TilingType 1 /BBox [0 0 8 8] /XStep 8 /YStep 8}
	bind def
/KeepColor {currentrgbcolor [/Pattern /DeviceRGB] setcolorspace} bind def
<< Tile8x8
 /PaintProc {0.5 setlinewidth pop 0 0 M 8 8 L 0 8 M 8 0 L stroke} 
>> matrix makepattern
/Pat1 exch def
<< Tile8x8
 /PaintProc {0.5 setlinewidth pop 0 0 M 8 8 L 0 8 M 8 0 L stroke
	0 4 M 4 8 L 8 4 L 4 0 L 0 4 L stroke}
>> matrix makepattern
/Pat2 exch def
<< Tile8x8
 /PaintProc {0.5 setlinewidth pop 0 0 M 0 8 L
	8 8 L 8 0 L 0 0 L fill}
>> matrix makepattern
/Pat3 exch def
<< Tile8x8
 /PaintProc {0.5 setlinewidth pop -4 8 M 8 -4 L
	0 12 M 12 0 L stroke}
>> matrix makepattern
/Pat4 exch def
<< Tile8x8
 /PaintProc {0.5 setlinewidth pop -4 0 M 8 12 L
	0 -4 M 12 8 L stroke}
>> matrix makepattern
/Pat5 exch def
<< Tile8x8
 /PaintProc {0.5 setlinewidth pop -2 8 M 4 -4 L
	0 12 M 8 -4 L 4 12 M 10 0 L stroke}
>> matrix makepattern
/Pat6 exch def
<< Tile8x8
 /PaintProc {0.5 setlinewidth pop -2 0 M 4 12 L
	0 -4 M 8 12 L 4 -4 M 10 8 L stroke}
>> matrix makepattern
/Pat7 exch def
<< Tile8x8
 /PaintProc {0.5 setlinewidth pop 8 -2 M -4 4 L
	12 0 M -4 8 L 12 4 M 0 10 L stroke}
>> matrix makepattern
/Pat8 exch def
<< Tile8x8
 /PaintProc {0.5 setlinewidth pop 0 -2 M 12 4 L
	-4 0 M 12 8 L -4 4 M 8 10 L stroke}
>> matrix makepattern
/Pat9 exch def
/Pattern1 {PatternBgnd KeepColor Pat1 setpattern} bind def
/Pattern2 {PatternBgnd KeepColor Pat2 setpattern} bind def
/Pattern3 {PatternBgnd KeepColor Pat3 setpattern} bind def
/Pattern4 {PatternBgnd KeepColor Landscape {Pat5} {Pat4} ifelse setpattern} bind def
/Pattern5 {PatternBgnd KeepColor Landscape {Pat4} {Pat5} ifelse setpattern} bind def
/Pattern6 {PatternBgnd KeepColor Landscape {Pat9} {Pat6} ifelse setpattern} bind def
/Pattern7 {PatternBgnd KeepColor Landscape {Pat8} {Pat7} ifelse setpattern} bind def
} def
%
%
%End of PostScript Level 2 code
%
/PatternBgnd {
  TransparentPatterns {} {gsave 1 setgray fill grestore} ifelse
} def
%
% Substitute for Level 2 pattern fill codes with
% grayscale if Level 2 support is not selected.
%
/Level1PatternFill {
/Pattern1 {0.250 Density} bind def
/Pattern2 {0.500 Density} bind def
/Pattern3 {0.750 Density} bind def
/Pattern4 {0.125 Density} bind def
/Pattern5 {0.375 Density} bind def
/Pattern6 {0.625 Density} bind def
/Pattern7 {0.875 Density} bind def
} def
%
% Now test for support of Level 2 code
%
Level1 {Level1PatternFill} {Level2PatternFill} ifelse
%
/Symbol-Oblique /Symbol findfont [1 0 .167 1 0 0] makefont
dup length dict begin {1 index /FID eq {pop pop} {def} ifelse} forall
currentdict end definefont pop
/MFshow {
   { dup 5 get 3 ge
     { 5 get 3 eq {gsave} {grestore} ifelse }
     {dup dup 0 get findfont exch 1 get scalefont setfont
     [ currentpoint ] exch dup 2 get 0 exch R dup 5 get 2 ne {dup dup 6
     get exch 4 get {Gshow} {stringwidth pop 0 R} ifelse }if dup 5 get 0 eq
     {dup 3 get {2 get neg 0 exch R pop} {pop aload pop M} ifelse} {dup 5
     get 1 eq {dup 2 get exch dup 3 get exch 6 get stringwidth pop -2 div
     dup 0 R} {dup 6 get stringwidth pop -2 div 0 R 6 get
     show 2 index {aload pop M neg 3 -1 roll neg R pop pop} {pop pop pop
     pop aload pop M} ifelse }ifelse }ifelse }
     ifelse }
   forall} def
/Gswidth {dup type /stringtype eq {stringwidth} {pop (n) stringwidth} ifelse} def
/MFwidth {0 exch { dup 5 get 3 ge { 5 get 3 eq { 0 } { pop } ifelse }
 {dup 3 get{dup dup 0 get findfont exch 1 get scalefont setfont
     6 get Gswidth pop add} {pop} ifelse} ifelse} forall} def
/MLshow { currentpoint stroke M
  0 exch R
  Blacktext {gsave 0 setgray MFshow grestore} {MFshow} ifelse } bind def
/MRshow { currentpoint stroke M
  exch dup MFwidth neg 3 -1 roll R
  Blacktext {gsave 0 setgray MFshow grestore} {MFshow} ifelse } bind def
/MCshow { currentpoint stroke M
  exch dup MFwidth -2 div 3 -1 roll R
  Blacktext {gsave 0 setgray MFshow grestore} {MFshow} ifelse } bind def
/XYsave    { [( ) 1 2 true false 3 ()] } bind def
/XYrestore { [( ) 1 2 true false 4 ()] } bind def
end
%%EndProlog
gnudict begin
gsave
doclip
50 50 translate
0.050 0.050 scale
0 setgray
newpath
(Helvetica) findfont 260 scalefont setfont
1.000 UL
LTb
1118 832 M
63 0 V
5550 0 R
-63 0 V
stroke
962 832 M
[ [(Helvetica) 260.0 0.0 true true 0 (10)]
[(Helvetica) 208.0 130.0 true true 0 (-4)]
] -112.7 MRshow
1.000 UL
LTb
1118 1256 M
31 0 V
5582 0 R
-31 0 V
1118 1505 M
31 0 V
5582 0 R
-31 0 V
1118 1681 M
31 0 V
5582 0 R
-31 0 V
1118 1818 M
31 0 V
5582 0 R
-31 0 V
1118 1929 M
31 0 V
5582 0 R
-31 0 V
-5582 95 R
31 0 V
5582 0 R
-31 0 V
-5582 81 R
31 0 V
5582 0 R
-31 0 V
-5582 73 R
31 0 V
5582 0 R
-31 0 V
-5582 64 R
63 0 V
5550 0 R
-63 0 V
stroke
962 2242 M
[ [(Helvetica) 260.0 0.0 true true 0 (10)]
[(Helvetica) 208.0 130.0 true true 0 (-3)]
] -112.7 MRshow
1.000 UL
LTb
1118 2667 M
31 0 V
5582 0 R
-31 0 V
1118 2915 M
31 0 V
5582 0 R
-31 0 V
1118 3091 M
31 0 V
5582 0 R
-31 0 V
1118 3228 M
31 0 V
5582 0 R
-31 0 V
1118 3339 M
31 0 V
5582 0 R
-31 0 V
-5582 95 R
31 0 V
5582 0 R
-31 0 V
-5582 81 R
31 0 V
5582 0 R
-31 0 V
-5582 73 R
31 0 V
5582 0 R
-31 0 V
-5582 64 R
63 0 V
5550 0 R
-63 0 V
stroke
962 3652 M
[ [(Helvetica) 260.0 0.0 true true 0 (10)]
[(Helvetica) 208.0 130.0 true true 0 (-2)]
] -112.7 MRshow
1.000 UL
LTb
1118 4077 M
31 0 V
5582 0 R
-31 0 V
1118 4325 M
31 0 V
5582 0 R
-31 0 V
1118 4501 M
31 0 V
5582 0 R
-31 0 V
1118 4638 M
31 0 V
5582 0 R
-31 0 V
1118 4749 M
31 0 V
5582 0 R
-31 0 V
-5582 95 R
31 0 V
5582 0 R
-31 0 V
-5582 82 R
31 0 V
5582 0 R
-31 0 V
-5582 72 R
31 0 V
5582 0 R
-31 0 V
-5582 64 R
63 0 V
5550 0 R
-63 0 V
stroke
962 5062 M
[ [(Helvetica) 260.0 0.0 true true 0 (10)]
[(Helvetica) 208.0 130.0 true true 0 (-1)]
] -112.7 MRshow
1.000 UL
LTb
1118 5487 M
31 0 V
5582 0 R
-31 0 V
1118 5735 M
31 0 V
5582 0 R
-31 0 V
1118 832 M
0 31 V
0 4872 R
0 -31 V
1396 832 M
0 31 V
0 4872 R
0 -31 V
1612 832 M
0 31 V
0 4872 R
0 -31 V
1788 832 M
0 31 V
0 4872 R
0 -31 V
1937 832 M
0 31 V
0 4872 R
0 -31 V
2066 832 M
0 31 V
0 4872 R
0 -31 V
2180 832 M
0 31 V
0 4872 R
0 -31 V
2281 832 M
0 63 V
0 4840 R
0 -63 V
stroke
2281 572 M
[ [(Helvetica) 260.0 0.0 true true 0 (10)]
[(Helvetica) 208.0 130.0 true true 0 (5)]
] -112.7 MCshow
1.000 UL
LTb
2951 832 M
0 31 V
0 4872 R
0 -31 V
3343 832 M
0 31 V
0 4872 R
0 -31 V
3621 832 M
0 31 V
0 4872 R
0 -31 V
3836 832 M
0 31 V
0 4872 R
0 -31 V
4013 832 M
0 31 V
0 4872 R
0 -31 V
4162 832 M
0 31 V
0 4872 R
0 -31 V
4291 832 M
0 31 V
0 4872 R
0 -31 V
4404 832 M
0 31 V
0 4872 R
0 -31 V
4506 832 M
0 63 V
0 4840 R
0 -63 V
stroke
4506 572 M
[ [(Helvetica) 260.0 0.0 true true 0 (10)]
[(Helvetica) 208.0 130.0 true true 0 (6)]
] -112.7 MCshow
1.000 UL
LTb
5176 832 M
0 31 V
0 4872 R
0 -31 V
5568 832 M
0 31 V
0 4872 R
0 -31 V
5846 832 M
0 31 V
0 4872 R
0 -31 V
6061 832 M
0 31 V
0 4872 R
0 -31 V
6237 832 M
0 31 V
0 4872 R
0 -31 V
6386 832 M
0 31 V
0 4872 R
0 -31 V
6515 832 M
0 31 V
0 4872 R
0 -31 V
6629 832 M
0 31 V
0 4872 R
0 -31 V
6731 832 M
0 63 V
0 4840 R
0 -63 V
stroke
6731 572 M
[ [(Helvetica) 260.0 0.0 true true 0 (10)]
[(Helvetica) 208.0 130.0 true true 0 (7)]
] -112.7 MCshow
1.000 UL
LTb
1.000 UL
LTb
1118 5735 N
0 -4903 V
5613 0 V
0 4903 V
-5613 0 V
Z stroke
LCb setrgbcolor
208 3283 M
currentpoint gsave translate -270 rotate 0 0 moveto
[ [(Helvetica) 260.0 0.0 true true 0 (Concentration, c \()]
[(Symbol) 260.0 0.0 true true 0 (m)]
[(Helvetica) 260.0 0.0 true true 0 (Ci/ml\))]
] -86.7 MCshow
grestore
LTb
LCb setrgbcolor
3924 182 M
[ [(Helvetica) 260.0 0.0 true true 0 (t \(s\))]
] -86.7 MCshow
LTb
1.000 UP
1230 5490 M
[ [(Helvetica) 260.0 0.0 true true 0 (\(b\) test b4)]
] -86.7 MLshow
3343 3940 M
[ [(Helvetica) 260.0 0.0 true true 0 (5/2 slope)]
] -86.7 MLshow
1.000 UL
LTb
4671 4331 M
89 88 V
-121 -32 V
4162 4077 M
598 342 V
stroke
gsave [] 0 setdash
4671 4331 M
89 88 V
-121 -32 V
stroke
grestore
1.000 UL
LTb
% Begin plot #1
1.300 UP
1.000 UL
LT0
LCb setrgbcolor
4238 1987 M
[ [(Helvetica) 260.0 0.0 true true 0 (data)]
] -86.7 MRshow
LT0
1163 1555 CircleF
1242 1523 CircleF
1315 1452 CircleF
1383 1487 CircleF
1447 1449 CircleF
1507 1513 CircleF
1564 1525 CircleF
1618 1508 CircleF
1670 1500 CircleF
1718 1494 CircleF
1764 1517 CircleF
1809 1357 CircleF
1852 1545 CircleF
1893 1481 CircleF
1933 1440 CircleF
1972 1487 CircleF
2009 1467 CircleF
2045 1607 CircleF
2079 1541 CircleF
2113 1707 CircleF
2145 1502 CircleF
2176 1576 CircleF
2206 1541 CircleF
2235 1519 CircleF
2263 1626 CircleF
2290 1800 CircleF
2317 1847 CircleF
2342 1955 CircleF
2367 2067 CircleF
2390 2220 CircleF
2414 2302 CircleF
2436 2356 CircleF
2458 2475 CircleF
2479 2630 CircleF
2520 2829 CircleF
2567 3039 CircleF
2604 3187 CircleF
2640 3322 CircleF
2660 3403 CircleF
2697 3528 CircleF
2732 3656 CircleF
2767 3750 CircleF
2799 3849 CircleF
2831 3902 CircleF
2862 4016 CircleF
2877 4095 CircleF
2906 4164 CircleF
2934 4309 CircleF
2947 4253 CircleF
2985 4349 CircleF
3023 4398 CircleF
3059 4468 CircleF
3096 4501 CircleF
3131 4610 CircleF
3153 4636 CircleF
3185 4690 CircleF
3216 4731 CircleF
3246 4759 CircleF
3274 4769 CircleF
3302 4810 CircleF
3329 4883 CircleF
3355 4894 CircleF
3380 4899 CircleF
3406 4926 CircleF
3431 4938 CircleF
3455 4971 CircleF
3478 5006 CircleF
3500 4975 CircleF
3522 5031 CircleF
3543 5035 CircleF
3564 5027 CircleF
3585 5035 CircleF
3606 5057 CircleF
3646 5058 CircleF
3665 5092 CircleF
3684 5098 CircleF
3721 5098 CircleF
3738 5116 CircleF
3756 5110 CircleF
3774 5133 CircleF
3791 5122 CircleF
3808 5127 CircleF
3840 5187 CircleF
3856 5187 CircleF
3871 5197 CircleF
3886 5202 CircleF
3901 5207 CircleF
3915 5202 CircleF
3930 5197 CircleF
3944 5166 CircleF
3958 5187 CircleF
3972 5192 CircleF
3987 5197 CircleF
4000 5217 CircleF
4014 5182 CircleF
4065 5192 CircleF
4078 5207 CircleF
4091 5222 CircleF
4103 5246 CircleF
4115 5227 CircleF
4127 5246 CircleF
4138 5231 CircleF
4161 5260 CircleF
4172 5227 CircleF
4184 5260 CircleF
4195 5217 CircleF
4207 5217 CircleF
4218 5255 CircleF
4229 5246 CircleF
4240 5273 CircleF
4251 5250 CircleF
4261 5236 CircleF
4272 5246 CircleF
4282 5299 CircleF
4302 5291 CircleF
4312 5273 CircleF
4331 5291 CircleF
4341 5304 CircleF
4350 5304 CircleF
4359 5308 CircleF
4368 5282 CircleF
4377 5304 CircleF
4386 5291 CircleF
4396 5278 CircleF
4405 5269 CircleF
4414 5282 CircleF
4423 5299 CircleF
4432 5295 CircleF
4441 5282 CircleF
4449 5312 CircleF
4458 5308 CircleF
4474 5316 CircleF
4482 5299 CircleF
4491 5278 CircleF
4507 5312 CircleF
4515 5312 CircleF
4554 5316 CircleF
4561 5308 CircleF
4569 5282 CircleF
4572 5299 CircleF
4577 5299 CircleF
4585 5295 CircleF
4590 5304 CircleF
4617 5333 CircleF
4622 5286 CircleF
4627 5291 CircleF
4632 5299 CircleF
4637 5295 CircleF
4641 5312 CircleF
4646 5320 CircleF
4651 5320 CircleF
4655 5308 CircleF
4673 5329 CircleF
4677 5312 CircleF
4686 5299 CircleF
4691 5282 CircleF
4696 5308 CircleF
4700 5304 CircleF
4705 5308 CircleF
4709 5291 CircleF
4713 5286 CircleF
4718 5304 CircleF
4722 5304 CircleF
4726 5308 CircleF
4730 5286 CircleF
4735 5269 CircleF
4739 5278 CircleF
4743 5273 CircleF
4747 5260 CircleF
4752 5241 CircleF
4756 5222 CircleF
4760 5217 CircleF
4765 5212 CircleF
4769 5207 CircleF
4773 5192 CircleF
4777 5197 CircleF
4792 5161 CircleF
4796 5161 CircleF
4800 5139 CircleF
4804 5104 CircleF
4808 5098 CircleF
4812 5064 CircleF
4816 5044 CircleF
4820 5035 CircleF
4824 5048 CircleF
4828 5016 CircleF
4832 5035 CircleF
4836 5017 CircleF
4840 4999 CircleF
4843 5002 CircleF
4849 5003 CircleF
4854 4987 CircleF
4860 4941 CircleF
4865 4917 CircleF
4871 4910 CircleF
4877 4848 CircleF
4882 4877 CircleF
4888 4856 CircleF
4893 4850 CircleF
4899 4770 CircleF
4909 4793 CircleF
4914 4755 CircleF
4919 4718 CircleF
4930 4710 CircleF
4935 4700 CircleF
4940 4704 CircleF
4945 4690 CircleF
4950 4661 CircleF
4955 4667 CircleF
4960 4621 CircleF
4965 4619 CircleF
4970 4630 CircleF
4975 4563 CircleF
4980 4545 CircleF
4985 4537 CircleF
4990 4546 CircleF
4995 4546 CircleF
5000 4519 CircleF
5004 4508 CircleF
5014 4488 CircleF
5018 4443 CircleF
5023 4446 CircleF
5028 4421 CircleF
5033 4388 CircleF
5037 4383 CircleF
5042 4381 CircleF
5047 4367 CircleF
5051 4371 CircleF
5055 4333 CircleF
5059 4333 CircleF
5064 4353 CircleF
5069 4299 CircleF
5073 4312 CircleF
5078 4262 CircleF
5082 4221 CircleF
5085 4290 CircleF
5088 4292 CircleF
5091 4234 CircleF
5094 4276 CircleF
5097 4279 CircleF
5100 4216 CircleF
5102 4236 CircleF
5108 4201 CircleF
5111 4214 CircleF
5117 4175 CircleF
5120 4186 CircleF
5123 4167 CircleF
5128 4186 CircleF
5131 4139 CircleF
5134 4159 CircleF
5137 4159 CircleF
5139 4199 CircleF
5143 4034 CircleF
5147 4156 CircleF
5150 4122 CircleF
5153 4082 CircleF
5156 4098 CircleF
5159 4082 CircleF
5162 4050 CircleF
5164 4085 CircleF
5167 4085 CircleF
5170 4063 CircleF
5173 4057 CircleF
5178 4076 CircleF
5181 4044 CircleF
5183 4034 CircleF
5186 4047 CircleF
5193 4076 CircleF
5196 4057 CircleF
5199 4044 CircleF
5201 4023 CircleF
5204 4050 CircleF
5206 4044 CircleF
5209 4057 CircleF
5211 4034 CircleF
5213 4002 CircleF
5216 4013 CircleF
5218 3958 CircleF
5221 3992 CircleF
5223 3954 CircleF
5226 3954 CircleF
5228 3935 CircleF
5231 3939 CircleF
5234 3854 CircleF
5237 3863 CircleF
5239 3889 CircleF
5242 3923 CircleF
5246 3931 CircleF
5249 3927 CircleF
5253 3919 CircleF
5256 3902 CircleF
5260 3872 CircleF
5264 3885 CircleF
5268 3777 CircleF
5271 3849 CircleF
5275 3831 CircleF
5279 3854 CircleF
5282 3849 CircleF
5286 3845 CircleF
5290 3676 CircleF
5293 3821 CircleF
5297 3792 CircleF
5300 3859 CircleF
5304 3782 CircleF
5308 3787 CircleF
5311 3772 CircleF
5315 3792 CircleF
5318 3756 CircleF
5322 3750 CircleF
5325 3761 CircleF
5328 3750 CircleF
5338 3766 CircleF
5342 3740 CircleF
5345 3712 CircleF
5348 3729 CircleF
5352 3657 CircleF
5355 3723 CircleF
5362 3676 CircleF
5365 3617 CircleF
5369 3662 CircleF
5372 3650 CircleF
5376 3630 CircleF
5379 3694 CircleF
5382 3657 CircleF
5385 3632 CircleF
5388 3682 CircleF
5392 3657 CircleF
5395 3646 CircleF
5398 3591 CircleF
4581 1987 CircleF
% End plot #1
% Begin plot #2
3.000 UL
LT0
LCb setrgbcolor
4238 1675 M
[ [(Helvetica) 260.0 0.0 true true 0 (single porosity)]
] -86.7 MRshow
LT0
4394 1675 M
375 0 V
1118 1515 M
32 4 V
30 5 V
30 5 V
29 7 V
28 9 V
27 10 V
27 11 V
25 14 V
26 15 V
24 17 V
24 19 V
23 21 V
23 22 V
22 25 V
22 26 V
21 28 V
21 30 V
20 31 V
20 32 V
20 33 V
19 34 V
18 36 V
19 35 V
18 36 V
18 37 V
17 37 V
17 37 V
17 37 V
17 37 V
16 37 V
16 37 V
15 37 V
16 36 V
15 36 V
15 35 V
15 36 V
14 34 V
15 34 V
14 34 V
14 33 V
13 33 V
14 32 V
13 32 V
13 31 V
13 31 V
13 30 V
13 30 V
12 29 V
13 28 V
12 29 V
12 27 V
12 27 V
11 27 V
12 26 V
11 26 V
12 25 V
11 25 V
11 24 V
11 24 V
11 24 V
10 23 V
11 23 V
10 22 V
11 22 V
10 22 V
10 21 V
10 21 V
10 20 V
10 20 V
9 20 V
92 182 V
84 155 V
78 134 V
71 117 V
67 102 V
62 91 V
59 82 V
55 73 V
53 66 V
49 59 V
47 55 V
45 49 V
43 46 V
41 42 V
40 39 V
38 36 V
36 33 V
35 31 V
34 29 V
33 27 V
32 25 V
30 24 V
30 22 V
29 21 V
28 20 V
27 19 V
26 17 V
26 17 V
25 15 V
25 15 V
24 14 V
23 14 V
stroke 3668 5039 M
23 12 V
22 13 V
22 11 V
21 11 V
21 10 V
20 10 V
20 10 V
19 9 V
20 8 V
18 9 V
19 8 V
18 7 V
18 7 V
17 7 V
17 7 V
17 6 V
16 6 V
17 6 V
16 6 V
15 5 V
16 5 V
15 5 V
15 5 V
15 5 V
14 4 V
15 4 V
14 4 V
14 4 V
13 4 V
14 4 V
13 3 V
13 4 V
13 3 V
13 3 V
13 3 V
12 3 V
12 3 V
13 2 V
12 3 V
11 2 V
12 3 V
12 2 V
11 3 V
11 2 V
12 2 V
11 2 V
11 2 V
10 2 V
11 2 V
11 1 V
10 2 V
10 2 V
11 1 V
10 2 V
10 1 V
10 2 V
9 1 V
10 1 V
92 13 V
84 -8 V
78 -105 V
71 -170 V
67 -186 V
62 -189 V
59 -190 V
55 -188 V
52 -185 V
50 -183 V
47 -180 V
45 -179 V
43 -176 V
41 -174 V
40 -172 V
37 -171 V
37 -169 V
35 -167 V
34 -167 V
33 -165 V
31 -164 V
31 -163 V
30 -162 V
29 -162 V
28 -161 V
27 -160 V
26 -161 V
26 -160 V
12 -77 V
% End plot #2
% Begin plot #3
stroke
LT6
LCb setrgbcolor
4238 1363 M
[ [(Helvetica) 260.0 0.0 true true 0 (double porosity)]
] -86.7 MRshow
LT6
4394 1363 M
375 0 V
1118 1505 M
32 0 V
30 0 V
30 0 V
29 0 V
28 0 V
27 0 V
27 0 V
25 1 V
26 1 V
24 0 V
24 1 V
23 1 V
23 2 V
22 2 V
22 2 V
21 2 V
21 4 V
20 3 V
20 5 V
20 5 V
19 6 V
18 7 V
19 9 V
18 9 V
18 10 V
17 11 V
17 14 V
17 14 V
17 15 V
16 17 V
16 18 V
15 20 V
16 20 V
15 22 V
15 24 V
15 25 V
14 25 V
15 27 V
14 28 V
14 29 V
13 29 V
14 30 V
13 31 V
13 32 V
13 31 V
13 33 V
13 32 V
12 33 V
13 33 V
12 33 V
12 33 V
12 33 V
11 33 V
12 33 V
11 33 V
12 33 V
11 32 V
11 32 V
11 32 V
11 32 V
10 31 V
11 31 V
10 31 V
11 30 V
10 30 V
10 30 V
10 29 V
10 29 V
10 28 V
9 28 V
92 260 V
84 225 V
78 195 V
71 168 V
67 147 V
62 130 V
59 114 V
55 101 V
53 90 V
49 81 V
47 73 V
45 65 V
43 60 V
41 54 V
40 49 V
38 45 V
36 42 V
35 37 V
34 35 V
33 32 V
32 30 V
30 27 V
30 26 V
29 23 V
28 22 V
27 21 V
26 19 V
26 17 V
25 17 V
25 15 V
24 14 V
23 14 V
stroke 3668 5072 M
23 12 V
22 12 V
22 11 V
21 11 V
21 10 V
20 9 V
20 8 V
19 9 V
20 7 V
18 7 V
19 7 V
18 7 V
18 6 V
17 6 V
17 5 V
17 5 V
16 5 V
17 5 V
16 4 V
15 4 V
16 4 V
15 4 V
15 4 V
15 3 V
14 4 V
15 3 V
14 3 V
14 3 V
13 2 V
14 3 V
13 2 V
13 3 V
13 2 V
13 2 V
13 2 V
12 3 V
12 1 V
13 2 V
12 2 V
11 2 V
12 2 V
12 1 V
11 2 V
11 1 V
12 2 V
11 1 V
11 2 V
10 1 V
11 1 V
11 2 V
10 1 V
10 1 V
11 1 V
10 1 V
10 1 V
10 1 V
9 1 V
10 1 V
92 11 V
84 4 V
78 -81 V
71 -195 V
67 -231 V
62 -218 V
59 -187 V
55 -147 V
52 -113 V
50 -88 V
47 -68 V
45 -53 V
43 -45 V
41 -40 V
40 -36 V
37 -35 V
37 -34 V
35 -34 V
34 -33 V
33 -32 V
31 -33 V
31 -33 V
30 -32 V
29 -32 V
28 -33 V
27 -32 V
26 -33 V
26 -32 V
25 -33 V
25 -32 V
24 -33 V
23 -32 V
23 -33 V
22 -32 V
21 -33 V
22 -32 V
20 -33 V
21 -32 V
20 -33 V
19 -32 V
19 -33 V
19 -32 V
19 -33 V
18 -33 V
17 -32 V
18 -33 V
stroke 6171 2798 M
17 -32 V
17 -33 V
16 -33 V
16 -32 V
16 -33 V
16 -33 V
16 -32 V
15 -33 V
15 -33 V
15 -32 V
14 -33 V
14 -33 V
14 -32 V
14 -33 V
14 -33 V
14 -32 V
13 -33 V
13 -33 V
13 -33 V
13 -32 V
12 -33 V
13 -33 V
12 -33 V
12 -33 V
12 -32 V
12 -33 V
12 -33 V
12 -33 V
11 -33 V
11 -32 V
11 -33 V
11 -33 V
11 -33 V
11 -33 V
11 -33 V
10 -32 V
11 -33 V
10 -33 V
10 -33 V
11 -33 V
10 -33 V
9 -33 V
10 -33 V
% End plot #3
% Begin plot #4
stroke
8.000 UL
LT0
LCb setrgbcolor
4238 1051 M
[ [(Helvetica) 260.0 0.0 true true 0 (multirate lognormal)]
] -86.7 MRshow
LT0
4394 1051 M
375 0 V
1118 1501 M
32 0 V
30 0 V
30 0 V
29 0 V
28 0 V
27 0 V
27 0 V
25 0 V
26 0 V
24 0 V
24 0 V
23 0 V
23 0 V
22 0 V
22 0 V
21 0 V
21 0 V
20 0 V
20 0 V
20 0 V
19 0 V
18 0 V
19 1 V
18 0 V
18 0 V
17 0 V
17 1 V
17 0 V
17 1 V
16 1 V
16 1 V
15 2 V
16 1 V
15 3 V
15 2 V
15 3 V
14 3 V
15 4 V
14 5 V
14 6 V
13 6 V
14 7 V
13 8 V
13 10 V
13 10 V
13 11 V
13 13 V
12 14 V
13 15 V
12 17 V
12 18 V
12 20 V
11 20 V
12 23 V
11 23 V
12 25 V
11 26 V
11 27 V
11 29 V
11 29 V
10 31 V
11 31 V
10 32 V
11 33 V
10 33 V
10 34 V
10 34 V
10 34 V
10 35 V
9 35 V
92 348 V
84 321 V
78 282 V
71 242 V
67 208 V
62 178 V
59 153 V
55 133 V
53 116 V
49 100 V
47 89 V
45 77 V
43 69 V
41 61 V
40 54 V
38 49 V
36 43 V
35 39 V
34 35 V
33 32 V
32 29 V
30 27 V
30 24 V
29 22 V
28 20 V
27 18 V
26 18 V
26 15 V
25 15 V
25 14 V
24 12 V
23 12 V
stroke 3668 5073 M
23 11 V
22 11 V
22 10 V
21 9 V
21 8 V
20 9 V
20 7 V
19 7 V
20 7 V
18 7 V
19 6 V
18 6 V
18 6 V
17 5 V
17 5 V
17 5 V
16 5 V
17 4 V
16 5 V
15 4 V
16 4 V
15 4 V
15 3 V
15 4 V
14 3 V
15 4 V
14 3 V
14 3 V
13 3 V
14 3 V
13 2 V
13 3 V
13 3 V
13 2 V
13 2 V
12 3 V
12 2 V
13 2 V
12 2 V
11 3 V
12 2 V
12 2 V
11 1 V
11 2 V
12 2 V
11 2 V
11 2 V
10 1 V
11 2 V
11 1 V
10 2 V
10 1 V
11 2 V
10 1 V
10 2 V
10 1 V
9 1 V
10 2 V
92 12 V
84 8 V
78 -79 V
71 -222 V
67 -228 V
62 -190 V
59 -160 V
55 -139 V
52 -123 V
50 -111 V
47 -102 V
45 -94 V
43 -88 V
41 -82 V
40 -77 V
37 -74 V
37 -70 V
35 -67 V
34 -63 V
33 -62 V
31 -58 V
31 -57 V
30 -55 V
29 -53 V
28 -51 V
27 -49 V
26 -48 V
26 -47 V
25 -45 V
25 -45 V
24 -43 V
23 -41 V
23 -41 V
22 -40 V
21 -39 V
22 -38 V
20 -37 V
21 -36 V
20 -36 V
19 -34 V
19 -34 V
19 -33 V
19 -32 V
18 -32 V
17 -31 V
18 -30 V
stroke 6171 2201 M
17 -29 V
17 -29 V
16 -28 V
16 -28 V
16 -26 V
16 -27 V
16 -25 V
15 -25 V
15 -24 V
15 -24 V
14 -23 V
14 -23 V
14 -22 V
14 -22 V
14 -21 V
14 -21 V
13 -20 V
13 -20 V
13 -19 V
13 -19 V
12 -18 V
13 -18 V
12 -18 V
12 -17 V
12 -17 V
12 -16 V
12 -17 V
12 -15 V
11 -16 V
11 -15 V
11 -15 V
11 -15 V
11 -14 V
11 -14 V
11 -14 V
10 -14 V
11 -14 V
10 -13 V
10 -13 V
11 -13 V
10 -13 V
9 -12 V
10 -13 V
% End plot #4
% Begin plot #5
stroke
4.000 UL
LT4
3989 5735 M
21 -33 V
56 -89 V
57 -90 V
57 -90 V
56 -90 V
57 -90 V
57 -90 V
56 -89 V
57 -90 V
57 -90 V
57 -90 V
56 -90 V
57 -90 V
57 -89 V
56 -90 V
57 -90 V
57 -90 V
56 -90 V
57 -90 V
57 -89 V
56 -90 V
57 -90 V
57 -90 V
57 -90 V
56 -90 V
57 -89 V
57 -90 V
56 -90 V
57 -90 V
57 -90 V
56 -90 V
57 -89 V
57 -90 V
57 -90 V
56 -90 V
57 -90 V
57 -90 V
56 -89 V
57 -90 V
57 -90 V
56 -90 V
57 -90 V
57 -90 V
57 -90 V
56 -89 V
57 -90 V
57 -90 V
56 -90 V
57 -90 V
% End plot #5
stroke
1.000 UL
LTb
1118 5735 N
0 -4903 V
5613 0 V
0 4903 V
-5613 0 V
Z stroke
1.000 UP
1.000 UL
LTb
stroke
grestore
end
showpage
%%Trailer
%%DocumentFonts: Symbol Helvetica
