%!PS-Adobe-2.0 EPSF-2.0
%%Title: B4_22Na_logn0a.eps
%%Creator: gnuplot 4.2 patchlevel 6 
%%CreationDate: Thu Aug  4 15:34:48 2011
%%DocumentFonts: (atend)
%%BoundingBox: 50 50 410 352
%%EndComments
%%BeginProlog
/gnudict 256 dict def
gnudict begin
%
% The following 6 true/false flags may be edited by hand if required
% The unit line width may also be changed
%
/Color false def
/Blacktext false def
/Solid false def
/Dashlength 1 def
/Landscape false def
/Level1 false def
/Rounded false def
/TransparentPatterns false def
/gnulinewidth 5.000 def
/userlinewidth gnulinewidth def
%
/vshift -86 def
/dl1 {
  10.0 Dashlength mul mul
  Rounded { currentlinewidth 0.75 mul sub dup 0 le { pop 0.01 } if } if
} def
/dl2 {
  10.0 Dashlength mul mul
  Rounded { currentlinewidth 0.75 mul add } if
} def
/hpt_ 31.5 def
/vpt_ 31.5 def
/hpt hpt_ def
/vpt vpt_ def
Level1 {} {
/SDict 10 dict def
systemdict /pdfmark known not {
  userdict /pdfmark systemdict /cleartomark get put
} if
SDict begin [
  /Title (B4_22Na_logn0a.eps)
  /Subject (gnuplot plot)
  /Creator (gnuplot 4.2 patchlevel 6 )
  /Author (Bwalya Malama,,,)
%  /Producer (gnuplot)
%  /Keywords ()
  /CreationDate (Thu Aug  4 15:34:48 2011)
  /DOCINFO pdfmark
end
} ifelse
%
% Gnuplot Prolog Version 4.2 (August 2006)
%
/M {moveto} bind def
/L {lineto} bind def
/R {rmoveto} bind def
/V {rlineto} bind def
/N {newpath moveto} bind def
/Z {closepath} bind def
/C {setrgbcolor} bind def
/f {rlineto fill} bind def
/vpt2 vpt 2 mul def
/hpt2 hpt 2 mul def
/Lshow {currentpoint stroke M 0 vshift R 
	Blacktext {gsave 0 setgray show grestore} {show} ifelse} def
/Rshow {currentpoint stroke M dup stringwidth pop neg vshift R
	Blacktext {gsave 0 setgray show grestore} {show} ifelse} def
/Cshow {currentpoint stroke M dup stringwidth pop -2 div vshift R 
	Blacktext {gsave 0 setgray show grestore} {show} ifelse} def
/UP {dup vpt_ mul /vpt exch def hpt_ mul /hpt exch def
  /hpt2 hpt 2 mul def /vpt2 vpt 2 mul def} def
/DL {Color {setrgbcolor Solid {pop []} if 0 setdash}
 {pop pop pop 0 setgray Solid {pop []} if 0 setdash} ifelse} def
/BL {stroke userlinewidth 2 mul setlinewidth
	Rounded {1 setlinejoin 1 setlinecap} if} def
/AL {stroke userlinewidth 2 div setlinewidth
	Rounded {1 setlinejoin 1 setlinecap} if} def
/UL {dup gnulinewidth mul /userlinewidth exch def
	dup 1 lt {pop 1} if 10 mul /udl exch def} def
/PL {stroke userlinewidth setlinewidth
	Rounded {1 setlinejoin 1 setlinecap} if} def
% Default Line colors
/LCw {1 1 1} def
/LCb {0 0 0} def
/LCa {0 0 0} def
/LC0 {1 0 0} def
/LC1 {0 1 0} def
/LC2 {0 0 1} def
/LC3 {1 0 1} def
/LC4 {0 1 1} def
/LC5 {1 1 0} def
/LC6 {0 0 0} def
/LC7 {1 0.3 0} def
/LC8 {0.5 0.5 0.5} def
% Default Line Types
/LTw {PL [] 1 setgray} def
/LTb {BL [] LCb DL} def
/LTa {AL [1 udl mul 2 udl mul] 0 setdash LCa setrgbcolor} def
/LT0 {PL [] LC0 DL} def
/LT1 {PL [4 dl1 2 dl2] LC1 DL} def
/LT2 {PL [2 dl1 3 dl2] LC2 DL} def
/LT3 {PL [1 dl1 1.5 dl2] LC3 DL} def
/LT4 {PL [6 dl1 2 dl2 1 dl1 2 dl2] LC4 DL} def
/LT5 {PL [3 dl1 3 dl2 1 dl1 3 dl2] LC5 DL} def
/LT6 {PL [2 dl1 2 dl2 2 dl1 6 dl2] LC6 DL} def
/LT7 {PL [1 dl1 2 dl2 6 dl1 2 dl2 1 dl1 2 dl2] LC7 DL} def
/LT8 {PL [2 dl1 2 dl2 2 dl1 2 dl2 2 dl1 2 dl2 2 dl1 4 dl2] LC8 DL} def
/Pnt {stroke [] 0 setdash gsave 1 setlinecap M 0 0 V stroke grestore} def
/Dia {stroke [] 0 setdash 2 copy vpt add M
  hpt neg vpt neg V hpt vpt neg V
  hpt vpt V hpt neg vpt V closepath stroke
  Pnt} def
/Pls {stroke [] 0 setdash vpt sub M 0 vpt2 V
  currentpoint stroke M
  hpt neg vpt neg R hpt2 0 V stroke
 } def
/Box {stroke [] 0 setdash 2 copy exch hpt sub exch vpt add M
  0 vpt2 neg V hpt2 0 V 0 vpt2 V
  hpt2 neg 0 V closepath stroke
  Pnt} def
/Crs {stroke [] 0 setdash exch hpt sub exch vpt add M
  hpt2 vpt2 neg V currentpoint stroke M
  hpt2 neg 0 R hpt2 vpt2 V stroke} def
/TriU {stroke [] 0 setdash 2 copy vpt 1.12 mul add M
  hpt neg vpt -1.62 mul V
  hpt 2 mul 0 V
  hpt neg vpt 1.62 mul V closepath stroke
  Pnt} def
/Star {2 copy Pls Crs} def
/BoxF {stroke [] 0 setdash exch hpt sub exch vpt add M
  0 vpt2 neg V hpt2 0 V 0 vpt2 V
  hpt2 neg 0 V closepath fill} def
/TriUF {stroke [] 0 setdash vpt 1.12 mul add M
  hpt neg vpt -1.62 mul V
  hpt 2 mul 0 V
  hpt neg vpt 1.62 mul V closepath fill} def
/TriD {stroke [] 0 setdash 2 copy vpt 1.12 mul sub M
  hpt neg vpt 1.62 mul V
  hpt 2 mul 0 V
  hpt neg vpt -1.62 mul V closepath stroke
  Pnt} def
/TriDF {stroke [] 0 setdash vpt 1.12 mul sub M
  hpt neg vpt 1.62 mul V
  hpt 2 mul 0 V
  hpt neg vpt -1.62 mul V closepath fill} def
/DiaF {stroke [] 0 setdash vpt add M
  hpt neg vpt neg V hpt vpt neg V
  hpt vpt V hpt neg vpt V closepath fill} def
/Pent {stroke [] 0 setdash 2 copy gsave
  translate 0 hpt M 4 {72 rotate 0 hpt L} repeat
  closepath stroke grestore Pnt} def
/PentF {stroke [] 0 setdash gsave
  translate 0 hpt M 4 {72 rotate 0 hpt L} repeat
  closepath fill grestore} def
/Circle {stroke [] 0 setdash 2 copy
  hpt 0 360 arc stroke Pnt} def
/CircleF {stroke [] 0 setdash hpt 0 360 arc fill} def
/C0 {BL [] 0 setdash 2 copy moveto vpt 90 450 arc} bind def
/C1 {BL [] 0 setdash 2 copy moveto
	2 copy vpt 0 90 arc closepath fill
	vpt 0 360 arc closepath} bind def
/C2 {BL [] 0 setdash 2 copy moveto
	2 copy vpt 90 180 arc closepath fill
	vpt 0 360 arc closepath} bind def
/C3 {BL [] 0 setdash 2 copy moveto
	2 copy vpt 0 180 arc closepath fill
	vpt 0 360 arc closepath} bind def
/C4 {BL [] 0 setdash 2 copy moveto
	2 copy vpt 180 270 arc closepath fill
	vpt 0 360 arc closepath} bind def
/C5 {BL [] 0 setdash 2 copy moveto
	2 copy vpt 0 90 arc
	2 copy moveto
	2 copy vpt 180 270 arc closepath fill
	vpt 0 360 arc} bind def
/C6 {BL [] 0 setdash 2 copy moveto
	2 copy vpt 90 270 arc closepath fill
	vpt 0 360 arc closepath} bind def
/C7 {BL [] 0 setdash 2 copy moveto
	2 copy vpt 0 270 arc closepath fill
	vpt 0 360 arc closepath} bind def
/C8 {BL [] 0 setdash 2 copy moveto
	2 copy vpt 270 360 arc closepath fill
	vpt 0 360 arc closepath} bind def
/C9 {BL [] 0 setdash 2 copy moveto
	2 copy vpt 270 450 arc closepath fill
	vpt 0 360 arc closepath} bind def
/C10 {BL [] 0 setdash 2 copy 2 copy moveto vpt 270 360 arc closepath fill
	2 copy moveto
	2 copy vpt 90 180 arc closepath fill
	vpt 0 360 arc closepath} bind def
/C11 {BL [] 0 setdash 2 copy moveto
	2 copy vpt 0 180 arc closepath fill
	2 copy moveto
	2 copy vpt 270 360 arc closepath fill
	vpt 0 360 arc closepath} bind def
/C12 {BL [] 0 setdash 2 copy moveto
	2 copy vpt 180 360 arc closepath fill
	vpt 0 360 arc closepath} bind def
/C13 {BL [] 0 setdash 2 copy moveto
	2 copy vpt 0 90 arc closepath fill
	2 copy moveto
	2 copy vpt 180 360 arc closepath fill
	vpt 0 360 arc closepath} bind def
/C14 {BL [] 0 setdash 2 copy moveto
	2 copy vpt 90 360 arc closepath fill
	vpt 0 360 arc} bind def
/C15 {BL [] 0 setdash 2 copy vpt 0 360 arc closepath fill
	vpt 0 360 arc closepath} bind def
/Rec {newpath 4 2 roll moveto 1 index 0 rlineto 0 exch rlineto
	neg 0 rlineto closepath} bind def
/Square {dup Rec} bind def
/Bsquare {vpt sub exch vpt sub exch vpt2 Square} bind def
/S0 {BL [] 0 setdash 2 copy moveto 0 vpt rlineto BL Bsquare} bind def
/S1 {BL [] 0 setdash 2 copy vpt Square fill Bsquare} bind def
/S2 {BL [] 0 setdash 2 copy exch vpt sub exch vpt Square fill Bsquare} bind def
/S3 {BL [] 0 setdash 2 copy exch vpt sub exch vpt2 vpt Rec fill Bsquare} bind def
/S4 {BL [] 0 setdash 2 copy exch vpt sub exch vpt sub vpt Square fill Bsquare} bind def
/S5 {BL [] 0 setdash 2 copy 2 copy vpt Square fill
	exch vpt sub exch vpt sub vpt Square fill Bsquare} bind def
/S6 {BL [] 0 setdash 2 copy exch vpt sub exch vpt sub vpt vpt2 Rec fill Bsquare} bind def
/S7 {BL [] 0 setdash 2 copy exch vpt sub exch vpt sub vpt vpt2 Rec fill
	2 copy vpt Square fill Bsquare} bind def
/S8 {BL [] 0 setdash 2 copy vpt sub vpt Square fill Bsquare} bind def
/S9 {BL [] 0 setdash 2 copy vpt sub vpt vpt2 Rec fill Bsquare} bind def
/S10 {BL [] 0 setdash 2 copy vpt sub vpt Square fill 2 copy exch vpt sub exch vpt Square fill
	Bsquare} bind def
/S11 {BL [] 0 setdash 2 copy vpt sub vpt Square fill 2 copy exch vpt sub exch vpt2 vpt Rec fill
	Bsquare} bind def
/S12 {BL [] 0 setdash 2 copy exch vpt sub exch vpt sub vpt2 vpt Rec fill Bsquare} bind def
/S13 {BL [] 0 setdash 2 copy exch vpt sub exch vpt sub vpt2 vpt Rec fill
	2 copy vpt Square fill Bsquare} bind def
/S14 {BL [] 0 setdash 2 copy exch vpt sub exch vpt sub vpt2 vpt Rec fill
	2 copy exch vpt sub exch vpt Square fill Bsquare} bind def
/S15 {BL [] 0 setdash 2 copy Bsquare fill Bsquare} bind def
/D0 {gsave translate 45 rotate 0 0 S0 stroke grestore} bind def
/D1 {gsave translate 45 rotate 0 0 S1 stroke grestore} bind def
/D2 {gsave translate 45 rotate 0 0 S2 stroke grestore} bind def
/D3 {gsave translate 45 rotate 0 0 S3 stroke grestore} bind def
/D4 {gsave translate 45 rotate 0 0 S4 stroke grestore} bind def
/D5 {gsave translate 45 rotate 0 0 S5 stroke grestore} bind def
/D6 {gsave translate 45 rotate 0 0 S6 stroke grestore} bind def
/D7 {gsave translate 45 rotate 0 0 S7 stroke grestore} bind def
/D8 {gsave translate 45 rotate 0 0 S8 stroke grestore} bind def
/D9 {gsave translate 45 rotate 0 0 S9 stroke grestore} bind def
/D10 {gsave translate 45 rotate 0 0 S10 stroke grestore} bind def
/D11 {gsave translate 45 rotate 0 0 S11 stroke grestore} bind def
/D12 {gsave translate 45 rotate 0 0 S12 stroke grestore} bind def
/D13 {gsave translate 45 rotate 0 0 S13 stroke grestore} bind def
/D14 {gsave translate 45 rotate 0 0 S14 stroke grestore} bind def
/D15 {gsave translate 45 rotate 0 0 S15 stroke grestore} bind def
/DiaE {stroke [] 0 setdash vpt add M
  hpt neg vpt neg V hpt vpt neg V
  hpt vpt V hpt neg vpt V closepath stroke} def
/BoxE {stroke [] 0 setdash exch hpt sub exch vpt add M
  0 vpt2 neg V hpt2 0 V 0 vpt2 V
  hpt2 neg 0 V closepath stroke} def
/TriUE {stroke [] 0 setdash vpt 1.12 mul add M
  hpt neg vpt -1.62 mul V
  hpt 2 mul 0 V
  hpt neg vpt 1.62 mul V closepath stroke} def
/TriDE {stroke [] 0 setdash vpt 1.12 mul sub M
  hpt neg vpt 1.62 mul V
  hpt 2 mul 0 V
  hpt neg vpt -1.62 mul V closepath stroke} def
/PentE {stroke [] 0 setdash gsave
  translate 0 hpt M 4 {72 rotate 0 hpt L} repeat
  closepath stroke grestore} def
/CircE {stroke [] 0 setdash 
  hpt 0 360 arc stroke} def
/Opaque {gsave closepath 1 setgray fill grestore 0 setgray closepath} def
/DiaW {stroke [] 0 setdash vpt add M
  hpt neg vpt neg V hpt vpt neg V
  hpt vpt V hpt neg vpt V Opaque stroke} def
/BoxW {stroke [] 0 setdash exch hpt sub exch vpt add M
  0 vpt2 neg V hpt2 0 V 0 vpt2 V
  hpt2 neg 0 V Opaque stroke} def
/TriUW {stroke [] 0 setdash vpt 1.12 mul add M
  hpt neg vpt -1.62 mul V
  hpt 2 mul 0 V
  hpt neg vpt 1.62 mul V Opaque stroke} def
/TriDW {stroke [] 0 setdash vpt 1.12 mul sub M
  hpt neg vpt 1.62 mul V
  hpt 2 mul 0 V
  hpt neg vpt -1.62 mul V Opaque stroke} def
/PentW {stroke [] 0 setdash gsave
  translate 0 hpt M 4 {72 rotate 0 hpt L} repeat
  Opaque stroke grestore} def
/CircW {stroke [] 0 setdash 
  hpt 0 360 arc Opaque stroke} def
/BoxFill {gsave Rec 1 setgray fill grestore} def
/Density {
  /Fillden exch def
  currentrgbcolor
  /ColB exch def /ColG exch def /ColR exch def
  /ColR ColR Fillden mul Fillden sub 1 add def
  /ColG ColG Fillden mul Fillden sub 1 add def
  /ColB ColB Fillden mul Fillden sub 1 add def
  ColR ColG ColB setrgbcolor} def
/BoxColFill {gsave Rec PolyFill} def
/PolyFill {gsave Density fill grestore grestore} def
/h {rlineto rlineto rlineto gsave closepath fill grestore} bind def
%
% PostScript Level 1 Pattern Fill routine for rectangles
% Usage: x y w h s a XX PatternFill
%	x,y = lower left corner of box to be filled
%	w,h = width and height of box
%	  a = angle in degrees between lines and x-axis
%	 XX = 0/1 for no/yes cross-hatch
%
/PatternFill {gsave /PFa [ 9 2 roll ] def
  PFa 0 get PFa 2 get 2 div add PFa 1 get PFa 3 get 2 div add translate
  PFa 2 get -2 div PFa 3 get -2 div PFa 2 get PFa 3 get Rec
  gsave 1 setgray fill grestore clip
  currentlinewidth 0.5 mul setlinewidth
  /PFs PFa 2 get dup mul PFa 3 get dup mul add sqrt def
  0 0 M PFa 5 get rotate PFs -2 div dup translate
  0 1 PFs PFa 4 get div 1 add floor cvi
	{PFa 4 get mul 0 M 0 PFs V} for
  0 PFa 6 get ne {
	0 1 PFs PFa 4 get div 1 add floor cvi
	{PFa 4 get mul 0 2 1 roll M PFs 0 V} for
 } if
  stroke grestore} def
%
/languagelevel where
 {pop languagelevel} {1} ifelse
 2 lt
	{/InterpretLevel1 true def}
	{/InterpretLevel1 Level1 def}
 ifelse
%
% PostScript level 2 pattern fill definitions
%
/Level2PatternFill {
/Tile8x8 {/PaintType 2 /PatternType 1 /TilingType 1 /BBox [0 0 8 8] /XStep 8 /YStep 8}
	bind def
/KeepColor {currentrgbcolor [/Pattern /DeviceRGB] setcolorspace} bind def
<< Tile8x8
 /PaintProc {0.5 setlinewidth pop 0 0 M 8 8 L 0 8 M 8 0 L stroke} 
>> matrix makepattern
/Pat1 exch def
<< Tile8x8
 /PaintProc {0.5 setlinewidth pop 0 0 M 8 8 L 0 8 M 8 0 L stroke
	0 4 M 4 8 L 8 4 L 4 0 L 0 4 L stroke}
>> matrix makepattern
/Pat2 exch def
<< Tile8x8
 /PaintProc {0.5 setlinewidth pop 0 0 M 0 8 L
	8 8 L 8 0 L 0 0 L fill}
>> matrix makepattern
/Pat3 exch def
<< Tile8x8
 /PaintProc {0.5 setlinewidth pop -4 8 M 8 -4 L
	0 12 M 12 0 L stroke}
>> matrix makepattern
/Pat4 exch def
<< Tile8x8
 /PaintProc {0.5 setlinewidth pop -4 0 M 8 12 L
	0 -4 M 12 8 L stroke}
>> matrix makepattern
/Pat5 exch def
<< Tile8x8
 /PaintProc {0.5 setlinewidth pop -2 8 M 4 -4 L
	0 12 M 8 -4 L 4 12 M 10 0 L stroke}
>> matrix makepattern
/Pat6 exch def
<< Tile8x8
 /PaintProc {0.5 setlinewidth pop -2 0 M 4 12 L
	0 -4 M 8 12 L 4 -4 M 10 8 L stroke}
>> matrix makepattern
/Pat7 exch def
<< Tile8x8
 /PaintProc {0.5 setlinewidth pop 8 -2 M -4 4 L
	12 0 M -4 8 L 12 4 M 0 10 L stroke}
>> matrix makepattern
/Pat8 exch def
<< Tile8x8
 /PaintProc {0.5 setlinewidth pop 0 -2 M 12 4 L
	-4 0 M 12 8 L -4 4 M 8 10 L stroke}
>> matrix makepattern
/Pat9 exch def
/Pattern1 {PatternBgnd KeepColor Pat1 setpattern} bind def
/Pattern2 {PatternBgnd KeepColor Pat2 setpattern} bind def
/Pattern3 {PatternBgnd KeepColor Pat3 setpattern} bind def
/Pattern4 {PatternBgnd KeepColor Landscape {Pat5} {Pat4} ifelse setpattern} bind def
/Pattern5 {PatternBgnd KeepColor Landscape {Pat4} {Pat5} ifelse setpattern} bind def
/Pattern6 {PatternBgnd KeepColor Landscape {Pat9} {Pat6} ifelse setpattern} bind def
/Pattern7 {PatternBgnd KeepColor Landscape {Pat8} {Pat7} ifelse setpattern} bind def
} def
%
%
%End of PostScript Level 2 code
%
/PatternBgnd {
  TransparentPatterns {} {gsave 1 setgray fill grestore} ifelse
} def
%
% Substitute for Level 2 pattern fill codes with
% grayscale if Level 2 support is not selected.
%
/Level1PatternFill {
/Pattern1 {0.250 Density} bind def
/Pattern2 {0.500 Density} bind def
/Pattern3 {0.750 Density} bind def
/Pattern4 {0.125 Density} bind def
/Pattern5 {0.375 Density} bind def
/Pattern6 {0.625 Density} bind def
/Pattern7 {0.875 Density} bind def
} def
%
% Now test for support of Level 2 code
%
Level1 {Level1PatternFill} {Level2PatternFill} ifelse
%
/Symbol-Oblique /Symbol findfont [1 0 .167 1 0 0] makefont
dup length dict begin {1 index /FID eq {pop pop} {def} ifelse} forall
currentdict end definefont pop
/MFshow {
   { dup 5 get 3 ge
     { 5 get 3 eq {gsave} {grestore} ifelse }
     {dup dup 0 get findfont exch 1 get scalefont setfont
     [ currentpoint ] exch dup 2 get 0 exch R dup 5 get 2 ne {dup dup 6
     get exch 4 get {show} {stringwidth pop 0 R} ifelse }if dup 5 get 0 eq
     {dup 3 get {2 get neg 0 exch R pop} {pop aload pop M} ifelse} {dup 5
     get 1 eq {dup 2 get exch dup 3 get exch 6 get stringwidth pop -2 div
     dup 0 R} {dup 6 get stringwidth pop -2 div 0 R 6 get
     show 2 index {aload pop M neg 3 -1 roll neg R pop pop} {pop pop pop
     pop aload pop M} ifelse }ifelse }ifelse }
     ifelse }
   forall} bind def
/MFwidth {0 exch { dup 5 get 3 ge { 5 get 3 eq { 0 } { pop } ifelse }
 {dup 3 get{dup dup 0 get findfont exch 1 get scalefont setfont
     6 get stringwidth pop add} {pop} ifelse} ifelse} forall} bind def
/MLshow { currentpoint stroke M
  0 exch R
  Blacktext {gsave 0 setgray MFshow grestore} {MFshow} ifelse } bind def
/MRshow { currentpoint stroke M
  exch dup MFwidth neg 3 -1 roll R
  Blacktext {gsave 0 setgray MFshow grestore} {MFshow} ifelse } bind def
/MCshow { currentpoint stroke M
  exch dup MFwidth -2 div 3 -1 roll R
  Blacktext {gsave 0 setgray MFshow grestore} {MFshow} ifelse } bind def
/XYsave    { [( ) 1 2 true false 3 ()] } bind def
/XYrestore { [( ) 1 2 true false 4 ()] } bind def
end
%%EndProlog
gnudict begin
gsave
50 50 translate
0.050 0.050 scale
0 setgray
newpath
(Helvetica) findfont 260 scalefont setfont
1.000 UL
LTb
1742 832 M
63 0 V
5005 0 R
-63 0 V
stroke
1586 832 M
[ [(Helvetica) 260.0 0.0 true true 0 ( 0)]
] -86.7 MRshow
1.000 UL
LTb
1742 2058 M
63 0 V
5005 0 R
-63 0 V
stroke
1586 2058 M
[ [(Helvetica) 260.0 0.0 true true 0 ( 0.05)]
] -86.7 MRshow
1.000 UL
LTb
1742 3284 M
63 0 V
5005 0 R
-63 0 V
stroke
1586 3284 M
[ [(Helvetica) 260.0 0.0 true true 0 ( 0.1)]
] -86.7 MRshow
1.000 UL
LTb
1742 4510 M
63 0 V
5005 0 R
-63 0 V
stroke
1586 4510 M
[ [(Helvetica) 260.0 0.0 true true 0 ( 0.15)]
] -86.7 MRshow
1.000 UL
LTb
1742 5736 M
63 0 V
5005 0 R
-63 0 V
stroke
1586 5736 M
[ [(Helvetica) 260.0 0.0 true true 0 ( 0.2)]
] -86.7 MRshow
1.000 UL
LTb
1742 832 M
0 63 V
0 4841 R
0 -63 V
stroke
1742 572 M
[ [(Helvetica) 260.0 0.0 true true 0 ( 0)]
] -86.7 MCshow
1.000 UL
LTb
2376 832 M
0 63 V
0 4841 R
0 -63 V
stroke
2376 572 M
[ [(Helvetica) 260.0 0.0 true true 0 ( 5)]
] -86.7 MCshow
1.000 UL
LTb
3009 832 M
0 63 V
0 4841 R
0 -63 V
stroke
3009 572 M
[ [(Helvetica) 260.0 0.0 true true 0 ( 10)]
] -86.7 MCshow
1.000 UL
LTb
3643 832 M
0 63 V
0 4841 R
0 -63 V
stroke
3643 572 M
[ [(Helvetica) 260.0 0.0 true true 0 ( 15)]
] -86.7 MCshow
1.000 UL
LTb
4276 832 M
0 63 V
0 4841 R
0 -63 V
stroke
4276 572 M
[ [(Helvetica) 260.0 0.0 true true 0 ( 20)]
] -86.7 MCshow
1.000 UL
LTb
4910 832 M
0 63 V
0 4841 R
0 -63 V
stroke
4910 572 M
[ [(Helvetica) 260.0 0.0 true true 0 ( 25)]
] -86.7 MCshow
1.000 UL
LTb
5543 832 M
0 63 V
0 4841 R
0 -63 V
stroke
5543 572 M
[ [(Helvetica) 260.0 0.0 true true 0 ( 30)]
] -86.7 MCshow
1.000 UL
LTb
6177 832 M
0 63 V
0 4841 R
0 -63 V
stroke
6177 572 M
[ [(Helvetica) 260.0 0.0 true true 0 ( 35)]
] -86.7 MCshow
1.000 UL
LTb
6810 832 M
0 63 V
0 4841 R
0 -63 V
stroke
6810 572 M
[ [(Helvetica) 260.0 0.0 true true 0 ( 40)]
] -86.7 MCshow
1.000 UL
LTb
1.000 UL
LTb
1742 5736 N
0 -4904 V
5068 0 V
0 4904 V
-5068 0 V
Z stroke
LCb setrgbcolor
520 3284 M
currentpoint gsave translate 90 rotate 0 0 moveto
[ [(Helvetica) 260.0 0.0 true true 0 (c \()]
[(Symbol) 260.0 0.0 true true 0 (m)]
[(Helvetica) 260.0 0.0 true true 0 (Ci/ml\))]
] -86.7 MCshow
grestore
LTb
LCb setrgbcolor
4276 182 M
[ [(Helvetica) 260.0 0.0 true true 0 (t \(days\))]
] -86.7 MCshow
LTb
1.000 UP
4910 3407 M
[ [(Symbol) 260.0 0.0 true true 0 (f)]
[(Helvetica) 208.0 -78.0 true true 0 (m)]
[(Helvetica) 260.0 0.0 true true 0 ( = 0.045)]
] -60.7 MLshow
4910 3039 M
[ [(Symbol) 260.0 0.0 true true 0 (a)]
[(Helvetica) 208.0 -78.0 true true 0 (L)]
[(Helvetica) 260.0 0.0 true true 0 ( = 3.37 cm)]
] -60.7 MLshow
4910 2671 M
[ [(Symbol) 260.0 0.0 true true 0 (m)]
[(Helvetica) 260.0 0.0 true true 0 ( = - 1.73)]
] -86.7 MLshow
4910 2303 M
[ [(Symbol) 260.0 0.0 true true 0 (s)]
[(Helvetica) 260.0 0.0 true true 0 ( = 1.80)]
] -86.7 MLshow
4910 1935 M
[ [(Helvetica) 260.0 0.0 true true 0 (t)]
[(Helvetica) 208.0 -78.0 true true 0 (inj)]
[(Helvetica) 260.0 0.0 true true 0 ( = 13.0 days)]
] -60.7 MLshow
1843 5491 M
[ [(Helvetica) 260.0 0.0 true true 0 (\(a\) test B4)]
] -86.7 MLshow
1.000 UL
LTb
1.300 UP
1.000 UL
LT0
LTb
5655 5543 M
[ [(Helvetica) 260.0 0.0 true true 0 (data)]
] -86.7 MRshow
LT0
1743 846 Circle
1745 842 Circle
1747 846 Circle
1749 843 Circle
1752 841 Circle
1755 840 Circle
1758 841 Circle
1762 845 Circle
1766 838 Circle
1770 840 Circle
1773 842 Circle
1776 840 Circle
1780 840 Circle
1784 839 Circle
1788 840 Circle
1792 840 Circle
1796 839 Circle
1800 839 Circle
1804 839 Circle
1808 839 Circle
1812 840 Circle
1816 839 Circle
1820 839 Circle
1824 839 Circle
1828 840 Circle
1832 838 Circle
1836 840 Circle
1840 839 Circle
1844 839 Circle
1848 839 Circle
1853 839 Circle
1857 841 Circle
1861 840 Circle
1865 842 Circle
1869 839 Circle
1874 840 Circle
1878 840 Circle
1882 840 Circle
1886 841 Circle
1890 844 Circle
1894 845 Circle
1898 847 Circle
1902 850 Circle
1906 856 Circle
1910 859 Circle
1914 862 Circle
1918 868 Circle
1922 878 Circle
1930 896 Circle
1939 922 Circle
1947 947 Circle
1955 975 Circle
1959 995 Circle
1967 1032 Circle
1976 1079 Circle
1984 1120 Circle
1993 1170 Circle
2001 1201 Circle
2009 1276 Circle
2014 1337 Circle
2022 1398 Circle
2030 1549 Circle
2034 1486 Circle
2046 1597 Circle
2058 1660 Circle
2070 1761 Circle
2083 1812 Circle
2095 2004 Circle
2103 2054 Circle
2116 2168 Circle
2128 2259 Circle
2140 2327 Circle
2152 2350 Circle
2164 2456 Circle
2176 2661 Circle
2187 2696 Circle
2199 2711 Circle
2212 2794 Circle
2224 2832 Circle
2236 2943 Circle
2248 3067 Circle
2260 2959 Circle
2271 3163 Circle
2283 3176 Circle
2295 3145 Circle
2307 3178 Circle
2320 3264 Circle
2344 3267 Circle
2356 3408 Circle
2368 3433 Circle
2392 3433 Circle
2404 3509 Circle
2417 3484 Circle
2429 3585 Circle
2442 3534 Circle
2454 3560 Circle
2478 3837 Circle
2490 3837 Circle
2502 3888 Circle
2514 3913 Circle
2526 3938 Circle
2538 3913 Circle
2550 3888 Circle
2562 3736 Circle
2574 3837 Circle
2586 3863 Circle
2598 3888 Circle
2611 3989 Circle
2623 3812 Circle
2671 3863 Circle
2683 3938 Circle
2696 4014 Circle
2708 4140 Circle
2720 4039 Circle
2732 4140 Circle
2744 4065 Circle
2768 4216 Circle
2780 4039 Circle
2793 4216 Circle
2805 3989 Circle
2818 3989 Circle
2830 4191 Circle
2843 4140 Circle
2855 4292 Circle
2868 4166 Circle
2880 4090 Circle
2893 4140 Circle
2905 4444 Circle
2929 4393 Circle
2941 4292 Circle
2966 4393 Circle
2978 4469 Circle
2990 4469 Circle
3001 4494 Circle
3013 4343 Circle
3025 4469 Circle
3037 4393 Circle
3050 4317 Circle
3063 4267 Circle
3075 4343 Circle
3088 4444 Circle
3100 4418 Circle
3113 4343 Circle
3125 4519 Circle
3137 4494 Circle
3161 4545 Circle
3173 4444 Circle
3185 4317 Circle
3210 4519 Circle
3222 4519 Circle
3282 4545 Circle
3295 4494 Circle
3307 4343 Circle
3311 4444 Circle
3320 4444 Circle
3333 4418 Circle
3341 4469 Circle
3387 4646 Circle
3395 4368 Circle
3404 4393 Circle
3412 4444 Circle
3421 4418 Circle
3429 4519 Circle
3437 4570 Circle
3445 4570 Circle
3453 4494 Circle
3484 4620 Circle
3493 4519 Circle
3509 4444 Circle
3518 4343 Circle
3526 4494 Circle
3534 4469 Circle
3543 4494 Circle
3551 4393 Circle
3559 4368 Circle
3567 4469 Circle
3575 4469 Circle
3583 4494 Circle
3591 4368 Circle
3600 4267 Circle
3608 4317 Circle
3616 4292 Circle
3624 4216 Circle
3633 4115 Circle
3641 4014 Circle
3650 3989 Circle
3658 3964 Circle
3667 3938 Circle
3675 3863 Circle
3683 3888 Circle
3714 3711 Circle
3722 3711 Circle
3730 3610 Circle
3738 3459 Circle
3746 3433 Circle
3755 3292 Circle
3763 3214 Circle
3772 3176 Circle
3780 3229 Circle
3788 3105 Circle
3796 3176 Circle
3805 3110 Circle
3813 3044 Circle
3821 3054 Circle
3833 3057 Circle
3844 3001 Circle
3857 2845 Circle
3869 2767 Circle
3881 2744 Circle
3894 2559 Circle
3907 2643 Circle
3919 2582 Circle
3931 2567 Circle
3943 2352 Circle
3966 2413 Circle
3978 2317 Circle
3991 2229 Circle
4016 2211 Circle
4029 2188 Circle
4041 2198 Circle
4052 2168 Circle
4064 2105 Circle
4076 2118 Circle
4088 2024 Circle
4100 2022 Circle
4113 2042 Circle
4125 1918 Circle
4138 1885 Circle
4150 1873 Circle
4162 1888 Circle
4175 1888 Circle
4186 1842 Circle
4198 1825 Circle
4221 1792 Circle
4234 1724 Circle
4246 1729 Circle
4259 1693 Circle
4271 1648 Circle
4283 1640 Circle
4296 1638 Circle
4308 1620 Circle
4320 1625 Circle
4330 1577 Circle
4342 1577 Circle
4354 1602 Circle
4366 1537 Circle
4379 1552 Circle
4391 1496 Circle
4404 1453 Circle
4412 1527 Circle
4420 1529 Circle
4428 1466 Circle
4436 1511 Circle
4444 1514 Circle
4452 1448 Circle
4460 1468 Circle
4476 1433 Circle
4484 1446 Circle
4501 1408 Circle
4509 1418 Circle
4518 1400 Circle
4534 1418 Circle
4542 1375 Circle
4550 1393 Circle
4558 1393 Circle
4566 1431 Circle
4576 1289 Circle
4589 1390 Circle
4598 1360 Circle
4606 1327 Circle
4615 1340 Circle
4623 1327 Circle
4632 1302 Circle
4640 1330 Circle
4648 1330 Circle
4657 1312 Circle
4665 1307 Circle
4681 1322 Circle
4689 1297 Circle
4697 1289 Circle
4706 1299 Circle
4729 1322 Circle
4737 1307 Circle
4745 1297 Circle
4753 1282 Circle
4760 1302 Circle
4768 1297 Circle
4776 1307 Circle
4783 1289 Circle
4791 1266 Circle
4799 1274 Circle
4807 1236 Circle
4815 1259 Circle
4823 1234 Circle
4831 1234 Circle
4839 1221 Circle
4847 1223 Circle
4856 1173 Circle
4865 1178 Circle
4874 1193 Circle
4882 1213 Circle
4894 1218 Circle
4906 1216 Circle
4918 1211 Circle
4930 1201 Circle
4942 1183 Circle
4954 1191 Circle
4967 1133 Circle
4979 1170 Circle
4992 1160 Circle
5004 1173 Circle
5016 1170 Circle
5028 1168 Circle
5041 1087 Circle
5052 1155 Circle
5065 1140 Circle
5077 1175 Circle
5090 1135 Circle
5103 1138 Circle
5116 1130 Circle
5128 1140 Circle
5140 1122 Circle
5152 1120 Circle
5164 1125 Circle
5176 1120 Circle
5211 1127 Circle
5223 1115 Circle
5236 1102 Circle
5247 1110 Circle
5260 1079 Circle
5271 1107 Circle
5298 1087 Circle
5310 1063 Circle
5323 1081 Circle
5335 1076 Circle
5348 1068 Circle
5360 1095 Circle
5372 1079 Circle
5384 1069 Circle
5396 1090 Circle
5408 1079 Circle
5420 1075 Circle
5433 1054 Circle
6154 5543 Circle
3.000 UL
LT0
LTb
5655 5283 M
[ [(Helvetica) 260.0 0.0 true true 0 (single porosity)]
] -86.7 MRshow
LT0
5811 5283 M
687 0 V
1743 839 M
1 0 V
1 0 V
1 0 V
1 0 V
1 0 V
1 0 V
1 0 V
1 0 V
1 0 V
1 0 V
1 0 V
1 0 V
1 0 V
1 0 V
1 0 V
2 0 V
1 0 V
2 0 V
1 0 V
1 0 V
2 0 V
1 0 V
2 0 V
1 0 V
2 0 V
1 0 V
2 0 V
1 0 V
2 0 V
1 0 V
2 0 V
1 0 V
2 0 V
1 0 V
1 1 V
2 0 V
1 0 V
2 0 V
1 0 V
2 0 V
1 0 V
2 0 V
1 1 V
2 0 V
1 0 V
2 0 V
1 1 V
2 0 V
1 1 V
1 0 V
2 1 V
1 0 V
2 1 V
1 1 V
2 0 V
1 1 V
2 1 V
1 1 V
2 1 V
1 1 V
2 1 V
1 2 V
2 1 V
1 2 V
1 1 V
2 2 V
1 1 V
2 2 V
1 2 V
2 2 V
1 2 V
2 2 V
1 2 V
2 3 V
1 2 V
2 2 V
1 3 V
2 3 V
1 2 V
1 3 V
2 3 V
1 3 V
2 3 V
1 4 V
2 3 V
1 3 V
2 4 V
1 3 V
2 4 V
1 4 V
2 4 V
1 4 V
2 4 V
1 4 V
1 4 V
2 4 V
1 5 V
2 4 V
1 4 V
2 5 V
1 5 V
2 4 V
stroke 1886 976 M
1 5 V
2 5 V
14 53 V
15 60 V
15 66 V
14 69 V
15 74 V
15 76 V
14 79 V
15 80 V
15 80 V
14 81 V
15 81 V
15 81 V
14 80 V
15 79 V
15 78 V
14 77 V
15 75 V
15 74 V
14 73 V
15 71 V
15 69 V
14 67 V
15 66 V
15 64 V
14 62 V
15 61 V
15 59 V
14 58 V
15 55 V
15 54 V
14 53 V
15 51 V
15 49 V
14 48 V
15 47 V
15 45 V
14 44 V
15 42 V
15 41 V
14 40 V
15 38 V
15 38 V
14 36 V
15 35 V
15 34 V
14 33 V
15 32 V
15 31 V
14 30 V
15 29 V
15 28 V
14 27 V
15 26 V
15 26 V
14 24 V
15 24 V
15 23 V
14 23 V
15 21 V
15 21 V
14 21 V
15 19 V
14 20 V
15 18 V
15 18 V
14 17 V
15 17 V
15 16 V
14 16 V
15 16 V
15 14 V
14 15 V
15 14 V
15 13 V
14 13 V
15 13 V
15 12 V
14 12 V
15 12 V
15 11 V
14 10 V
15 11 V
15 10 V
14 9 V
15 10 V
15 9 V
14 9 V
15 8 V
15 8 V
14 8 V
147 77 V
147 -47 V
146 -588 V
147 -760 V
147 -621 V
146 -467 V
147 -343 V
147 -250 V
146 -181 V
147 -133 V
147 -97 V
146 -72 V
stroke 4968 1044 M
147 -53 V
146 -39 V
147 -30 V
147 -22 V
146 -16 V
147 -13 V
147 -9 V
146 -7 V
147 -5 V
147 -5 V
146 -3 V
147 -2 V
82 -1 V
stroke
LT6
LTb
5655 5023 M
[ [(Helvetica) 260.0 0.0 true true 0 (double porosity)]
] -86.7 MRshow
LT6
5811 5023 M
687 0 V
1743 839 M
1 0 V
1 0 V
1 0 V
1 0 V
1 0 V
1 0 V
1 0 V
1 0 V
1 0 V
1 0 V
1 0 V
1 0 V
1 0 V
1 0 V
1 0 V
2 0 V
1 0 V
2 0 V
1 0 V
1 0 V
2 0 V
1 0 V
2 0 V
1 0 V
2 0 V
1 0 V
2 0 V
1 0 V
2 0 V
1 0 V
2 0 V
1 0 V
2 0 V
1 0 V
1 0 V
2 0 V
1 0 V
2 0 V
1 0 V
2 0 V
1 0 V
2 0 V
1 0 V
2 0 V
1 0 V
2 0 V
1 0 V
2 0 V
1 0 V
1 1 V
2 0 V
1 0 V
2 0 V
1 0 V
2 0 V
1 0 V
2 0 V
1 0 V
2 0 V
1 0 V
2 1 V
1 0 V
2 0 V
1 0 V
1 1 V
2 0 V
1 0 V
2 1 V
1 0 V
2 0 V
1 1 V
2 0 V
1 1 V
2 1 V
1 0 V
2 1 V
1 1 V
2 1 V
1 1 V
1 1 V
2 1 V
1 1 V
2 1 V
1 1 V
2 1 V
1 2 V
2 1 V
1 1 V
2 2 V
1 2 V
2 1 V
1 2 V
2 2 V
1 2 V
1 2 V
2 2 V
1 2 V
2 3 V
1 2 V
2 3 V
1 2 V
2 3 V
stroke 1886 890 M
1 3 V
2 2 V
14 34 V
15 43 V
15 52 V
14 61 V
15 69 V
15 76 V
14 81 V
15 86 V
15 90 V
14 93 V
15 94 V
15 95 V
14 96 V
15 95 V
15 95 V
14 93 V
15 92 V
15 90 V
14 88 V
15 85 V
15 83 V
14 80 V
15 78 V
15 75 V
14 72 V
15 70 V
15 67 V
14 64 V
15 61 V
15 59 V
14 57 V
15 54 V
15 52 V
14 49 V
15 48 V
15 45 V
14 43 V
15 41 V
15 40 V
14 37 V
15 36 V
15 35 V
14 32 V
15 32 V
15 29 V
14 29 V
15 27 V
15 26 V
14 25 V
15 24 V
15 23 V
14 22 V
15 20 V
15 20 V
14 19 V
15 19 V
15 17 V
14 17 V
15 16 V
15 16 V
14 15 V
15 14 V
14 14 V
15 13 V
15 13 V
14 12 V
15 12 V
15 11 V
14 11 V
15 11 V
15 10 V
14 10 V
15 10 V
15 9 V
14 9 V
15 9 V
15 8 V
14 9 V
15 8 V
15 7 V
14 8 V
15 7 V
15 7 V
14 7 V
15 7 V
15 7 V
14 6 V
15 6 V
15 6 V
14 6 V
147 60 V
147 25 V
146 -457 V
147 -883 V
147 -739 V
146 -487 V
147 -296 V
147 -179 V
146 -111 V
147 -73 V
147 -49 V
146 -35 V
stroke 4968 1220 M
147 -28 V
146 -22 V
147 -20 V
147 -18 V
146 -16 V
147 -15 V
147 -14 V
146 -13 V
147 -13 V
147 -12 V
146 -11 V
147 -10 V
82 -6 V
stroke
8.000 UL
LT0
LTb
5655 4763 M
[ [(Helvetica) 260.0 0.0 true true 0 (multirate lognormal)]
] -86.7 MRshow
LT0
5811 4763 M
687 0 V
1743 839 M
1 0 V
1 0 V
1 0 V
1 0 V
1 0 V
1 0 V
1 0 V
1 0 V
1 0 V
1 0 V
1 0 V
1 0 V
1 0 V
1 0 V
1 0 V
2 0 V
1 0 V
2 0 V
1 0 V
1 0 V
2 0 V
1 0 V
2 0 V
1 0 V
2 0 V
1 0 V
2 0 V
1 0 V
2 0 V
1 0 V
2 0 V
1 0 V
2 0 V
1 0 V
1 0 V
2 0 V
1 0 V
2 0 V
1 0 V
2 0 V
1 0 V
2 0 V
1 0 V
2 0 V
1 0 V
2 0 V
1 0 V
2 0 V
1 0 V
1 0 V
2 0 V
1 0 V
2 0 V
1 0 V
2 0 V
1 0 V
2 0 V
1 0 V
2 0 V
1 0 V
2 0 V
1 0 V
2 0 V
1 0 V
1 0 V
2 0 V
1 0 V
2 0 V
1 1 V
2 0 V
1 0 V
2 0 V
1 0 V
2 0 V
1 0 V
2 0 V
1 0 V
2 0 V
1 0 V
1 0 V
2 1 V
1 0 V
2 0 V
1 0 V
2 1 V
1 0 V
2 0 V
1 1 V
2 0 V
1 1 V
2 0 V
1 1 V
2 0 V
1 1 V
1 1 V
2 0 V
1 1 V
2 1 V
1 1 V
2 1 V
1 1 V
2 1 V
stroke 1886 853 M
1 1 V
2 2 V
14 18 V
15 29 V
15 41 V
14 54 V
15 67 V
15 79 V
14 89 V
15 98 V
15 103 V
14 108 V
15 110 V
15 111 V
14 110 V
15 109 V
15 107 V
14 103 V
15 100 V
15 96 V
14 92 V
15 89 V
15 84 V
14 80 V
15 76 V
15 72 V
14 69 V
15 65 V
15 62 V
14 59 V
15 56 V
15 53 V
14 51 V
15 48 V
15 46 V
14 43 V
15 42 V
15 40 V
14 38 V
15 37 V
15 35 V
14 33 V
15 32 V
15 31 V
14 29 V
15 29 V
15 27 V
14 26 V
15 25 V
15 25 V
14 23 V
15 23 V
15 22 V
14 21 V
15 20 V
15 20 V
14 19 V
15 19 V
15 18 V
14 17 V
15 17 V
15 16 V
14 16 V
15 16 V
14 15 V
15 14 V
15 14 V
14 14 V
15 13 V
15 13 V
14 13 V
15 12 V
15 12 V
14 12 V
15 11 V
15 12 V
14 10 V
15 11 V
15 10 V
14 11 V
15 9 V
15 10 V
14 9 V
15 10 V
15 8 V
14 9 V
15 8 V
15 9 V
14 8 V
15 7 V
15 8 V
14 7 V
147 73 V
147 53 V
146 -453 V
3795 3120 L
147 -712 V
146 -421 V
147 -266 V
147 -180 V
146 -129 V
147 -96 V
147 -74 V
146 -58 V
147 -47 V
146 -39 V
147 -31 V
147 -27 V
146 -22 V
147 -20 V
147 -16 V
146 -14 V
147 -13 V
147 -11 V
146 -9 V
147 -9 V
82 -4 V
stroke
1.000 UL
LTb
1742 5736 N
0 -4904 V
5068 0 V
0 4904 V
-5068 0 V
Z stroke
1.000 UP
1.000 UL
LTb
stroke
grestore
end
showpage
%%Trailer
%%DocumentFonts: Symbol Helvetica
