%!PS-Adobe-2.0 EPSF-2.0
%%Title: B5_22Na_logn0a.eps
%%Creator: gnuplot 4.2 patchlevel 6 
%%CreationDate: Thu Aug  4 15:38:29 2011
%%DocumentFonts: (atend)
%%BoundingBox: 50 50 410 352
%%EndComments
%%BeginProlog
/gnudict 256 dict def
gnudict begin
%
% The following 6 true/false flags may be edited by hand if required
% The unit line width may also be changed
%
/Color false def
/Blacktext false def
/Solid false def
/Dashlength 1 def
/Landscape false def
/Level1 false def
/Rounded false def
/TransparentPatterns false def
/gnulinewidth 5.000 def
/userlinewidth gnulinewidth def
%
/vshift -86 def
/dl1 {
  10.0 Dashlength mul mul
  Rounded { currentlinewidth 0.75 mul sub dup 0 le { pop 0.01 } if } if
} def
/dl2 {
  10.0 Dashlength mul mul
  Rounded { currentlinewidth 0.75 mul add } if
} def
/hpt_ 31.5 def
/vpt_ 31.5 def
/hpt hpt_ def
/vpt vpt_ def
Level1 {} {
/SDict 10 dict def
systemdict /pdfmark known not {
  userdict /pdfmark systemdict /cleartomark get put
} if
SDict begin [
  /Title (B5_22Na_logn0a.eps)
  /Subject (gnuplot plot)
  /Creator (gnuplot 4.2 patchlevel 6 )
  /Author (Bwalya Malama,,,)
%  /Producer (gnuplot)
%  /Keywords ()
  /CreationDate (Thu Aug  4 15:38:29 2011)
  /DOCINFO pdfmark
end
} ifelse
%
% Gnuplot Prolog Version 4.2 (August 2006)
%
/M {moveto} bind def
/L {lineto} bind def
/R {rmoveto} bind def
/V {rlineto} bind def
/N {newpath moveto} bind def
/Z {closepath} bind def
/C {setrgbcolor} bind def
/f {rlineto fill} bind def
/vpt2 vpt 2 mul def
/hpt2 hpt 2 mul def
/Lshow {currentpoint stroke M 0 vshift R 
	Blacktext {gsave 0 setgray show grestore} {show} ifelse} def
/Rshow {currentpoint stroke M dup stringwidth pop neg vshift R
	Blacktext {gsave 0 setgray show grestore} {show} ifelse} def
/Cshow {currentpoint stroke M dup stringwidth pop -2 div vshift R 
	Blacktext {gsave 0 setgray show grestore} {show} ifelse} def
/UP {dup vpt_ mul /vpt exch def hpt_ mul /hpt exch def
  /hpt2 hpt 2 mul def /vpt2 vpt 2 mul def} def
/DL {Color {setrgbcolor Solid {pop []} if 0 setdash}
 {pop pop pop 0 setgray Solid {pop []} if 0 setdash} ifelse} def
/BL {stroke userlinewidth 2 mul setlinewidth
	Rounded {1 setlinejoin 1 setlinecap} if} def
/AL {stroke userlinewidth 2 div setlinewidth
	Rounded {1 setlinejoin 1 setlinecap} if} def
/UL {dup gnulinewidth mul /userlinewidth exch def
	dup 1 lt {pop 1} if 10 mul /udl exch def} def
/PL {stroke userlinewidth setlinewidth
	Rounded {1 setlinejoin 1 setlinecap} if} def
% Default Line colors
/LCw {1 1 1} def
/LCb {0 0 0} def
/LCa {0 0 0} def
/LC0 {1 0 0} def
/LC1 {0 1 0} def
/LC2 {0 0 1} def
/LC3 {1 0 1} def
/LC4 {0 1 1} def
/LC5 {1 1 0} def
/LC6 {0 0 0} def
/LC7 {1 0.3 0} def
/LC8 {0.5 0.5 0.5} def
% Default Line Types
/LTw {PL [] 1 setgray} def
/LTb {BL [] LCb DL} def
/LTa {AL [1 udl mul 2 udl mul] 0 setdash LCa setrgbcolor} def
/LT0 {PL [] LC0 DL} def
/LT1 {PL [4 dl1 2 dl2] LC1 DL} def
/LT2 {PL [2 dl1 3 dl2] LC2 DL} def
/LT3 {PL [1 dl1 1.5 dl2] LC3 DL} def
/LT4 {PL [6 dl1 2 dl2 1 dl1 2 dl2] LC4 DL} def
/LT5 {PL [3 dl1 3 dl2 1 dl1 3 dl2] LC5 DL} def
/LT6 {PL [2 dl1 2 dl2 2 dl1 6 dl2] LC6 DL} def
/LT7 {PL [1 dl1 2 dl2 6 dl1 2 dl2 1 dl1 2 dl2] LC7 DL} def
/LT8 {PL [2 dl1 2 dl2 2 dl1 2 dl2 2 dl1 2 dl2 2 dl1 4 dl2] LC8 DL} def
/Pnt {stroke [] 0 setdash gsave 1 setlinecap M 0 0 V stroke grestore} def
/Dia {stroke [] 0 setdash 2 copy vpt add M
  hpt neg vpt neg V hpt vpt neg V
  hpt vpt V hpt neg vpt V closepath stroke
  Pnt} def
/Pls {stroke [] 0 setdash vpt sub M 0 vpt2 V
  currentpoint stroke M
  hpt neg vpt neg R hpt2 0 V stroke
 } def
/Box {stroke [] 0 setdash 2 copy exch hpt sub exch vpt add M
  0 vpt2 neg V hpt2 0 V 0 vpt2 V
  hpt2 neg 0 V closepath stroke
  Pnt} def
/Crs {stroke [] 0 setdash exch hpt sub exch vpt add M
  hpt2 vpt2 neg V currentpoint stroke M
  hpt2 neg 0 R hpt2 vpt2 V stroke} def
/TriU {stroke [] 0 setdash 2 copy vpt 1.12 mul add M
  hpt neg vpt -1.62 mul V
  hpt 2 mul 0 V
  hpt neg vpt 1.62 mul V closepath stroke
  Pnt} def
/Star {2 copy Pls Crs} def
/BoxF {stroke [] 0 setdash exch hpt sub exch vpt add M
  0 vpt2 neg V hpt2 0 V 0 vpt2 V
  hpt2 neg 0 V closepath fill} def
/TriUF {stroke [] 0 setdash vpt 1.12 mul add M
  hpt neg vpt -1.62 mul V
  hpt 2 mul 0 V
  hpt neg vpt 1.62 mul V closepath fill} def
/TriD {stroke [] 0 setdash 2 copy vpt 1.12 mul sub M
  hpt neg vpt 1.62 mul V
  hpt 2 mul 0 V
  hpt neg vpt -1.62 mul V closepath stroke
  Pnt} def
/TriDF {stroke [] 0 setdash vpt 1.12 mul sub M
  hpt neg vpt 1.62 mul V
  hpt 2 mul 0 V
  hpt neg vpt -1.62 mul V closepath fill} def
/DiaF {stroke [] 0 setdash vpt add M
  hpt neg vpt neg V hpt vpt neg V
  hpt vpt V hpt neg vpt V closepath fill} def
/Pent {stroke [] 0 setdash 2 copy gsave
  translate 0 hpt M 4 {72 rotate 0 hpt L} repeat
  closepath stroke grestore Pnt} def
/PentF {stroke [] 0 setdash gsave
  translate 0 hpt M 4 {72 rotate 0 hpt L} repeat
  closepath fill grestore} def
/Circle {stroke [] 0 setdash 2 copy
  hpt 0 360 arc stroke Pnt} def
/CircleF {stroke [] 0 setdash hpt 0 360 arc fill} def
/C0 {BL [] 0 setdash 2 copy moveto vpt 90 450 arc} bind def
/C1 {BL [] 0 setdash 2 copy moveto
	2 copy vpt 0 90 arc closepath fill
	vpt 0 360 arc closepath} bind def
/C2 {BL [] 0 setdash 2 copy moveto
	2 copy vpt 90 180 arc closepath fill
	vpt 0 360 arc closepath} bind def
/C3 {BL [] 0 setdash 2 copy moveto
	2 copy vpt 0 180 arc closepath fill
	vpt 0 360 arc closepath} bind def
/C4 {BL [] 0 setdash 2 copy moveto
	2 copy vpt 180 270 arc closepath fill
	vpt 0 360 arc closepath} bind def
/C5 {BL [] 0 setdash 2 copy moveto
	2 copy vpt 0 90 arc
	2 copy moveto
	2 copy vpt 180 270 arc closepath fill
	vpt 0 360 arc} bind def
/C6 {BL [] 0 setdash 2 copy moveto
	2 copy vpt 90 270 arc closepath fill
	vpt 0 360 arc closepath} bind def
/C7 {BL [] 0 setdash 2 copy moveto
	2 copy vpt 0 270 arc closepath fill
	vpt 0 360 arc closepath} bind def
/C8 {BL [] 0 setdash 2 copy moveto
	2 copy vpt 270 360 arc closepath fill
	vpt 0 360 arc closepath} bind def
/C9 {BL [] 0 setdash 2 copy moveto
	2 copy vpt 270 450 arc closepath fill
	vpt 0 360 arc closepath} bind def
/C10 {BL [] 0 setdash 2 copy 2 copy moveto vpt 270 360 arc closepath fill
	2 copy moveto
	2 copy vpt 90 180 arc closepath fill
	vpt 0 360 arc closepath} bind def
/C11 {BL [] 0 setdash 2 copy moveto
	2 copy vpt 0 180 arc closepath fill
	2 copy moveto
	2 copy vpt 270 360 arc closepath fill
	vpt 0 360 arc closepath} bind def
/C12 {BL [] 0 setdash 2 copy moveto
	2 copy vpt 180 360 arc closepath fill
	vpt 0 360 arc closepath} bind def
/C13 {BL [] 0 setdash 2 copy moveto
	2 copy vpt 0 90 arc closepath fill
	2 copy moveto
	2 copy vpt 180 360 arc closepath fill
	vpt 0 360 arc closepath} bind def
/C14 {BL [] 0 setdash 2 copy moveto
	2 copy vpt 90 360 arc closepath fill
	vpt 0 360 arc} bind def
/C15 {BL [] 0 setdash 2 copy vpt 0 360 arc closepath fill
	vpt 0 360 arc closepath} bind def
/Rec {newpath 4 2 roll moveto 1 index 0 rlineto 0 exch rlineto
	neg 0 rlineto closepath} bind def
/Square {dup Rec} bind def
/Bsquare {vpt sub exch vpt sub exch vpt2 Square} bind def
/S0 {BL [] 0 setdash 2 copy moveto 0 vpt rlineto BL Bsquare} bind def
/S1 {BL [] 0 setdash 2 copy vpt Square fill Bsquare} bind def
/S2 {BL [] 0 setdash 2 copy exch vpt sub exch vpt Square fill Bsquare} bind def
/S3 {BL [] 0 setdash 2 copy exch vpt sub exch vpt2 vpt Rec fill Bsquare} bind def
/S4 {BL [] 0 setdash 2 copy exch vpt sub exch vpt sub vpt Square fill Bsquare} bind def
/S5 {BL [] 0 setdash 2 copy 2 copy vpt Square fill
	exch vpt sub exch vpt sub vpt Square fill Bsquare} bind def
/S6 {BL [] 0 setdash 2 copy exch vpt sub exch vpt sub vpt vpt2 Rec fill Bsquare} bind def
/S7 {BL [] 0 setdash 2 copy exch vpt sub exch vpt sub vpt vpt2 Rec fill
	2 copy vpt Square fill Bsquare} bind def
/S8 {BL [] 0 setdash 2 copy vpt sub vpt Square fill Bsquare} bind def
/S9 {BL [] 0 setdash 2 copy vpt sub vpt vpt2 Rec fill Bsquare} bind def
/S10 {BL [] 0 setdash 2 copy vpt sub vpt Square fill 2 copy exch vpt sub exch vpt Square fill
	Bsquare} bind def
/S11 {BL [] 0 setdash 2 copy vpt sub vpt Square fill 2 copy exch vpt sub exch vpt2 vpt Rec fill
	Bsquare} bind def
/S12 {BL [] 0 setdash 2 copy exch vpt sub exch vpt sub vpt2 vpt Rec fill Bsquare} bind def
/S13 {BL [] 0 setdash 2 copy exch vpt sub exch vpt sub vpt2 vpt Rec fill
	2 copy vpt Square fill Bsquare} bind def
/S14 {BL [] 0 setdash 2 copy exch vpt sub exch vpt sub vpt2 vpt Rec fill
	2 copy exch vpt sub exch vpt Square fill Bsquare} bind def
/S15 {BL [] 0 setdash 2 copy Bsquare fill Bsquare} bind def
/D0 {gsave translate 45 rotate 0 0 S0 stroke grestore} bind def
/D1 {gsave translate 45 rotate 0 0 S1 stroke grestore} bind def
/D2 {gsave translate 45 rotate 0 0 S2 stroke grestore} bind def
/D3 {gsave translate 45 rotate 0 0 S3 stroke grestore} bind def
/D4 {gsave translate 45 rotate 0 0 S4 stroke grestore} bind def
/D5 {gsave translate 45 rotate 0 0 S5 stroke grestore} bind def
/D6 {gsave translate 45 rotate 0 0 S6 stroke grestore} bind def
/D7 {gsave translate 45 rotate 0 0 S7 stroke grestore} bind def
/D8 {gsave translate 45 rotate 0 0 S8 stroke grestore} bind def
/D9 {gsave translate 45 rotate 0 0 S9 stroke grestore} bind def
/D10 {gsave translate 45 rotate 0 0 S10 stroke grestore} bind def
/D11 {gsave translate 45 rotate 0 0 S11 stroke grestore} bind def
/D12 {gsave translate 45 rotate 0 0 S12 stroke grestore} bind def
/D13 {gsave translate 45 rotate 0 0 S13 stroke grestore} bind def
/D14 {gsave translate 45 rotate 0 0 S14 stroke grestore} bind def
/D15 {gsave translate 45 rotate 0 0 S15 stroke grestore} bind def
/DiaE {stroke [] 0 setdash vpt add M
  hpt neg vpt neg V hpt vpt neg V
  hpt vpt V hpt neg vpt V closepath stroke} def
/BoxE {stroke [] 0 setdash exch hpt sub exch vpt add M
  0 vpt2 neg V hpt2 0 V 0 vpt2 V
  hpt2 neg 0 V closepath stroke} def
/TriUE {stroke [] 0 setdash vpt 1.12 mul add M
  hpt neg vpt -1.62 mul V
  hpt 2 mul 0 V
  hpt neg vpt 1.62 mul V closepath stroke} def
/TriDE {stroke [] 0 setdash vpt 1.12 mul sub M
  hpt neg vpt 1.62 mul V
  hpt 2 mul 0 V
  hpt neg vpt -1.62 mul V closepath stroke} def
/PentE {stroke [] 0 setdash gsave
  translate 0 hpt M 4 {72 rotate 0 hpt L} repeat
  closepath stroke grestore} def
/CircE {stroke [] 0 setdash 
  hpt 0 360 arc stroke} def
/Opaque {gsave closepath 1 setgray fill grestore 0 setgray closepath} def
/DiaW {stroke [] 0 setdash vpt add M
  hpt neg vpt neg V hpt vpt neg V
  hpt vpt V hpt neg vpt V Opaque stroke} def
/BoxW {stroke [] 0 setdash exch hpt sub exch vpt add M
  0 vpt2 neg V hpt2 0 V 0 vpt2 V
  hpt2 neg 0 V Opaque stroke} def
/TriUW {stroke [] 0 setdash vpt 1.12 mul add M
  hpt neg vpt -1.62 mul V
  hpt 2 mul 0 V
  hpt neg vpt 1.62 mul V Opaque stroke} def
/TriDW {stroke [] 0 setdash vpt 1.12 mul sub M
  hpt neg vpt 1.62 mul V
  hpt 2 mul 0 V
  hpt neg vpt -1.62 mul V Opaque stroke} def
/PentW {stroke [] 0 setdash gsave
  translate 0 hpt M 4 {72 rotate 0 hpt L} repeat
  Opaque stroke grestore} def
/CircW {stroke [] 0 setdash 
  hpt 0 360 arc Opaque stroke} def
/BoxFill {gsave Rec 1 setgray fill grestore} def
/Density {
  /Fillden exch def
  currentrgbcolor
  /ColB exch def /ColG exch def /ColR exch def
  /ColR ColR Fillden mul Fillden sub 1 add def
  /ColG ColG Fillden mul Fillden sub 1 add def
  /ColB ColB Fillden mul Fillden sub 1 add def
  ColR ColG ColB setrgbcolor} def
/BoxColFill {gsave Rec PolyFill} def
/PolyFill {gsave Density fill grestore grestore} def
/h {rlineto rlineto rlineto gsave closepath fill grestore} bind def
%
% PostScript Level 1 Pattern Fill routine for rectangles
% Usage: x y w h s a XX PatternFill
%	x,y = lower left corner of box to be filled
%	w,h = width and height of box
%	  a = angle in degrees between lines and x-axis
%	 XX = 0/1 for no/yes cross-hatch
%
/PatternFill {gsave /PFa [ 9 2 roll ] def
  PFa 0 get PFa 2 get 2 div add PFa 1 get PFa 3 get 2 div add translate
  PFa 2 get -2 div PFa 3 get -2 div PFa 2 get PFa 3 get Rec
  gsave 1 setgray fill grestore clip
  currentlinewidth 0.5 mul setlinewidth
  /PFs PFa 2 get dup mul PFa 3 get dup mul add sqrt def
  0 0 M PFa 5 get rotate PFs -2 div dup translate
  0 1 PFs PFa 4 get div 1 add floor cvi
	{PFa 4 get mul 0 M 0 PFs V} for
  0 PFa 6 get ne {
	0 1 PFs PFa 4 get div 1 add floor cvi
	{PFa 4 get mul 0 2 1 roll M PFs 0 V} for
 } if
  stroke grestore} def
%
/languagelevel where
 {pop languagelevel} {1} ifelse
 2 lt
	{/InterpretLevel1 true def}
	{/InterpretLevel1 Level1 def}
 ifelse
%
% PostScript level 2 pattern fill definitions
%
/Level2PatternFill {
/Tile8x8 {/PaintType 2 /PatternType 1 /TilingType 1 /BBox [0 0 8 8] /XStep 8 /YStep 8}
	bind def
/KeepColor {currentrgbcolor [/Pattern /DeviceRGB] setcolorspace} bind def
<< Tile8x8
 /PaintProc {0.5 setlinewidth pop 0 0 M 8 8 L 0 8 M 8 0 L stroke} 
>> matrix makepattern
/Pat1 exch def
<< Tile8x8
 /PaintProc {0.5 setlinewidth pop 0 0 M 8 8 L 0 8 M 8 0 L stroke
	0 4 M 4 8 L 8 4 L 4 0 L 0 4 L stroke}
>> matrix makepattern
/Pat2 exch def
<< Tile8x8
 /PaintProc {0.5 setlinewidth pop 0 0 M 0 8 L
	8 8 L 8 0 L 0 0 L fill}
>> matrix makepattern
/Pat3 exch def
<< Tile8x8
 /PaintProc {0.5 setlinewidth pop -4 8 M 8 -4 L
	0 12 M 12 0 L stroke}
>> matrix makepattern
/Pat4 exch def
<< Tile8x8
 /PaintProc {0.5 setlinewidth pop -4 0 M 8 12 L
	0 -4 M 12 8 L stroke}
>> matrix makepattern
/Pat5 exch def
<< Tile8x8
 /PaintProc {0.5 setlinewidth pop -2 8 M 4 -4 L
	0 12 M 8 -4 L 4 12 M 10 0 L stroke}
>> matrix makepattern
/Pat6 exch def
<< Tile8x8
 /PaintProc {0.5 setlinewidth pop -2 0 M 4 12 L
	0 -4 M 8 12 L 4 -4 M 10 8 L stroke}
>> matrix makepattern
/Pat7 exch def
<< Tile8x8
 /PaintProc {0.5 setlinewidth pop 8 -2 M -4 4 L
	12 0 M -4 8 L 12 4 M 0 10 L stroke}
>> matrix makepattern
/Pat8 exch def
<< Tile8x8
 /PaintProc {0.5 setlinewidth pop 0 -2 M 12 4 L
	-4 0 M 12 8 L -4 4 M 8 10 L stroke}
>> matrix makepattern
/Pat9 exch def
/Pattern1 {PatternBgnd KeepColor Pat1 setpattern} bind def
/Pattern2 {PatternBgnd KeepColor Pat2 setpattern} bind def
/Pattern3 {PatternBgnd KeepColor Pat3 setpattern} bind def
/Pattern4 {PatternBgnd KeepColor Landscape {Pat5} {Pat4} ifelse setpattern} bind def
/Pattern5 {PatternBgnd KeepColor Landscape {Pat4} {Pat5} ifelse setpattern} bind def
/Pattern6 {PatternBgnd KeepColor Landscape {Pat9} {Pat6} ifelse setpattern} bind def
/Pattern7 {PatternBgnd KeepColor Landscape {Pat8} {Pat7} ifelse setpattern} bind def
} def
%
%
%End of PostScript Level 2 code
%
/PatternBgnd {
  TransparentPatterns {} {gsave 1 setgray fill grestore} ifelse
} def
%
% Substitute for Level 2 pattern fill codes with
% grayscale if Level 2 support is not selected.
%
/Level1PatternFill {
/Pattern1 {0.250 Density} bind def
/Pattern2 {0.500 Density} bind def
/Pattern3 {0.750 Density} bind def
/Pattern4 {0.125 Density} bind def
/Pattern5 {0.375 Density} bind def
/Pattern6 {0.625 Density} bind def
/Pattern7 {0.875 Density} bind def
} def
%
% Now test for support of Level 2 code
%
Level1 {Level1PatternFill} {Level2PatternFill} ifelse
%
/Symbol-Oblique /Symbol findfont [1 0 .167 1 0 0] makefont
dup length dict begin {1 index /FID eq {pop pop} {def} ifelse} forall
currentdict end definefont pop
/MFshow {
   { dup 5 get 3 ge
     { 5 get 3 eq {gsave} {grestore} ifelse }
     {dup dup 0 get findfont exch 1 get scalefont setfont
     [ currentpoint ] exch dup 2 get 0 exch R dup 5 get 2 ne {dup dup 6
     get exch 4 get {show} {stringwidth pop 0 R} ifelse }if dup 5 get 0 eq
     {dup 3 get {2 get neg 0 exch R pop} {pop aload pop M} ifelse} {dup 5
     get 1 eq {dup 2 get exch dup 3 get exch 6 get stringwidth pop -2 div
     dup 0 R} {dup 6 get stringwidth pop -2 div 0 R 6 get
     show 2 index {aload pop M neg 3 -1 roll neg R pop pop} {pop pop pop
     pop aload pop M} ifelse }ifelse }ifelse }
     ifelse }
   forall} bind def
/MFwidth {0 exch { dup 5 get 3 ge { 5 get 3 eq { 0 } { pop } ifelse }
 {dup 3 get{dup dup 0 get findfont exch 1 get scalefont setfont
     6 get stringwidth pop add} {pop} ifelse} ifelse} forall} bind def
/MLshow { currentpoint stroke M
  0 exch R
  Blacktext {gsave 0 setgray MFshow grestore} {MFshow} ifelse } bind def
/MRshow { currentpoint stroke M
  exch dup MFwidth neg 3 -1 roll R
  Blacktext {gsave 0 setgray MFshow grestore} {MFshow} ifelse } bind def
/MCshow { currentpoint stroke M
  exch dup MFwidth -2 div 3 -1 roll R
  Blacktext {gsave 0 setgray MFshow grestore} {MFshow} ifelse } bind def
/XYsave    { [( ) 1 2 true false 3 ()] } bind def
/XYrestore { [( ) 1 2 true false 4 ()] } bind def
end
%%EndProlog
gnudict begin
gsave
50 50 translate
0.050 0.050 scale
0 setgray
newpath
(Helvetica) findfont 260 scalefont setfont
1.000 UL
LTb
1742 832 M
63 0 V
5005 0 R
-63 0 V
stroke
1586 832 M
[ [(Helvetica) 260.0 0.0 true true 0 ( 0)]
] -86.7 MRshow
1.000 UL
LTb
1742 2058 M
63 0 V
5005 0 R
-63 0 V
stroke
1586 2058 M
[ [(Helvetica) 260.0 0.0 true true 0 ( 0.05)]
] -86.7 MRshow
1.000 UL
LTb
1742 3284 M
63 0 V
5005 0 R
-63 0 V
stroke
1586 3284 M
[ [(Helvetica) 260.0 0.0 true true 0 ( 0.1)]
] -86.7 MRshow
1.000 UL
LTb
1742 4510 M
63 0 V
5005 0 R
-63 0 V
stroke
1586 4510 M
[ [(Helvetica) 260.0 0.0 true true 0 ( 0.15)]
] -86.7 MRshow
1.000 UL
LTb
1742 5736 M
63 0 V
5005 0 R
-63 0 V
stroke
1586 5736 M
[ [(Helvetica) 260.0 0.0 true true 0 ( 0.2)]
] -86.7 MRshow
1.000 UL
LTb
1742 832 M
0 63 V
0 4841 R
0 -63 V
stroke
1742 572 M
[ [(Helvetica) 260.0 0.0 true true 0 ( 0)]
] -86.7 MCshow
1.000 UL
LTb
2466 832 M
0 63 V
0 4841 R
0 -63 V
stroke
2466 572 M
[ [(Helvetica) 260.0 0.0 true true 0 ( 10)]
] -86.7 MCshow
1.000 UL
LTb
3190 832 M
0 63 V
0 4841 R
0 -63 V
stroke
3190 572 M
[ [(Helvetica) 260.0 0.0 true true 0 ( 20)]
] -86.7 MCshow
1.000 UL
LTb
3914 832 M
0 63 V
0 4841 R
0 -63 V
stroke
3914 572 M
[ [(Helvetica) 260.0 0.0 true true 0 ( 30)]
] -86.7 MCshow
1.000 UL
LTb
4638 832 M
0 63 V
0 4841 R
0 -63 V
stroke
4638 572 M
[ [(Helvetica) 260.0 0.0 true true 0 ( 40)]
] -86.7 MCshow
1.000 UL
LTb
5362 832 M
0 63 V
0 4841 R
0 -63 V
stroke
5362 572 M
[ [(Helvetica) 260.0 0.0 true true 0 ( 50)]
] -86.7 MCshow
1.000 UL
LTb
6086 832 M
0 63 V
0 4841 R
0 -63 V
stroke
6086 572 M
[ [(Helvetica) 260.0 0.0 true true 0 ( 60)]
] -86.7 MCshow
1.000 UL
LTb
6810 832 M
0 63 V
0 4841 R
0 -63 V
stroke
6810 572 M
[ [(Helvetica) 260.0 0.0 true true 0 ( 70)]
] -86.7 MCshow
1.000 UL
LTb
1.000 UL
LTb
1742 5736 N
0 -4904 V
5068 0 V
0 4904 V
-5068 0 V
Z stroke
LCb setrgbcolor
520 3284 M
currentpoint gsave translate 90 rotate 0 0 moveto
[ [(Helvetica) 260.0 0.0 true true 0 (c \()]
[(Symbol) 260.0 0.0 true true 0 (m)]
[(Helvetica) 260.0 0.0 true true 0 (Ci/ml\))]
] -86.7 MCshow
grestore
LTb
LCb setrgbcolor
4276 182 M
[ [(Helvetica) 260.0 0.0 true true 0 (t \(days\))]
] -86.7 MCshow
LTb
1.000 UP
5000 3407 M
[ [(Symbol) 260.0 0.0 true true 0 (f)]
[(Helvetica) 208.0 -78.0 true true 0 (m)]
[(Helvetica) 260.0 0.0 true true 0 ( = 0.051)]
] -60.7 MLshow
5000 3039 M
[ [(Symbol) 260.0 0.0 true true 0 (a)]
[(Helvetica) 208.0 -78.0 true true 0 (L)]
[(Helvetica) 260.0 0.0 true true 0 ( = 5.72 cm)]
] -60.7 MLshow
5000 2671 M
[ [(Symbol) 260.0 0.0 true true 0 (m)]
[(Helvetica) 260.0 0.0 true true 0 ( = - 1.69)]
] -86.7 MLshow
5000 2303 M
[ [(Symbol) 260.0 0.0 true true 0 (s)]
[(Helvetica) 260.0 0.0 true true 0 ( = 2.10)]
] -86.7 MLshow
5000 1935 M
[ [(Helvetica) 260.0 0.0 true true 0 (t)]
[(Helvetica) 208.0 -78.0 true true 0 (inj)]
[(Helvetica) 260.0 0.0 true true 0 ( = 25.4 days)]
] -60.7 MLshow
1843 5491 M
[ [(Helvetica) 260.0 0.0 true true 0 (\(a\) test B5)]
] -86.7 MLshow
1.000 UL
LTb
1.300 UP
1.000 UL
LT0
LTb
5655 5543 M
[ [(Helvetica) 260.0 0.0 true true 0 (data)]
] -86.7 MRshow
LT0
1762 1078 Circle
1767 1065 Circle
1771 1080 Circle
1775 1072 Circle
1780 1075 Circle
1784 1074 Circle
1789 1060 Circle
1794 1069 Circle
1798 1067 Circle
1803 1065 Circle
1808 1060 Circle
1812 1046 Circle
1817 1067 Circle
1822 1062 Circle
1826 1057 Circle
1830 1048 Circle
1835 1055 Circle
1839 1055 Circle
1844 1046 Circle
1849 1045 Circle
1853 1051 Circle
1858 1041 Circle
1863 1050 Circle
1868 1043 Circle
1873 1034 Circle
1878 1048 Circle
1882 1061 Circle
1887 1047 Circle
1892 1050 Circle
1897 1049 Circle
1901 1048 Circle
1906 1053 Circle
1911 1048 Circle
1915 1054 Circle
1920 1043 Circle
1925 1056 Circle
1930 1058 Circle
1935 1067 Circle
1940 1065 Circle
1950 1097 Circle
1965 1120 Circle
1979 1188 Circle
1993 1221 Circle
2007 1261 Circle
2022 1335 Circle
2036 1418 Circle
2049 1468 Circle
2059 1575 Circle
2078 1602 Circle
2092 1663 Circle
2111 1726 Circle
2121 1807 Circle
2136 1898 Circle
2151 1883 Circle
2166 2034 Circle
2180 2135 Circle
2194 2196 Circle
2209 2208 Circle
2223 2256 Circle
2252 2416 Circle
2278 2511 Circle
2293 2577 Circle
2322 2678 Circle
2336 2668 Circle
2351 2885 Circle
2365 2845 Circle
2381 2865 Circle
2394 2931 Circle
2408 2903 Circle
2436 2984 Circle
2450 3024 Circle
2465 3161 Circle
2479 3128 Circle
2493 3057 Circle
2508 3145 Circle
2522 3236 Circle
2550 3358 Circle
2564 3236 Circle
2578 3206 Circle
2593 3254 Circle
2607 3408 Circle
2621 3459 Circle
2650 3534 Circle
2663 3433 Circle
2677 3459 Circle
2734 3711 Circle
2761 3686 Circle
2776 3711 Circle
2818 3736 Circle
2832 3888 Circle
2860 3762 Circle
2873 3964 Circle
2887 3938 Circle
2930 3837 Circle
2944 4039 Circle
3031 4039 Circle
3044 4065 Circle
3073 4140 Circle
3178 4166 Circle
3192 4140 Circle
3202 4267 Circle
3229 4242 Circle
3238 4292 Circle
3247 4267 Circle
3275 4317 Circle
3294 4090 Circle
3312 4216 Circle
3321 4065 Circle
3332 4343 Circle
3341 4191 Circle
3350 4242 Circle
3359 3989 Circle
3378 4216 Circle
3387 4090 Circle
3397 4115 Circle
3435 4242 Circle
3444 4166 Circle
3454 3989 Circle
3464 3938 Circle
3474 4090 Circle
3483 4039 Circle
3493 4115 Circle
3503 4039 Circle
3512 4267 Circle
3519 4166 Circle
3524 3964 Circle
3533 4292 Circle
3543 4090 Circle
3553 4140 Circle
3562 4090 Circle
3572 4140 Circle
3591 4242 Circle
3601 4166 Circle
3625 4317 Circle
3631 4292 Circle
3651 4242 Circle
3660 4216 Circle
3696 4267 Circle
3710 4317 Circle
3723 4317 Circle
3737 4242 Circle
3751 4191 Circle
3765 4140 Circle
3779 4216 Circle
3793 4140 Circle
3807 4216 Circle
3821 3989 Circle
3835 3938 Circle
3850 4014 Circle
3864 3964 Circle
3892 3837 Circle
3922 3762 Circle
3936 3711 Circle
3950 3534 Circle
3963 3534 Circle
3978 3484 Circle
3992 3345 Circle
4020 3289 Circle
4034 3201 Circle
4064 3204 Circle
4077 3092 Circle
4091 3110 Circle
4134 2825 Circle
4148 2865 Circle
4162 2863 Circle
4190 2597 Circle
4205 2653 Circle
4231 2443 Circle
4289 2335 Circle
4302 2264 Circle
4331 2160 Circle
4346 2130 Circle
4402 2014 Circle
4416 2032 Circle
4430 1994 Circle
4444 1943 Circle
4459 1928 Circle
4488 1888 Circle
4502 1878 Circle
4525 1865 Circle
4539 1845 Circle
4581 1708 Circle
4596 1716 Circle
4676 1643 Circle
4690 1635 Circle
4732 1514 Circle
4747 1501 Circle
4760 1532 Circle
4803 1466 Circle
4818 1458 Circle
4861 1466 Circle
4875 1405 Circle
4889 1428 Circle
4904 1410 Circle
4918 1426 Circle
4932 1393 Circle
4960 1398 Circle
4974 1372 Circle
5001 1352 Circle
5015 1340 Circle
5042 1330 Circle
5055 1340 Circle
5084 1322 Circle
5112 1309 Circle
5168 1284 Circle
5183 1279 Circle
5196 1307 Circle
5210 1276 Circle
5225 1276 Circle
5239 1266 Circle
5253 1251 Circle
5267 1223 Circle
5281 1254 Circle
5296 1191 Circle
5324 1229 Circle
5338 1213 Circle
5351 1218 Circle
5365 1211 Circle
5392 1198 Circle
6154 5543 Circle
4.000 UL
LT0
LTb
5655 5283 M
[ [(Helvetica) 260.0 0.0 true true 0 (single porosity)]
] -86.7 MRshow
LT0
5811 5283 M
687 0 V
1743 1053 M
1 0 V
1 0 V
1 0 V
1 0 V
1 0 V
1 0 V
1 0 V
1 0 V
1 0 V
1 0 V
1 0 V
1 0 V
1 0 V
1 0 V
1 0 V
1 0 V
1 0 V
1 0 V
1 0 V
1 0 V
1 0 V
1 0 V
1 0 V
1 0 V
1 0 V
1 0 V
1 0 V
1 0 V
1 0 V
1 0 V
1 0 V
1 0 V
1 0 V
1 0 V
1 0 V
1 0 V
1 0 V
1 0 V
1 0 V
1 0 V
1 0 V
1 0 V
1 0 V
1 0 V
1 0 V
1 0 V
1 0 V
1 0 V
1 0 V
1 0 V
1 0 V
1 0 V
1 0 V
1 0 V
1 0 V
1 0 V
1 0 V
1 0 V
1 0 V
1 0 V
1 0 V
1 0 V
1 0 V
1 0 V
1 0 V
1 0 V
1 0 V
1 0 V
1 0 V
1 0 V
1 0 V
1 0 V
1 1 V
1 0 V
1 0 V
1 0 V
1 0 V
1 0 V
1 0 V
1 1 V
1 0 V
1 0 V
1 0 V
8 2 V
9 4 V
8 4 V
8 6 V
9 8 V
8 9 V
8 11 V
9 12 V
8 14 V
9 16 V
8 18 V
8 19 V
9 20 V
8 22 V
8 23 V
9 24 V
8 26 V
9 26 V
8 28 V
stroke 1985 1347 M
8 28 V
9 29 V
8 30 V
9 30 V
8 31 V
8 31 V
9 32 V
8 32 V
8 33 V
9 33 V
8 33 V
9 33 V
8 33 V
8 33 V
9 33 V
8 34 V
8 33 V
9 33 V
8 33 V
9 33 V
8 33 V
8 33 V
9 32 V
8 32 V
9 32 V
8 32 V
8 32 V
9 31 V
8 31 V
8 31 V
9 31 V
8 30 V
9 30 V
8 29 V
8 30 V
9 29 V
8 28 V
8 29 V
9 28 V
8 28 V
9 27 V
8 27 V
8 27 V
9 26 V
8 26 V
8 26 V
9 25 V
8 25 V
9 25 V
8 24 V
8 24 V
9 24 V
8 24 V
9 23 V
8 23 V
8 22 V
9 22 V
8 22 V
8 22 V
9 21 V
8 21 V
9 20 V
8 21 V
8 20 V
9 19 V
8 20 V
8 19 V
9 19 V
8 18 V
9 19 V
8 18 V
84 166 V
84 143 V
83 122 V
84 104 V
84 90 V
84 76 V
84 65 V
83 56 V
84 47 V
84 40 V
84 37 V
84 33 V
83 11 V
84 -69 V
84 -202 V
84 -306 V
84 -339 V
83 -325 V
84 -296 V
84 -261 V
84 -229 V
83 -199 V
84 -172 V
84 -147 V
84 -127 V
84 -108 V
83 -93 V
84 -80 V
84 -69 V
84 -59 V
84 -50 V
83 -44 V
84 -37 V
stroke 5345 1075 M
84 -33 V
84 -27 V
84 -25 V
83 -20 V
84 -18 V
84 -16 V
84 -13 V
84 -12 V
83 -10 V
84 -9 V
84 -8 V
84 -6 V
84 -6 V
83 -5 V
84 -4 V
84 -4 V
84 -4 V
40 -1 V
stroke
3.000 UL
LT6
LTb
5655 5023 M
[ [(Helvetica) 260.0 0.0 true true 0 (double porosity)]
] -86.7 MRshow
LT6
5811 5023 M
687 0 V
1743 1053 M
1 0 V
1 0 V
1 0 V
1 0 V
1 0 V
1 0 V
1 0 V
1 0 V
1 0 V
1 0 V
1 0 V
1 0 V
1 0 V
1 0 V
1 0 V
1 0 V
1 0 V
1 0 V
1 0 V
1 0 V
1 0 V
1 0 V
1 0 V
1 0 V
1 0 V
1 0 V
1 0 V
1 0 V
1 0 V
1 0 V
1 0 V
1 0 V
1 0 V
1 0 V
1 0 V
1 0 V
1 0 V
1 0 V
1 0 V
1 0 V
1 0 V
1 0 V
1 0 V
1 0 V
1 0 V
1 0 V
1 0 V
1 0 V
1 0 V
1 0 V
1 0 V
1 0 V
1 0 V
1 0 V
1 0 V
1 0 V
1 0 V
1 0 V
1 0 V
1 0 V
1 0 V
1 0 V
1 0 V
1 0 V
1 0 V
1 0 V
1 0 V
1 0 V
1 0 V
1 0 V
1 0 V
1 0 V
1 0 V
1 0 V
1 0 V
1 0 V
1 0 V
1 0 V
1 0 V
1 0 V
1 0 V
1 0 V
1 0 V
8 0 V
9 1 V
8 1 V
8 2 V
9 3 V
8 4 V
8 5 V
9 7 V
8 8 V
9 10 V
8 11 V
8 14 V
9 15 V
8 16 V
8 19 V
9 20 V
8 21 V
9 23 V
8 25 V
stroke 1985 1258 M
8 26 V
9 28 V
8 28 V
9 30 V
8 31 V
8 32 V
9 32 V
8 34 V
8 34 V
9 35 V
8 35 V
9 36 V
8 36 V
8 37 V
9 37 V
8 37 V
8 37 V
9 37 V
8 38 V
9 37 V
8 37 V
8 37 V
9 37 V
8 37 V
9 37 V
8 36 V
8 36 V
9 36 V
8 36 V
8 35 V
9 35 V
8 34 V
9 35 V
8 33 V
8 34 V
9 32 V
8 33 V
8 32 V
9 32 V
8 31 V
9 30 V
8 31 V
8 29 V
9 30 V
8 29 V
8 28 V
9 28 V
8 27 V
9 27 V
8 27 V
8 26 V
9 26 V
8 25 V
9 25 V
8 24 V
8 24 V
9 23 V
8 23 V
8 23 V
9 22 V
8 22 V
9 21 V
8 21 V
8 21 V
9 20 V
8 19 V
8 20 V
9 19 V
8 19 V
9 18 V
8 18 V
84 161 V
84 133 V
83 109 V
84 90 V
84 74 V
84 62 V
84 52 V
83 45 V
84 38 V
84 33 V
84 30 V
84 31 V
83 20 V
84 -37 V
84 -162 V
84 -299 V
84 -367 V
83 -365 V
84 -329 V
84 -281 V
84 -234 V
83 -193 V
84 -156 V
84 -127 V
84 -102 V
84 -83 V
83 -67 V
84 -56 V
84 -45 V
84 -38 V
84 -32 V
83 -27 V
84 -23 V
stroke 5345 1230 M
84 -20 V
84 -17 V
84 -15 V
83 -14 V
84 -12 V
84 -11 V
84 -10 V
84 -10 V
83 -9 V
84 -8 V
84 -8 V
84 -8 V
84 -7 V
83 -7 V
84 -7 V
84 -6 V
84 -7 V
40 -2 V
stroke
8.000 UL
LT0
LTb
5655 4763 M
[ [(Helvetica) 260.0 0.0 true true 0 (multirate lognormal)]
] -86.7 MRshow
LT0
5811 4763 M
687 0 V
1743 1053 M
1 0 V
1 0 V
1 0 V
1 0 V
1 0 V
1 0 V
1 0 V
1 0 V
1 0 V
1 0 V
1 0 V
1 0 V
1 0 V
1 0 V
1 0 V
1 0 V
1 0 V
1 0 V
1 0 V
1 0 V
1 0 V
1 0 V
1 0 V
1 0 V
1 0 V
1 0 V
1 0 V
1 0 V
1 0 V
1 0 V
1 0 V
1 0 V
1 0 V
1 0 V
1 0 V
1 0 V
1 0 V
1 0 V
1 0 V
1 0 V
1 0 V
1 0 V
1 0 V
1 0 V
1 0 V
1 0 V
1 0 V
1 0 V
1 0 V
1 0 V
1 0 V
1 0 V
1 0 V
1 0 V
1 0 V
1 0 V
1 0 V
1 0 V
1 0 V
1 0 V
1 0 V
1 0 V
1 0 V
1 0 V
1 0 V
1 0 V
1 0 V
1 0 V
1 0 V
1 0 V
1 0 V
1 0 V
1 0 V
1 0 V
1 0 V
1 0 V
1 0 V
1 0 V
1 0 V
1 0 V
1 0 V
1 0 V
1 0 V
8 0 V
9 0 V
8 0 V
8 1 V
9 2 V
8 3 V
8 3 V
9 5 V
8 6 V
9 8 V
8 9 V
8 12 V
9 13 V
8 15 V
8 18 V
9 19 V
8 21 V
9 23 V
8 25 V
stroke 1985 1236 M
8 26 V
9 28 V
8 30 V
9 31 V
8 32 V
8 33 V
9 34 V
8 36 V
8 36 V
9 36 V
8 38 V
9 37 V
8 38 V
8 39 V
9 38 V
8 39 V
8 39 V
9 39 V
8 39 V
9 38 V
8 39 V
8 38 V
9 38 V
8 38 V
9 37 V
8 37 V
8 37 V
9 36 V
8 36 V
8 35 V
9 35 V
8 35 V
9 34 V
8 33 V
8 33 V
9 33 V
8 32 V
8 31 V
9 31 V
8 31 V
9 30 V
8 29 V
8 29 V
9 29 V
8 28 V
8 27 V
9 27 V
8 27 V
9 26 V
8 25 V
8 25 V
9 25 V
8 24 V
9 23 V
8 24 V
8 23 V
9 22 V
8 22 V
8 21 V
9 22 V
8 20 V
9 21 V
8 20 V
8 19 V
9 19 V
8 19 V
8 19 V
9 18 V
8 18 V
9 17 V
8 17 V
84 156 V
84 129 V
83 108 V
84 92 V
84 78 V
84 67 V
84 58 V
83 50 V
84 43 V
84 38 V
84 35 V
84 35 V
83 26 V
84 -30 V
84 -164 V
84 -316 V
84 -386 V
83 -372 V
84 -323 V
84 -269 V
84 -222 V
83 -183 V
84 -151 V
84 -125 V
84 -104 V
84 -88 V
83 -75 V
84 -63 V
84 -54 V
84 -48 V
84 -41 V
83 -35 V
84 -32 V
stroke 5345 1190 M
84 -28 V
84 -25 V
84 -22 V
83 -20 V
84 -18 V
84 -16 V
84 -14 V
84 -14 V
83 -12 V
84 -11 V
84 -10 V
84 -9 V
84 -9 V
83 -8 V
84 -7 V
84 -7 V
84 -6 V
40 -3 V
stroke
1.000 UL
LTb
1742 5736 N
0 -4904 V
5068 0 V
0 4904 V
-5068 0 V
Z stroke
1.000 UP
1.000 UL
LTb
stroke
grestore
end
showpage
%%Trailer
%%DocumentFonts: Symbol Helvetica
