%!PS-Adobe-2.0 EPSF-2.0
%%Title: B5_22Na_logn0b.eps
%%Creator: gnuplot 4.2 patchlevel 6 
%%CreationDate: Thu Aug  4 15:39:42 2011
%%DocumentFonts: (atend)
%%BoundingBox: 50 50 410 352
%%EndComments
%%BeginProlog
/gnudict 256 dict def
gnudict begin
%
% The following 6 true/false flags may be edited by hand if required
% The unit line width may also be changed
%
/Color false def
/Blacktext false def
/Solid false def
/Dashlength 1 def
/Landscape false def
/Level1 false def
/Rounded false def
/TransparentPatterns false def
/gnulinewidth 5.000 def
/userlinewidth gnulinewidth def
%
/vshift -86 def
/dl1 {
  10.0 Dashlength mul mul
  Rounded { currentlinewidth 0.75 mul sub dup 0 le { pop 0.01 } if } if
} def
/dl2 {
  10.0 Dashlength mul mul
  Rounded { currentlinewidth 0.75 mul add } if
} def
/hpt_ 31.5 def
/vpt_ 31.5 def
/hpt hpt_ def
/vpt vpt_ def
Level1 {} {
/SDict 10 dict def
systemdict /pdfmark known not {
  userdict /pdfmark systemdict /cleartomark get put
} if
SDict begin [
  /Title (B5_22Na_logn0b.eps)
  /Subject (gnuplot plot)
  /Creator (gnuplot 4.2 patchlevel 6 )
  /Author (Bwalya Malama,,,)
%  /Producer (gnuplot)
%  /Keywords ()
  /CreationDate (Thu Aug  4 15:39:42 2011)
  /DOCINFO pdfmark
end
} ifelse
%
% Gnuplot Prolog Version 4.2 (August 2006)
%
/M {moveto} bind def
/L {lineto} bind def
/R {rmoveto} bind def
/V {rlineto} bind def
/N {newpath moveto} bind def
/Z {closepath} bind def
/C {setrgbcolor} bind def
/f {rlineto fill} bind def
/vpt2 vpt 2 mul def
/hpt2 hpt 2 mul def
/Lshow {currentpoint stroke M 0 vshift R 
	Blacktext {gsave 0 setgray show grestore} {show} ifelse} def
/Rshow {currentpoint stroke M dup stringwidth pop neg vshift R
	Blacktext {gsave 0 setgray show grestore} {show} ifelse} def
/Cshow {currentpoint stroke M dup stringwidth pop -2 div vshift R 
	Blacktext {gsave 0 setgray show grestore} {show} ifelse} def
/UP {dup vpt_ mul /vpt exch def hpt_ mul /hpt exch def
  /hpt2 hpt 2 mul def /vpt2 vpt 2 mul def} def
/DL {Color {setrgbcolor Solid {pop []} if 0 setdash}
 {pop pop pop 0 setgray Solid {pop []} if 0 setdash} ifelse} def
/BL {stroke userlinewidth 2 mul setlinewidth
	Rounded {1 setlinejoin 1 setlinecap} if} def
/AL {stroke userlinewidth 2 div setlinewidth
	Rounded {1 setlinejoin 1 setlinecap} if} def
/UL {dup gnulinewidth mul /userlinewidth exch def
	dup 1 lt {pop 1} if 10 mul /udl exch def} def
/PL {stroke userlinewidth setlinewidth
	Rounded {1 setlinejoin 1 setlinecap} if} def
% Default Line colors
/LCw {1 1 1} def
/LCb {0 0 0} def
/LCa {0 0 0} def
/LC0 {1 0 0} def
/LC1 {0 1 0} def
/LC2 {0 0 1} def
/LC3 {1 0 1} def
/LC4 {0 1 1} def
/LC5 {1 1 0} def
/LC6 {0 0 0} def
/LC7 {1 0.3 0} def
/LC8 {0.5 0.5 0.5} def
% Default Line Types
/LTw {PL [] 1 setgray} def
/LTb {BL [] LCb DL} def
/LTa {AL [1 udl mul 2 udl mul] 0 setdash LCa setrgbcolor} def
/LT0 {PL [] LC0 DL} def
/LT1 {PL [4 dl1 2 dl2] LC1 DL} def
/LT2 {PL [2 dl1 3 dl2] LC2 DL} def
/LT3 {PL [1 dl1 1.5 dl2] LC3 DL} def
/LT4 {PL [6 dl1 2 dl2 1 dl1 2 dl2] LC4 DL} def
/LT5 {PL [3 dl1 3 dl2 1 dl1 3 dl2] LC5 DL} def
/LT6 {PL [2 dl1 2 dl2 2 dl1 6 dl2] LC6 DL} def
/LT7 {PL [1 dl1 2 dl2 6 dl1 2 dl2 1 dl1 2 dl2] LC7 DL} def
/LT8 {PL [2 dl1 2 dl2 2 dl1 2 dl2 2 dl1 2 dl2 2 dl1 4 dl2] LC8 DL} def
/Pnt {stroke [] 0 setdash gsave 1 setlinecap M 0 0 V stroke grestore} def
/Dia {stroke [] 0 setdash 2 copy vpt add M
  hpt neg vpt neg V hpt vpt neg V
  hpt vpt V hpt neg vpt V closepath stroke
  Pnt} def
/Pls {stroke [] 0 setdash vpt sub M 0 vpt2 V
  currentpoint stroke M
  hpt neg vpt neg R hpt2 0 V stroke
 } def
/Box {stroke [] 0 setdash 2 copy exch hpt sub exch vpt add M
  0 vpt2 neg V hpt2 0 V 0 vpt2 V
  hpt2 neg 0 V closepath stroke
  Pnt} def
/Crs {stroke [] 0 setdash exch hpt sub exch vpt add M
  hpt2 vpt2 neg V currentpoint stroke M
  hpt2 neg 0 R hpt2 vpt2 V stroke} def
/TriU {stroke [] 0 setdash 2 copy vpt 1.12 mul add M
  hpt neg vpt -1.62 mul V
  hpt 2 mul 0 V
  hpt neg vpt 1.62 mul V closepath stroke
  Pnt} def
/Star {2 copy Pls Crs} def
/BoxF {stroke [] 0 setdash exch hpt sub exch vpt add M
  0 vpt2 neg V hpt2 0 V 0 vpt2 V
  hpt2 neg 0 V closepath fill} def
/TriUF {stroke [] 0 setdash vpt 1.12 mul add M
  hpt neg vpt -1.62 mul V
  hpt 2 mul 0 V
  hpt neg vpt 1.62 mul V closepath fill} def
/TriD {stroke [] 0 setdash 2 copy vpt 1.12 mul sub M
  hpt neg vpt 1.62 mul V
  hpt 2 mul 0 V
  hpt neg vpt -1.62 mul V closepath stroke
  Pnt} def
/TriDF {stroke [] 0 setdash vpt 1.12 mul sub M
  hpt neg vpt 1.62 mul V
  hpt 2 mul 0 V
  hpt neg vpt -1.62 mul V closepath fill} def
/DiaF {stroke [] 0 setdash vpt add M
  hpt neg vpt neg V hpt vpt neg V
  hpt vpt V hpt neg vpt V closepath fill} def
/Pent {stroke [] 0 setdash 2 copy gsave
  translate 0 hpt M 4 {72 rotate 0 hpt L} repeat
  closepath stroke grestore Pnt} def
/PentF {stroke [] 0 setdash gsave
  translate 0 hpt M 4 {72 rotate 0 hpt L} repeat
  closepath fill grestore} def
/Circle {stroke [] 0 setdash 2 copy
  hpt 0 360 arc stroke Pnt} def
/CircleF {stroke [] 0 setdash hpt 0 360 arc fill} def
/C0 {BL [] 0 setdash 2 copy moveto vpt 90 450 arc} bind def
/C1 {BL [] 0 setdash 2 copy moveto
	2 copy vpt 0 90 arc closepath fill
	vpt 0 360 arc closepath} bind def
/C2 {BL [] 0 setdash 2 copy moveto
	2 copy vpt 90 180 arc closepath fill
	vpt 0 360 arc closepath} bind def
/C3 {BL [] 0 setdash 2 copy moveto
	2 copy vpt 0 180 arc closepath fill
	vpt 0 360 arc closepath} bind def
/C4 {BL [] 0 setdash 2 copy moveto
	2 copy vpt 180 270 arc closepath fill
	vpt 0 360 arc closepath} bind def
/C5 {BL [] 0 setdash 2 copy moveto
	2 copy vpt 0 90 arc
	2 copy moveto
	2 copy vpt 180 270 arc closepath fill
	vpt 0 360 arc} bind def
/C6 {BL [] 0 setdash 2 copy moveto
	2 copy vpt 90 270 arc closepath fill
	vpt 0 360 arc closepath} bind def
/C7 {BL [] 0 setdash 2 copy moveto
	2 copy vpt 0 270 arc closepath fill
	vpt 0 360 arc closepath} bind def
/C8 {BL [] 0 setdash 2 copy moveto
	2 copy vpt 270 360 arc closepath fill
	vpt 0 360 arc closepath} bind def
/C9 {BL [] 0 setdash 2 copy moveto
	2 copy vpt 270 450 arc closepath fill
	vpt 0 360 arc closepath} bind def
/C10 {BL [] 0 setdash 2 copy 2 copy moveto vpt 270 360 arc closepath fill
	2 copy moveto
	2 copy vpt 90 180 arc closepath fill
	vpt 0 360 arc closepath} bind def
/C11 {BL [] 0 setdash 2 copy moveto
	2 copy vpt 0 180 arc closepath fill
	2 copy moveto
	2 copy vpt 270 360 arc closepath fill
	vpt 0 360 arc closepath} bind def
/C12 {BL [] 0 setdash 2 copy moveto
	2 copy vpt 180 360 arc closepath fill
	vpt 0 360 arc closepath} bind def
/C13 {BL [] 0 setdash 2 copy moveto
	2 copy vpt 0 90 arc closepath fill
	2 copy moveto
	2 copy vpt 180 360 arc closepath fill
	vpt 0 360 arc closepath} bind def
/C14 {BL [] 0 setdash 2 copy moveto
	2 copy vpt 90 360 arc closepath fill
	vpt 0 360 arc} bind def
/C15 {BL [] 0 setdash 2 copy vpt 0 360 arc closepath fill
	vpt 0 360 arc closepath} bind def
/Rec {newpath 4 2 roll moveto 1 index 0 rlineto 0 exch rlineto
	neg 0 rlineto closepath} bind def
/Square {dup Rec} bind def
/Bsquare {vpt sub exch vpt sub exch vpt2 Square} bind def
/S0 {BL [] 0 setdash 2 copy moveto 0 vpt rlineto BL Bsquare} bind def
/S1 {BL [] 0 setdash 2 copy vpt Square fill Bsquare} bind def
/S2 {BL [] 0 setdash 2 copy exch vpt sub exch vpt Square fill Bsquare} bind def
/S3 {BL [] 0 setdash 2 copy exch vpt sub exch vpt2 vpt Rec fill Bsquare} bind def
/S4 {BL [] 0 setdash 2 copy exch vpt sub exch vpt sub vpt Square fill Bsquare} bind def
/S5 {BL [] 0 setdash 2 copy 2 copy vpt Square fill
	exch vpt sub exch vpt sub vpt Square fill Bsquare} bind def
/S6 {BL [] 0 setdash 2 copy exch vpt sub exch vpt sub vpt vpt2 Rec fill Bsquare} bind def
/S7 {BL [] 0 setdash 2 copy exch vpt sub exch vpt sub vpt vpt2 Rec fill
	2 copy vpt Square fill Bsquare} bind def
/S8 {BL [] 0 setdash 2 copy vpt sub vpt Square fill Bsquare} bind def
/S9 {BL [] 0 setdash 2 copy vpt sub vpt vpt2 Rec fill Bsquare} bind def
/S10 {BL [] 0 setdash 2 copy vpt sub vpt Square fill 2 copy exch vpt sub exch vpt Square fill
	Bsquare} bind def
/S11 {BL [] 0 setdash 2 copy vpt sub vpt Square fill 2 copy exch vpt sub exch vpt2 vpt Rec fill
	Bsquare} bind def
/S12 {BL [] 0 setdash 2 copy exch vpt sub exch vpt sub vpt2 vpt Rec fill Bsquare} bind def
/S13 {BL [] 0 setdash 2 copy exch vpt sub exch vpt sub vpt2 vpt Rec fill
	2 copy vpt Square fill Bsquare} bind def
/S14 {BL [] 0 setdash 2 copy exch vpt sub exch vpt sub vpt2 vpt Rec fill
	2 copy exch vpt sub exch vpt Square fill Bsquare} bind def
/S15 {BL [] 0 setdash 2 copy Bsquare fill Bsquare} bind def
/D0 {gsave translate 45 rotate 0 0 S0 stroke grestore} bind def
/D1 {gsave translate 45 rotate 0 0 S1 stroke grestore} bind def
/D2 {gsave translate 45 rotate 0 0 S2 stroke grestore} bind def
/D3 {gsave translate 45 rotate 0 0 S3 stroke grestore} bind def
/D4 {gsave translate 45 rotate 0 0 S4 stroke grestore} bind def
/D5 {gsave translate 45 rotate 0 0 S5 stroke grestore} bind def
/D6 {gsave translate 45 rotate 0 0 S6 stroke grestore} bind def
/D7 {gsave translate 45 rotate 0 0 S7 stroke grestore} bind def
/D8 {gsave translate 45 rotate 0 0 S8 stroke grestore} bind def
/D9 {gsave translate 45 rotate 0 0 S9 stroke grestore} bind def
/D10 {gsave translate 45 rotate 0 0 S10 stroke grestore} bind def
/D11 {gsave translate 45 rotate 0 0 S11 stroke grestore} bind def
/D12 {gsave translate 45 rotate 0 0 S12 stroke grestore} bind def
/D13 {gsave translate 45 rotate 0 0 S13 stroke grestore} bind def
/D14 {gsave translate 45 rotate 0 0 S14 stroke grestore} bind def
/D15 {gsave translate 45 rotate 0 0 S15 stroke grestore} bind def
/DiaE {stroke [] 0 setdash vpt add M
  hpt neg vpt neg V hpt vpt neg V
  hpt vpt V hpt neg vpt V closepath stroke} def
/BoxE {stroke [] 0 setdash exch hpt sub exch vpt add M
  0 vpt2 neg V hpt2 0 V 0 vpt2 V
  hpt2 neg 0 V closepath stroke} def
/TriUE {stroke [] 0 setdash vpt 1.12 mul add M
  hpt neg vpt -1.62 mul V
  hpt 2 mul 0 V
  hpt neg vpt 1.62 mul V closepath stroke} def
/TriDE {stroke [] 0 setdash vpt 1.12 mul sub M
  hpt neg vpt 1.62 mul V
  hpt 2 mul 0 V
  hpt neg vpt -1.62 mul V closepath stroke} def
/PentE {stroke [] 0 setdash gsave
  translate 0 hpt M 4 {72 rotate 0 hpt L} repeat
  closepath stroke grestore} def
/CircE {stroke [] 0 setdash 
  hpt 0 360 arc stroke} def
/Opaque {gsave closepath 1 setgray fill grestore 0 setgray closepath} def
/DiaW {stroke [] 0 setdash vpt add M
  hpt neg vpt neg V hpt vpt neg V
  hpt vpt V hpt neg vpt V Opaque stroke} def
/BoxW {stroke [] 0 setdash exch hpt sub exch vpt add M
  0 vpt2 neg V hpt2 0 V 0 vpt2 V
  hpt2 neg 0 V Opaque stroke} def
/TriUW {stroke [] 0 setdash vpt 1.12 mul add M
  hpt neg vpt -1.62 mul V
  hpt 2 mul 0 V
  hpt neg vpt 1.62 mul V Opaque stroke} def
/TriDW {stroke [] 0 setdash vpt 1.12 mul sub M
  hpt neg vpt 1.62 mul V
  hpt 2 mul 0 V
  hpt neg vpt -1.62 mul V Opaque stroke} def
/PentW {stroke [] 0 setdash gsave
  translate 0 hpt M 4 {72 rotate 0 hpt L} repeat
  Opaque stroke grestore} def
/CircW {stroke [] 0 setdash 
  hpt 0 360 arc Opaque stroke} def
/BoxFill {gsave Rec 1 setgray fill grestore} def
/Density {
  /Fillden exch def
  currentrgbcolor
  /ColB exch def /ColG exch def /ColR exch def
  /ColR ColR Fillden mul Fillden sub 1 add def
  /ColG ColG Fillden mul Fillden sub 1 add def
  /ColB ColB Fillden mul Fillden sub 1 add def
  ColR ColG ColB setrgbcolor} def
/BoxColFill {gsave Rec PolyFill} def
/PolyFill {gsave Density fill grestore grestore} def
/h {rlineto rlineto rlineto gsave closepath fill grestore} bind def
%
% PostScript Level 1 Pattern Fill routine for rectangles
% Usage: x y w h s a XX PatternFill
%	x,y = lower left corner of box to be filled
%	w,h = width and height of box
%	  a = angle in degrees between lines and x-axis
%	 XX = 0/1 for no/yes cross-hatch
%
/PatternFill {gsave /PFa [ 9 2 roll ] def
  PFa 0 get PFa 2 get 2 div add PFa 1 get PFa 3 get 2 div add translate
  PFa 2 get -2 div PFa 3 get -2 div PFa 2 get PFa 3 get Rec
  gsave 1 setgray fill grestore clip
  currentlinewidth 0.5 mul setlinewidth
  /PFs PFa 2 get dup mul PFa 3 get dup mul add sqrt def
  0 0 M PFa 5 get rotate PFs -2 div dup translate
  0 1 PFs PFa 4 get div 1 add floor cvi
	{PFa 4 get mul 0 M 0 PFs V} for
  0 PFa 6 get ne {
	0 1 PFs PFa 4 get div 1 add floor cvi
	{PFa 4 get mul 0 2 1 roll M PFs 0 V} for
 } if
  stroke grestore} def
%
/languagelevel where
 {pop languagelevel} {1} ifelse
 2 lt
	{/InterpretLevel1 true def}
	{/InterpretLevel1 Level1 def}
 ifelse
%
% PostScript level 2 pattern fill definitions
%
/Level2PatternFill {
/Tile8x8 {/PaintType 2 /PatternType 1 /TilingType 1 /BBox [0 0 8 8] /XStep 8 /YStep 8}
	bind def
/KeepColor {currentrgbcolor [/Pattern /DeviceRGB] setcolorspace} bind def
<< Tile8x8
 /PaintProc {0.5 setlinewidth pop 0 0 M 8 8 L 0 8 M 8 0 L stroke} 
>> matrix makepattern
/Pat1 exch def
<< Tile8x8
 /PaintProc {0.5 setlinewidth pop 0 0 M 8 8 L 0 8 M 8 0 L stroke
	0 4 M 4 8 L 8 4 L 4 0 L 0 4 L stroke}
>> matrix makepattern
/Pat2 exch def
<< Tile8x8
 /PaintProc {0.5 setlinewidth pop 0 0 M 0 8 L
	8 8 L 8 0 L 0 0 L fill}
>> matrix makepattern
/Pat3 exch def
<< Tile8x8
 /PaintProc {0.5 setlinewidth pop -4 8 M 8 -4 L
	0 12 M 12 0 L stroke}
>> matrix makepattern
/Pat4 exch def
<< Tile8x8
 /PaintProc {0.5 setlinewidth pop -4 0 M 8 12 L
	0 -4 M 12 8 L stroke}
>> matrix makepattern
/Pat5 exch def
<< Tile8x8
 /PaintProc {0.5 setlinewidth pop -2 8 M 4 -4 L
	0 12 M 8 -4 L 4 12 M 10 0 L stroke}
>> matrix makepattern
/Pat6 exch def
<< Tile8x8
 /PaintProc {0.5 setlinewidth pop -2 0 M 4 12 L
	0 -4 M 8 12 L 4 -4 M 10 8 L stroke}
>> matrix makepattern
/Pat7 exch def
<< Tile8x8
 /PaintProc {0.5 setlinewidth pop 8 -2 M -4 4 L
	12 0 M -4 8 L 12 4 M 0 10 L stroke}
>> matrix makepattern
/Pat8 exch def
<< Tile8x8
 /PaintProc {0.5 setlinewidth pop 0 -2 M 12 4 L
	-4 0 M 12 8 L -4 4 M 8 10 L stroke}
>> matrix makepattern
/Pat9 exch def
/Pattern1 {PatternBgnd KeepColor Pat1 setpattern} bind def
/Pattern2 {PatternBgnd KeepColor Pat2 setpattern} bind def
/Pattern3 {PatternBgnd KeepColor Pat3 setpattern} bind def
/Pattern4 {PatternBgnd KeepColor Landscape {Pat5} {Pat4} ifelse setpattern} bind def
/Pattern5 {PatternBgnd KeepColor Landscape {Pat4} {Pat5} ifelse setpattern} bind def
/Pattern6 {PatternBgnd KeepColor Landscape {Pat9} {Pat6} ifelse setpattern} bind def
/Pattern7 {PatternBgnd KeepColor Landscape {Pat8} {Pat7} ifelse setpattern} bind def
} def
%
%
%End of PostScript Level 2 code
%
/PatternBgnd {
  TransparentPatterns {} {gsave 1 setgray fill grestore} ifelse
} def
%
% Substitute for Level 2 pattern fill codes with
% grayscale if Level 2 support is not selected.
%
/Level1PatternFill {
/Pattern1 {0.250 Density} bind def
/Pattern2 {0.500 Density} bind def
/Pattern3 {0.750 Density} bind def
/Pattern4 {0.125 Density} bind def
/Pattern5 {0.375 Density} bind def
/Pattern6 {0.625 Density} bind def
/Pattern7 {0.875 Density} bind def
} def
%
% Now test for support of Level 2 code
%
Level1 {Level1PatternFill} {Level2PatternFill} ifelse
%
/Symbol-Oblique /Symbol findfont [1 0 .167 1 0 0] makefont
dup length dict begin {1 index /FID eq {pop pop} {def} ifelse} forall
currentdict end definefont pop
/MFshow {
   { dup 5 get 3 ge
     { 5 get 3 eq {gsave} {grestore} ifelse }
     {dup dup 0 get findfont exch 1 get scalefont setfont
     [ currentpoint ] exch dup 2 get 0 exch R dup 5 get 2 ne {dup dup 6
     get exch 4 get {show} {stringwidth pop 0 R} ifelse }if dup 5 get 0 eq
     {dup 3 get {2 get neg 0 exch R pop} {pop aload pop M} ifelse} {dup 5
     get 1 eq {dup 2 get exch dup 3 get exch 6 get stringwidth pop -2 div
     dup 0 R} {dup 6 get stringwidth pop -2 div 0 R 6 get
     show 2 index {aload pop M neg 3 -1 roll neg R pop pop} {pop pop pop
     pop aload pop M} ifelse }ifelse }ifelse }
     ifelse }
   forall} bind def
/MFwidth {0 exch { dup 5 get 3 ge { 5 get 3 eq { 0 } { pop } ifelse }
 {dup 3 get{dup dup 0 get findfont exch 1 get scalefont setfont
     6 get stringwidth pop add} {pop} ifelse} ifelse} forall} bind def
/MLshow { currentpoint stroke M
  0 exch R
  Blacktext {gsave 0 setgray MFshow grestore} {MFshow} ifelse } bind def
/MRshow { currentpoint stroke M
  exch dup MFwidth neg 3 -1 roll R
  Blacktext {gsave 0 setgray MFshow grestore} {MFshow} ifelse } bind def
/MCshow { currentpoint stroke M
  exch dup MFwidth -2 div 3 -1 roll R
  Blacktext {gsave 0 setgray MFshow grestore} {MFshow} ifelse } bind def
/XYsave    { [( ) 1 2 true false 3 ()] } bind def
/XYrestore { [( ) 1 2 true false 4 ()] } bind def
end
%%EndProlog
gnudict begin
gsave
50 50 translate
0.050 0.050 scale
0 setgray
newpath
(Helvetica) findfont 260 scalefont setfont
1.000 UL
LTb
1430 832 M
63 0 V
5317 0 R
-63 0 V
stroke
1274 832 M
[ [(Helvetica) 260.0 0.0 true true 0 (10)]
[(Helvetica) 208.0 130.0 true true 0 (-3)]
] -112.7 MRshow
1.000 UL
LTb
1430 1428 M
31 0 V
5349 0 R
-31 0 V
1430 1777 M
31 0 V
5349 0 R
-31 0 V
1430 2024 M
31 0 V
5349 0 R
-31 0 V
1430 2216 M
31 0 V
5349 0 R
-31 0 V
1430 2373 M
31 0 V
5349 0 R
-31 0 V
1430 2505 M
31 0 V
5349 0 R
-31 0 V
1430 2620 M
31 0 V
5349 0 R
-31 0 V
1430 2721 M
31 0 V
5349 0 R
-31 0 V
-5349 91 R
63 0 V
5317 0 R
-63 0 V
stroke
1274 2812 M
[ [(Helvetica) 260.0 0.0 true true 0 (10)]
[(Helvetica) 208.0 130.0 true true 0 (-2)]
] -112.7 MRshow
1.000 UL
LTb
1430 3408 M
31 0 V
5349 0 R
-31 0 V
1430 3756 M
31 0 V
5349 0 R
-31 0 V
1430 4004 M
31 0 V
5349 0 R
-31 0 V
1430 4195 M
31 0 V
5349 0 R
-31 0 V
1430 4352 M
31 0 V
5349 0 R
-31 0 V
1430 4485 M
31 0 V
5349 0 R
-31 0 V
1430 4600 M
31 0 V
5349 0 R
-31 0 V
1430 4701 M
31 0 V
5349 0 R
-31 0 V
-5349 90 R
63 0 V
5317 0 R
-63 0 V
stroke
1274 4791 M
[ [(Helvetica) 260.0 0.0 true true 0 (10)]
[(Helvetica) 208.0 130.0 true true 0 (-1)]
] -112.7 MRshow
1.000 UL
LTb
1430 5387 M
31 0 V
5349 0 R
-31 0 V
1430 5736 M
31 0 V
5349 0 R
-31 0 V
1430 832 M
0 63 V
0 4841 R
0 -63 V
stroke
1430 572 M
[ [(Helvetica) 260.0 0.0 true true 0 (10)]
[(Helvetica) 208.0 130.0 true true 0 (5)]
] -112.7 MCshow
1.000 UL
LTb
2240 832 M
0 31 V
0 4873 R
0 -31 V
2713 832 M
0 31 V
0 4873 R
0 -31 V
3050 832 M
0 31 V
0 4873 R
0 -31 V
3310 832 M
0 31 V
0 4873 R
0 -31 V
3523 832 M
0 31 V
0 4873 R
0 -31 V
3703 832 M
0 31 V
0 4873 R
0 -31 V
3859 832 M
0 31 V
0 4873 R
0 -31 V
3997 832 M
0 31 V
0 4873 R
0 -31 V
4120 832 M
0 63 V
0 4841 R
0 -63 V
stroke
4120 572 M
[ [(Helvetica) 260.0 0.0 true true 0 (10)]
[(Helvetica) 208.0 130.0 true true 0 (6)]
] -112.7 MCshow
1.000 UL
LTb
4930 832 M
0 31 V
0 4873 R
0 -31 V
5403 832 M
0 31 V
0 4873 R
0 -31 V
5740 832 M
0 31 V
0 4873 R
0 -31 V
6000 832 M
0 31 V
0 4873 R
0 -31 V
6213 832 M
0 31 V
0 4873 R
0 -31 V
6393 832 M
0 31 V
0 4873 R
0 -31 V
6549 832 M
0 31 V
0 4873 R
0 -31 V
6687 832 M
0 31 V
0 4873 R
0 -31 V
6810 832 M
0 63 V
0 4841 R
0 -63 V
stroke
6810 572 M
[ [(Helvetica) 260.0 0.0 true true 0 (10)]
[(Helvetica) 208.0 130.0 true true 0 (7)]
] -112.7 MCshow
1.000 UL
LTb
1.000 UL
LTb
1430 5736 N
0 -4904 V
5380 0 V
0 4904 V
-5380 0 V
Z stroke
LCb setrgbcolor
520 3284 M
currentpoint gsave translate 90 rotate 0 0 moveto
[ [(Helvetica) 260.0 0.0 true true 0 (c \()]
[(Symbol) 260.0 0.0 true true 0 (m)]
[(Helvetica) 260.0 0.0 true true 0 (Ci/ml\))]
] -86.7 MCshow
grestore
LTb
LCb setrgbcolor
4120 182 M
[ [(Helvetica) 260.0 0.0 true true 0 (t \(seconds\))]
] -86.7 MCshow
LTb
1.000 UP
1538 5491 M
[ [(Helvetica) 260.0 0.0 true true 0 (\(b\) test B5)]
] -86.7 MLshow
1.000 UL
LTb
1.300 UP
1.000 UL
LT0
LTb
4550 1987 M
[ [(Helvetica) 260.0 0.0 true true 0 (data)]
] -86.7 MRshow
LT0
1433 2737 Circle
1493 2703 Circle
1551 2731 Circle
1606 2729 Circle
1660 2696 Circle
1712 2689 Circle
1763 2716 Circle
1811 2675 Circle
1858 2710 Circle
1904 2682 Circle
1949 2643 Circle
1993 2702 Circle
2032 2754 Circle
2071 2697 Circle
2109 2712 Circle
2145 2705 Circle
2181 2702 Circle
2216 2721 Circle
2248 2702 Circle
2280 2727 Circle
2312 2683 Circle
2344 2734 Circle
2376 2743 Circle
2407 2777 Circle
2436 2767 Circle
2494 2879 Circle
2572 2950 Circle
2643 3133 Circle
2710 3208 Circle
2776 3293 Circle
2837 3429 Circle
2895 3561 Circle
2948 3632 Circle
2983 3764 Circle
3052 3796 Circle
3101 3861 Circle
3163 3924 Circle
3193 3998 Circle
3237 4075 Circle
3281 4063 Circle
3324 4179 Circle
3362 4248 Circle
3399 4287 Circle
3436 4295 Circle
3472 4324 Circle
3539 4415 Circle
3598 4466 Circle
3630 4499 Circle
3690 4547 Circle
3718 4543 Circle
3748 4639 Circle
3774 4622 Circle
3803 4630 Circle
3826 4658 Circle
3851 4646 Circle
3900 4679 Circle
3924 4695 Circle
3947 4747 Circle
3970 4735 Circle
3993 4708 Circle
4015 4741 Circle
4036 4775 Circle
4077 4817 Circle
4097 4775 Circle
4118 4764 Circle
4138 4781 Circle
4157 4834 Circle
4175 4851 Circle
4213 4875 Circle
4231 4842 Circle
4248 4851 Circle
4318 4930 Circle
4349 4922 Circle
4365 4930 Circle
4412 4937 Circle
4427 4981 Circle
4457 4944 Circle
4471 5002 Circle
4485 4995 Circle
4527 4966 Circle
4542 5022 Circle
4623 5022 Circle
4635 5029 Circle
4661 5049 Circle
4749 5056 Circle
4760 5049 Circle
4769 5081 Circle
4790 5075 Circle
4797 5088 Circle
4804 5081 Circle
4826 5094 Circle
4840 5036 Circle
4853 5068 Circle
4860 5029 Circle
4868 5100 Circle
4875 5062 Circle
4881 5075 Circle
4888 5009 Circle
4901 5068 Circle
4908 5036 Circle
4915 5042 Circle
4941 5075 Circle
4948 5056 Circle
4955 5009 Circle
4962 4995 Circle
4968 5036 Circle
4974 5022 Circle
4981 5042 Circle
4988 5022 Circle
4994 5081 Circle
4998 5056 Circle
5001 5002 Circle
5007 5088 Circle
5014 5036 Circle
5020 5049 Circle
5026 5036 Circle
5033 5049 Circle
5044 5075 Circle
5051 5056 Circle
5066 5094 Circle
5070 5088 Circle
5082 5075 Circle
5088 5068 Circle
5109 5081 Circle
5118 5094 Circle
5125 5094 Circle
5133 5075 Circle
5141 5062 Circle
5150 5049 Circle
5158 5068 Circle
5166 5049 Circle
5174 5068 Circle
5181 5009 Circle
5190 4995 Circle
5198 5016 Circle
5206 5002 Circle
5221 4966 Circle
5237 4944 Circle
5244 4930 Circle
5252 4875 Circle
5259 4875 Circle
5267 4859 Circle
5274 4813 Circle
5288 4793 Circle
5295 4762 Circle
5311 4763 Circle
5317 4721 Circle
5324 4728 Circle
5346 4613 Circle
5352 4630 Circle
5359 4629 Circle
5372 4509 Circle
5380 4536 Circle
5392 4430 Circle
5419 4370 Circle
5425 4329 Circle
5438 4264 Circle
5444 4245 Circle
5469 4164 Circle
5476 4177 Circle
5482 4149 Circle
5488 4111 Circle
5494 4099 Circle
5506 4067 Circle
5512 4059 Circle
5522 4048 Circle
5528 4031 Circle
5546 3907 Circle
5552 3914 Circle
5584 3840 Circle
5590 3832 Circle
5606 3691 Circle
5612 3675 Circle
5617 3713 Circle
5634 3628 Circle
5639 3618 Circle
5656 3628 Circle
5661 3542 Circle
5666 3575 Circle
5671 3550 Circle
5676 3572 Circle
5682 3523 Circle
5692 3531 Circle
5697 3491 Circle
5707 3458 Circle
5712 3437 Circle
5721 3420 Circle
5726 3437 Circle
5736 3407 Circle
5746 3384 Circle
5765 3338 Circle
5770 3328 Circle
5775 3380 Circle
5779 3323 Circle
5784 3323 Circle
5789 3303 Circle
5794 3273 Circle
5798 3214 Circle
5803 3278 Circle
5808 3139 Circle
5817 3225 Circle
5822 3191 Circle
5826 3203 Circle
5831 3186 Circle
5839 3157 Circle
4893 1987 Circle
3.000 UL
LT0
LTb
4550 1675 M
[ [(Helvetica) 260.0 0.0 true true 0 (single porosity)]
] -86.7 MRshow
LT0
4706 1675 M
375 0 V
1430 2730 M
111 9 V
102 12 V
94 17 V
86 22 V
81 27 V
75 31 V
71 36 V
67 39 V
63 43 V
60 45 V
57 48 V
54 48 V
52 50 V
50 49 V
47 50 V
46 50 V
44 48 V
43 48 V
41 47 V
39 46 V
39 45 V
37 44 V
36 42 V
35 41 V
34 40 V
32 38 V
32 38 V
32 36 V
30 34 V
30 34 V
28 33 V
29 31 V
27 31 V
27 29 V
26 28 V
26 28 V
25 27 V
25 25 V
24 25 V
23 24 V
23 24 V
23 22 V
22 22 V
22 21 V
22 21 V
21 20 V
20 19 V
21 19 V
20 18 V
19 18 V
20 17 V
19 16 V
18 16 V
19 16 V
18 15 V
18 15 V
17 14 V
17 14 V
18 14 V
16 13 V
17 13 V
16 13 V
16 12 V
16 12 V
16 11 V
15 12 V
16 11 V
15 10 V
15 11 V
14 10 V
15 10 V
14 9 V
14 10 V
14 9 V
14 9 V
14 9 V
13 8 V
14 9 V
13 8 V
13 8 V
13 8 V
13 7 V
12 8 V
13 7 V
12 7 V
12 7 V
12 7 V
12 6 V
12 7 V
12 6 V
111 56 V
102 45 V
94 38 V
86 30 V
81 25 V
75 21 V
71 18 V
67 14 V
63 13 V
60 10 V
57 9 V
54 9 V
stroke 5041 5084 M
52 2 V
50 -17 V
47 -53 V
46 -87 V
44 -107 V
43 -118 V
41 -124 V
39 -126 V
39 -128 V
37 -128 V
36 -130 V
35 -129 V
34 -129 V
32 -128 V
32 -128 V
32 -127 V
30 -126 V
30 -126 V
28 -125 V
29 -124 V
27 -123 V
27 -123 V
26 -122 V
26 -122 V
25 -120 V
25 -121 V
24 -119 V
23 -120 V
23 -118 V
23 -118 V
22 -118 V
22 -117 V
22 -117 V
21 -116 V
20 -116 V
21 -116 V
20 -115 V
12 -73 V
stroke
LT6
LTb
4550 1363 M
[ [(Helvetica) 260.0 0.0 true true 0 (double porosity)]
] -86.7 MRshow
LT6
4706 1363 M
375 0 V
1430 2722 M
111 1 V
102 3 V
94 5 V
86 8 V
81 11 V
75 15 V
71 19 V
67 24 V
63 28 V
60 33 V
57 37 V
54 40 V
52 44 V
50 46 V
47 48 V
46 50 V
44 50 V
43 51 V
41 52 V
39 51 V
39 50 V
37 50 V
36 49 V
35 48 V
34 47 V
32 46 V
32 44 V
32 43 V
30 42 V
30 40 V
28 39 V
29 38 V
27 36 V
27 36 V
26 34 V
26 33 V
25 31 V
25 31 V
24 30 V
23 28 V
23 28 V
23 26 V
22 26 V
22 25 V
22 24 V
21 23 V
20 22 V
21 22 V
20 21 V
19 20 V
20 20 V
19 18 V
18 19 V
19 17 V
18 17 V
18 17 V
17 16 V
17 16 V
18 15 V
16 14 V
17 14 V
16 14 V
16 13 V
16 13 V
16 12 V
15 12 V
16 12 V
15 12 V
15 11 V
14 10 V
15 11 V
14 10 V
14 10 V
14 9 V
14 9 V
14 9 V
13 9 V
14 8 V
13 9 V
13 8 V
13 7 V
13 8 V
12 7 V
13 8 V
12 7 V
12 6 V
12 7 V
12 6 V
12 7 V
12 6 V
111 53 V
102 41 V
94 32 V
86 26 V
81 21 V
75 17 V
71 14 V
67 12 V
63 10 V
60 8 V
57 8 V
54 8 V
stroke 5041 5073 M
52 5 V
50 -10 V
47 -42 V
46 -83 V
44 -116 V
43 -132 V
41 -140 V
39 -141 V
39 -138 V
37 -132 V
36 -125 V
35 -117 V
34 -108 V
32 -98 V
32 -89 V
32 -80 V
30 -72 V
30 -65 V
28 -59 V
29 -54 V
27 -48 V
27 -45 V
26 -40 V
26 -37 V
25 -34 V
25 -32 V
24 -30 V
23 -29 V
23 -28 V
23 -27 V
22 -26 V
22 -26 V
22 -25 V
21 -25 V
20 -25 V
21 -24 V
20 -24 V
19 -24 V
20 -24 V
19 -23 V
18 -24 V
19 -23 V
18 -24 V
18 -23 V
17 -23 V
17 -23 V
18 -24 V
16 -23 V
17 -23 V
16 -23 V
16 -23 V
16 -23 V
16 -24 V
15 -23 V
16 -23 V
15 -23 V
15 -23 V
14 -23 V
15 -23 V
14 -23 V
14 -24 V
14 -23 V
14 -23 V
14 -23 V
13 -23 V
14 -23 V
13 -23 V
13 -23 V
13 -24 V
13 -23 V
12 -23 V
13 -23 V
12 -23 V
12 -23 V
12 -24 V
12 -23 V
12 -23 V
stroke
8.000 UL
LT0
LTb
4550 1051 M
[ [(Helvetica) 260.0 0.0 true true 0 (multirate lognormal)]
] -86.7 MRshow
LT0
4706 1051 M
375 0 V
1430 2721 M
111 0 V
102 1 V
94 2 V
86 4 V
81 6 V
75 10 V
71 13 V
67 17 V
63 23 V
60 27 V
57 32 V
54 37 V
52 42 V
50 45 V
47 49 V
46 50 V
44 53 V
43 54 V
41 54 V
39 55 V
39 54 V
37 54 V
36 53 V
35 52 V
34 50 V
32 49 V
32 48 V
32 46 V
30 44 V
30 43 V
28 42 V
29 40 V
27 38 V
27 37 V
26 36 V
26 34 V
25 33 V
25 32 V
24 30 V
23 29 V
23 29 V
23 27 V
22 26 V
22 25 V
22 24 V
21 23 V
20 23 V
21 21 V
20 21 V
19 20 V
20 20 V
19 18 V
18 18 V
19 18 V
18 16 V
18 17 V
17 15 V
17 15 V
18 15 V
16 14 V
17 14 V
16 13 V
16 13 V
16 12 V
16 12 V
15 12 V
16 11 V
15 11 V
15 10 V
14 11 V
15 10 V
14 9 V
14 10 V
14 9 V
14 9 V
14 8 V
13 9 V
14 8 V
13 8 V
13 7 V
13 8 V
13 7 V
12 7 V
13 7 V
12 7 V
12 6 V
12 6 V
12 7 V
12 6 V
12 5 V
111 52 V
102 40 V
94 33 V
86 26 V
81 22 V
75 19 V
71 15 V
67 14 V
63 11 V
60 10 V
57 9 V
54 9 V
stroke 5041 5076 M
52 6 V
50 -7 V
47 -43 V
46 -88 V
44 -121 V
43 -136 V
41 -139 V
39 -135 V
39 -131 V
37 -124 V
36 -118 V
35 -112 V
34 -106 V
32 -101 V
32 -96 V
32 -91 V
30 -87 V
30 -82 V
28 -79 V
29 -76 V
27 -73 V
27 -70 V
26 -67 V
26 -65 V
25 -62 V
25 -60 V
24 -59 V
23 -57 V
23 -55 V
23 -53 V
22 -52 V
22 -50 V
22 -49 V
21 -48 V
20 -47 V
21 -46 V
20 -44 V
19 -43 V
20 -43 V
19 -41 V
18 -41 V
19 -40 V
18 -39 V
18 -38 V
17 -38 V
17 -36 V
18 -36 V
16 -36 V
17 -35 V
16 -34 V
16 -33 V
16 -33 V
16 -33 V
15 -32 V
16 -31 V
15 -31 V
15 -30 V
14 -30 V
15 -30 V
14 -29 V
14 -29 V
14 -28 V
14 -28 V
14 -27 V
13 -27 V
14 -27 V
13 -26 V
13 -26 V
13 -26 V
13 -25 V
12 -25 V
13 -25 V
12 -24 V
12 -24 V
12 -24 V
12 -24 V
12 -23 V
stroke
1.000 UL
LTb
1430 5736 N
0 -4904 V
5380 0 V
0 4904 V
-5380 0 V
Z stroke
1.000 UP
1.000 UL
LTb
stroke
grestore
end
showpage
%%Trailer
%%DocumentFonts: Symbol Helvetica
