%!PS-Adobe-2.0 EPSF-2.0
%%Title: B7_232U_logn0a.eps
%%Creator: gnuplot 4.4 patchlevel 4
%%CreationDate: Tue Jul 17 11:58:23 2012
%%DocumentFonts: (atend)
%%BoundingBox: 50 50 410 352
%%EndComments
%%BeginProlog
/gnudict 256 dict def
gnudict begin
%
% The following true/false flags may be edited by hand if desired.
% The unit line width and grayscale image gamma correction may also be changed.
%
/Color false def
/Blacktext false def
/Solid false def
/Dashlength 2 def
/Landscape false def
/Level1 false def
/Rounded false def
/ClipToBoundingBox false def
/TransparentPatterns false def
/gnulinewidth 5.000 def
/userlinewidth gnulinewidth def
/Gamma 1.0 def
%
/vshift -80 def
/dl1 {
  10.0 Dashlength mul mul
  Rounded { currentlinewidth 0.75 mul sub dup 0 le { pop 0.01 } if } if
} def
/dl2 {
  10.0 Dashlength mul mul
  Rounded { currentlinewidth 0.75 mul add } if
} def
/hpt_ 31.5 def
/vpt_ 31.5 def
/hpt hpt_ def
/vpt vpt_ def
Level1 {} {
/SDict 10 dict def
systemdict /pdfmark known not {
  userdict /pdfmark systemdict /cleartomark get put
} if
SDict begin [
  /Title (B7_232U_logn0a.eps)
  /Subject (gnuplot plot)
  /Creator (gnuplot 4.4 patchlevel 4)
  /Author (bmalama)
%  /Producer (gnuplot)
%  /Keywords ()
  /CreationDate (Tue Jul 17 11:58:23 2012)
  /DOCINFO pdfmark
end
} ifelse
/doclip {
  ClipToBoundingBox {
    newpath 50 50 moveto 410 50 lineto 410 352 lineto 50 352 lineto closepath
    clip
  } if
} def
%
% Gnuplot Prolog Version 4.4 (August 2010)
%
%/SuppressPDFMark true def
%
/M {moveto} bind def
/L {lineto} bind def
/R {rmoveto} bind def
/V {rlineto} bind def
/N {newpath moveto} bind def
/Z {closepath} bind def
/C {setrgbcolor} bind def
/f {rlineto fill} bind def
/g {setgray} bind def
/Gshow {show} def   % May be redefined later in the file to support UTF-8
/vpt2 vpt 2 mul def
/hpt2 hpt 2 mul def
/Lshow {currentpoint stroke M 0 vshift R 
	Blacktext {gsave 0 setgray show grestore} {show} ifelse} def
/Rshow {currentpoint stroke M dup stringwidth pop neg vshift R
	Blacktext {gsave 0 setgray show grestore} {show} ifelse} def
/Cshow {currentpoint stroke M dup stringwidth pop -2 div vshift R 
	Blacktext {gsave 0 setgray show grestore} {show} ifelse} def
/UP {dup vpt_ mul /vpt exch def hpt_ mul /hpt exch def
  /hpt2 hpt 2 mul def /vpt2 vpt 2 mul def} def
/DL {Color {setrgbcolor Solid {pop []} if 0 setdash}
 {pop pop pop 0 setgray Solid {pop []} if 0 setdash} ifelse} def
/BL {stroke userlinewidth 2 mul setlinewidth
	Rounded {1 setlinejoin 1 setlinecap} if} def
/AL {stroke userlinewidth 2 div setlinewidth
	Rounded {1 setlinejoin 1 setlinecap} if} def
/UL {dup gnulinewidth mul /userlinewidth exch def
	dup 1 lt {pop 1} if 10 mul /udl exch def} def
/PL {stroke userlinewidth setlinewidth
	Rounded {1 setlinejoin 1 setlinecap} if} def
3.8 setmiterlimit
% Default Line colors
/LCw {1 1 1} def
/LCb {0 0 0} def
/LCa {0 0 0} def
/LC0 {1 0 0} def
/LC1 {0 1 0} def
/LC2 {0 0 1} def
/LC3 {1 0 1} def
/LC4 {0 1 1} def
/LC5 {1 1 0} def
/LC6 {0 0 0} def
/LC7 {1 0.3 0} def
/LC8 {0.5 0.5 0.5} def
% Default Line Types
/LTw {PL [] 1 setgray} def
/LTb {BL [] LCb DL} def
/LTa {AL [1 udl mul 2 udl mul] 0 setdash LCa setrgbcolor} def
/LT0 {PL [] LC0 DL} def
/LT1 {PL [4 dl1 2 dl2] LC1 DL} def
/LT2 {PL [2 dl1 3 dl2] LC2 DL} def
/LT3 {PL [1 dl1 1.5 dl2] LC3 DL} def
/LT4 {PL [6 dl1 2 dl2 1 dl1 2 dl2] LC4 DL} def
/LT5 {PL [3 dl1 3 dl2 1 dl1 3 dl2] LC5 DL} def
/LT6 {PL [2 dl1 2 dl2 2 dl1 6 dl2] LC6 DL} def
/LT7 {PL [1 dl1 2 dl2 6 dl1 2 dl2 1 dl1 2 dl2] LC7 DL} def
/LT8 {PL [2 dl1 2 dl2 2 dl1 2 dl2 2 dl1 2 dl2 2 dl1 4 dl2] LC8 DL} def
/Pnt {stroke [] 0 setdash gsave 1 setlinecap M 0 0 V stroke grestore} def
/Dia {stroke [] 0 setdash 2 copy vpt add M
  hpt neg vpt neg V hpt vpt neg V
  hpt vpt V hpt neg vpt V closepath stroke
  Pnt} def
/Pls {stroke [] 0 setdash vpt sub M 0 vpt2 V
  currentpoint stroke M
  hpt neg vpt neg R hpt2 0 V stroke
 } def
/Box {stroke [] 0 setdash 2 copy exch hpt sub exch vpt add M
  0 vpt2 neg V hpt2 0 V 0 vpt2 V
  hpt2 neg 0 V closepath stroke
  Pnt} def
/Crs {stroke [] 0 setdash exch hpt sub exch vpt add M
  hpt2 vpt2 neg V currentpoint stroke M
  hpt2 neg 0 R hpt2 vpt2 V stroke} def
/TriU {stroke [] 0 setdash 2 copy vpt 1.12 mul add M
  hpt neg vpt -1.62 mul V
  hpt 2 mul 0 V
  hpt neg vpt 1.62 mul V closepath stroke
  Pnt} def
/Star {2 copy Pls Crs} def
/BoxF {stroke [] 0 setdash exch hpt sub exch vpt add M
  0 vpt2 neg V hpt2 0 V 0 vpt2 V
  hpt2 neg 0 V closepath fill} def
/TriUF {stroke [] 0 setdash vpt 1.12 mul add M
  hpt neg vpt -1.62 mul V
  hpt 2 mul 0 V
  hpt neg vpt 1.62 mul V closepath fill} def
/TriD {stroke [] 0 setdash 2 copy vpt 1.12 mul sub M
  hpt neg vpt 1.62 mul V
  hpt 2 mul 0 V
  hpt neg vpt -1.62 mul V closepath stroke
  Pnt} def
/TriDF {stroke [] 0 setdash vpt 1.12 mul sub M
  hpt neg vpt 1.62 mul V
  hpt 2 mul 0 V
  hpt neg vpt -1.62 mul V closepath fill} def
/DiaF {stroke [] 0 setdash vpt add M
  hpt neg vpt neg V hpt vpt neg V
  hpt vpt V hpt neg vpt V closepath fill} def
/Pent {stroke [] 0 setdash 2 copy gsave
  translate 0 hpt M 4 {72 rotate 0 hpt L} repeat
  closepath stroke grestore Pnt} def
/PentF {stroke [] 0 setdash gsave
  translate 0 hpt M 4 {72 rotate 0 hpt L} repeat
  closepath fill grestore} def
/Circle {stroke [] 0 setdash 2 copy
  hpt 0 360 arc stroke Pnt} def
/CircleF {stroke [] 0 setdash hpt 0 360 arc fill} def
/C0 {BL [] 0 setdash 2 copy moveto vpt 90 450 arc} bind def
/C1 {BL [] 0 setdash 2 copy moveto
	2 copy vpt 0 90 arc closepath fill
	vpt 0 360 arc closepath} bind def
/C2 {BL [] 0 setdash 2 copy moveto
	2 copy vpt 90 180 arc closepath fill
	vpt 0 360 arc closepath} bind def
/C3 {BL [] 0 setdash 2 copy moveto
	2 copy vpt 0 180 arc closepath fill
	vpt 0 360 arc closepath} bind def
/C4 {BL [] 0 setdash 2 copy moveto
	2 copy vpt 180 270 arc closepath fill
	vpt 0 360 arc closepath} bind def
/C5 {BL [] 0 setdash 2 copy moveto
	2 copy vpt 0 90 arc
	2 copy moveto
	2 copy vpt 180 270 arc closepath fill
	vpt 0 360 arc} bind def
/C6 {BL [] 0 setdash 2 copy moveto
	2 copy vpt 90 270 arc closepath fill
	vpt 0 360 arc closepath} bind def
/C7 {BL [] 0 setdash 2 copy moveto
	2 copy vpt 0 270 arc closepath fill
	vpt 0 360 arc closepath} bind def
/C8 {BL [] 0 setdash 2 copy moveto
	2 copy vpt 270 360 arc closepath fill
	vpt 0 360 arc closepath} bind def
/C9 {BL [] 0 setdash 2 copy moveto
	2 copy vpt 270 450 arc closepath fill
	vpt 0 360 arc closepath} bind def
/C10 {BL [] 0 setdash 2 copy 2 copy moveto vpt 270 360 arc closepath fill
	2 copy moveto
	2 copy vpt 90 180 arc closepath fill
	vpt 0 360 arc closepath} bind def
/C11 {BL [] 0 setdash 2 copy moveto
	2 copy vpt 0 180 arc closepath fill
	2 copy moveto
	2 copy vpt 270 360 arc closepath fill
	vpt 0 360 arc closepath} bind def
/C12 {BL [] 0 setdash 2 copy moveto
	2 copy vpt 180 360 arc closepath fill
	vpt 0 360 arc closepath} bind def
/C13 {BL [] 0 setdash 2 copy moveto
	2 copy vpt 0 90 arc closepath fill
	2 copy moveto
	2 copy vpt 180 360 arc closepath fill
	vpt 0 360 arc closepath} bind def
/C14 {BL [] 0 setdash 2 copy moveto
	2 copy vpt 90 360 arc closepath fill
	vpt 0 360 arc} bind def
/C15 {BL [] 0 setdash 2 copy vpt 0 360 arc closepath fill
	vpt 0 360 arc closepath} bind def
/Rec {newpath 4 2 roll moveto 1 index 0 rlineto 0 exch rlineto
	neg 0 rlineto closepath} bind def
/Square {dup Rec} bind def
/Bsquare {vpt sub exch vpt sub exch vpt2 Square} bind def
/S0 {BL [] 0 setdash 2 copy moveto 0 vpt rlineto BL Bsquare} bind def
/S1 {BL [] 0 setdash 2 copy vpt Square fill Bsquare} bind def
/S2 {BL [] 0 setdash 2 copy exch vpt sub exch vpt Square fill Bsquare} bind def
/S3 {BL [] 0 setdash 2 copy exch vpt sub exch vpt2 vpt Rec fill Bsquare} bind def
/S4 {BL [] 0 setdash 2 copy exch vpt sub exch vpt sub vpt Square fill Bsquare} bind def
/S5 {BL [] 0 setdash 2 copy 2 copy vpt Square fill
	exch vpt sub exch vpt sub vpt Square fill Bsquare} bind def
/S6 {BL [] 0 setdash 2 copy exch vpt sub exch vpt sub vpt vpt2 Rec fill Bsquare} bind def
/S7 {BL [] 0 setdash 2 copy exch vpt sub exch vpt sub vpt vpt2 Rec fill
	2 copy vpt Square fill Bsquare} bind def
/S8 {BL [] 0 setdash 2 copy vpt sub vpt Square fill Bsquare} bind def
/S9 {BL [] 0 setdash 2 copy vpt sub vpt vpt2 Rec fill Bsquare} bind def
/S10 {BL [] 0 setdash 2 copy vpt sub vpt Square fill 2 copy exch vpt sub exch vpt Square fill
	Bsquare} bind def
/S11 {BL [] 0 setdash 2 copy vpt sub vpt Square fill 2 copy exch vpt sub exch vpt2 vpt Rec fill
	Bsquare} bind def
/S12 {BL [] 0 setdash 2 copy exch vpt sub exch vpt sub vpt2 vpt Rec fill Bsquare} bind def
/S13 {BL [] 0 setdash 2 copy exch vpt sub exch vpt sub vpt2 vpt Rec fill
	2 copy vpt Square fill Bsquare} bind def
/S14 {BL [] 0 setdash 2 copy exch vpt sub exch vpt sub vpt2 vpt Rec fill
	2 copy exch vpt sub exch vpt Square fill Bsquare} bind def
/S15 {BL [] 0 setdash 2 copy Bsquare fill Bsquare} bind def
/D0 {gsave translate 45 rotate 0 0 S0 stroke grestore} bind def
/D1 {gsave translate 45 rotate 0 0 S1 stroke grestore} bind def
/D2 {gsave translate 45 rotate 0 0 S2 stroke grestore} bind def
/D3 {gsave translate 45 rotate 0 0 S3 stroke grestore} bind def
/D4 {gsave translate 45 rotate 0 0 S4 stroke grestore} bind def
/D5 {gsave translate 45 rotate 0 0 S5 stroke grestore} bind def
/D6 {gsave translate 45 rotate 0 0 S6 stroke grestore} bind def
/D7 {gsave translate 45 rotate 0 0 S7 stroke grestore} bind def
/D8 {gsave translate 45 rotate 0 0 S8 stroke grestore} bind def
/D9 {gsave translate 45 rotate 0 0 S9 stroke grestore} bind def
/D10 {gsave translate 45 rotate 0 0 S10 stroke grestore} bind def
/D11 {gsave translate 45 rotate 0 0 S11 stroke grestore} bind def
/D12 {gsave translate 45 rotate 0 0 S12 stroke grestore} bind def
/D13 {gsave translate 45 rotate 0 0 S13 stroke grestore} bind def
/D14 {gsave translate 45 rotate 0 0 S14 stroke grestore} bind def
/D15 {gsave translate 45 rotate 0 0 S15 stroke grestore} bind def
/DiaE {stroke [] 0 setdash vpt add M
  hpt neg vpt neg V hpt vpt neg V
  hpt vpt V hpt neg vpt V closepath stroke} def
/BoxE {stroke [] 0 setdash exch hpt sub exch vpt add M
  0 vpt2 neg V hpt2 0 V 0 vpt2 V
  hpt2 neg 0 V closepath stroke} def
/TriUE {stroke [] 0 setdash vpt 1.12 mul add M
  hpt neg vpt -1.62 mul V
  hpt 2 mul 0 V
  hpt neg vpt 1.62 mul V closepath stroke} def
/TriDE {stroke [] 0 setdash vpt 1.12 mul sub M
  hpt neg vpt 1.62 mul V
  hpt 2 mul 0 V
  hpt neg vpt -1.62 mul V closepath stroke} def
/PentE {stroke [] 0 setdash gsave
  translate 0 hpt M 4 {72 rotate 0 hpt L} repeat
  closepath stroke grestore} def
/CircE {stroke [] 0 setdash 
  hpt 0 360 arc stroke} def
/Opaque {gsave closepath 1 setgray fill grestore 0 setgray closepath} def
/DiaW {stroke [] 0 setdash vpt add M
  hpt neg vpt neg V hpt vpt neg V
  hpt vpt V hpt neg vpt V Opaque stroke} def
/BoxW {stroke [] 0 setdash exch hpt sub exch vpt add M
  0 vpt2 neg V hpt2 0 V 0 vpt2 V
  hpt2 neg 0 V Opaque stroke} def
/TriUW {stroke [] 0 setdash vpt 1.12 mul add M
  hpt neg vpt -1.62 mul V
  hpt 2 mul 0 V
  hpt neg vpt 1.62 mul V Opaque stroke} def
/TriDW {stroke [] 0 setdash vpt 1.12 mul sub M
  hpt neg vpt 1.62 mul V
  hpt 2 mul 0 V
  hpt neg vpt -1.62 mul V Opaque stroke} def
/PentW {stroke [] 0 setdash gsave
  translate 0 hpt M 4 {72 rotate 0 hpt L} repeat
  Opaque stroke grestore} def
/CircW {stroke [] 0 setdash 
  hpt 0 360 arc Opaque stroke} def
/BoxFill {gsave Rec 1 setgray fill grestore} def
/Density {
  /Fillden exch def
  currentrgbcolor
  /ColB exch def /ColG exch def /ColR exch def
  /ColR ColR Fillden mul Fillden sub 1 add def
  /ColG ColG Fillden mul Fillden sub 1 add def
  /ColB ColB Fillden mul Fillden sub 1 add def
  ColR ColG ColB setrgbcolor} def
/BoxColFill {gsave Rec PolyFill} def
/PolyFill {gsave Density fill grestore grestore} def
/h {rlineto rlineto rlineto gsave closepath fill grestore} bind def
%
% PostScript Level 1 Pattern Fill routine for rectangles
% Usage: x y w h s a XX PatternFill
%	x,y = lower left corner of box to be filled
%	w,h = width and height of box
%	  a = angle in degrees between lines and x-axis
%	 XX = 0/1 for no/yes cross-hatch
%
/PatternFill {gsave /PFa [ 9 2 roll ] def
  PFa 0 get PFa 2 get 2 div add PFa 1 get PFa 3 get 2 div add translate
  PFa 2 get -2 div PFa 3 get -2 div PFa 2 get PFa 3 get Rec
  gsave 1 setgray fill grestore clip
  currentlinewidth 0.5 mul setlinewidth
  /PFs PFa 2 get dup mul PFa 3 get dup mul add sqrt def
  0 0 M PFa 5 get rotate PFs -2 div dup translate
  0 1 PFs PFa 4 get div 1 add floor cvi
	{PFa 4 get mul 0 M 0 PFs V} for
  0 PFa 6 get ne {
	0 1 PFs PFa 4 get div 1 add floor cvi
	{PFa 4 get mul 0 2 1 roll M PFs 0 V} for
 } if
  stroke grestore} def
%
/languagelevel where
 {pop languagelevel} {1} ifelse
 2 lt
	{/InterpretLevel1 true def}
	{/InterpretLevel1 Level1 def}
 ifelse
%
% PostScript level 2 pattern fill definitions
%
/Level2PatternFill {
/Tile8x8 {/PaintType 2 /PatternType 1 /TilingType 1 /BBox [0 0 8 8] /XStep 8 /YStep 8}
	bind def
/KeepColor {currentrgbcolor [/Pattern /DeviceRGB] setcolorspace} bind def
<< Tile8x8
 /PaintProc {0.5 setlinewidth pop 0 0 M 8 8 L 0 8 M 8 0 L stroke} 
>> matrix makepattern
/Pat1 exch def
<< Tile8x8
 /PaintProc {0.5 setlinewidth pop 0 0 M 8 8 L 0 8 M 8 0 L stroke
	0 4 M 4 8 L 8 4 L 4 0 L 0 4 L stroke}
>> matrix makepattern
/Pat2 exch def
<< Tile8x8
 /PaintProc {0.5 setlinewidth pop 0 0 M 0 8 L
	8 8 L 8 0 L 0 0 L fill}
>> matrix makepattern
/Pat3 exch def
<< Tile8x8
 /PaintProc {0.5 setlinewidth pop -4 8 M 8 -4 L
	0 12 M 12 0 L stroke}
>> matrix makepattern
/Pat4 exch def
<< Tile8x8
 /PaintProc {0.5 setlinewidth pop -4 0 M 8 12 L
	0 -4 M 12 8 L stroke}
>> matrix makepattern
/Pat5 exch def
<< Tile8x8
 /PaintProc {0.5 setlinewidth pop -2 8 M 4 -4 L
	0 12 M 8 -4 L 4 12 M 10 0 L stroke}
>> matrix makepattern
/Pat6 exch def
<< Tile8x8
 /PaintProc {0.5 setlinewidth pop -2 0 M 4 12 L
	0 -4 M 8 12 L 4 -4 M 10 8 L stroke}
>> matrix makepattern
/Pat7 exch def
<< Tile8x8
 /PaintProc {0.5 setlinewidth pop 8 -2 M -4 4 L
	12 0 M -4 8 L 12 4 M 0 10 L stroke}
>> matrix makepattern
/Pat8 exch def
<< Tile8x8
 /PaintProc {0.5 setlinewidth pop 0 -2 M 12 4 L
	-4 0 M 12 8 L -4 4 M 8 10 L stroke}
>> matrix makepattern
/Pat9 exch def
/Pattern1 {PatternBgnd KeepColor Pat1 setpattern} bind def
/Pattern2 {PatternBgnd KeepColor Pat2 setpattern} bind def
/Pattern3 {PatternBgnd KeepColor Pat3 setpattern} bind def
/Pattern4 {PatternBgnd KeepColor Landscape {Pat5} {Pat4} ifelse setpattern} bind def
/Pattern5 {PatternBgnd KeepColor Landscape {Pat4} {Pat5} ifelse setpattern} bind def
/Pattern6 {PatternBgnd KeepColor Landscape {Pat9} {Pat6} ifelse setpattern} bind def
/Pattern7 {PatternBgnd KeepColor Landscape {Pat8} {Pat7} ifelse setpattern} bind def
} def
%
%
%End of PostScript Level 2 code
%
/PatternBgnd {
  TransparentPatterns {} {gsave 1 setgray fill grestore} ifelse
} def
%
% Substitute for Level 2 pattern fill codes with
% grayscale if Level 2 support is not selected.
%
/Level1PatternFill {
/Pattern1 {0.250 Density} bind def
/Pattern2 {0.500 Density} bind def
/Pattern3 {0.750 Density} bind def
/Pattern4 {0.125 Density} bind def
/Pattern5 {0.375 Density} bind def
/Pattern6 {0.625 Density} bind def
/Pattern7 {0.875 Density} bind def
} def
%
% Now test for support of Level 2 code
%
Level1 {Level1PatternFill} {Level2PatternFill} ifelse
%
/Symbol-Oblique /Symbol findfont [1 0 .167 1 0 0] makefont
dup length dict begin {1 index /FID eq {pop pop} {def} ifelse} forall
currentdict end definefont pop
/MFshow {
   { dup 5 get 3 ge
     { 5 get 3 eq {gsave} {grestore} ifelse }
     {dup dup 0 get findfont exch 1 get scalefont setfont
     [ currentpoint ] exch dup 2 get 0 exch R dup 5 get 2 ne {dup dup 6
     get exch 4 get {Gshow} {stringwidth pop 0 R} ifelse }if dup 5 get 0 eq
     {dup 3 get {2 get neg 0 exch R pop} {pop aload pop M} ifelse} {dup 5
     get 1 eq {dup 2 get exch dup 3 get exch 6 get stringwidth pop -2 div
     dup 0 R} {dup 6 get stringwidth pop -2 div 0 R 6 get
     show 2 index {aload pop M neg 3 -1 roll neg R pop pop} {pop pop pop
     pop aload pop M} ifelse }ifelse }ifelse }
     ifelse }
   forall} def
/Gswidth {dup type /stringtype eq {stringwidth} {pop (n) stringwidth} ifelse} def
/MFwidth {0 exch { dup 5 get 3 ge { 5 get 3 eq { 0 } { pop } ifelse }
 {dup 3 get{dup dup 0 get findfont exch 1 get scalefont setfont
     6 get Gswidth pop add} {pop} ifelse} ifelse} forall} def
/MLshow { currentpoint stroke M
  0 exch R
  Blacktext {gsave 0 setgray MFshow grestore} {MFshow} ifelse } bind def
/MRshow { currentpoint stroke M
  exch dup MFwidth neg 3 -1 roll R
  Blacktext {gsave 0 setgray MFshow grestore} {MFshow} ifelse } bind def
/MCshow { currentpoint stroke M
  exch dup MFwidth -2 div 3 -1 roll R
  Blacktext {gsave 0 setgray MFshow grestore} {MFshow} ifelse } bind def
/XYsave    { [( ) 1 2 true false 3 ()] } bind def
/XYrestore { [( ) 1 2 true false 4 ()] } bind def
end
%%EndProlog
gnudict begin
gsave
doclip
50 50 translate
0.050 0.050 scale
0 setgray
newpath
(Helvetica) findfont 240 scalefont setfont
1.000 UL
LTb
1320 768 M
63 0 V
5384 0 R
-63 0 V
stroke
1176 768 M
[ [(Helvetica) 240.0 0.0 true true 0 ( 0)]
] -80.0 MRshow
1.000 UL
LTb
1320 2016 M
63 0 V
5384 0 R
-63 0 V
stroke
1176 2016 M
[ [(Helvetica) 240.0 0.0 true true 0 ( 0.01)]
] -80.0 MRshow
1.000 UL
LTb
1320 3264 M
63 0 V
5384 0 R
-63 0 V
stroke
1176 3264 M
[ [(Helvetica) 240.0 0.0 true true 0 ( 0.02)]
] -80.0 MRshow
1.000 UL
LTb
1320 4511 M
63 0 V
5384 0 R
-63 0 V
stroke
1176 4511 M
[ [(Helvetica) 240.0 0.0 true true 0 ( 0.03)]
] -80.0 MRshow
1.000 UL
LTb
1320 5759 M
63 0 V
5384 0 R
-63 0 V
stroke
1176 5759 M
[ [(Helvetica) 240.0 0.0 true true 0 ( 0.04)]
] -80.0 MRshow
1.000 UL
LTb
1320 768 M
0 63 V
0 4928 R
0 -63 V
stroke
1320 528 M
[ [(Helvetica) 240.0 0.0 true true 0 (10)]
[(Helvetica) 192.0 120.0 true true 0 (4)]
] -104.0 MCshow
1.000 UL
LTb
2140 768 M
0 31 V
0 4960 R
0 -31 V
2619 768 M
0 31 V
0 4960 R
0 -31 V
2960 768 M
0 31 V
0 4960 R
0 -31 V
3224 768 M
0 31 V
0 4960 R
0 -31 V
3439 768 M
0 31 V
0 4960 R
0 -31 V
3622 768 M
0 31 V
0 4960 R
0 -31 V
3780 768 M
0 31 V
0 4960 R
0 -31 V
3919 768 M
0 31 V
0 4960 R
0 -31 V
4044 768 M
0 63 V
0 4928 R
0 -63 V
stroke
4044 528 M
[ [(Helvetica) 240.0 0.0 true true 0 (10)]
[(Helvetica) 192.0 120.0 true true 0 (5)]
] -104.0 MCshow
1.000 UL
LTb
4863 768 M
0 31 V
0 4960 R
0 -31 V
5343 768 M
0 31 V
0 4960 R
0 -31 V
5683 768 M
0 31 V
0 4960 R
0 -31 V
5947 768 M
0 31 V
0 4960 R
0 -31 V
6163 768 M
0 31 V
0 4960 R
0 -31 V
6345 768 M
0 31 V
0 4960 R
0 -31 V
6503 768 M
0 31 V
0 4960 R
0 -31 V
6642 768 M
0 31 V
0 4960 R
0 -31 V
6767 768 M
0 63 V
0 4928 R
0 -63 V
stroke
6767 528 M
[ [(Helvetica) 240.0 0.0 true true 0 (10)]
[(Helvetica) 192.0 120.0 true true 0 (6)]
] -104.0 MCshow
1.000 UL
LTb
1.000 UL
LTb
1320 5759 N
0 -4991 V
5447 0 V
0 4991 V
-5447 0 V
Z stroke
LCb setrgbcolor
192 3263 M
currentpoint gsave translate -270 rotate 0 0 moveto
[ [(Helvetica) 240.0 0.0 true true 0 (c/c)]
[(Helvetica) 192.0 -72.0 true true 0 (inj)]
] -56.0 MCshow
grestore
LTb
LCb setrgbcolor
4043 168 M
[ [(Helvetica) 240.0 0.0 true true 0 (t \(seconds\))]
] -80.0 MCshow
LTb
1.000 UP
1800 4012 M
[ [(Symbol) 240.0 0.0 true true 0 (m)]
[(Helvetica) 240.0 0.0 true true 0 ( = -2.21)]
] -80.0 MLshow
1800 3638 M
[ [(Symbol) 240.0 0.0 true true 0 (s)]
[(Helvetica) 240.0 0.0 true true 0 ( = 3.58)]
] -80.0 MLshow
1800 3264 M
[ [(Helvetica) 240.0 0.0 true true 0 (R)]
[(Helvetica) 192.0 -72.0 true true 0 (m)]
[(Helvetica) 240.0 0.0 true true 0 ( = 3.48)]
] -56.0 MLshow
1800 2889 M
[ [(Helvetica) 240.0 0.0 true true 0 (R)]
[(Helvetica) 192.0 -72.0 true true 0 (im)]
[(Helvetica) 240.0 0.0 true true 0 ( = 1.30)]
] -56.0 MLshow
1800 2515 M
[ [(Helvetica) 240.0 0.0 true true 0 (t)]
[(Helvetica) 192.0 -72.0 true true 0 (inj)]
[(Helvetica) 240.0 0.0 true true 0 ( = 2.12 hrs)]
] -56.0 MLshow
1429 5509 M
[ [(Helvetica) 240.0 0.0 true true 0 (\(b\) test B7, )]
[(Helvetica) 192.0 120.0 true true 0 (232)]
[(Helvetica) 240.0 0.0 true true 0 (U)]
] -104.0 MLshow
1.000 UL
LTb
% Begin plot #1
1.300 UP
1.000 UL
LT0
LCb setrgbcolor
5984 5552 M
[ [(Helvetica) 240.0 0.0 true true 0 (data)]
] -80.0 MRshow
LT0
1957 844 Circle
2030 903 Circle
2099 838 Circle
2164 871 Circle
2227 930 Circle
2287 1000 Circle
2343 957 Circle
2399 1000 Circle
2448 984 Circle
2498 979 Circle
2546 1103 Circle
2592 1071 Circle
2637 1054 Circle
2678 1054 Circle
2720 1076 Circle
2759 1195 Circle
2797 1065 Circle
2835 1157 Circle
2870 1146 Circle
2922 1060 Circle
3020 1098 Circle
3067 1119 Circle
3111 1109 Circle
3153 1179 Circle
3194 1184 Circle
3234 1211 Circle
3272 1254 Circle
3309 1244 Circle
3345 1281 Circle
3380 1244 Circle
3414 1244 Circle
3447 1281 Circle
3480 1244 Circle
3542 1379 Circle
3572 1395 Circle
3602 1357 Circle
3631 1427 Circle
3659 1595 Circle
3686 1627 Circle
3712 1590 Circle
3738 1730 Circle
3764 1860 Circle
3789 1973 Circle
3813 1914 Circle
3837 2125 Circle
3860 2179 Circle
3883 2287 Circle
3906 2287 Circle
3928 2341 Circle
3950 2449 Circle
3971 2503 Circle
4012 2449 Circle
4032 2611 Circle
4051 2827 Circle
4071 2935 Circle
4091 2719 Circle
4109 2827 Circle
4128 2989 Circle
4147 3098 Circle
4165 2989 Circle
4182 3152 Circle
4200 3422 Circle
4217 3422 Circle
4234 3368 Circle
4251 3260 Circle
4267 3368 Circle
4283 3314 Circle
4299 3422 Circle
4315 3692 Circle
4331 3530 Circle
4347 3638 Circle
4362 3746 Circle
4377 3638 Circle
4392 3638 Circle
4406 3800 Circle
4421 3746 Circle
4461 3800 Circle
4475 3962 Circle
4489 3800 Circle
4502 3908 Circle
4516 3908 Circle
4528 3962 Circle
4542 4070 Circle
4555 3854 Circle
4568 4070 Circle
4581 3854 Circle
4594 3962 Circle
4606 4016 Circle
4618 4233 Circle
4627 4179 Circle
4639 3962 Circle
4651 4124 Circle
4662 4179 Circle
4674 4179 Circle
4696 4016 Circle
4707 4124 Circle
4719 4124 Circle
4730 4070 Circle
4741 4124 Circle
4752 4233 Circle
4763 4179 Circle
4774 3800 Circle
4784 4124 Circle
4795 3800 Circle
4805 3962 Circle
4816 4016 Circle
4826 3908 Circle
4846 3746 Circle
4866 3908 Circle
4876 3746 Circle
4886 3854 Circle
4905 3746 Circle
4915 3800 Circle
4924 3692 Circle
4934 3638 Circle
4943 3692 Circle
4952 3530 Circle
4961 3692 Circle
4971 3638 Circle
4980 3530 Circle
4989 3584 Circle
4998 3692 Circle
5006 3422 Circle
5015 3530 Circle
5023 3476 Circle
5042 3638 Circle
5051 3476 Circle
5100 3422 Circle
5137 3368 Circle
5165 3422 Circle
5174 3206 Circle
5209 3152 Circle
5218 3206 Circle
5226 3260 Circle
5235 3206 Circle
5268 3206 Circle
5276 3043 Circle
5284 3098 Circle
5308 2935 Circle
5371 2881 Circle
5424 2773 Circle
5431 2773 Circle
5440 2719 Circle
5454 2611 Circle
5461 2719 Circle
5467 2503 Circle
5474 2557 Circle
5481 2611 Circle
5487 2611 Circle
5494 2503 Circle
5506 2395 Circle
5512 2503 Circle
5525 2341 Circle
5532 2503 Circle
5538 2449 Circle
5544 2395 Circle
5550 2503 Circle
5562 2341 Circle
5568 2341 Circle
5574 2341 Circle
5580 2395 Circle
5586 2341 Circle
5592 2287 Circle
5598 2287 Circle
5604 2233 Circle
5622 2125 Circle
5628 2233 Circle
5633 2233 Circle
5639 2179 Circle
5645 2125 Circle
5651 2179 Circle
5657 2179 Circle
5662 2179 Circle
5668 2125 Circle
5679 1984 Circle
5685 1941 Circle
5691 1946 Circle
5696 2071 Circle
5702 2071 Circle
5708 1979 Circle
5713 1898 Circle
5719 1968 Circle
5724 1876 Circle
5729 1833 Circle
5735 1871 Circle
5752 1968 Circle
5757 1957 Circle
5761 1946 Circle
5766 1935 Circle
5770 1903 Circle
5779 1887 Circle
5784 1833 Circle
5793 1811 Circle
5797 1849 Circle
5802 1800 Circle
5806 1763 Circle
5811 1660 Circle
5815 1719 Circle
5820 1790 Circle
5824 1833 Circle
5828 1763 Circle
5833 1703 Circle
5837 1692 Circle
5841 1627 Circle
5850 1649 Circle
5854 1681 Circle
5863 1546 Circle
5867 1460 Circle
5871 1525 Circle
5875 1611 Circle
5880 1525 Circle
5884 1519 Circle
5888 1395 Circle
5892 1357 Circle
5896 1476 Circle
5900 1508 Circle
5904 1417 Circle
5909 1444 Circle
5913 1422 Circle
5917 1368 Circle
5921 1303 Circle
5925 1346 Circle
5929 1379 Circle
5933 1352 Circle
5936 1368 Circle
5940 1244 Circle
5944 1206 Circle
5948 1287 Circle
5952 1238 Circle
5956 1373 Circle
5960 1217 Circle
5964 1271 Circle
5968 1103 Circle
5972 1271 Circle
5976 1276 Circle
5979 1168 Circle
5983 1222 Circle
5987 1163 Circle
5991 1190 Circle
5995 1190 Circle
6002 1098 Circle
6005 1217 Circle
6009 1217 Circle
6013 1238 Circle
6017 1103 Circle
6020 1103 Circle
6024 1184 Circle
6028 1244 Circle
6031 1141 Circle
6035 1152 Circle
6303 5552 Circle
% End plot #1
% Begin plot #2
2.000 UL
LT1
LCb setrgbcolor
5984 5264 M
[ [(Helvetica) 240.0 0.0 true true 0 (single porosity)]
] -80.0 MRshow
LT1
6128 5264 M
351 0 V
1320 952 M
113 0 V
103 0 V
94 0 V
88 0 V
82 0 V
76 0 V
72 0 V
67 0 V
64 0 V
61 0 V
58 0 V
55 0 V
52 0 V
51 1 V
48 1 V
46 1 V
45 1 V
43 1 V
41 3 V
40 2 V
39 4 V
38 4 V
36 5 V
35 6 V
35 7 V
33 9 V
32 9 V
32 11 V
31 12 V
30 13 V
29 15 V
28 16 V
28 17 V
27 19 V
27 20 V
26 22 V
25 23 V
25 24 V
25 26 V
24 27 V
23 28 V
23 29 V
23 30 V
22 32 V
21 32 V
22 33 V
21 34 V
20 35 V
20 35 V
20 36 V
20 37 V
19 38 V
19 37 V
19 38 V
18 39 V
18 39 V
18 39 V
17 39 V
18 40 V
17 39 V
16 40 V
17 39 V
16 40 V
16 39 V
16 39 V
16 39 V
15 39 V
16 39 V
15 38 V
15 38 V
14 38 V
15 37 V
14 37 V
14 37 V
14 36 V
14 36 V
14 35 V
13 35 V
14 34 V
13 34 V
13 33 V
13 33 V
13 32 V
12 32 V
13 31 V
12 31 V
12 29 V
13 30 V
12 29 V
12 28 V
112 250 V
103 194 V
95 141 V
87 94 V
82 55 V
76 22 V
72 -4 V
68 -27 V
64 -43 V
60 -57 V
58 -67 V
55 -74 V
stroke 4976 3501 M
53 -80 V
50 -83 V
48 -85 V
47 -86 V
44 -86 V
43 -85 V
42 -84 V
40 -82 V
39 -80 V
37 -78 V
37 -75 V
35 -73 V
34 -70 V
34 -67 V
32 -65 V
32 -62 V
30 -59 V
30 -57 V
29 -55 V
29 -51 V
28 -50 V
27 -47 V
27 -46 V
26 -43 V
25 -41 V
25 -39 V
24 -38 V
24 -36 V
24 -34 V
23 -32 V
22 -32 V
22 -29 V
22 -29 V
21 -27 V
21 -26 V
21 -24 V
20 -24 V
20 -22 V
19 -22 V
20 -21 V
19 -19 V
18 -19 V
18 -19 V
19 -17 V
17 -17 V
18 -16 V
17 -15 V
17 -15 V
17 -14 V
16 -13 V
17 -13 V
16 -13 V
16 -12 V
15 -11 V
16 -12 V
15 -10 V
15 -11 V
15 -10 V
15 -9 V
14 -9 V
15 -9 V
14 -9 V
14 -8 V
14 -8 V
13 -8 V
14 -8 V
13 -7 V
13 -7 V
13 -7 V
13 -6 V
13 -7 V
13 -6 V
12 -6 V
13 -6 V
12 -5 V
12 -6 V
12 -5 V
12 -5 V
% End plot #2
% Begin plot #3
stroke
LT2
LCb setrgbcolor
5984 4976 M
[ [(Helvetica) 240.0 0.0 true true 0 (double porosity)]
] -80.0 MRshow
LT2
6128 4976 M
351 0 V
1320 952 M
113 0 V
103 0 V
94 0 V
88 0 V
82 0 V
76 0 V
72 0 V
67 0 V
64 0 V
61 0 V
58 0 V
55 0 V
52 0 V
51 0 V
48 0 V
46 0 V
45 0 V
43 1 V
41 0 V
40 1 V
39 0 V
38 1 V
36 2 V
35 1 V
35 2 V
33 3 V
32 3 V
32 4 V
31 4 V
30 5 V
29 5 V
28 7 V
28 7 V
27 9 V
27 9 V
26 10 V
25 12 V
25 12 V
25 14 V
24 14 V
23 16 V
23 17 V
23 18 V
22 19 V
21 20 V
22 22 V
21 22 V
20 24 V
20 24 V
20 26 V
20 27 V
19 28 V
19 28 V
19 30 V
18 30 V
18 32 V
18 32 V
17 33 V
18 33 V
17 34 V
16 35 V
17 36 V
16 36 V
16 36 V
16 37 V
16 37 V
15 38 V
16 38 V
15 38 V
15 38 V
14 39 V
15 39 V
14 38 V
14 39 V
14 39 V
14 39 V
14 39 V
13 39 V
14 39 V
13 38 V
13 39 V
13 38 V
13 38 V
12 38 V
13 37 V
12 38 V
12 37 V
13 36 V
12 36 V
12 36 V
112 335 V
103 284 V
95 229 V
87 173 V
82 122 V
76 77 V
72 35 V
68 2 V
64 -26 V
60 -50 V
58 -68 V
55 -82 V
stroke 4976 3754 M
53 -94 V
50 -101 V
48 -107 V
47 -110 V
44 -112 V
43 -112 V
42 -111 V
40 -110 V
39 -107 V
37 -105 V
37 -101 V
35 -98 V
34 -94 V
34 -90 V
32 -86 V
32 -82 V
30 -78 V
30 -75 V
29 -70 V
29 -67 V
28 -64 V
27 -60 V
27 -57 V
26 -53 V
25 -51 V
25 -47 V
24 -45 V
24 -43 V
24 -40 V
23 -37 V
22 -35 V
22 -34 V
22 -31 V
21 -29 V
21 -28 V
21 -26 V
20 -24 V
20 -23 V
19 -21 V
20 -21 V
19 -18 V
18 -18 V
18 -17 V
19 -16 V
17 -14 V
18 -14 V
17 -13 V
17 -12 V
17 -11 V
16 -11 V
17 -10 V
16 -10 V
16 -8 V
15 -9 V
16 -7 V
15 -8 V
15 -6 V
15 -7 V
15 -6 V
14 -6 V
15 -5 V
14 -5 V
14 -5 V
14 -4 V
13 -4 V
14 -4 V
13 -3 V
13 -4 V
13 -3 V
13 -3 V
13 -3 V
13 -2 V
12 -3 V
13 -2 V
12 -2 V
12 -2 V
12 -2 V
12 -2 V
% End plot #3
% Begin plot #4
stroke
8.000 UL
LT0
LCb setrgbcolor
5984 4688 M
[ [(Helvetica) 240.0 0.0 true true 0 (lognormal distribution)]
] -80.0 MRshow
LT0
6128 4688 M
351 0 V
1320 978 M
113 0 V
103 0 V
94 0 V
88 0 V
82 0 V
76 0 V
72 0 V
67 0 V
64 0 V
61 0 V
58 0 V
55 0 V
52 0 V
51 0 V
48 0 V
46 0 V
45 0 V
43 0 V
41 0 V
40 1 V
39 0 V
38 1 V
36 1 V
35 1 V
35 1 V
33 2 V
32 2 V
32 3 V
31 3 V
30 4 V
29 4 V
28 5 V
28 6 V
27 7 V
27 7 V
26 9 V
25 9 V
25 11 V
25 11 V
24 13 V
23 14 V
23 15 V
23 16 V
22 17 V
21 18 V
22 20 V
21 20 V
20 22 V
20 23 V
20 24 V
20 26 V
19 26 V
19 27 V
19 28 V
18 29 V
18 31 V
18 31 V
17 32 V
18 32 V
17 34 V
16 34 V
17 35 V
16 36 V
16 36 V
16 36 V
16 37 V
15 38 V
16 38 V
15 38 V
15 39 V
14 39 V
15 39 V
14 40 V
14 39 V
14 40 V
14 39 V
14 40 V
13 40 V
14 40 V
13 39 V
13 40 V
13 39 V
13 39 V
12 39 V
13 39 V
12 39 V
12 38 V
13 38 V
12 37 V
12 37 V
112 350 V
103 297 V
95 241 V
87 182 V
82 127 V
76 79 V
72 36 V
68 0 V
64 -30 V
60 -54 V
58 -73 V
55 -88 V
stroke 4976 3778 M
53 -99 V
50 -107 V
48 -112 V
47 -115 V
44 -116 V
43 -116 V
42 -115 V
40 -112 V
39 -110 V
37 -106 V
37 -102 V
35 -98 V
34 -94 V
34 -90 V
32 -86 V
32 -81 V
30 -78 V
30 -73 V
29 -69 V
29 -66 V
28 -61 V
27 -59 V
27 -55 V
26 -51 V
25 -49 V
25 -46 V
24 -43 V
24 -41 V
24 -38 V
23 -35 V
22 -34 V
22 -32 V
22 -29 V
21 -28 V
21 -26 V
21 -25 V
20 -23 V
20 -22 V
19 -20 V
20 -19 V
19 -18 V
18 -17 V
18 -16 V
19 -14 V
17 -14 V
18 -14 V
17 -12 V
17 -12 V
17 -10 V
16 -11 V
17 -9 V
16 -9 V
16 -9 V
15 -8 V
16 -8 V
15 -7 V
15 -7 V
15 -6 V
15 -6 V
14 -6 V
15 -5 V
14 -5 V
14 -5 V
14 -4 V
13 -5 V
14 -4 V
13 -3 V
13 -4 V
13 -3 V
13 -4 V
13 -3 V
13 -2 V
12 -3 V
13 -3 V
12 -2 V
12 -2 V
12 -3 V
12 -2 V
% End plot #4
stroke
1.000 UL
LTb
1320 5759 N
0 -4991 V
5447 0 V
0 4991 V
-5447 0 V
Z stroke
1.000 UP
1.000 UL
LTb
stroke
grestore
end
showpage
