%!PS-Adobe-2.0 EPSF-2.0
%%Title: B7_22Na_logn0a.eps
%%Creator: gnuplot 4.2 patchlevel 6 
%%CreationDate: Thu Aug  4 15:43:27 2011
%%DocumentFonts: (atend)
%%BoundingBox: 50 50 410 352
%%EndComments
%%BeginProlog
/gnudict 256 dict def
gnudict begin
%
% The following 6 true/false flags may be edited by hand if required
% The unit line width may also be changed
%
/Color false def
/Blacktext false def
/Solid false def
/Dashlength 1 def
/Landscape false def
/Level1 false def
/Rounded false def
/TransparentPatterns false def
/gnulinewidth 5.000 def
/userlinewidth gnulinewidth def
%
/vshift -86 def
/dl1 {
  10.0 Dashlength mul mul
  Rounded { currentlinewidth 0.75 mul sub dup 0 le { pop 0.01 } if } if
} def
/dl2 {
  10.0 Dashlength mul mul
  Rounded { currentlinewidth 0.75 mul add } if
} def
/hpt_ 31.5 def
/vpt_ 31.5 def
/hpt hpt_ def
/vpt vpt_ def
Level1 {} {
/SDict 10 dict def
systemdict /pdfmark known not {
  userdict /pdfmark systemdict /cleartomark get put
} if
SDict begin [
  /Title (B7_22Na_logn0a.eps)
  /Subject (gnuplot plot)
  /Creator (gnuplot 4.2 patchlevel 6 )
  /Author (Bwalya Malama,,,)
%  /Producer (gnuplot)
%  /Keywords ()
  /CreationDate (Thu Aug  4 15:43:27 2011)
  /DOCINFO pdfmark
end
} ifelse
%
% Gnuplot Prolog Version 4.2 (August 2006)
%
/M {moveto} bind def
/L {lineto} bind def
/R {rmoveto} bind def
/V {rlineto} bind def
/N {newpath moveto} bind def
/Z {closepath} bind def
/C {setrgbcolor} bind def
/f {rlineto fill} bind def
/vpt2 vpt 2 mul def
/hpt2 hpt 2 mul def
/Lshow {currentpoint stroke M 0 vshift R 
	Blacktext {gsave 0 setgray show grestore} {show} ifelse} def
/Rshow {currentpoint stroke M dup stringwidth pop neg vshift R
	Blacktext {gsave 0 setgray show grestore} {show} ifelse} def
/Cshow {currentpoint stroke M dup stringwidth pop -2 div vshift R 
	Blacktext {gsave 0 setgray show grestore} {show} ifelse} def
/UP {dup vpt_ mul /vpt exch def hpt_ mul /hpt exch def
  /hpt2 hpt 2 mul def /vpt2 vpt 2 mul def} def
/DL {Color {setrgbcolor Solid {pop []} if 0 setdash}
 {pop pop pop 0 setgray Solid {pop []} if 0 setdash} ifelse} def
/BL {stroke userlinewidth 2 mul setlinewidth
	Rounded {1 setlinejoin 1 setlinecap} if} def
/AL {stroke userlinewidth 2 div setlinewidth
	Rounded {1 setlinejoin 1 setlinecap} if} def
/UL {dup gnulinewidth mul /userlinewidth exch def
	dup 1 lt {pop 1} if 10 mul /udl exch def} def
/PL {stroke userlinewidth setlinewidth
	Rounded {1 setlinejoin 1 setlinecap} if} def
% Default Line colors
/LCw {1 1 1} def
/LCb {0 0 0} def
/LCa {0 0 0} def
/LC0 {1 0 0} def
/LC1 {0 1 0} def
/LC2 {0 0 1} def
/LC3 {1 0 1} def
/LC4 {0 1 1} def
/LC5 {1 1 0} def
/LC6 {0 0 0} def
/LC7 {1 0.3 0} def
/LC8 {0.5 0.5 0.5} def
% Default Line Types
/LTw {PL [] 1 setgray} def
/LTb {BL [] LCb DL} def
/LTa {AL [1 udl mul 2 udl mul] 0 setdash LCa setrgbcolor} def
/LT0 {PL [] LC0 DL} def
/LT1 {PL [4 dl1 2 dl2] LC1 DL} def
/LT2 {PL [2 dl1 3 dl2] LC2 DL} def
/LT3 {PL [1 dl1 1.5 dl2] LC3 DL} def
/LT4 {PL [6 dl1 2 dl2 1 dl1 2 dl2] LC4 DL} def
/LT5 {PL [3 dl1 3 dl2 1 dl1 3 dl2] LC5 DL} def
/LT6 {PL [2 dl1 2 dl2 2 dl1 6 dl2] LC6 DL} def
/LT7 {PL [1 dl1 2 dl2 6 dl1 2 dl2 1 dl1 2 dl2] LC7 DL} def
/LT8 {PL [2 dl1 2 dl2 2 dl1 2 dl2 2 dl1 2 dl2 2 dl1 4 dl2] LC8 DL} def
/Pnt {stroke [] 0 setdash gsave 1 setlinecap M 0 0 V stroke grestore} def
/Dia {stroke [] 0 setdash 2 copy vpt add M
  hpt neg vpt neg V hpt vpt neg V
  hpt vpt V hpt neg vpt V closepath stroke
  Pnt} def
/Pls {stroke [] 0 setdash vpt sub M 0 vpt2 V
  currentpoint stroke M
  hpt neg vpt neg R hpt2 0 V stroke
 } def
/Box {stroke [] 0 setdash 2 copy exch hpt sub exch vpt add M
  0 vpt2 neg V hpt2 0 V 0 vpt2 V
  hpt2 neg 0 V closepath stroke
  Pnt} def
/Crs {stroke [] 0 setdash exch hpt sub exch vpt add M
  hpt2 vpt2 neg V currentpoint stroke M
  hpt2 neg 0 R hpt2 vpt2 V stroke} def
/TriU {stroke [] 0 setdash 2 copy vpt 1.12 mul add M
  hpt neg vpt -1.62 mul V
  hpt 2 mul 0 V
  hpt neg vpt 1.62 mul V closepath stroke
  Pnt} def
/Star {2 copy Pls Crs} def
/BoxF {stroke [] 0 setdash exch hpt sub exch vpt add M
  0 vpt2 neg V hpt2 0 V 0 vpt2 V
  hpt2 neg 0 V closepath fill} def
/TriUF {stroke [] 0 setdash vpt 1.12 mul add M
  hpt neg vpt -1.62 mul V
  hpt 2 mul 0 V
  hpt neg vpt 1.62 mul V closepath fill} def
/TriD {stroke [] 0 setdash 2 copy vpt 1.12 mul sub M
  hpt neg vpt 1.62 mul V
  hpt 2 mul 0 V
  hpt neg vpt -1.62 mul V closepath stroke
  Pnt} def
/TriDF {stroke [] 0 setdash vpt 1.12 mul sub M
  hpt neg vpt 1.62 mul V
  hpt 2 mul 0 V
  hpt neg vpt -1.62 mul V closepath fill} def
/DiaF {stroke [] 0 setdash vpt add M
  hpt neg vpt neg V hpt vpt neg V
  hpt vpt V hpt neg vpt V closepath fill} def
/Pent {stroke [] 0 setdash 2 copy gsave
  translate 0 hpt M 4 {72 rotate 0 hpt L} repeat
  closepath stroke grestore Pnt} def
/PentF {stroke [] 0 setdash gsave
  translate 0 hpt M 4 {72 rotate 0 hpt L} repeat
  closepath fill grestore} def
/Circle {stroke [] 0 setdash 2 copy
  hpt 0 360 arc stroke Pnt} def
/CircleF {stroke [] 0 setdash hpt 0 360 arc fill} def
/C0 {BL [] 0 setdash 2 copy moveto vpt 90 450 arc} bind def
/C1 {BL [] 0 setdash 2 copy moveto
	2 copy vpt 0 90 arc closepath fill
	vpt 0 360 arc closepath} bind def
/C2 {BL [] 0 setdash 2 copy moveto
	2 copy vpt 90 180 arc closepath fill
	vpt 0 360 arc closepath} bind def
/C3 {BL [] 0 setdash 2 copy moveto
	2 copy vpt 0 180 arc closepath fill
	vpt 0 360 arc closepath} bind def
/C4 {BL [] 0 setdash 2 copy moveto
	2 copy vpt 180 270 arc closepath fill
	vpt 0 360 arc closepath} bind def
/C5 {BL [] 0 setdash 2 copy moveto
	2 copy vpt 0 90 arc
	2 copy moveto
	2 copy vpt 180 270 arc closepath fill
	vpt 0 360 arc} bind def
/C6 {BL [] 0 setdash 2 copy moveto
	2 copy vpt 90 270 arc closepath fill
	vpt 0 360 arc closepath} bind def
/C7 {BL [] 0 setdash 2 copy moveto
	2 copy vpt 0 270 arc closepath fill
	vpt 0 360 arc closepath} bind def
/C8 {BL [] 0 setdash 2 copy moveto
	2 copy vpt 270 360 arc closepath fill
	vpt 0 360 arc closepath} bind def
/C9 {BL [] 0 setdash 2 copy moveto
	2 copy vpt 270 450 arc closepath fill
	vpt 0 360 arc closepath} bind def
/C10 {BL [] 0 setdash 2 copy 2 copy moveto vpt 270 360 arc closepath fill
	2 copy moveto
	2 copy vpt 90 180 arc closepath fill
	vpt 0 360 arc closepath} bind def
/C11 {BL [] 0 setdash 2 copy moveto
	2 copy vpt 0 180 arc closepath fill
	2 copy moveto
	2 copy vpt 270 360 arc closepath fill
	vpt 0 360 arc closepath} bind def
/C12 {BL [] 0 setdash 2 copy moveto
	2 copy vpt 180 360 arc closepath fill
	vpt 0 360 arc closepath} bind def
/C13 {BL [] 0 setdash 2 copy moveto
	2 copy vpt 0 90 arc closepath fill
	2 copy moveto
	2 copy vpt 180 360 arc closepath fill
	vpt 0 360 arc closepath} bind def
/C14 {BL [] 0 setdash 2 copy moveto
	2 copy vpt 90 360 arc closepath fill
	vpt 0 360 arc} bind def
/C15 {BL [] 0 setdash 2 copy vpt 0 360 arc closepath fill
	vpt 0 360 arc closepath} bind def
/Rec {newpath 4 2 roll moveto 1 index 0 rlineto 0 exch rlineto
	neg 0 rlineto closepath} bind def
/Square {dup Rec} bind def
/Bsquare {vpt sub exch vpt sub exch vpt2 Square} bind def
/S0 {BL [] 0 setdash 2 copy moveto 0 vpt rlineto BL Bsquare} bind def
/S1 {BL [] 0 setdash 2 copy vpt Square fill Bsquare} bind def
/S2 {BL [] 0 setdash 2 copy exch vpt sub exch vpt Square fill Bsquare} bind def
/S3 {BL [] 0 setdash 2 copy exch vpt sub exch vpt2 vpt Rec fill Bsquare} bind def
/S4 {BL [] 0 setdash 2 copy exch vpt sub exch vpt sub vpt Square fill Bsquare} bind def
/S5 {BL [] 0 setdash 2 copy 2 copy vpt Square fill
	exch vpt sub exch vpt sub vpt Square fill Bsquare} bind def
/S6 {BL [] 0 setdash 2 copy exch vpt sub exch vpt sub vpt vpt2 Rec fill Bsquare} bind def
/S7 {BL [] 0 setdash 2 copy exch vpt sub exch vpt sub vpt vpt2 Rec fill
	2 copy vpt Square fill Bsquare} bind def
/S8 {BL [] 0 setdash 2 copy vpt sub vpt Square fill Bsquare} bind def
/S9 {BL [] 0 setdash 2 copy vpt sub vpt vpt2 Rec fill Bsquare} bind def
/S10 {BL [] 0 setdash 2 copy vpt sub vpt Square fill 2 copy exch vpt sub exch vpt Square fill
	Bsquare} bind def
/S11 {BL [] 0 setdash 2 copy vpt sub vpt Square fill 2 copy exch vpt sub exch vpt2 vpt Rec fill
	Bsquare} bind def
/S12 {BL [] 0 setdash 2 copy exch vpt sub exch vpt sub vpt2 vpt Rec fill Bsquare} bind def
/S13 {BL [] 0 setdash 2 copy exch vpt sub exch vpt sub vpt2 vpt Rec fill
	2 copy vpt Square fill Bsquare} bind def
/S14 {BL [] 0 setdash 2 copy exch vpt sub exch vpt sub vpt2 vpt Rec fill
	2 copy exch vpt sub exch vpt Square fill Bsquare} bind def
/S15 {BL [] 0 setdash 2 copy Bsquare fill Bsquare} bind def
/D0 {gsave translate 45 rotate 0 0 S0 stroke grestore} bind def
/D1 {gsave translate 45 rotate 0 0 S1 stroke grestore} bind def
/D2 {gsave translate 45 rotate 0 0 S2 stroke grestore} bind def
/D3 {gsave translate 45 rotate 0 0 S3 stroke grestore} bind def
/D4 {gsave translate 45 rotate 0 0 S4 stroke grestore} bind def
/D5 {gsave translate 45 rotate 0 0 S5 stroke grestore} bind def
/D6 {gsave translate 45 rotate 0 0 S6 stroke grestore} bind def
/D7 {gsave translate 45 rotate 0 0 S7 stroke grestore} bind def
/D8 {gsave translate 45 rotate 0 0 S8 stroke grestore} bind def
/D9 {gsave translate 45 rotate 0 0 S9 stroke grestore} bind def
/D10 {gsave translate 45 rotate 0 0 S10 stroke grestore} bind def
/D11 {gsave translate 45 rotate 0 0 S11 stroke grestore} bind def
/D12 {gsave translate 45 rotate 0 0 S12 stroke grestore} bind def
/D13 {gsave translate 45 rotate 0 0 S13 stroke grestore} bind def
/D14 {gsave translate 45 rotate 0 0 S14 stroke grestore} bind def
/D15 {gsave translate 45 rotate 0 0 S15 stroke grestore} bind def
/DiaE {stroke [] 0 setdash vpt add M
  hpt neg vpt neg V hpt vpt neg V
  hpt vpt V hpt neg vpt V closepath stroke} def
/BoxE {stroke [] 0 setdash exch hpt sub exch vpt add M
  0 vpt2 neg V hpt2 0 V 0 vpt2 V
  hpt2 neg 0 V closepath stroke} def
/TriUE {stroke [] 0 setdash vpt 1.12 mul add M
  hpt neg vpt -1.62 mul V
  hpt 2 mul 0 V
  hpt neg vpt 1.62 mul V closepath stroke} def
/TriDE {stroke [] 0 setdash vpt 1.12 mul sub M
  hpt neg vpt 1.62 mul V
  hpt 2 mul 0 V
  hpt neg vpt -1.62 mul V closepath stroke} def
/PentE {stroke [] 0 setdash gsave
  translate 0 hpt M 4 {72 rotate 0 hpt L} repeat
  closepath stroke grestore} def
/CircE {stroke [] 0 setdash 
  hpt 0 360 arc stroke} def
/Opaque {gsave closepath 1 setgray fill grestore 0 setgray closepath} def
/DiaW {stroke [] 0 setdash vpt add M
  hpt neg vpt neg V hpt vpt neg V
  hpt vpt V hpt neg vpt V Opaque stroke} def
/BoxW {stroke [] 0 setdash exch hpt sub exch vpt add M
  0 vpt2 neg V hpt2 0 V 0 vpt2 V
  hpt2 neg 0 V Opaque stroke} def
/TriUW {stroke [] 0 setdash vpt 1.12 mul add M
  hpt neg vpt -1.62 mul V
  hpt 2 mul 0 V
  hpt neg vpt 1.62 mul V Opaque stroke} def
/TriDW {stroke [] 0 setdash vpt 1.12 mul sub M
  hpt neg vpt 1.62 mul V
  hpt 2 mul 0 V
  hpt neg vpt -1.62 mul V Opaque stroke} def
/PentW {stroke [] 0 setdash gsave
  translate 0 hpt M 4 {72 rotate 0 hpt L} repeat
  Opaque stroke grestore} def
/CircW {stroke [] 0 setdash 
  hpt 0 360 arc Opaque stroke} def
/BoxFill {gsave Rec 1 setgray fill grestore} def
/Density {
  /Fillden exch def
  currentrgbcolor
  /ColB exch def /ColG exch def /ColR exch def
  /ColR ColR Fillden mul Fillden sub 1 add def
  /ColG ColG Fillden mul Fillden sub 1 add def
  /ColB ColB Fillden mul Fillden sub 1 add def
  ColR ColG ColB setrgbcolor} def
/BoxColFill {gsave Rec PolyFill} def
/PolyFill {gsave Density fill grestore grestore} def
/h {rlineto rlineto rlineto gsave closepath fill grestore} bind def
%
% PostScript Level 1 Pattern Fill routine for rectangles
% Usage: x y w h s a XX PatternFill
%	x,y = lower left corner of box to be filled
%	w,h = width and height of box
%	  a = angle in degrees between lines and x-axis
%	 XX = 0/1 for no/yes cross-hatch
%
/PatternFill {gsave /PFa [ 9 2 roll ] def
  PFa 0 get PFa 2 get 2 div add PFa 1 get PFa 3 get 2 div add translate
  PFa 2 get -2 div PFa 3 get -2 div PFa 2 get PFa 3 get Rec
  gsave 1 setgray fill grestore clip
  currentlinewidth 0.5 mul setlinewidth
  /PFs PFa 2 get dup mul PFa 3 get dup mul add sqrt def
  0 0 M PFa 5 get rotate PFs -2 div dup translate
  0 1 PFs PFa 4 get div 1 add floor cvi
	{PFa 4 get mul 0 M 0 PFs V} for
  0 PFa 6 get ne {
	0 1 PFs PFa 4 get div 1 add floor cvi
	{PFa 4 get mul 0 2 1 roll M PFs 0 V} for
 } if
  stroke grestore} def
%
/languagelevel where
 {pop languagelevel} {1} ifelse
 2 lt
	{/InterpretLevel1 true def}
	{/InterpretLevel1 Level1 def}
 ifelse
%
% PostScript level 2 pattern fill definitions
%
/Level2PatternFill {
/Tile8x8 {/PaintType 2 /PatternType 1 /TilingType 1 /BBox [0 0 8 8] /XStep 8 /YStep 8}
	bind def
/KeepColor {currentrgbcolor [/Pattern /DeviceRGB] setcolorspace} bind def
<< Tile8x8
 /PaintProc {0.5 setlinewidth pop 0 0 M 8 8 L 0 8 M 8 0 L stroke} 
>> matrix makepattern
/Pat1 exch def
<< Tile8x8
 /PaintProc {0.5 setlinewidth pop 0 0 M 8 8 L 0 8 M 8 0 L stroke
	0 4 M 4 8 L 8 4 L 4 0 L 0 4 L stroke}
>> matrix makepattern
/Pat2 exch def
<< Tile8x8
 /PaintProc {0.5 setlinewidth pop 0 0 M 0 8 L
	8 8 L 8 0 L 0 0 L fill}
>> matrix makepattern
/Pat3 exch def
<< Tile8x8
 /PaintProc {0.5 setlinewidth pop -4 8 M 8 -4 L
	0 12 M 12 0 L stroke}
>> matrix makepattern
/Pat4 exch def
<< Tile8x8
 /PaintProc {0.5 setlinewidth pop -4 0 M 8 12 L
	0 -4 M 12 8 L stroke}
>> matrix makepattern
/Pat5 exch def
<< Tile8x8
 /PaintProc {0.5 setlinewidth pop -2 8 M 4 -4 L
	0 12 M 8 -4 L 4 12 M 10 0 L stroke}
>> matrix makepattern
/Pat6 exch def
<< Tile8x8
 /PaintProc {0.5 setlinewidth pop -2 0 M 4 12 L
	0 -4 M 8 12 L 4 -4 M 10 8 L stroke}
>> matrix makepattern
/Pat7 exch def
<< Tile8x8
 /PaintProc {0.5 setlinewidth pop 8 -2 M -4 4 L
	12 0 M -4 8 L 12 4 M 0 10 L stroke}
>> matrix makepattern
/Pat8 exch def
<< Tile8x8
 /PaintProc {0.5 setlinewidth pop 0 -2 M 12 4 L
	-4 0 M 12 8 L -4 4 M 8 10 L stroke}
>> matrix makepattern
/Pat9 exch def
/Pattern1 {PatternBgnd KeepColor Pat1 setpattern} bind def
/Pattern2 {PatternBgnd KeepColor Pat2 setpattern} bind def
/Pattern3 {PatternBgnd KeepColor Pat3 setpattern} bind def
/Pattern4 {PatternBgnd KeepColor Landscape {Pat5} {Pat4} ifelse setpattern} bind def
/Pattern5 {PatternBgnd KeepColor Landscape {Pat4} {Pat5} ifelse setpattern} bind def
/Pattern6 {PatternBgnd KeepColor Landscape {Pat9} {Pat6} ifelse setpattern} bind def
/Pattern7 {PatternBgnd KeepColor Landscape {Pat8} {Pat7} ifelse setpattern} bind def
} def
%
%
%End of PostScript Level 2 code
%
/PatternBgnd {
  TransparentPatterns {} {gsave 1 setgray fill grestore} ifelse
} def
%
% Substitute for Level 2 pattern fill codes with
% grayscale if Level 2 support is not selected.
%
/Level1PatternFill {
/Pattern1 {0.250 Density} bind def
/Pattern2 {0.500 Density} bind def
/Pattern3 {0.750 Density} bind def
/Pattern4 {0.125 Density} bind def
/Pattern5 {0.375 Density} bind def
/Pattern6 {0.625 Density} bind def
/Pattern7 {0.875 Density} bind def
} def
%
% Now test for support of Level 2 code
%
Level1 {Level1PatternFill} {Level2PatternFill} ifelse
%
/Symbol-Oblique /Symbol findfont [1 0 .167 1 0 0] makefont
dup length dict begin {1 index /FID eq {pop pop} {def} ifelse} forall
currentdict end definefont pop
/MFshow {
   { dup 5 get 3 ge
     { 5 get 3 eq {gsave} {grestore} ifelse }
     {dup dup 0 get findfont exch 1 get scalefont setfont
     [ currentpoint ] exch dup 2 get 0 exch R dup 5 get 2 ne {dup dup 6
     get exch 4 get {show} {stringwidth pop 0 R} ifelse }if dup 5 get 0 eq
     {dup 3 get {2 get neg 0 exch R pop} {pop aload pop M} ifelse} {dup 5
     get 1 eq {dup 2 get exch dup 3 get exch 6 get stringwidth pop -2 div
     dup 0 R} {dup 6 get stringwidth pop -2 div 0 R 6 get
     show 2 index {aload pop M neg 3 -1 roll neg R pop pop} {pop pop pop
     pop aload pop M} ifelse }ifelse }ifelse }
     ifelse }
   forall} bind def
/MFwidth {0 exch { dup 5 get 3 ge { 5 get 3 eq { 0 } { pop } ifelse }
 {dup 3 get{dup dup 0 get findfont exch 1 get scalefont setfont
     6 get stringwidth pop add} {pop} ifelse} ifelse} forall} bind def
/MLshow { currentpoint stroke M
  0 exch R
  Blacktext {gsave 0 setgray MFshow grestore} {MFshow} ifelse } bind def
/MRshow { currentpoint stroke M
  exch dup MFwidth neg 3 -1 roll R
  Blacktext {gsave 0 setgray MFshow grestore} {MFshow} ifelse } bind def
/MCshow { currentpoint stroke M
  exch dup MFwidth -2 div 3 -1 roll R
  Blacktext {gsave 0 setgray MFshow grestore} {MFshow} ifelse } bind def
/XYsave    { [( ) 1 2 true false 3 ()] } bind def
/XYrestore { [( ) 1 2 true false 4 ()] } bind def
end
%%EndProlog
gnudict begin
gsave
50 50 translate
0.050 0.050 scale
0 setgray
newpath
(Helvetica) findfont 260 scalefont setfont
1.000 UL
LTb
1898 1092 M
63 0 V
4849 0 R
-63 0 V
stroke
1742 1092 M
[ [(Helvetica) 260.0 0.0 true true 0 ( 0)]
] -86.7 MRshow
1.000 UL
LTb
1898 2021 M
63 0 V
4849 0 R
-63 0 V
stroke
1742 2021 M
[ [(Helvetica) 260.0 0.0 true true 0 ( 0.005)]
] -86.7 MRshow
1.000 UL
LTb
1898 2950 M
63 0 V
4849 0 R
-63 0 V
stroke
1742 2950 M
[ [(Helvetica) 260.0 0.0 true true 0 ( 0.01)]
] -86.7 MRshow
1.000 UL
LTb
1898 3878 M
63 0 V
4849 0 R
-63 0 V
stroke
1742 3878 M
[ [(Helvetica) 260.0 0.0 true true 0 ( 0.015)]
] -86.7 MRshow
1.000 UL
LTb
1898 4807 M
63 0 V
4849 0 R
-63 0 V
stroke
1742 4807 M
[ [(Helvetica) 260.0 0.0 true true 0 ( 0.02)]
] -86.7 MRshow
1.000 UL
LTb
1898 5736 M
63 0 V
4849 0 R
-63 0 V
stroke
1742 5736 M
[ [(Helvetica) 260.0 0.0 true true 0 ( 0.025)]
] -86.7 MRshow
1.000 UL
LTb
1898 1092 M
0 31 V
0 4613 R
0 -31 V
2072 1092 M
0 31 V
0 4613 R
0 -31 V
2207 1092 M
0 31 V
0 4613 R
0 -31 V
2318 1092 M
0 31 V
0 4613 R
0 -31 V
93 -4613 R
0 31 V
0 4613 R
0 -31 V
81 -4613 R
0 31 V
0 4613 R
0 -31 V
71 -4613 R
0 31 V
0 4613 R
0 -31 V
64 -4613 R
0 63 V
0 4581 R
0 -63 V
stroke
2627 832 M
[ [(Helvetica) 260.0 0.0 true true 0 (10)]
[(Helvetica) 208.0 130.0 true true 0 (4)]
] -112.7 MCshow
1.000 UL
LTb
3047 1092 M
0 31 V
0 4613 R
0 -31 V
3292 1092 M
0 31 V
0 4613 R
0 -31 V
3467 1092 M
0 31 V
0 4613 R
0 -31 V
3602 1092 M
0 31 V
0 4613 R
0 -31 V
3712 1092 M
0 31 V
0 4613 R
0 -31 V
93 -4613 R
0 31 V
0 4613 R
0 -31 V
81 -4613 R
0 31 V
0 4613 R
0 -31 V
72 -4613 R
0 31 V
0 4613 R
0 -31 V
63 -4613 R
0 63 V
0 4581 R
0 -63 V
stroke
4021 832 M
[ [(Helvetica) 260.0 0.0 true true 0 (10)]
[(Helvetica) 208.0 130.0 true true 0 (5)]
] -112.7 MCshow
1.000 UL
LTb
4441 1092 M
0 31 V
0 4613 R
0 -31 V
4687 1092 M
0 31 V
0 4613 R
0 -31 V
4861 1092 M
0 31 V
0 4613 R
0 -31 V
4996 1092 M
0 31 V
0 4613 R
0 -31 V
5106 1092 M
0 31 V
0 4613 R
0 -31 V
94 -4613 R
0 31 V
0 4613 R
0 -31 V
81 -4613 R
0 31 V
0 4613 R
0 -31 V
71 -4613 R
0 31 V
0 4613 R
0 -31 V
64 -4613 R
0 63 V
0 4581 R
0 -63 V
stroke
5416 832 M
[ [(Helvetica) 260.0 0.0 true true 0 (10)]
[(Helvetica) 208.0 130.0 true true 0 (6)]
] -112.7 MCshow
1.000 UL
LTb
5835 1092 M
0 31 V
0 4613 R
0 -31 V
6081 1092 M
0 31 V
0 4613 R
0 -31 V
6255 1092 M
0 31 V
0 4613 R
0 -31 V
6390 1092 M
0 31 V
0 4613 R
0 -31 V
6501 1092 M
0 31 V
0 4613 R
0 -31 V
93 -4613 R
0 31 V
0 4613 R
0 -31 V
81 -4613 R
0 31 V
0 4613 R
0 -31 V
71 -4613 R
0 31 V
0 4613 R
0 -31 V
64 -4613 R
0 63 V
0 4581 R
0 -63 V
stroke
6810 832 M
[ [(Helvetica) 260.0 0.0 true true 0 (10)]
[(Helvetica) 208.0 130.0 true true 0 (7)]
] -112.7 MCshow
1.000 UL
LTb
1.000 UL
LTb
1898 5736 N
0 -4644 V
4912 0 V
0 4644 V
-4912 0 V
Z stroke
LCb setrgbcolor
520 3414 M
currentpoint gsave translate 90 rotate 0 0 moveto
[ [(Helvetica) 260.0 0.0 true true 0 (c/c)]
[(Helvetica) 208.0 -78.0 true true 0 (inj)]
] -60.7 MCshow
grestore
LTb
LCb setrgbcolor
4354 442 M
[ [(Helvetica) 260.0 0.0 true true 0 (t \(seconds\))]
] -112.7 MCshow
LTb
1.000 UP
4996 3507 M
[ [(Symbol) 260.0 0.0 true true 0 (f)]
[(Helvetica) 208.0 -78.0 true true 0 (m)]
[(Helvetica) 260.0 0.0 true true 0 ( = 0.061)]
] -60.7 MLshow
4996 3135 M
[ [(Symbol) 260.0 0.0 true true 0 (a)]
[(Helvetica) 208.0 -78.0 true true 0 (L)]
[(Helvetica) 260.0 0.0 true true 0 ( = 8.46 cm)]
] -60.7 MLshow
4996 2764 M
[ [(Symbol) 260.0 0.0 true true 0 (m)]
[(Helvetica) 260.0 0.0 true true 0 ( = - 0.921)]
] -86.7 MLshow
4996 2392 M
[ [(Symbol) 260.0 0.0 true true 0 (s)]
[(Helvetica) 260.0 0.0 true true 0 ( = 0.831)]
] -86.7 MLshow
4996 2021 M
[ [(Helvetica) 260.0 0.0 true true 0 (t)]
[(Helvetica) 208.0 -78.0 true true 0 (inj)]
[(Helvetica) 260.0 0.0 true true 0 ( = 0.580 hrs)]
] -60.7 MLshow
1996 5504 M
[ [(Helvetica) 260.0 0.0 true true 0 (\(a\) test B7)]
] -86.7 MLshow
1.000 UL
LTb
1.300 UP
1.000 UL
LT0
LTb
5967 5517 M
[ [(Helvetica) 260.0 0.0 true true 0 (data)]
] -86.7 MRshow
LT0
2355 1176 Circle
2447 1161 Circle
2528 1149 Circle
2661 1157 Circle
2720 1153 Circle
2774 1230 Circle
2824 1253 Circle
2870 1318 Circle
2913 1394 Circle
2953 1536 Circle
2990 1700 Circle
3026 1842 Circle
3059 2079 Circle
3091 2297 Circle
3122 2485 Circle
3151 2626 Circle
3179 2891 Circle
3205 3055 Circle
3230 3200 Circle
3255 3369 Circle
3278 3537 Circle
3301 3637 Circle
3322 3912 Circle
3344 3874 Circle
3364 4119 Circle
3383 4130 Circle
3403 4272 Circle
3421 4272 Circle
3447 4199 Circle
3497 4425 Circle
3521 4502 Circle
3544 4578 Circle
3566 4578 Circle
3586 4578 Circle
3607 4502 Circle
3626 4502 Circle
3645 4463 Circle
3664 4425 Circle
3682 4348 Circle
3699 4257 Circle
3716 4184 Circle
3733 4046 Circle
3765 3962 Circle
3780 3882 Circle
3795 3717 Circle
3810 3686 Circle
3824 3648 Circle
3838 3602 Circle
3852 3468 Circle
3865 3373 Circle
3878 3361 Circle
3891 3289 Circle
3903 3220 Circle
3915 3174 Circle
3928 3093 Circle
3939 3082 Circle
3951 2990 Circle
3962 2921 Circle
3973 2887 Circle
3984 2868 Circle
4005 2703 Circle
4015 2726 Circle
4025 2684 Circle
4036 2642 Circle
4045 2550 Circle
4055 2554 Circle
4065 2516 Circle
4074 2450 Circle
4083 2420 Circle
4092 2374 Circle
4102 2393 Circle
4110 2370 Circle
4119 2309 Circle
4127 2282 Circle
4136 2286 Circle
4144 2206 Circle
4152 2171 Circle
4160 2198 Circle
4169 2152 Circle
4177 2175 Circle
4184 2141 Circle
4192 2087 Circle
4200 2075 Circle
4207 2075 Circle
4214 2026 Circle
4235 1972 Circle
4242 1999 Circle
4249 1922 Circle
4256 1934 Circle
4263 1949 Circle
4270 1907 Circle
4276 1907 Circle
4283 1869 Circle
4290 1880 Circle
4296 1842 Circle
4303 1823 Circle
4309 1834 Circle
4316 1834 Circle
4320 1815 Circle
4326 1823 Circle
4332 1808 Circle
4338 1811 Circle
4344 1796 Circle
4355 1788 Circle
4361 1739 Circle
4367 1746 Circle
4373 1727 Circle
4379 1735 Circle
4384 1727 Circle
4390 1712 Circle
4395 1681 Circle
4401 1681 Circle
4406 1658 Circle
4411 1670 Circle
4417 1651 Circle
4422 1639 Circle
4432 1624 Circle
4443 1624 Circle
4448 1609 Circle
4453 1593 Circle
4462 1593 Circle
4467 1593 Circle
4472 1593 Circle
4477 1570 Circle
4482 1582 Circle
4487 1559 Circle
4491 1559 Circle
4496 1551 Circle
4501 1528 Circle
4505 1532 Circle
4510 1536 Circle
4514 1521 Circle
4519 1521 Circle
4523 1532 Circle
4533 1536 Circle
4537 1498 Circle
4562 1498 Circle
4581 1471 Circle
4596 1486 Circle
4600 1467 Circle
4618 1478 Circle
4623 1475 Circle
4627 1498 Circle
4631 1478 Circle
4648 1486 Circle
4652 1459 Circle
4657 1490 Circle
4669 1448 Circle
4701 1406 Circle
4728 1375 Circle
4732 1383 Circle
4736 1356 Circle
4743 1352 Circle
4747 1348 Circle
4750 1325 Circle
4754 1333 Circle
4757 1333 Circle
4760 1329 Circle
4764 1318 Circle
4770 1325 Circle
4773 1322 Circle
4780 1299 Circle
4783 1314 Circle
4786 1314 Circle
4789 1299 Circle
4793 1310 Circle
4799 1299 Circle
4802 1299 Circle
4805 1295 Circle
4808 1295 Circle
4811 1283 Circle
4814 1280 Circle
4817 1280 Circle
4820 1280 Circle
4829 1283 Circle
4832 1268 Circle
4835 1264 Circle
4838 1268 Circle
4841 1260 Circle
4844 1264 Circle
4847 1257 Circle
4850 1249 Circle
4853 1260 Circle
4859 1260 Circle
4862 1234 Circle
4865 1226 Circle
4868 1241 Circle
4870 1230 Circle
4873 1230 Circle
4876 1226 Circle
4879 1230 Circle
4882 1211 Circle
4885 1214 Circle
4887 1230 Circle
4896 1199 Circle
4898 1199 Circle
4901 1195 Circle
4903 1169 Circle
4905 1195 Circle
4910 1180 Circle
4912 1180 Circle
4917 1188 Circle
4919 1191 Circle
4922 1176 Circle
4924 1161 Circle
4926 1161 Circle
4928 1188 Circle
4931 1188 Circle
4933 1195 Circle
4935 1195 Circle
4937 1203 Circle
4940 1214 Circle
4942 1180 Circle
4946 1207 Circle
4948 1218 Circle
4953 1188 Circle
4955 1172 Circle
4957 1191 Circle
4959 1211 Circle
4961 1195 Circle
4963 1184 Circle
4966 1165 Circle
4968 1153 Circle
4970 1176 Circle
4972 1165 Circle
4974 1153 Circle
4976 1169 Circle
4978 1237 Circle
4980 1157 Circle
4982 1138 Circle
4985 1146 Circle
4987 1195 Circle
4989 1146 Circle
4990 1153 Circle
4992 1123 Circle
4994 1123 Circle
4996 1146 Circle
4998 1123 Circle
5000 1123 Circle
5002 1111 Circle
5004 1134 Circle
5007 1100 Circle
5009 1130 Circle
5011 1126 Circle
5012 1100 Circle
5014 1111 Circle
5016 1103 Circle
5018 1107 Circle
5020 1107 Circle
5024 1092 Circle
5026 1111 Circle
5028 1103 Circle
5030 1115 Circle
5031 1100 Circle
5033 1096 Circle
5035 1119 Circle
5037 1123 Circle
5039 1103 Circle
5041 1115 Circle
6310 5517 Circle
3.000 UL
LT0
LTb
5967 5205 M
[ [(Helvetica) 260.0 0.0 true true 0 (single porosity)]
] -86.7 MRshow
LT0
6123 5205 M
375 0 V
1898 1148 M
20 0 V
19 0 V
19 0 V
18 0 V
17 0 V
17 0 V
17 0 V
16 0 V
16 0 V
15 0 V
15 0 V
15 0 V
14 0 V
14 0 V
14 0 V
13 0 V
13 0 V
13 0 V
12 0 V
12 0 V
12 0 V
12 0 V
12 0 V
11 0 V
11 0 V
11 0 V
11 0 V
10 0 V
11 0 V
10 0 V
10 0 V
10 0 V
9 0 V
10 1 V
9 0 V
9 0 V
10 0 V
9 1 V
8 0 V
9 0 V
9 1 V
8 0 V
8 1 V
9 0 V
8 1 V
8 0 V
8 1 V
8 1 V
7 1 V
8 1 V
7 1 V
8 1 V
7 1 V
7 2 V
8 1 V
7 2 V
7 1 V
7 2 V
6 2 V
7 2 V
7 2 V
7 3 V
6 2 V
7 3 V
6 2 V
6 3 V
7 3 V
6 3 V
6 4 V
6 3 V
58 44 V
52 63 V
49 80 V
45 98 V
42 113 V
39 125 V
36 136 V
35 142 V
33 147 V
31 149 V
29 148 V
29 147 V
26 143 V
26 139 V
25 133 V
24 127 V
23 120 V
22 113 V
21 106 V
20 98 V
20 91 V
19 84 V
19 76 V
18 70 V
18 63 V
17 56 V
16 50 V
16 44 V
16 38 V
16 34 V
14 28 V
15 23 V
stroke 3496 4228 M
14 19 V
14 14 V
14 11 V
13 7 V
13 3 V
13 1 V
12 -3 V
13 -6 V
12 -8 V
11 -11 V
12 -12 V
11 -15 V
11 -17 V
11 -18 V
11 -21 V
11 -21 V
10 -23 V
10 -24 V
10 -25 V
10 -26 V
10 -27 V
9 -28 V
10 -29 V
9 -29 V
9 -30 V
9 -30 V
9 -31 V
8 -31 V
9 -32 V
8 -32 V
9 -31 V
8 -32 V
8 -33 V
8 -32 V
8 -32 V
8 -33 V
8 -32 V
7 -32 V
8 -32 V
7 -32 V
8 -32 V
7 -32 V
7 -32 V
7 -31 V
7 -31 V
7 -31 V
7 -31 V
7 -30 V
6 -31 V
7 -30 V
6 -30 V
7 -29 V
6 -29 V
7 -29 V
6 -29 V
6 -28 V
6 -28 V
6 -27 V
58 -259 V
53 -226 V
48 -195 V
45 -168 V
42 -142 V
39 -122 V
37 -103 V
34 -88 V
33 -74 V
31 -63 V
30 -53 V
28 -46 V
27 -38 V
26 -33 V
24 -28 V
24 -23 V
23 -21 V
22 -17 V
21 -14 V
21 -13 V
19 -11 V
20 -9 V
18 -7 V
18 -7 V
18 -6 V
17 -5 V
17 -4 V
16 -4 V
16 -3 V
15 -2 V
15 -3 V
14 -2 V
15 -1 V
14 -2 V
13 -1 V
13 -1 V
13 -1 V
13 -1 V
13 -1 V
12 0 V
12 -1 V
12 0 V
11 0 V
12 -1 V
11 0 V
11 0 V
stroke 5065 1094 M
10 -1 V
11 0 V
10 0 V
10 0 V
10 0 V
10 0 V
10 0 V
9 0 V
10 -1 V
9 0 V
9 0 V
9 0 V
9 0 V
9 0 V
8 0 V
9 0 V
8 0 V
8 0 V
8 0 V
9 0 V
7 0 V
8 0 V
8 0 V
8 0 V
7 0 V
8 0 V
7 0 V
7 0 V
7 0 V
7 0 V
7 0 V
7 0 V
7 0 V
7 0 V
7 0 V
6 0 V
7 0 V
6 0 V
7 0 V
6 0 V
6 0 V
6 0 V
7 0 V
6 0 V
57 0 V
53 0 V
49 0 V
44 0 V
42 0 V
39 0 V
37 0 V
35 0 V
32 0 V
31 0 V
30 0 V
28 0 V
27 0 V
26 0 V
25 0 V
23 0 V
23 0 V
22 0 V
21 0 V
21 0 V
20 0 V
19 0 V
19 0 V
18 0 V
17 0 V
17 0 V
17 0 V
16 0 V
16 0 V
15 0 V
15 0 V
15 0 V
14 0 V
14 0 V
13 0 V
14 0 V
13 0 V
13 0 V
12 0 V
12 0 V
12 0 V
12 0 V
12 0 V
11 0 V
11 0 V
11 0 V
11 0 V
10 0 V
10 0 V
11 0 V
10 0 V
10 0 V
9 0 V
10 0 V
9 0 V
9 0 V
9 0 V
9 0 V
9 0 V
9 0 V
stroke 6594 1092 M
9 0 V
8 0 V
8 0 V
9 0 V
8 0 V
8 0 V
8 0 V
8 0 V
7 0 V
8 0 V
7 0 V
8 0 V
7 0 V
7 0 V
8 0 V
7 0 V
7 0 V
7 0 V
6 0 V
7 0 V
7 0 V
7 0 V
6 0 V
7 0 V
6 0 V
6 0 V
7 0 V
6 0 V
6 0 V
stroke
LT6
LTb
5967 4893 M
[ [(Helvetica) 260.0 0.0 true true 0 (double porosity)]
] -86.7 MRshow
LT6
6123 4893 M
375 0 V
1898 1148 M
20 0 V
19 0 V
19 0 V
18 0 V
17 0 V
17 0 V
17 0 V
16 0 V
16 0 V
15 0 V
15 0 V
15 0 V
14 0 V
14 0 V
14 0 V
13 0 V
13 0 V
13 0 V
12 0 V
12 0 V
12 0 V
12 0 V
12 0 V
11 0 V
11 0 V
11 0 V
11 0 V
10 0 V
11 0 V
10 0 V
10 0 V
10 0 V
9 0 V
10 0 V
9 0 V
9 0 V
10 0 V
9 0 V
8 0 V
9 0 V
9 0 V
8 0 V
8 0 V
9 0 V
8 0 V
8 0 V
8 0 V
8 0 V
7 1 V
8 0 V
7 0 V
8 0 V
7 0 V
7 1 V
8 0 V
7 0 V
7 1 V
7 0 V
6 0 V
7 1 V
7 0 V
7 1 V
6 0 V
7 1 V
6 1 V
6 1 V
7 0 V
6 1 V
6 1 V
6 1 V
58 16 V
52 27 V
49 42 V
45 60 V
42 78 V
39 96 V
36 114 V
35 130 V
33 143 V
31 154 V
29 161 V
29 166 V
26 169 V
26 169 V
25 166 V
24 163 V
23 157 V
22 150 V
21 143 V
20 134 V
20 125 V
19 115 V
19 106 V
18 97 V
18 87 V
17 78 V
16 68 V
16 60 V
16 51 V
16 43 V
14 36 V
15 28 V
stroke 3496 4491 M
14 21 V
14 15 V
14 9 V
13 3 V
13 -2 V
13 -7 V
12 -11 V
13 -15 V
12 -19 V
11 -22 V
12 -25 V
11 -29 V
11 -30 V
11 -33 V
11 -34 V
11 -37 V
10 -38 V
10 -39 V
10 -41 V
10 -41 V
10 -42 V
9 -43 V
10 -43 V
9 -44 V
9 -44 V
9 -44 V
9 -44 V
8 -44 V
9 -44 V
8 -44 V
9 -43 V
8 -44 V
8 -43 V
8 -42 V
8 -42 V
8 -42 V
8 -41 V
7 -40 V
8 -40 V
7 -40 V
8 -38 V
7 -38 V
7 -38 V
7 -37 V
7 -36 V
7 -35 V
7 -35 V
7 -34 V
6 -34 V
7 -32 V
6 -32 V
7 -32 V
6 -30 V
7 -31 V
6 -29 V
6 -29 V
6 -28 V
6 -27 V
58 -242 V
53 -190 V
48 -148 V
45 -115 V
42 -91 V
39 -73 V
37 -59 V
34 -49 V
33 -40 V
31 -35 V
30 -31 V
28 -27 V
27 -24 V
26 -22 V
24 -21 V
24 -19 V
23 -18 V
22 -16 V
21 -16 V
21 -15 V
19 -15 V
20 -13 V
18 -13 V
18 -13 V
18 -11 V
17 -12 V
17 -11 V
16 -10 V
16 -10 V
15 -9 V
15 -9 V
14 -9 V
15 -8 V
14 -8 V
13 -8 V
13 -7 V
13 -7 V
13 -7 V
13 -6 V
12 -6 V
12 -6 V
12 -6 V
11 -5 V
12 -5 V
11 -5 V
11 -5 V
stroke 5065 1193 M
10 -4 V
11 -5 V
10 -4 V
10 -4 V
10 -3 V
10 -4 V
10 -3 V
9 -4 V
10 -3 V
9 -3 V
9 -3 V
9 -2 V
9 -3 V
9 -3 V
8 -2 V
9 -2 V
8 -2 V
8 -2 V
8 -2 V
9 -2 V
7 -2 V
8 -2 V
8 -2 V
8 -1 V
7 -2 V
8 -1 V
7 -2 V
7 -1 V
7 -1 V
7 -1 V
7 -1 V
7 -2 V
7 -1 V
7 -1 V
7 -1 V
6 -1 V
7 0 V
6 -1 V
7 -1 V
6 -1 V
6 -1 V
6 0 V
7 -1 V
6 -1 V
57 -5 V
53 -3 V
49 -2 V
44 -1 V
42 -1 V
39 0 V
37 0 V
35 -1 V
32 0 V
31 0 V
30 0 V
28 0 V
27 0 V
26 0 V
25 0 V
23 0 V
23 0 V
22 0 V
21 0 V
21 0 V
20 0 V
19 0 V
19 0 V
18 0 V
17 0 V
17 0 V
17 0 V
16 0 V
16 0 V
15 0 V
15 0 V
15 0 V
14 0 V
14 0 V
13 0 V
14 0 V
13 0 V
13 0 V
12 0 V
12 0 V
12 0 V
12 0 V
12 0 V
11 0 V
11 0 V
11 0 V
11 0 V
10 0 V
10 0 V
11 0 V
10 0 V
10 0 V
9 0 V
10 0 V
9 0 V
9 0 V
9 0 V
9 0 V
9 0 V
9 0 V
stroke 6594 1092 M
9 0 V
8 0 V
8 0 V
9 0 V
8 0 V
8 0 V
8 0 V
8 0 V
7 0 V
8 0 V
7 0 V
8 0 V
7 0 V
7 0 V
8 0 V
7 0 V
7 0 V
7 0 V
6 0 V
7 0 V
7 0 V
7 0 V
6 0 V
7 0 V
6 0 V
6 0 V
7 0 V
6 0 V
6 0 V
stroke
8.000 UL
LT0
LTb
5967 4581 M
[ [(Helvetica) 260.0 0.0 true true 0 (multirate lognormal)]
] -86.7 MRshow
LT0
6123 4581 M
375 0 V
1898 1148 M
20 0 V
19 0 V
19 0 V
18 0 V
17 0 V
17 0 V
17 0 V
16 0 V
16 0 V
15 0 V
15 0 V
15 0 V
14 0 V
14 0 V
14 0 V
13 0 V
13 0 V
13 0 V
12 0 V
12 0 V
12 0 V
12 0 V
12 0 V
11 0 V
11 0 V
11 0 V
11 0 V
10 0 V
11 0 V
10 0 V
10 0 V
10 0 V
9 0 V
10 0 V
9 0 V
9 0 V
10 0 V
9 0 V
8 0 V
9 0 V
9 0 V
8 0 V
8 0 V
9 0 V
8 0 V
8 0 V
8 0 V
8 0 V
7 0 V
8 0 V
7 0 V
8 1 V
7 0 V
7 0 V
8 0 V
7 0 V
7 1 V
7 0 V
6 0 V
7 0 V
7 1 V
7 0 V
6 1 V
7 0 V
6 1 V
6 0 V
7 1 V
6 0 V
6 1 V
6 1 V
58 12 V
52 23 V
49 36 V
45 53 V
42 72 V
39 92 V
36 111 V
35 128 V
33 143 V
31 156 V
29 165 V
29 172 V
26 175 V
26 175 V
25 175 V
24 170 V
23 164 V
22 158 V
21 149 V
20 140 V
20 130 V
19 119 V
19 110 V
18 99 V
18 88 V
17 79 V
16 68 V
16 59 V
16 49 V
16 41 V
14 33 V
15 25 V
stroke 3496 4525 M
14 17 V
14 12 V
14 4 V
13 -1 V
13 -6 V
13 -11 V
12 -15 V
13 -20 V
12 -23 V
11 -26 V
12 -29 V
11 -32 V
11 -34 V
11 -36 V
11 -37 V
11 -40 V
10 -40 V
10 -41 V
10 -43 V
10 -43 V
10 -43 V
9 -44 V
10 -44 V
9 -44 V
9 -45 V
9 -44 V
9 -44 V
8 -44 V
9 -43 V
8 -43 V
9 -43 V
8 -42 V
8 -42 V
8 -41 V
8 -41 V
8 -40 V
8 -39 V
7 -39 V
8 -38 V
7 -37 V
8 -37 V
7 -36 V
7 -35 V
7 -35 V
7 -34 V
7 -33 V
7 -32 V
7 -32 V
6 -32 V
7 -30 V
6 -30 V
7 -29 V
6 -29 V
7 -28 V
6 -27 V
6 -27 V
6 -26 V
6 -25 V
58 -225 V
53 -179 V
48 -143 V
45 -117 V
42 -95 V
39 -80 V
37 -68 V
34 -58 V
33 -51 V
31 -44 V
30 -39 V
28 -35 V
27 -32 V
26 -29 V
24 -25 V
24 -24 V
23 -22 V
22 -19 V
21 -19 V
21 -17 V
19 -15 V
20 -15 V
18 -13 V
18 -12 V
18 -12 V
17 -11 V
17 -10 V
16 -9 V
16 -9 V
15 -8 V
15 -8 V
14 -7 V
15 -7 V
14 -7 V
13 -6 V
13 -6 V
13 -5 V
13 -5 V
13 -5 V
12 -4 V
12 -5 V
12 -4 V
11 -4 V
12 -3 V
11 -4 V
11 -3 V
stroke 5065 1166 M
10 -3 V
11 -3 V
10 -3 V
10 -3 V
10 -2 V
10 -3 V
10 -2 V
9 -2 V
10 -2 V
9 -2 V
9 -2 V
9 -2 V
9 -2 V
9 -1 V
8 -2 V
9 -1 V
8 -2 V
8 -1 V
8 -1 V
9 -2 V
7 -1 V
8 -1 V
8 -1 V
8 -1 V
7 -1 V
8 -1 V
7 -1 V
7 -1 V
7 -1 V
7 -1 V
7 -1 V
7 0 V
7 -1 V
7 -1 V
7 0 V
6 -1 V
7 -1 V
6 0 V
7 -1 V
6 0 V
6 -1 V
6 0 V
7 -1 V
6 0 V
57 -4 V
53 -3 V
49 -2 V
44 -2 V
42 -1 V
39 0 V
37 -1 V
35 -1 V
32 0 V
31 0 V
30 0 V
28 0 V
27 -1 V
26 0 V
25 0 V
23 0 V
23 0 V
22 0 V
21 0 V
21 0 V
20 0 V
19 0 V
19 0 V
18 0 V
17 0 V
17 0 V
17 0 V
16 0 V
16 0 V
15 0 V
15 0 V
15 0 V
14 0 V
14 0 V
13 0 V
14 0 V
13 0 V
13 0 V
12 0 V
12 0 V
12 0 V
12 0 V
12 0 V
11 0 V
11 0 V
11 0 V
11 0 V
10 0 V
10 0 V
11 0 V
10 0 V
10 0 V
9 0 V
10 0 V
9 0 V
9 0 V
9 0 V
9 0 V
9 0 V
9 0 V
stroke 6594 1092 M
9 0 V
8 0 V
8 0 V
9 0 V
8 0 V
8 0 V
8 0 V
8 0 V
7 0 V
8 0 V
7 0 V
8 0 V
7 0 V
7 0 V
8 0 V
7 0 V
7 0 V
7 0 V
6 0 V
7 0 V
7 0 V
7 0 V
6 0 V
7 0 V
6 0 V
6 0 V
7 0 V
6 0 V
6 0 V
stroke
1.000 UL
LTb
1898 5736 N
0 -4644 V
4912 0 V
0 4644 V
-4912 0 V
Z stroke
1.000 UP
1.000 UL
LTb
stroke
grestore
end
showpage
%%Trailer
%%DocumentFonts: Symbol Helvetica
