%!PS-Adobe-2.0 EPSF-2.0
%%Title: B7_22Na_logn0b.eps
%%Creator: gnuplot 4.2 patchlevel 6 
%%CreationDate: Thu Aug  4 15:43:39 2011
%%DocumentFonts: (atend)
%%BoundingBox: 50 50 410 352
%%EndComments
%%BeginProlog
/gnudict 256 dict def
gnudict begin
%
% The following 6 true/false flags may be edited by hand if required
% The unit line width may also be changed
%
/Color false def
/Blacktext false def
/Solid false def
/Dashlength 1 def
/Landscape false def
/Level1 false def
/Rounded false def
/TransparentPatterns false def
/gnulinewidth 5.000 def
/userlinewidth gnulinewidth def
%
/vshift -86 def
/dl1 {
  10.0 Dashlength mul mul
  Rounded { currentlinewidth 0.75 mul sub dup 0 le { pop 0.01 } if } if
} def
/dl2 {
  10.0 Dashlength mul mul
  Rounded { currentlinewidth 0.75 mul add } if
} def
/hpt_ 31.5 def
/vpt_ 31.5 def
/hpt hpt_ def
/vpt vpt_ def
Level1 {} {
/SDict 10 dict def
systemdict /pdfmark known not {
  userdict /pdfmark systemdict /cleartomark get put
} if
SDict begin [
  /Title (B7_22Na_logn0b.eps)
  /Subject (gnuplot plot)
  /Creator (gnuplot 4.2 patchlevel 6 )
  /Author (Bwalya Malama,,,)
%  /Producer (gnuplot)
%  /Keywords ()
  /CreationDate (Thu Aug  4 15:43:39 2011)
  /DOCINFO pdfmark
end
} ifelse
%
% Gnuplot Prolog Version 4.2 (August 2006)
%
/M {moveto} bind def
/L {lineto} bind def
/R {rmoveto} bind def
/V {rlineto} bind def
/N {newpath moveto} bind def
/Z {closepath} bind def
/C {setrgbcolor} bind def
/f {rlineto fill} bind def
/vpt2 vpt 2 mul def
/hpt2 hpt 2 mul def
/Lshow {currentpoint stroke M 0 vshift R 
	Blacktext {gsave 0 setgray show grestore} {show} ifelse} def
/Rshow {currentpoint stroke M dup stringwidth pop neg vshift R
	Blacktext {gsave 0 setgray show grestore} {show} ifelse} def
/Cshow {currentpoint stroke M dup stringwidth pop -2 div vshift R 
	Blacktext {gsave 0 setgray show grestore} {show} ifelse} def
/UP {dup vpt_ mul /vpt exch def hpt_ mul /hpt exch def
  /hpt2 hpt 2 mul def /vpt2 vpt 2 mul def} def
/DL {Color {setrgbcolor Solid {pop []} if 0 setdash}
 {pop pop pop 0 setgray Solid {pop []} if 0 setdash} ifelse} def
/BL {stroke userlinewidth 2 mul setlinewidth
	Rounded {1 setlinejoin 1 setlinecap} if} def
/AL {stroke userlinewidth 2 div setlinewidth
	Rounded {1 setlinejoin 1 setlinecap} if} def
/UL {dup gnulinewidth mul /userlinewidth exch def
	dup 1 lt {pop 1} if 10 mul /udl exch def} def
/PL {stroke userlinewidth setlinewidth
	Rounded {1 setlinejoin 1 setlinecap} if} def
% Default Line colors
/LCw {1 1 1} def
/LCb {0 0 0} def
/LCa {0 0 0} def
/LC0 {1 0 0} def
/LC1 {0 1 0} def
/LC2 {0 0 1} def
/LC3 {1 0 1} def
/LC4 {0 1 1} def
/LC5 {1 1 0} def
/LC6 {0 0 0} def
/LC7 {1 0.3 0} def
/LC8 {0.5 0.5 0.5} def
% Default Line Types
/LTw {PL [] 1 setgray} def
/LTb {BL [] LCb DL} def
/LTa {AL [1 udl mul 2 udl mul] 0 setdash LCa setrgbcolor} def
/LT0 {PL [] LC0 DL} def
/LT1 {PL [4 dl1 2 dl2] LC1 DL} def
/LT2 {PL [2 dl1 3 dl2] LC2 DL} def
/LT3 {PL [1 dl1 1.5 dl2] LC3 DL} def
/LT4 {PL [6 dl1 2 dl2 1 dl1 2 dl2] LC4 DL} def
/LT5 {PL [3 dl1 3 dl2 1 dl1 3 dl2] LC5 DL} def
/LT6 {PL [2 dl1 2 dl2 2 dl1 6 dl2] LC6 DL} def
/LT7 {PL [1 dl1 2 dl2 6 dl1 2 dl2 1 dl1 2 dl2] LC7 DL} def
/LT8 {PL [2 dl1 2 dl2 2 dl1 2 dl2 2 dl1 2 dl2 2 dl1 4 dl2] LC8 DL} def
/Pnt {stroke [] 0 setdash gsave 1 setlinecap M 0 0 V stroke grestore} def
/Dia {stroke [] 0 setdash 2 copy vpt add M
  hpt neg vpt neg V hpt vpt neg V
  hpt vpt V hpt neg vpt V closepath stroke
  Pnt} def
/Pls {stroke [] 0 setdash vpt sub M 0 vpt2 V
  currentpoint stroke M
  hpt neg vpt neg R hpt2 0 V stroke
 } def
/Box {stroke [] 0 setdash 2 copy exch hpt sub exch vpt add M
  0 vpt2 neg V hpt2 0 V 0 vpt2 V
  hpt2 neg 0 V closepath stroke
  Pnt} def
/Crs {stroke [] 0 setdash exch hpt sub exch vpt add M
  hpt2 vpt2 neg V currentpoint stroke M
  hpt2 neg 0 R hpt2 vpt2 V stroke} def
/TriU {stroke [] 0 setdash 2 copy vpt 1.12 mul add M
  hpt neg vpt -1.62 mul V
  hpt 2 mul 0 V
  hpt neg vpt 1.62 mul V closepath stroke
  Pnt} def
/Star {2 copy Pls Crs} def
/BoxF {stroke [] 0 setdash exch hpt sub exch vpt add M
  0 vpt2 neg V hpt2 0 V 0 vpt2 V
  hpt2 neg 0 V closepath fill} def
/TriUF {stroke [] 0 setdash vpt 1.12 mul add M
  hpt neg vpt -1.62 mul V
  hpt 2 mul 0 V
  hpt neg vpt 1.62 mul V closepath fill} def
/TriD {stroke [] 0 setdash 2 copy vpt 1.12 mul sub M
  hpt neg vpt 1.62 mul V
  hpt 2 mul 0 V
  hpt neg vpt -1.62 mul V closepath stroke
  Pnt} def
/TriDF {stroke [] 0 setdash vpt 1.12 mul sub M
  hpt neg vpt 1.62 mul V
  hpt 2 mul 0 V
  hpt neg vpt -1.62 mul V closepath fill} def
/DiaF {stroke [] 0 setdash vpt add M
  hpt neg vpt neg V hpt vpt neg V
  hpt vpt V hpt neg vpt V closepath fill} def
/Pent {stroke [] 0 setdash 2 copy gsave
  translate 0 hpt M 4 {72 rotate 0 hpt L} repeat
  closepath stroke grestore Pnt} def
/PentF {stroke [] 0 setdash gsave
  translate 0 hpt M 4 {72 rotate 0 hpt L} repeat
  closepath fill grestore} def
/Circle {stroke [] 0 setdash 2 copy
  hpt 0 360 arc stroke Pnt} def
/CircleF {stroke [] 0 setdash hpt 0 360 arc fill} def
/C0 {BL [] 0 setdash 2 copy moveto vpt 90 450 arc} bind def
/C1 {BL [] 0 setdash 2 copy moveto
	2 copy vpt 0 90 arc closepath fill
	vpt 0 360 arc closepath} bind def
/C2 {BL [] 0 setdash 2 copy moveto
	2 copy vpt 90 180 arc closepath fill
	vpt 0 360 arc closepath} bind def
/C3 {BL [] 0 setdash 2 copy moveto
	2 copy vpt 0 180 arc closepath fill
	vpt 0 360 arc closepath} bind def
/C4 {BL [] 0 setdash 2 copy moveto
	2 copy vpt 180 270 arc closepath fill
	vpt 0 360 arc closepath} bind def
/C5 {BL [] 0 setdash 2 copy moveto
	2 copy vpt 0 90 arc
	2 copy moveto
	2 copy vpt 180 270 arc closepath fill
	vpt 0 360 arc} bind def
/C6 {BL [] 0 setdash 2 copy moveto
	2 copy vpt 90 270 arc closepath fill
	vpt 0 360 arc closepath} bind def
/C7 {BL [] 0 setdash 2 copy moveto
	2 copy vpt 0 270 arc closepath fill
	vpt 0 360 arc closepath} bind def
/C8 {BL [] 0 setdash 2 copy moveto
	2 copy vpt 270 360 arc closepath fill
	vpt 0 360 arc closepath} bind def
/C9 {BL [] 0 setdash 2 copy moveto
	2 copy vpt 270 450 arc closepath fill
	vpt 0 360 arc closepath} bind def
/C10 {BL [] 0 setdash 2 copy 2 copy moveto vpt 270 360 arc closepath fill
	2 copy moveto
	2 copy vpt 90 180 arc closepath fill
	vpt 0 360 arc closepath} bind def
/C11 {BL [] 0 setdash 2 copy moveto
	2 copy vpt 0 180 arc closepath fill
	2 copy moveto
	2 copy vpt 270 360 arc closepath fill
	vpt 0 360 arc closepath} bind def
/C12 {BL [] 0 setdash 2 copy moveto
	2 copy vpt 180 360 arc closepath fill
	vpt 0 360 arc closepath} bind def
/C13 {BL [] 0 setdash 2 copy moveto
	2 copy vpt 0 90 arc closepath fill
	2 copy moveto
	2 copy vpt 180 360 arc closepath fill
	vpt 0 360 arc closepath} bind def
/C14 {BL [] 0 setdash 2 copy moveto
	2 copy vpt 90 360 arc closepath fill
	vpt 0 360 arc} bind def
/C15 {BL [] 0 setdash 2 copy vpt 0 360 arc closepath fill
	vpt 0 360 arc closepath} bind def
/Rec {newpath 4 2 roll moveto 1 index 0 rlineto 0 exch rlineto
	neg 0 rlineto closepath} bind def
/Square {dup Rec} bind def
/Bsquare {vpt sub exch vpt sub exch vpt2 Square} bind def
/S0 {BL [] 0 setdash 2 copy moveto 0 vpt rlineto BL Bsquare} bind def
/S1 {BL [] 0 setdash 2 copy vpt Square fill Bsquare} bind def
/S2 {BL [] 0 setdash 2 copy exch vpt sub exch vpt Square fill Bsquare} bind def
/S3 {BL [] 0 setdash 2 copy exch vpt sub exch vpt2 vpt Rec fill Bsquare} bind def
/S4 {BL [] 0 setdash 2 copy exch vpt sub exch vpt sub vpt Square fill Bsquare} bind def
/S5 {BL [] 0 setdash 2 copy 2 copy vpt Square fill
	exch vpt sub exch vpt sub vpt Square fill Bsquare} bind def
/S6 {BL [] 0 setdash 2 copy exch vpt sub exch vpt sub vpt vpt2 Rec fill Bsquare} bind def
/S7 {BL [] 0 setdash 2 copy exch vpt sub exch vpt sub vpt vpt2 Rec fill
	2 copy vpt Square fill Bsquare} bind def
/S8 {BL [] 0 setdash 2 copy vpt sub vpt Square fill Bsquare} bind def
/S9 {BL [] 0 setdash 2 copy vpt sub vpt vpt2 Rec fill Bsquare} bind def
/S10 {BL [] 0 setdash 2 copy vpt sub vpt Square fill 2 copy exch vpt sub exch vpt Square fill
	Bsquare} bind def
/S11 {BL [] 0 setdash 2 copy vpt sub vpt Square fill 2 copy exch vpt sub exch vpt2 vpt Rec fill
	Bsquare} bind def
/S12 {BL [] 0 setdash 2 copy exch vpt sub exch vpt sub vpt2 vpt Rec fill Bsquare} bind def
/S13 {BL [] 0 setdash 2 copy exch vpt sub exch vpt sub vpt2 vpt Rec fill
	2 copy vpt Square fill Bsquare} bind def
/S14 {BL [] 0 setdash 2 copy exch vpt sub exch vpt sub vpt2 vpt Rec fill
	2 copy exch vpt sub exch vpt Square fill Bsquare} bind def
/S15 {BL [] 0 setdash 2 copy Bsquare fill Bsquare} bind def
/D0 {gsave translate 45 rotate 0 0 S0 stroke grestore} bind def
/D1 {gsave translate 45 rotate 0 0 S1 stroke grestore} bind def
/D2 {gsave translate 45 rotate 0 0 S2 stroke grestore} bind def
/D3 {gsave translate 45 rotate 0 0 S3 stroke grestore} bind def
/D4 {gsave translate 45 rotate 0 0 S4 stroke grestore} bind def
/D5 {gsave translate 45 rotate 0 0 S5 stroke grestore} bind def
/D6 {gsave translate 45 rotate 0 0 S6 stroke grestore} bind def
/D7 {gsave translate 45 rotate 0 0 S7 stroke grestore} bind def
/D8 {gsave translate 45 rotate 0 0 S8 stroke grestore} bind def
/D9 {gsave translate 45 rotate 0 0 S9 stroke grestore} bind def
/D10 {gsave translate 45 rotate 0 0 S10 stroke grestore} bind def
/D11 {gsave translate 45 rotate 0 0 S11 stroke grestore} bind def
/D12 {gsave translate 45 rotate 0 0 S12 stroke grestore} bind def
/D13 {gsave translate 45 rotate 0 0 S13 stroke grestore} bind def
/D14 {gsave translate 45 rotate 0 0 S14 stroke grestore} bind def
/D15 {gsave translate 45 rotate 0 0 S15 stroke grestore} bind def
/DiaE {stroke [] 0 setdash vpt add M
  hpt neg vpt neg V hpt vpt neg V
  hpt vpt V hpt neg vpt V closepath stroke} def
/BoxE {stroke [] 0 setdash exch hpt sub exch vpt add M
  0 vpt2 neg V hpt2 0 V 0 vpt2 V
  hpt2 neg 0 V closepath stroke} def
/TriUE {stroke [] 0 setdash vpt 1.12 mul add M
  hpt neg vpt -1.62 mul V
  hpt 2 mul 0 V
  hpt neg vpt 1.62 mul V closepath stroke} def
/TriDE {stroke [] 0 setdash vpt 1.12 mul sub M
  hpt neg vpt 1.62 mul V
  hpt 2 mul 0 V
  hpt neg vpt -1.62 mul V closepath stroke} def
/PentE {stroke [] 0 setdash gsave
  translate 0 hpt M 4 {72 rotate 0 hpt L} repeat
  closepath stroke grestore} def
/CircE {stroke [] 0 setdash 
  hpt 0 360 arc stroke} def
/Opaque {gsave closepath 1 setgray fill grestore 0 setgray closepath} def
/DiaW {stroke [] 0 setdash vpt add M
  hpt neg vpt neg V hpt vpt neg V
  hpt vpt V hpt neg vpt V Opaque stroke} def
/BoxW {stroke [] 0 setdash exch hpt sub exch vpt add M
  0 vpt2 neg V hpt2 0 V 0 vpt2 V
  hpt2 neg 0 V Opaque stroke} def
/TriUW {stroke [] 0 setdash vpt 1.12 mul add M
  hpt neg vpt -1.62 mul V
  hpt 2 mul 0 V
  hpt neg vpt 1.62 mul V Opaque stroke} def
/TriDW {stroke [] 0 setdash vpt 1.12 mul sub M
  hpt neg vpt 1.62 mul V
  hpt 2 mul 0 V
  hpt neg vpt -1.62 mul V Opaque stroke} def
/PentW {stroke [] 0 setdash gsave
  translate 0 hpt M 4 {72 rotate 0 hpt L} repeat
  Opaque stroke grestore} def
/CircW {stroke [] 0 setdash 
  hpt 0 360 arc Opaque stroke} def
/BoxFill {gsave Rec 1 setgray fill grestore} def
/Density {
  /Fillden exch def
  currentrgbcolor
  /ColB exch def /ColG exch def /ColR exch def
  /ColR ColR Fillden mul Fillden sub 1 add def
  /ColG ColG Fillden mul Fillden sub 1 add def
  /ColB ColB Fillden mul Fillden sub 1 add def
  ColR ColG ColB setrgbcolor} def
/BoxColFill {gsave Rec PolyFill} def
/PolyFill {gsave Density fill grestore grestore} def
/h {rlineto rlineto rlineto gsave closepath fill grestore} bind def
%
% PostScript Level 1 Pattern Fill routine for rectangles
% Usage: x y w h s a XX PatternFill
%	x,y = lower left corner of box to be filled
%	w,h = width and height of box
%	  a = angle in degrees between lines and x-axis
%	 XX = 0/1 for no/yes cross-hatch
%
/PatternFill {gsave /PFa [ 9 2 roll ] def
  PFa 0 get PFa 2 get 2 div add PFa 1 get PFa 3 get 2 div add translate
  PFa 2 get -2 div PFa 3 get -2 div PFa 2 get PFa 3 get Rec
  gsave 1 setgray fill grestore clip
  currentlinewidth 0.5 mul setlinewidth
  /PFs PFa 2 get dup mul PFa 3 get dup mul add sqrt def
  0 0 M PFa 5 get rotate PFs -2 div dup translate
  0 1 PFs PFa 4 get div 1 add floor cvi
	{PFa 4 get mul 0 M 0 PFs V} for
  0 PFa 6 get ne {
	0 1 PFs PFa 4 get div 1 add floor cvi
	{PFa 4 get mul 0 2 1 roll M PFs 0 V} for
 } if
  stroke grestore} def
%
/languagelevel where
 {pop languagelevel} {1} ifelse
 2 lt
	{/InterpretLevel1 true def}
	{/InterpretLevel1 Level1 def}
 ifelse
%
% PostScript level 2 pattern fill definitions
%
/Level2PatternFill {
/Tile8x8 {/PaintType 2 /PatternType 1 /TilingType 1 /BBox [0 0 8 8] /XStep 8 /YStep 8}
	bind def
/KeepColor {currentrgbcolor [/Pattern /DeviceRGB] setcolorspace} bind def
<< Tile8x8
 /PaintProc {0.5 setlinewidth pop 0 0 M 8 8 L 0 8 M 8 0 L stroke} 
>> matrix makepattern
/Pat1 exch def
<< Tile8x8
 /PaintProc {0.5 setlinewidth pop 0 0 M 8 8 L 0 8 M 8 0 L stroke
	0 4 M 4 8 L 8 4 L 4 0 L 0 4 L stroke}
>> matrix makepattern
/Pat2 exch def
<< Tile8x8
 /PaintProc {0.5 setlinewidth pop 0 0 M 0 8 L
	8 8 L 8 0 L 0 0 L fill}
>> matrix makepattern
/Pat3 exch def
<< Tile8x8
 /PaintProc {0.5 setlinewidth pop -4 8 M 8 -4 L
	0 12 M 12 0 L stroke}
>> matrix makepattern
/Pat4 exch def
<< Tile8x8
 /PaintProc {0.5 setlinewidth pop -4 0 M 8 12 L
	0 -4 M 12 8 L stroke}
>> matrix makepattern
/Pat5 exch def
<< Tile8x8
 /PaintProc {0.5 setlinewidth pop -2 8 M 4 -4 L
	0 12 M 8 -4 L 4 12 M 10 0 L stroke}
>> matrix makepattern
/Pat6 exch def
<< Tile8x8
 /PaintProc {0.5 setlinewidth pop -2 0 M 4 12 L
	0 -4 M 8 12 L 4 -4 M 10 8 L stroke}
>> matrix makepattern
/Pat7 exch def
<< Tile8x8
 /PaintProc {0.5 setlinewidth pop 8 -2 M -4 4 L
	12 0 M -4 8 L 12 4 M 0 10 L stroke}
>> matrix makepattern
/Pat8 exch def
<< Tile8x8
 /PaintProc {0.5 setlinewidth pop 0 -2 M 12 4 L
	-4 0 M 12 8 L -4 4 M 8 10 L stroke}
>> matrix makepattern
/Pat9 exch def
/Pattern1 {PatternBgnd KeepColor Pat1 setpattern} bind def
/Pattern2 {PatternBgnd KeepColor Pat2 setpattern} bind def
/Pattern3 {PatternBgnd KeepColor Pat3 setpattern} bind def
/Pattern4 {PatternBgnd KeepColor Landscape {Pat5} {Pat4} ifelse setpattern} bind def
/Pattern5 {PatternBgnd KeepColor Landscape {Pat4} {Pat5} ifelse setpattern} bind def
/Pattern6 {PatternBgnd KeepColor Landscape {Pat9} {Pat6} ifelse setpattern} bind def
/Pattern7 {PatternBgnd KeepColor Landscape {Pat8} {Pat7} ifelse setpattern} bind def
} def
%
%
%End of PostScript Level 2 code
%
/PatternBgnd {
  TransparentPatterns {} {gsave 1 setgray fill grestore} ifelse
} def
%
% Substitute for Level 2 pattern fill codes with
% grayscale if Level 2 support is not selected.
%
/Level1PatternFill {
/Pattern1 {0.250 Density} bind def
/Pattern2 {0.500 Density} bind def
/Pattern3 {0.750 Density} bind def
/Pattern4 {0.125 Density} bind def
/Pattern5 {0.375 Density} bind def
/Pattern6 {0.625 Density} bind def
/Pattern7 {0.875 Density} bind def
} def
%
% Now test for support of Level 2 code
%
Level1 {Level1PatternFill} {Level2PatternFill} ifelse
%
/Symbol-Oblique /Symbol findfont [1 0 .167 1 0 0] makefont
dup length dict begin {1 index /FID eq {pop pop} {def} ifelse} forall
currentdict end definefont pop
/MFshow {
   { dup 5 get 3 ge
     { 5 get 3 eq {gsave} {grestore} ifelse }
     {dup dup 0 get findfont exch 1 get scalefont setfont
     [ currentpoint ] exch dup 2 get 0 exch R dup 5 get 2 ne {dup dup 6
     get exch 4 get {show} {stringwidth pop 0 R} ifelse }if dup 5 get 0 eq
     {dup 3 get {2 get neg 0 exch R pop} {pop aload pop M} ifelse} {dup 5
     get 1 eq {dup 2 get exch dup 3 get exch 6 get stringwidth pop -2 div
     dup 0 R} {dup 6 get stringwidth pop -2 div 0 R 6 get
     show 2 index {aload pop M neg 3 -1 roll neg R pop pop} {pop pop pop
     pop aload pop M} ifelse }ifelse }ifelse }
     ifelse }
   forall} bind def
/MFwidth {0 exch { dup 5 get 3 ge { 5 get 3 eq { 0 } { pop } ifelse }
 {dup 3 get{dup dup 0 get findfont exch 1 get scalefont setfont
     6 get stringwidth pop add} {pop} ifelse} ifelse} forall} bind def
/MLshow { currentpoint stroke M
  0 exch R
  Blacktext {gsave 0 setgray MFshow grestore} {MFshow} ifelse } bind def
/MRshow { currentpoint stroke M
  exch dup MFwidth neg 3 -1 roll R
  Blacktext {gsave 0 setgray MFshow grestore} {MFshow} ifelse } bind def
/MCshow { currentpoint stroke M
  exch dup MFwidth -2 div 3 -1 roll R
  Blacktext {gsave 0 setgray MFshow grestore} {MFshow} ifelse } bind def
/XYsave    { [( ) 1 2 true false 3 ()] } bind def
/XYrestore { [( ) 1 2 true false 4 ()] } bind def
end
%%EndProlog
gnudict begin
gsave
50 50 translate
0.050 0.050 scale
0 setgray
newpath
(Helvetica) findfont 260 scalefont setfont
1.000 UL
LTb
1430 832 M
63 0 V
5317 0 R
-63 0 V
stroke
1274 832 M
[ [(Helvetica) 260.0 0.0 true true 0 (10)]
[(Helvetica) 208.0 130.0 true true 0 (-4)]
] -112.7 MRshow
1.000 UL
LTb
1430 1324 M
31 0 V
5349 0 R
-31 0 V
1430 1612 M
31 0 V
5349 0 R
-31 0 V
1430 1816 M
31 0 V
5349 0 R
-31 0 V
1430 1975 M
31 0 V
5349 0 R
-31 0 V
1430 2104 M
31 0 V
5349 0 R
-31 0 V
1430 2213 M
31 0 V
5349 0 R
-31 0 V
-5349 95 R
31 0 V
5349 0 R
-31 0 V
-5349 84 R
31 0 V
5349 0 R
-31 0 V
-5349 75 R
63 0 V
5317 0 R
-63 0 V
stroke
1274 2467 M
[ [(Helvetica) 260.0 0.0 true true 0 (10)]
[(Helvetica) 208.0 130.0 true true 0 (-3)]
] -112.7 MRshow
1.000 UL
LTb
1430 2959 M
31 0 V
5349 0 R
-31 0 V
1430 3247 M
31 0 V
5349 0 R
-31 0 V
1430 3451 M
31 0 V
5349 0 R
-31 0 V
1430 3609 M
31 0 V
5349 0 R
-31 0 V
1430 3739 M
31 0 V
5349 0 R
-31 0 V
1430 3848 M
31 0 V
5349 0 R
-31 0 V
-5349 95 R
31 0 V
5349 0 R
-31 0 V
-5349 84 R
31 0 V
5349 0 R
-31 0 V
-5349 74 R
63 0 V
5317 0 R
-63 0 V
stroke
1274 4101 M
[ [(Helvetica) 260.0 0.0 true true 0 (10)]
[(Helvetica) 208.0 130.0 true true 0 (-2)]
] -112.7 MRshow
1.000 UL
LTb
1430 4593 M
31 0 V
5349 0 R
-31 0 V
1430 4881 M
31 0 V
5349 0 R
-31 0 V
1430 5086 M
31 0 V
5349 0 R
-31 0 V
1430 5244 M
31 0 V
5349 0 R
-31 0 V
1430 5373 M
31 0 V
5349 0 R
-31 0 V
1430 5483 M
31 0 V
5349 0 R
-31 0 V
-5349 95 R
31 0 V
5349 0 R
-31 0 V
-5349 83 R
31 0 V
5349 0 R
-31 0 V
-5349 75 R
63 0 V
5317 0 R
-63 0 V
stroke
1274 5736 M
[ [(Helvetica) 260.0 0.0 true true 0 (10)]
[(Helvetica) 208.0 130.0 true true 0 (-1)]
] -112.7 MRshow
1.000 UL
LTb
1430 832 M
0 31 V
0 4873 R
0 -31 V
1621 832 M
0 31 V
0 4873 R
0 -31 V
1769 832 M
0 31 V
0 4873 R
0 -31 V
1890 832 M
0 31 V
0 4873 R
0 -31 V
1992 832 M
0 31 V
0 4873 R
0 -31 V
2081 832 M
0 31 V
0 4873 R
0 -31 V
2159 832 M
0 31 V
0 4873 R
0 -31 V
2229 832 M
0 63 V
0 4841 R
0 -63 V
stroke
2229 572 M
[ [(Helvetica) 260.0 0.0 true true 0 (10)]
[(Helvetica) 208.0 130.0 true true 0 (4)]
] -112.7 MCshow
1.000 UL
LTb
2688 832 M
0 31 V
0 4873 R
0 -31 V
2957 832 M
0 31 V
0 4873 R
0 -31 V
3148 832 M
0 31 V
0 4873 R
0 -31 V
3296 832 M
0 31 V
0 4873 R
0 -31 V
3417 832 M
0 31 V
0 4873 R
0 -31 V
3519 832 M
0 31 V
0 4873 R
0 -31 V
3608 832 M
0 31 V
0 4873 R
0 -31 V
3686 832 M
0 31 V
0 4873 R
0 -31 V
3756 832 M
0 63 V
0 4841 R
0 -63 V
stroke
3756 572 M
[ [(Helvetica) 260.0 0.0 true true 0 (10)]
[(Helvetica) 208.0 130.0 true true 0 (5)]
] -112.7 MCshow
1.000 UL
LTb
4215 832 M
0 31 V
0 4873 R
0 -31 V
4484 832 M
0 31 V
0 4873 R
0 -31 V
4675 832 M
0 31 V
0 4873 R
0 -31 V
4823 832 M
0 31 V
0 4873 R
0 -31 V
4944 832 M
0 31 V
0 4873 R
0 -31 V
5046 832 M
0 31 V
0 4873 R
0 -31 V
5135 832 M
0 31 V
0 4873 R
0 -31 V
5213 832 M
0 31 V
0 4873 R
0 -31 V
5283 832 M
0 63 V
0 4841 R
0 -63 V
stroke
5283 572 M
[ [(Helvetica) 260.0 0.0 true true 0 (10)]
[(Helvetica) 208.0 130.0 true true 0 (6)]
] -112.7 MCshow
1.000 UL
LTb
5743 832 M
0 31 V
0 4873 R
0 -31 V
6011 832 M
0 31 V
0 4873 R
0 -31 V
6202 832 M
0 31 V
0 4873 R
0 -31 V
6350 832 M
0 31 V
0 4873 R
0 -31 V
6471 832 M
0 31 V
0 4873 R
0 -31 V
6573 832 M
0 31 V
0 4873 R
0 -31 V
6662 832 M
0 31 V
0 4873 R
0 -31 V
6740 832 M
0 31 V
0 4873 R
0 -31 V
6810 832 M
0 63 V
0 4841 R
0 -63 V
stroke
6810 572 M
[ [(Helvetica) 260.0 0.0 true true 0 (10)]
[(Helvetica) 208.0 130.0 true true 0 (7)]
] -112.7 MCshow
1.000 UL
LTb
1.000 UL
LTb
1430 5736 N
0 -4904 V
5380 0 V
0 4904 V
-5380 0 V
Z stroke
LCb setrgbcolor
520 3284 M
currentpoint gsave translate 90 rotate 0 0 moveto
[ [(Helvetica) 260.0 0.0 true true 0 (c/c)]
[(Helvetica) 208.0 -78.0 true true 0 (inj)]
] -60.7 MCshow
grestore
LTb
LCb setrgbcolor
4120 182 M
[ [(Helvetica) 260.0 0.0 true true 0 (t \(seconds\))]
] -86.7 MCshow
LTb
1.000 UP
1538 5491 M
[ [(Helvetica) 260.0 0.0 true true 0 (\(b\) test B7)]
] -86.7 MLshow
1.000 UL
LTb
1.300 UP
1.000 UL
LT0
LTb
5967 5517 M
[ [(Helvetica) 260.0 0.0 true true 0 (data)]
] -86.7 MRshow
LT0
1931 1905 Circle
2032 1762 Circle
2120 1633 Circle
2266 1722 Circle
2331 1679 Circle
2390 2254 Circle
2444 2364 Circle
2495 2605 Circle
2542 2812 Circle
2586 3085 Circle
2626 3309 Circle
2665 3457 Circle
2702 3653 Circle
2737 3794 Circle
2771 3897 Circle
2802 3966 Circle
2833 4078 Circle
2861 4141 Circle
2889 4191 Circle
2916 4246 Circle
2942 4296 Circle
2967 4325 Circle
2990 4398 Circle
3013 4388 Circle
3035 4448 Circle
3057 4451 Circle
3078 4483 Circle
3098 4483 Circle
3127 4467 Circle
3182 4516 Circle
3208 4532 Circle
3233 4548 Circle
3257 4548 Circle
3279 4548 Circle
3302 4532 Circle
3323 4532 Circle
3344 4524 Circle
3364 4516 Circle
3384 4500 Circle
3403 4480 Circle
3421 4463 Circle
3440 4431 Circle
3475 4410 Circle
3492 4390 Circle
3508 4347 Circle
3524 4339 Circle
3540 4328 Circle
3555 4315 Circle
3570 4276 Circle
3585 4247 Circle
3599 4243 Circle
3613 4220 Circle
3626 4198 Circle
3640 4182 Circle
3653 4154 Circle
3666 4150 Circle
3679 4117 Circle
3691 4090 Circle
3703 4077 Circle
3715 4069 Circle
3738 4000 Circle
3749 4010 Circle
3760 3992 Circle
3771 3973 Circle
3782 3929 Circle
3793 3931 Circle
3803 3912 Circle
3814 3879 Circle
3824 3863 Circle
3834 3838 Circle
3844 3849 Circle
3853 3836 Circle
3863 3801 Circle
3872 3785 Circle
3881 3788 Circle
3890 3738 Circle
3899 3716 Circle
3908 3733 Circle
3917 3703 Circle
3926 3718 Circle
3934 3695 Circle
3943 3658 Circle
3951 3650 Circle
3959 3650 Circle
3967 3613 Circle
3990 3571 Circle
3997 3592 Circle
4005 3530 Circle
4013 3539 Circle
4020 3552 Circle
4028 3517 Circle
4035 3517 Circle
4042 3482 Circle
4050 3493 Circle
4057 3457 Circle
4064 3439 Circle
4071 3450 Circle
4078 3450 Circle
4083 3432 Circle
4089 3439 Circle
4096 3424 Circle
4103 3428 Circle
4109 3413 Circle
4122 3405 Circle
4128 3352 Circle
4134 3361 Circle
4141 3340 Circle
4147 3348 Circle
4153 3340 Circle
4159 3322 Circle
4165 3286 Circle
4171 3286 Circle
4177 3258 Circle
4183 3272 Circle
4189 3248 Circle
4195 3234 Circle
4206 3214 Circle
4217 3214 Circle
4223 3193 Circle
4228 3171 Circle
4239 3171 Circle
4244 3171 Circle
4250 3171 Circle
4255 3138 Circle
4260 3155 Circle
4265 3121 Circle
4270 3121 Circle
4276 3109 Circle
4281 3073 Circle
4286 3079 Circle
4291 3085 Circle
4296 3060 Circle
4301 3060 Circle
4305 3079 Circle
4316 3085 Circle
4321 3021 Circle
4348 3021 Circle
4369 2973 Circle
4385 3001 Circle
4389 2965 Circle
4409 2987 Circle
4414 2980 Circle
4419 3021 Circle
4424 2987 Circle
4442 3001 Circle
4447 2951 Circle
4451 3008 Circle
4465 2928 Circle
4500 2839 Circle
4530 2766 Circle
4534 2785 Circle
4539 2716 Circle
4547 2706 Circle
4550 2695 Circle
4554 2629 Circle
4558 2652 Circle
4562 2652 Circle
4565 2640 Circle
4569 2605 Circle
4576 2629 Circle
4579 2617 Circle
4586 2542 Circle
4590 2593 Circle
4593 2593 Circle
4597 2542 Circle
4600 2581 Circle
4607 2542 Circle
4611 2542 Circle
4614 2529 Circle
4617 2529 Circle
4621 2488 Circle
4624 2473 Circle
4627 2473 Circle
4631 2473 Circle
4641 2488 Circle
4644 2428 Circle
4647 2413 Circle
4650 2428 Circle
4654 2397 Circle
4657 2413 Circle
4660 2381 Circle
4663 2347 Circle
4667 2397 Circle
4673 2397 Circle
4676 2274 Circle
4679 2234 Circle
4682 2311 Circle
4686 2254 Circle
4689 2254 Circle
4692 2234 Circle
4695 2254 Circle
4698 2148 Circle
4701 2171 Circle
4704 2254 Circle
4714 2076 Circle
4716 2076 Circle
4719 2050 Circle
4721 1837 Circle
4724 2050 Circle
4729 1936 Circle
4731 1936 Circle
4737 1996 Circle
4739 2023 Circle
4742 1905 Circle
4744 1762 Circle
4747 1762 Circle
4749 1996 Circle
4752 1996 Circle
4754 2050 Circle
4756 2050 Circle
4759 2101 Circle
4761 2171 Circle
4764 1936 Circle
4768 2125 Circle
4771 2193 Circle
4776 1996 Circle
4778 1872 Circle
4780 2023 Circle
4783 2148 Circle
4785 2050 Circle
4788 1967 Circle
4790 1801 Circle
4792 1679 Circle
4795 1905 Circle
4797 1801 Circle
4799 1679 Circle
4802 1837 Circle
4804 2293 Circle
4806 1722 Circle
4808 1475 Circle
4811 1584 Circle
4813 2050 Circle
4815 1584 Circle
4817 1679 Circle
4819 1187 Circle
4821 1187 Circle
4824 1584 Circle
4826 1187 Circle
4828 1187 Circle
4830 853 Circle
4832 1413 Circle
4837 1345 Circle
4839 1270 Circle
4843 853 Circle
4856 853 Circle
4860 982 Circle
4866 1092 Circle
4868 1187 Circle
4872 982 Circle
6310 5517 Circle
3.000 UL
LT0
LTb
5967 5205 M
[ [(Helvetica) 260.0 0.0 true true 0 (single porosity)]
] -86.7 MRshow
LT0
6123 5205 M
375 0 V
1430 1612 M
22 0 V
21 0 V
20 0 V
20 0 V
19 0 V
19 0 V
18 0 V
18 0 V
17 0 V
17 0 V
16 0 V
16 0 V
16 0 V
15 0 V
15 0 V
14 0 V
15 0 V
14 0 V
13 0 V
14 0 V
13 0 V
13 0 V
12 2 V
13 0 V
12 0 V
12 0 V
12 0 V
11 3 V
12 0 V
11 0 V
11 2 V
10 2 V
11 0 V
11 3 V
10 2 V
10 2 V
10 5 V
10 2 V
9 5 V
10 4 V
9 5 V
10 4 V
9 7 V
9 7 V
9 6 V
9 9 V
8 8 V
9 9 V
8 10 V
9 10 V
8 12 V
8 12 V
8 14 V
8 13 V
8 15 V
7 17 V
8 16 V
8 16 V
7 17 V
8 18 V
7 20 V
7 19 V
7 20 V
7 21 V
7 21 V
7 21 V
7 24 V
7 22 V
7 23 V
7 22 V
63 244 V
57 243 V
54 226 V
49 203 V
45 180 V
43 157 V
40 138 V
38 121 V
36 106 V
34 94 V
33 82 V
30 74 V
30 64 V
28 58 V
27 51 V
26 46 V
25 40 V
24 36 V
24 33 V
22 28 V
22 26 V
21 23 V
20 20 V
20 18 V
19 15 V
19 14 V
18 12 V
18 11 V
17 9 V
17 7 V
16 7 V
16 5 V
stroke 3180 4473 M
16 4 V
15 4 V
15 2 V
15 2 V
14 0 V
14 0 V
14 0 V
13 -2 V
13 -1 V
13 -3 V
13 -3 V
12 -3 V
12 -4 V
12 -4 V
12 -5 V
11 -5 V
12 -5 V
11 -6 V
11 -6 V
11 -6 V
10 -6 V
11 -7 V
10 -7 V
10 -7 V
10 -8 V
10 -8 V
10 -7 V
9 -8 V
10 -9 V
9 -8 V
9 -9 V
9 -8 V
9 -9 V
9 -9 V
8 -9 V
9 -10 V
8 -9 V
9 -9 V
8 -10 V
8 -10 V
8 -9 V
8 -10 V
8 -10 V
8 -10 V
7 -10 V
8 -10 V
7 -11 V
8 -10 V
7 -10 V
7 -11 V
8 -10 V
7 -11 V
7 -10 V
7 -11 V
6 -11 V
7 -10 V
7 -11 V
7 -11 V
63 -110 V
58 -112 V
53 -114 V
49 -115 V
46 -115 V
42 -116 V
41 -115 V
38 -115 V
35 -114 V
34 -114 V
33 -114 V
31 -113 V
29 -113 V
28 -112 V
27 -112 V
26 -111 V
25 -111 V
25 -109 V
23 -110 V
22 -111 V
22 -108 V
21 -108 V
21 -108 V
19 -107 V
20 -108 V
18 -105 V
18 -108 V
18 -104 V
17 -107 V
5 -28 V
stroke
LT6
LTb
5967 4893 M
[ [(Helvetica) 260.0 0.0 true true 0 (double porosity)]
] -86.7 MRshow
LT6
6123 4893 M
375 0 V
1430 1612 M
22 0 V
21 0 V
20 0 V
20 0 V
19 0 V
19 0 V
18 0 V
18 0 V
17 0 V
17 0 V
16 0 V
16 0 V
16 0 V
15 0 V
15 0 V
14 0 V
15 0 V
14 0 V
13 0 V
14 0 V
13 0 V
13 0 V
12 0 V
13 0 V
12 0 V
12 0 V
12 0 V
11 0 V
12 0 V
11 0 V
11 0 V
10 0 V
11 0 V
11 0 V
10 0 V
10 0 V
10 2 V
10 0 V
9 0 V
10 0 V
9 0 V
10 3 V
9 0 V
9 0 V
9 2 V
9 0 V
8 2 V
9 0 V
8 3 V
9 2 V
8 2 V
8 3 V
8 2 V
8 2 V
8 5 V
7 2 V
8 5 V
8 4 V
7 5 V
8 6 V
7 7 V
7 6 V
7 7 V
7 6 V
7 9 V
7 8 V
7 10 V
7 10 V
7 10 V
7 12 V
63 146 V
57 203 V
54 229 V
49 234 V
45 223 V
43 204 V
40 184 V
38 164 V
36 145 V
34 129 V
33 114 V
30 101 V
30 89 V
28 80 V
27 70 V
26 63 V
25 56 V
24 49 V
24 44 V
22 40 V
22 34 V
21 31 V
20 27 V
20 23 V
19 21 V
19 18 V
18 15 V
18 13 V
17 12 V
17 9 V
16 7 V
16 6 V
stroke 3180 4530 M
16 5 V
15 3 V
15 2 V
15 0 V
14 0 V
14 -2 V
14 -2 V
13 -3 V
13 -4 V
13 -5 V
13 -5 V
12 -6 V
12 -7 V
12 -7 V
12 -7 V
11 -8 V
12 -9 V
11 -9 V
11 -9 V
11 -10 V
10 -10 V
11 -10 V
10 -10 V
10 -11 V
10 -11 V
10 -11 V
10 -12 V
9 -12 V
10 -11 V
9 -12 V
9 -12 V
9 -12 V
9 -13 V
9 -12 V
8 -13 V
9 -12 V
8 -13 V
9 -12 V
8 -13 V
8 -13 V
8 -13 V
8 -12 V
8 -13 V
8 -13 V
7 -13 V
8 -13 V
7 -12 V
8 -13 V
7 -13 V
7 -13 V
8 -12 V
7 -13 V
7 -12 V
7 -13 V
6 -12 V
7 -13 V
7 -12 V
7 -12 V
63 -119 V
58 -109 V
53 -98 V
49 -87 V
46 -78 V
42 -68 V
41 -61 V
38 -55 V
35 -49 V
34 -45 V
33 -42 V
31 -39 V
29 -37 V
28 -36 V
27 -35 V
26 -34 V
25 -33 V
25 -32 V
23 -33 V
22 -32 V
22 -32 V
21 -32 V
21 -32 V
19 -31 V
20 -32 V
18 -32 V
18 -31 V
18 -32 V
17 -31 V
17 -32 V
16 -32 V
16 -32 V
16 -31 V
15 -32 V
15 -32 V
15 -32 V
14 -32 V
14 -32 V
14 -31 V
13 -32 V
13 -33 V
13 -32 V
13 -31 V
12 -33 V
12 -31 V
12 -34 V
stroke 4898 2034 M
12 -32 V
12 -32 V
11 -32 V
11 -32 V
11 -32 V
11 -32 V
10 -33 V
11 -33 V
10 -31 V
10 -34 V
10 -31 V
10 -33 V
10 -33 V
9 -31 V
10 -33 V
9 -32 V
9 -33 V
9 -31 V
9 -34 V
9 -31 V
8 -34 V
9 -34 V
9 -33 V
8 -31 V
8 -32 V
8 -33 V
8 -35 V
8 -32 V
8 -34 V
8 -30 V
7 -32 V
8 -33 V
8 -35 V
7 -30 V
7 -38 V
8 -33 V
7 -28 V
stroke
8.000 UL
LT0
LTb
5967 4581 M
[ [(Helvetica) 260.0 0.0 true true 0 (multirate lognormal)]
] -86.7 MRshow
LT0
6123 4581 M
375 0 V
1430 1612 M
22 0 V
21 0 V
20 0 V
20 0 V
19 0 V
19 0 V
18 0 V
18 0 V
17 0 V
17 0 V
16 0 V
16 0 V
16 0 V
15 0 V
15 0 V
14 0 V
15 0 V
14 0 V
13 0 V
14 0 V
13 0 V
13 0 V
12 0 V
13 0 V
12 0 V
12 0 V
12 0 V
11 0 V
12 0 V
11 0 V
11 0 V
10 0 V
11 0 V
11 0 V
10 0 V
10 0 V
10 0 V
10 0 V
9 0 V
10 2 V
9 0 V
10 0 V
9 0 V
9 0 V
9 0 V
9 3 V
8 0 V
9 0 V
8 2 V
9 0 V
8 2 V
8 3 V
8 0 V
8 2 V
8 2 V
7 3 V
8 4 V
8 2 V
7 5 V
8 2 V
7 5 V
7 4 V
7 7 V
7 4 V
7 7 V
7 6 V
7 7 V
7 8 V
7 9 V
7 8 V
63 125 V
57 183 V
54 223 V
49 237 V
45 230 V
43 213 V
40 195 V
38 173 V
36 154 V
34 137 V
33 121 V
30 107 V
30 94 V
28 84 V
27 75 V
26 65 V
25 59 V
24 51 V
24 46 V
22 40 V
22 36 V
21 31 V
20 28 V
20 23 V
19 21 V
19 18 V
18 15 V
18 13 V
17 11 V
17 8 V
16 7 V
16 5 V
stroke 3180 4537 M
16 4 V
15 2 V
15 1 V
15 0 V
14 -1 V
14 -3 V
14 -3 V
13 -4 V
13 -5 V
13 -5 V
13 -6 V
12 -7 V
12 -7 V
12 -8 V
12 -9 V
11 -8 V
12 -9 V
11 -10 V
11 -10 V
11 -10 V
10 -10 V
11 -11 V
10 -11 V
10 -11 V
10 -11 V
10 -12 V
10 -11 V
9 -12 V
10 -12 V
9 -12 V
9 -12 V
9 -12 V
9 -12 V
9 -12 V
8 -12 V
9 -12 V
8 -12 V
9 -13 V
8 -12 V
8 -12 V
8 -12 V
8 -13 V
8 -12 V
8 -12 V
7 -12 V
8 -12 V
7 -12 V
8 -12 V
7 -12 V
7 -12 V
8 -12 V
7 -11 V
7 -12 V
7 -12 V
6 -11 V
7 -12 V
7 -11 V
7 -11 V
63 -108 V
58 -100 V
53 -91 V
49 -84 V
46 -77 V
42 -72 V
41 -67 V
38 -63 V
35 -60 V
34 -57 V
33 -54 V
31 -52 V
29 -51 V
28 -50 V
27 -47 V
26 -47 V
25 -45 V
25 -45 V
23 -43 V
22 -43 V
22 -42 V
21 -41 V
21 -41 V
19 -39 V
20 -40 V
18 -38 V
18 -38 V
18 -38 V
17 -37 V
17 -37 V
16 -36 V
16 -35 V
16 -36 V
15 -35 V
15 -35 V
15 -33 V
14 -35 V
14 -32 V
14 -34 V
13 -32 V
13 -32 V
13 -32 V
13 -32 V
12 -32 V
12 -30 V
12 -31 V
stroke 4898 1813 M
12 -31 V
12 -31 V
11 -30 V
11 -29 V
11 -30 V
11 -29 V
10 -28 V
11 -29 V
10 -28 V
10 -30 V
10 -27 V
10 -29 V
10 -26 V
9 -28 V
10 -29 V
9 -27 V
9 -24 V
9 -29 V
9 -26 V
9 -28 V
8 -24 V
9 -25 V
9 -26 V
8 -27 V
8 -23 V
8 -29 V
8 -25 V
8 -21 V
8 -27 V
8 -22 V
7 -29 V
8 -24 V
8 -24 V
7 -26 V
7 -20 V
8 -27 V
4 -14 V
stroke
1.000 UL
LTb
1430 5736 N
0 -4904 V
5380 0 V
0 4904 V
-5380 0 V
Z stroke
1.000 UP
1.000 UL
LTb
stroke
grestore
end
showpage
%%Trailer
%%DocumentFonts: Helvetica
