%!PS-Adobe-2.0 EPSF-2.0
%%Title: B7_NaU.eps
%%Creator: gnuplot 4.4 patchlevel 4
%%CreationDate: Fri Jul  6 14:43:27 2012
%%DocumentFonts: (atend)
%%BoundingBox: 50 50 410 352
%%EndComments
%%BeginProlog
/gnudict 256 dict def
gnudict begin
%
% The following true/false flags may be edited by hand if desired.
% The unit line width and grayscale image gamma correction may also be changed.
%
/Color false def
/Blacktext false def
/Solid false def
/Dashlength 1 def
/Landscape false def
/Level1 false def
/Rounded false def
/ClipToBoundingBox false def
/TransparentPatterns false def
/gnulinewidth 5.000 def
/userlinewidth gnulinewidth def
/Gamma 1.0 def
%
/vshift -86 def
/dl1 {
  10.0 Dashlength mul mul
  Rounded { currentlinewidth 0.75 mul sub dup 0 le { pop 0.01 } if } if
} def
/dl2 {
  10.0 Dashlength mul mul
  Rounded { currentlinewidth 0.75 mul add } if
} def
/hpt_ 31.5 def
/vpt_ 31.5 def
/hpt hpt_ def
/vpt vpt_ def
Level1 {} {
/SDict 10 dict def
systemdict /pdfmark known not {
  userdict /pdfmark systemdict /cleartomark get put
} if
SDict begin [
  /Title (B7_NaU.eps)
  /Subject (gnuplot plot)
  /Creator (gnuplot 4.4 patchlevel 4)
  /Author (bmalama)
%  /Producer (gnuplot)
%  /Keywords ()
  /CreationDate (Fri Jul  6 14:43:27 2012)
  /DOCINFO pdfmark
end
} ifelse
/doclip {
  ClipToBoundingBox {
    newpath 50 50 moveto 410 50 lineto 410 352 lineto 50 352 lineto closepath
    clip
  } if
} def
%
% Gnuplot Prolog Version 4.4 (August 2010)
%
%/SuppressPDFMark true def
%
/M {moveto} bind def
/L {lineto} bind def
/R {rmoveto} bind def
/V {rlineto} bind def
/N {newpath moveto} bind def
/Z {closepath} bind def
/C {setrgbcolor} bind def
/f {rlineto fill} bind def
/g {setgray} bind def
/Gshow {show} def   % May be redefined later in the file to support UTF-8
/vpt2 vpt 2 mul def
/hpt2 hpt 2 mul def
/Lshow {currentpoint stroke M 0 vshift R 
	Blacktext {gsave 0 setgray show grestore} {show} ifelse} def
/Rshow {currentpoint stroke M dup stringwidth pop neg vshift R
	Blacktext {gsave 0 setgray show grestore} {show} ifelse} def
/Cshow {currentpoint stroke M dup stringwidth pop -2 div vshift R 
	Blacktext {gsave 0 setgray show grestore} {show} ifelse} def
/UP {dup vpt_ mul /vpt exch def hpt_ mul /hpt exch def
  /hpt2 hpt 2 mul def /vpt2 vpt 2 mul def} def
/DL {Color {setrgbcolor Solid {pop []} if 0 setdash}
 {pop pop pop 0 setgray Solid {pop []} if 0 setdash} ifelse} def
/BL {stroke userlinewidth 2 mul setlinewidth
	Rounded {1 setlinejoin 1 setlinecap} if} def
/AL {stroke userlinewidth 2 div setlinewidth
	Rounded {1 setlinejoin 1 setlinecap} if} def
/UL {dup gnulinewidth mul /userlinewidth exch def
	dup 1 lt {pop 1} if 10 mul /udl exch def} def
/PL {stroke userlinewidth setlinewidth
	Rounded {1 setlinejoin 1 setlinecap} if} def
3.8 setmiterlimit
% Default Line colors
/LCw {1 1 1} def
/LCb {0 0 0} def
/LCa {0 0 0} def
/LC0 {1 0 0} def
/LC1 {0 1 0} def
/LC2 {0 0 1} def
/LC3 {1 0 1} def
/LC4 {0 1 1} def
/LC5 {1 1 0} def
/LC6 {0 0 0} def
/LC7 {1 0.3 0} def
/LC8 {0.5 0.5 0.5} def
% Default Line Types
/LTw {PL [] 1 setgray} def
/LTb {BL [] LCb DL} def
/LTa {AL [1 udl mul 2 udl mul] 0 setdash LCa setrgbcolor} def
/LT0 {PL [] LC0 DL} def
/LT1 {PL [4 dl1 2 dl2] LC1 DL} def
/LT2 {PL [2 dl1 3 dl2] LC2 DL} def
/LT3 {PL [1 dl1 1.5 dl2] LC3 DL} def
/LT4 {PL [6 dl1 2 dl2 1 dl1 2 dl2] LC4 DL} def
/LT5 {PL [3 dl1 3 dl2 1 dl1 3 dl2] LC5 DL} def
/LT6 {PL [2 dl1 2 dl2 2 dl1 6 dl2] LC6 DL} def
/LT7 {PL [1 dl1 2 dl2 6 dl1 2 dl2 1 dl1 2 dl2] LC7 DL} def
/LT8 {PL [2 dl1 2 dl2 2 dl1 2 dl2 2 dl1 2 dl2 2 dl1 4 dl2] LC8 DL} def
/Pnt {stroke [] 0 setdash gsave 1 setlinecap M 0 0 V stroke grestore} def
/Dia {stroke [] 0 setdash 2 copy vpt add M
  hpt neg vpt neg V hpt vpt neg V
  hpt vpt V hpt neg vpt V closepath stroke
  Pnt} def
/Pls {stroke [] 0 setdash vpt sub M 0 vpt2 V
  currentpoint stroke M
  hpt neg vpt neg R hpt2 0 V stroke
 } def
/Box {stroke [] 0 setdash 2 copy exch hpt sub exch vpt add M
  0 vpt2 neg V hpt2 0 V 0 vpt2 V
  hpt2 neg 0 V closepath stroke
  Pnt} def
/Crs {stroke [] 0 setdash exch hpt sub exch vpt add M
  hpt2 vpt2 neg V currentpoint stroke M
  hpt2 neg 0 R hpt2 vpt2 V stroke} def
/TriU {stroke [] 0 setdash 2 copy vpt 1.12 mul add M
  hpt neg vpt -1.62 mul V
  hpt 2 mul 0 V
  hpt neg vpt 1.62 mul V closepath stroke
  Pnt} def
/Star {2 copy Pls Crs} def
/BoxF {stroke [] 0 setdash exch hpt sub exch vpt add M
  0 vpt2 neg V hpt2 0 V 0 vpt2 V
  hpt2 neg 0 V closepath fill} def
/TriUF {stroke [] 0 setdash vpt 1.12 mul add M
  hpt neg vpt -1.62 mul V
  hpt 2 mul 0 V
  hpt neg vpt 1.62 mul V closepath fill} def
/TriD {stroke [] 0 setdash 2 copy vpt 1.12 mul sub M
  hpt neg vpt 1.62 mul V
  hpt 2 mul 0 V
  hpt neg vpt -1.62 mul V closepath stroke
  Pnt} def
/TriDF {stroke [] 0 setdash vpt 1.12 mul sub M
  hpt neg vpt 1.62 mul V
  hpt 2 mul 0 V
  hpt neg vpt -1.62 mul V closepath fill} def
/DiaF {stroke [] 0 setdash vpt add M
  hpt neg vpt neg V hpt vpt neg V
  hpt vpt V hpt neg vpt V closepath fill} def
/Pent {stroke [] 0 setdash 2 copy gsave
  translate 0 hpt M 4 {72 rotate 0 hpt L} repeat
  closepath stroke grestore Pnt} def
/PentF {stroke [] 0 setdash gsave
  translate 0 hpt M 4 {72 rotate 0 hpt L} repeat
  closepath fill grestore} def
/Circle {stroke [] 0 setdash 2 copy
  hpt 0 360 arc stroke Pnt} def
/CircleF {stroke [] 0 setdash hpt 0 360 arc fill} def
/C0 {BL [] 0 setdash 2 copy moveto vpt 90 450 arc} bind def
/C1 {BL [] 0 setdash 2 copy moveto
	2 copy vpt 0 90 arc closepath fill
	vpt 0 360 arc closepath} bind def
/C2 {BL [] 0 setdash 2 copy moveto
	2 copy vpt 90 180 arc closepath fill
	vpt 0 360 arc closepath} bind def
/C3 {BL [] 0 setdash 2 copy moveto
	2 copy vpt 0 180 arc closepath fill
	vpt 0 360 arc closepath} bind def
/C4 {BL [] 0 setdash 2 copy moveto
	2 copy vpt 180 270 arc closepath fill
	vpt 0 360 arc closepath} bind def
/C5 {BL [] 0 setdash 2 copy moveto
	2 copy vpt 0 90 arc
	2 copy moveto
	2 copy vpt 180 270 arc closepath fill
	vpt 0 360 arc} bind def
/C6 {BL [] 0 setdash 2 copy moveto
	2 copy vpt 90 270 arc closepath fill
	vpt 0 360 arc closepath} bind def
/C7 {BL [] 0 setdash 2 copy moveto
	2 copy vpt 0 270 arc closepath fill
	vpt 0 360 arc closepath} bind def
/C8 {BL [] 0 setdash 2 copy moveto
	2 copy vpt 270 360 arc closepath fill
	vpt 0 360 arc closepath} bind def
/C9 {BL [] 0 setdash 2 copy moveto
	2 copy vpt 270 450 arc closepath fill
	vpt 0 360 arc closepath} bind def
/C10 {BL [] 0 setdash 2 copy 2 copy moveto vpt 270 360 arc closepath fill
	2 copy moveto
	2 copy vpt 90 180 arc closepath fill
	vpt 0 360 arc closepath} bind def
/C11 {BL [] 0 setdash 2 copy moveto
	2 copy vpt 0 180 arc closepath fill
	2 copy moveto
	2 copy vpt 270 360 arc closepath fill
	vpt 0 360 arc closepath} bind def
/C12 {BL [] 0 setdash 2 copy moveto
	2 copy vpt 180 360 arc closepath fill
	vpt 0 360 arc closepath} bind def
/C13 {BL [] 0 setdash 2 copy moveto
	2 copy vpt 0 90 arc closepath fill
	2 copy moveto
	2 copy vpt 180 360 arc closepath fill
	vpt 0 360 arc closepath} bind def
/C14 {BL [] 0 setdash 2 copy moveto
	2 copy vpt 90 360 arc closepath fill
	vpt 0 360 arc} bind def
/C15 {BL [] 0 setdash 2 copy vpt 0 360 arc closepath fill
	vpt 0 360 arc closepath} bind def
/Rec {newpath 4 2 roll moveto 1 index 0 rlineto 0 exch rlineto
	neg 0 rlineto closepath} bind def
/Square {dup Rec} bind def
/Bsquare {vpt sub exch vpt sub exch vpt2 Square} bind def
/S0 {BL [] 0 setdash 2 copy moveto 0 vpt rlineto BL Bsquare} bind def
/S1 {BL [] 0 setdash 2 copy vpt Square fill Bsquare} bind def
/S2 {BL [] 0 setdash 2 copy exch vpt sub exch vpt Square fill Bsquare} bind def
/S3 {BL [] 0 setdash 2 copy exch vpt sub exch vpt2 vpt Rec fill Bsquare} bind def
/S4 {BL [] 0 setdash 2 copy exch vpt sub exch vpt sub vpt Square fill Bsquare} bind def
/S5 {BL [] 0 setdash 2 copy 2 copy vpt Square fill
	exch vpt sub exch vpt sub vpt Square fill Bsquare} bind def
/S6 {BL [] 0 setdash 2 copy exch vpt sub exch vpt sub vpt vpt2 Rec fill Bsquare} bind def
/S7 {BL [] 0 setdash 2 copy exch vpt sub exch vpt sub vpt vpt2 Rec fill
	2 copy vpt Square fill Bsquare} bind def
/S8 {BL [] 0 setdash 2 copy vpt sub vpt Square fill Bsquare} bind def
/S9 {BL [] 0 setdash 2 copy vpt sub vpt vpt2 Rec fill Bsquare} bind def
/S10 {BL [] 0 setdash 2 copy vpt sub vpt Square fill 2 copy exch vpt sub exch vpt Square fill
	Bsquare} bind def
/S11 {BL [] 0 setdash 2 copy vpt sub vpt Square fill 2 copy exch vpt sub exch vpt2 vpt Rec fill
	Bsquare} bind def
/S12 {BL [] 0 setdash 2 copy exch vpt sub exch vpt sub vpt2 vpt Rec fill Bsquare} bind def
/S13 {BL [] 0 setdash 2 copy exch vpt sub exch vpt sub vpt2 vpt Rec fill
	2 copy vpt Square fill Bsquare} bind def
/S14 {BL [] 0 setdash 2 copy exch vpt sub exch vpt sub vpt2 vpt Rec fill
	2 copy exch vpt sub exch vpt Square fill Bsquare} bind def
/S15 {BL [] 0 setdash 2 copy Bsquare fill Bsquare} bind def
/D0 {gsave translate 45 rotate 0 0 S0 stroke grestore} bind def
/D1 {gsave translate 45 rotate 0 0 S1 stroke grestore} bind def
/D2 {gsave translate 45 rotate 0 0 S2 stroke grestore} bind def
/D3 {gsave translate 45 rotate 0 0 S3 stroke grestore} bind def
/D4 {gsave translate 45 rotate 0 0 S4 stroke grestore} bind def
/D5 {gsave translate 45 rotate 0 0 S5 stroke grestore} bind def
/D6 {gsave translate 45 rotate 0 0 S6 stroke grestore} bind def
/D7 {gsave translate 45 rotate 0 0 S7 stroke grestore} bind def
/D8 {gsave translate 45 rotate 0 0 S8 stroke grestore} bind def
/D9 {gsave translate 45 rotate 0 0 S9 stroke grestore} bind def
/D10 {gsave translate 45 rotate 0 0 S10 stroke grestore} bind def
/D11 {gsave translate 45 rotate 0 0 S11 stroke grestore} bind def
/D12 {gsave translate 45 rotate 0 0 S12 stroke grestore} bind def
/D13 {gsave translate 45 rotate 0 0 S13 stroke grestore} bind def
/D14 {gsave translate 45 rotate 0 0 S14 stroke grestore} bind def
/D15 {gsave translate 45 rotate 0 0 S15 stroke grestore} bind def
/DiaE {stroke [] 0 setdash vpt add M
  hpt neg vpt neg V hpt vpt neg V
  hpt vpt V hpt neg vpt V closepath stroke} def
/BoxE {stroke [] 0 setdash exch hpt sub exch vpt add M
  0 vpt2 neg V hpt2 0 V 0 vpt2 V
  hpt2 neg 0 V closepath stroke} def
/TriUE {stroke [] 0 setdash vpt 1.12 mul add M
  hpt neg vpt -1.62 mul V
  hpt 2 mul 0 V
  hpt neg vpt 1.62 mul V closepath stroke} def
/TriDE {stroke [] 0 setdash vpt 1.12 mul sub M
  hpt neg vpt 1.62 mul V
  hpt 2 mul 0 V
  hpt neg vpt -1.62 mul V closepath stroke} def
/PentE {stroke [] 0 setdash gsave
  translate 0 hpt M 4 {72 rotate 0 hpt L} repeat
  closepath stroke grestore} def
/CircE {stroke [] 0 setdash 
  hpt 0 360 arc stroke} def
/Opaque {gsave closepath 1 setgray fill grestore 0 setgray closepath} def
/DiaW {stroke [] 0 setdash vpt add M
  hpt neg vpt neg V hpt vpt neg V
  hpt vpt V hpt neg vpt V Opaque stroke} def
/BoxW {stroke [] 0 setdash exch hpt sub exch vpt add M
  0 vpt2 neg V hpt2 0 V 0 vpt2 V
  hpt2 neg 0 V Opaque stroke} def
/TriUW {stroke [] 0 setdash vpt 1.12 mul add M
  hpt neg vpt -1.62 mul V
  hpt 2 mul 0 V
  hpt neg vpt 1.62 mul V Opaque stroke} def
/TriDW {stroke [] 0 setdash vpt 1.12 mul sub M
  hpt neg vpt 1.62 mul V
  hpt 2 mul 0 V
  hpt neg vpt -1.62 mul V Opaque stroke} def
/PentW {stroke [] 0 setdash gsave
  translate 0 hpt M 4 {72 rotate 0 hpt L} repeat
  Opaque stroke grestore} def
/CircW {stroke [] 0 setdash 
  hpt 0 360 arc Opaque stroke} def
/BoxFill {gsave Rec 1 setgray fill grestore} def
/Density {
  /Fillden exch def
  currentrgbcolor
  /ColB exch def /ColG exch def /ColR exch def
  /ColR ColR Fillden mul Fillden sub 1 add def
  /ColG ColG Fillden mul Fillden sub 1 add def
  /ColB ColB Fillden mul Fillden sub 1 add def
  ColR ColG ColB setrgbcolor} def
/BoxColFill {gsave Rec PolyFill} def
/PolyFill {gsave Density fill grestore grestore} def
/h {rlineto rlineto rlineto gsave closepath fill grestore} bind def
%
% PostScript Level 1 Pattern Fill routine for rectangles
% Usage: x y w h s a XX PatternFill
%	x,y = lower left corner of box to be filled
%	w,h = width and height of box
%	  a = angle in degrees between lines and x-axis
%	 XX = 0/1 for no/yes cross-hatch
%
/PatternFill {gsave /PFa [ 9 2 roll ] def
  PFa 0 get PFa 2 get 2 div add PFa 1 get PFa 3 get 2 div add translate
  PFa 2 get -2 div PFa 3 get -2 div PFa 2 get PFa 3 get Rec
  gsave 1 setgray fill grestore clip
  currentlinewidth 0.5 mul setlinewidth
  /PFs PFa 2 get dup mul PFa 3 get dup mul add sqrt def
  0 0 M PFa 5 get rotate PFs -2 div dup translate
  0 1 PFs PFa 4 get div 1 add floor cvi
	{PFa 4 get mul 0 M 0 PFs V} for
  0 PFa 6 get ne {
	0 1 PFs PFa 4 get div 1 add floor cvi
	{PFa 4 get mul 0 2 1 roll M PFs 0 V} for
 } if
  stroke grestore} def
%
/languagelevel where
 {pop languagelevel} {1} ifelse
 2 lt
	{/InterpretLevel1 true def}
	{/InterpretLevel1 Level1 def}
 ifelse
%
% PostScript level 2 pattern fill definitions
%
/Level2PatternFill {
/Tile8x8 {/PaintType 2 /PatternType 1 /TilingType 1 /BBox [0 0 8 8] /XStep 8 /YStep 8}
	bind def
/KeepColor {currentrgbcolor [/Pattern /DeviceRGB] setcolorspace} bind def
<< Tile8x8
 /PaintProc {0.5 setlinewidth pop 0 0 M 8 8 L 0 8 M 8 0 L stroke} 
>> matrix makepattern
/Pat1 exch def
<< Tile8x8
 /PaintProc {0.5 setlinewidth pop 0 0 M 8 8 L 0 8 M 8 0 L stroke
	0 4 M 4 8 L 8 4 L 4 0 L 0 4 L stroke}
>> matrix makepattern
/Pat2 exch def
<< Tile8x8
 /PaintProc {0.5 setlinewidth pop 0 0 M 0 8 L
	8 8 L 8 0 L 0 0 L fill}
>> matrix makepattern
/Pat3 exch def
<< Tile8x8
 /PaintProc {0.5 setlinewidth pop -4 8 M 8 -4 L
	0 12 M 12 0 L stroke}
>> matrix makepattern
/Pat4 exch def
<< Tile8x8
 /PaintProc {0.5 setlinewidth pop -4 0 M 8 12 L
	0 -4 M 12 8 L stroke}
>> matrix makepattern
/Pat5 exch def
<< Tile8x8
 /PaintProc {0.5 setlinewidth pop -2 8 M 4 -4 L
	0 12 M 8 -4 L 4 12 M 10 0 L stroke}
>> matrix makepattern
/Pat6 exch def
<< Tile8x8
 /PaintProc {0.5 setlinewidth pop -2 0 M 4 12 L
	0 -4 M 8 12 L 4 -4 M 10 8 L stroke}
>> matrix makepattern
/Pat7 exch def
<< Tile8x8
 /PaintProc {0.5 setlinewidth pop 8 -2 M -4 4 L
	12 0 M -4 8 L 12 4 M 0 10 L stroke}
>> matrix makepattern
/Pat8 exch def
<< Tile8x8
 /PaintProc {0.5 setlinewidth pop 0 -2 M 12 4 L
	-4 0 M 12 8 L -4 4 M 8 10 L stroke}
>> matrix makepattern
/Pat9 exch def
/Pattern1 {PatternBgnd KeepColor Pat1 setpattern} bind def
/Pattern2 {PatternBgnd KeepColor Pat2 setpattern} bind def
/Pattern3 {PatternBgnd KeepColor Pat3 setpattern} bind def
/Pattern4 {PatternBgnd KeepColor Landscape {Pat5} {Pat4} ifelse setpattern} bind def
/Pattern5 {PatternBgnd KeepColor Landscape {Pat4} {Pat5} ifelse setpattern} bind def
/Pattern6 {PatternBgnd KeepColor Landscape {Pat9} {Pat6} ifelse setpattern} bind def
/Pattern7 {PatternBgnd KeepColor Landscape {Pat8} {Pat7} ifelse setpattern} bind def
} def
%
%
%End of PostScript Level 2 code
%
/PatternBgnd {
  TransparentPatterns {} {gsave 1 setgray fill grestore} ifelse
} def
%
% Substitute for Level 2 pattern fill codes with
% grayscale if Level 2 support is not selected.
%
/Level1PatternFill {
/Pattern1 {0.250 Density} bind def
/Pattern2 {0.500 Density} bind def
/Pattern3 {0.750 Density} bind def
/Pattern4 {0.125 Density} bind def
/Pattern5 {0.375 Density} bind def
/Pattern6 {0.625 Density} bind def
/Pattern7 {0.875 Density} bind def
} def
%
% Now test for support of Level 2 code
%
Level1 {Level1PatternFill} {Level2PatternFill} ifelse
%
/Symbol-Oblique /Symbol findfont [1 0 .167 1 0 0] makefont
dup length dict begin {1 index /FID eq {pop pop} {def} ifelse} forall
currentdict end definefont pop
/MFshow {
   { dup 5 get 3 ge
     { 5 get 3 eq {gsave} {grestore} ifelse }
     {dup dup 0 get findfont exch 1 get scalefont setfont
     [ currentpoint ] exch dup 2 get 0 exch R dup 5 get 2 ne {dup dup 6
     get exch 4 get {Gshow} {stringwidth pop 0 R} ifelse }if dup 5 get 0 eq
     {dup 3 get {2 get neg 0 exch R pop} {pop aload pop M} ifelse} {dup 5
     get 1 eq {dup 2 get exch dup 3 get exch 6 get stringwidth pop -2 div
     dup 0 R} {dup 6 get stringwidth pop -2 div 0 R 6 get
     show 2 index {aload pop M neg 3 -1 roll neg R pop pop} {pop pop pop
     pop aload pop M} ifelse }ifelse }ifelse }
     ifelse }
   forall} def
/Gswidth {dup type /stringtype eq {stringwidth} {pop (n) stringwidth} ifelse} def
/MFwidth {0 exch { dup 5 get 3 ge { 5 get 3 eq { 0 } { pop } ifelse }
 {dup 3 get{dup dup 0 get findfont exch 1 get scalefont setfont
     6 get Gswidth pop add} {pop} ifelse} ifelse} forall} def
/MLshow { currentpoint stroke M
  0 exch R
  Blacktext {gsave 0 setgray MFshow grestore} {MFshow} ifelse } bind def
/MRshow { currentpoint stroke M
  exch dup MFwidth neg 3 -1 roll R
  Blacktext {gsave 0 setgray MFshow grestore} {MFshow} ifelse } bind def
/MCshow { currentpoint stroke M
  exch dup MFwidth -2 div 3 -1 roll R
  Blacktext {gsave 0 setgray MFshow grestore} {MFshow} ifelse } bind def
/XYsave    { [( ) 1 2 true false 3 ()] } bind def
/XYrestore { [( ) 1 2 true false 4 ()] } bind def
end
%%EndProlog
gnudict begin
gsave
doclip
50 50 translate
0.050 0.050 scale
0 setgray
newpath
(Helvetica) findfont 260 scalefont setfont
1.000 UL
LTb
1586 832 M
63 0 V
5082 0 R
-63 0 V
stroke
1430 832 M
[ [(Helvetica) 260.0 0.0 true true 0 ( 0)]
] -86.7 MRshow
1.000 UL
LTb
1586 1649 M
63 0 V
5082 0 R
-63 0 V
stroke
1430 1649 M
[ [(Helvetica) 260.0 0.0 true true 0 ( 0.002)]
] -86.7 MRshow
1.000 UL
LTb
1586 2466 M
63 0 V
5082 0 R
-63 0 V
stroke
1430 2466 M
[ [(Helvetica) 260.0 0.0 true true 0 ( 0.004)]
] -86.7 MRshow
1.000 UL
LTb
1586 3284 M
63 0 V
5082 0 R
-63 0 V
stroke
1430 3284 M
[ [(Helvetica) 260.0 0.0 true true 0 ( 0.006)]
] -86.7 MRshow
1.000 UL
LTb
1586 4101 M
63 0 V
5082 0 R
-63 0 V
stroke
1430 4101 M
[ [(Helvetica) 260.0 0.0 true true 0 ( 0.008)]
] -86.7 MRshow
1.000 UL
LTb
1586 4918 M
63 0 V
5082 0 R
-63 0 V
stroke
1430 4918 M
[ [(Helvetica) 260.0 0.0 true true 0 ( 0.01)]
] -86.7 MRshow
1.000 UL
LTb
1586 5735 M
63 0 V
5082 0 R
-63 0 V
stroke
1430 5735 M
[ [(Helvetica) 260.0 0.0 true true 0 ( 0.012)]
] -86.7 MRshow
1.000 UL
LTb
1586 832 M
0 63 V
0 4840 R
0 -63 V
stroke
1586 572 M
[ [(Helvetica) 260.0 0.0 true true 0 (10)]
[(Helvetica) 208.0 130.0 true true 0 (-2)]
] -112.7 MCshow
1.000 UL
LTb
2102 832 M
0 31 V
0 4872 R
0 -31 V
2404 832 M
0 31 V
0 4872 R
0 -31 V
2619 832 M
0 31 V
0 4872 R
0 -31 V
2785 832 M
0 31 V
0 4872 R
0 -31 V
2921 832 M
0 31 V
0 4872 R
0 -31 V
3035 832 M
0 31 V
0 4872 R
0 -31 V
3135 832 M
0 31 V
0 4872 R
0 -31 V
3223 832 M
0 31 V
0 4872 R
0 -31 V
3301 832 M
0 63 V
0 4840 R
0 -63 V
stroke
3301 572 M
[ [(Helvetica) 260.0 0.0 true true 0 (10)]
[(Helvetica) 208.0 130.0 true true 0 (-1)]
] -112.7 MCshow
1.000 UL
LTb
3817 832 M
0 31 V
0 4872 R
0 -31 V
4119 832 M
0 31 V
0 4872 R
0 -31 V
4334 832 M
0 31 V
0 4872 R
0 -31 V
4500 832 M
0 31 V
0 4872 R
0 -31 V
4636 832 M
0 31 V
0 4872 R
0 -31 V
4750 832 M
0 31 V
0 4872 R
0 -31 V
4850 832 M
0 31 V
0 4872 R
0 -31 V
4938 832 M
0 31 V
0 4872 R
0 -31 V
5016 832 M
0 63 V
0 4840 R
0 -63 V
stroke
5016 572 M
[ [(Helvetica) 260.0 0.0 true true 0 (10)]
[(Helvetica) 208.0 130.0 true true 0 (0)]
] -112.7 MCshow
1.000 UL
LTb
5532 832 M
0 31 V
0 4872 R
0 -31 V
5834 832 M
0 31 V
0 4872 R
0 -31 V
6049 832 M
0 31 V
0 4872 R
0 -31 V
6215 832 M
0 31 V
0 4872 R
0 -31 V
6351 832 M
0 31 V
0 4872 R
0 -31 V
6465 832 M
0 31 V
0 4872 R
0 -31 V
6565 832 M
0 31 V
0 4872 R
0 -31 V
6653 832 M
0 31 V
0 4872 R
0 -31 V
6731 832 M
0 63 V
0 4840 R
0 -63 V
stroke
6731 572 M
[ [(Helvetica) 260.0 0.0 true true 0 (10)]
[(Helvetica) 208.0 130.0 true true 0 (1)]
] -112.7 MCshow
1.000 UL
LTb
1.000 UL
LTb
1586 5735 N
0 -4903 V
5145 0 V
0 4903 V
-5145 0 V
Z stroke
LCb setrgbcolor
208 3283 M
currentpoint gsave translate -270 rotate 0 0 moveto
[ [(Helvetica) 260.0 0.0 true true 0 (Concentration \()]
[(Symbol) 260.0 0.0 true true 0 (m)]
[(Helvetica) 260.0 0.0 true true 0 (Ci\))]
] -86.7 MCshow
grestore
LTb
LCb setrgbcolor
4158 182 M
[ [(Helvetica) 260.0 0.0 true true 0 (Pore Volume)]
] -86.7 MCshow
LTb
1.000 UP
1689 5490 M
[ [(Helvetica) 260.0 0.0 true true 0 (\(b\))]
] -86.7 MLshow
3.000 UL
LTb
5016 832 M
0 4903 V
stroke
1.000 UL
LTb
% Begin plot #1
1.500 UP
1.000 UL
LT0
LCb setrgbcolor
2348 4762 M
[ [(Helvetica) 208.0 130.0 true true 0 (22)]
[(Helvetica) 260.0 0.0 true true 0 (Na)]
] -112.7 MRshow
LT0
2688 925 CircleF
2801 908 CircleF
2901 895 CircleF
3064 904 CircleF
3137 899 CircleF
3203 984 CircleF
3264 1009 CircleF
3321 1080 CircleF
3374 1164 CircleF
3423 1320 CircleF
3469 1501 CircleF
3512 1657 CircleF
3554 1918 CircleF
3593 2158 CircleF
3631 2364 CircleF
3666 2520 CircleF
3701 2810 CircleF
3733 2991 CircleF
3764 3151 CircleF
3794 3336 CircleF
3823 3521 CircleF
3851 3631 CircleF
3877 3934 CircleF
3903 3892 CircleF
3928 4161 CircleF
3952 4173 CircleF
3976 4329 CircleF
3998 4329 CircleF
4031 4249 CircleF
4093 4498 CircleF
4122 4582 CircleF
4150 4666 CircleF
4177 4666 CircleF
4202 4666 CircleF
4227 4582 CircleF
4251 4582 CircleF
4274 4540 CircleF
4297 4498 CircleF
4319 4413 CircleF
4341 4312 CircleF
4362 4232 CircleF
4382 4081 CircleF
4421 3988 CircleF
4440 3900 CircleF
4459 3719 CircleF
4477 3685 CircleF
4495 3643 CircleF
4512 3593 CircleF
4528 3445 CircleF
4545 3340 CircleF
4561 3328 CircleF
4577 3248 CircleF
4592 3172 CircleF
4607 3121 CircleF
4622 3033 CircleF
4636 3020 CircleF
4650 2919 CircleF
4664 2844 CircleF
4678 2806 CircleF
4692 2785 CircleF
4717 2604 CircleF
4730 2629 CircleF
4742 2583 CircleF
4754 2536 CircleF
4767 2435 CircleF
4779 2440 CircleF
4790 2398 CircleF
4802 2326 CircleF
4813 2292 CircleF
4824 2242 CircleF
4836 2263 CircleF
4846 2238 CircleF
4857 2170 CircleF
4868 2141 CircleF
4878 2145 CircleF
4888 2057 CircleF
4898 2019 CircleF
4908 2048 CircleF
4918 1998 CircleF
4928 2023 CircleF
4938 1985 CircleF
4947 1926 CircleF
4956 1914 CircleF
4965 1914 CircleF
4975 1859 CircleF
5000 1800 CircleF
5009 1829 CircleF
5017 1745 CircleF
5026 1758 CircleF
5034 1775 CircleF
5042 1728 CircleF
5051 1728 CircleF
5059 1686 CircleF
5067 1699 CircleF
5075 1657 CircleF
5083 1636 CircleF
5091 1648 CircleF
5099 1648 CircleF
5104 1627 CircleF
5112 1636 CircleF
5119 1619 CircleF
5127 1623 CircleF
5134 1606 CircleF
5148 1598 CircleF
5155 1543 CircleF
5162 1552 CircleF
5169 1531 CircleF
5176 1539 CircleF
5183 1531 CircleF
5190 1514 CircleF
5197 1480 CircleF
5204 1480 CircleF
5210 1455 CircleF
5217 1467 CircleF
5223 1446 CircleF
5230 1434 CircleF
5243 1417 CircleF
5255 1417 CircleF
5261 1400 CircleF
5268 1383 CircleF
5280 1383 CircleF
5286 1383 CircleF
5292 1383 CircleF
5298 1358 CircleF
5303 1371 CircleF
5309 1345 CircleF
5315 1345 CircleF
5321 1337 CircleF
5327 1312 CircleF
5332 1316 CircleF
5338 1320 CircleF
5343 1303 CircleF
5349 1303 CircleF
5354 1316 CircleF
5366 1320 CircleF
5372 1278 CircleF
5402 1278 CircleF
5426 1249 CircleF
5443 1265 CircleF
5449 1244 CircleF
5471 1257 CircleF
5477 1253 CircleF
5482 1278 CircleF
5487 1257 CircleF
5508 1265 CircleF
5513 1236 CircleF
5518 1270 CircleF
5533 1223 CircleF
5573 1177 CircleF
5606 1143 CircleF
5611 1152 CircleF
5617 1122 CircleF
5625 1118 CircleF
5629 1114 CircleF
5634 1089 CircleF
5638 1097 CircleF
5642 1097 CircleF
5646 1093 CircleF
5650 1080 CircleF
5658 1089 CircleF
5662 1085 CircleF
5670 1059 CircleF
5674 1076 CircleF
5678 1076 CircleF
5682 1059 CircleF
5686 1072 CircleF
5693 1059 CircleF
5697 1059 CircleF
5701 1055 CircleF
5705 1055 CircleF
5708 1042 CircleF
5712 1038 CircleF
5716 1038 CircleF
5720 1038 CircleF
5731 1042 CircleF
5735 1026 CircleF
5738 1021 CircleF
5742 1026 CircleF
5746 1017 CircleF
5749 1021 CircleF
5753 1013 CircleF
5756 1005 CircleF
5760 1017 CircleF
5767 1017 CircleF
5771 988 CircleF
5774 979 CircleF
5778 996 CircleF
5781 984 CircleF
5785 984 CircleF
5788 979 CircleF
5792 984 CircleF
5795 962 CircleF
5799 967 CircleF
5802 984 CircleF
5813 950 CircleF
5816 950 CircleF
5819 946 CircleF
5822 916 CircleF
5824 946 CircleF
5830 929 CircleF
5833 929 CircleF
5839 937 CircleF
5841 941 CircleF
5844 925 CircleF
5847 908 CircleF
5850 908 CircleF
5853 937 CircleF
5855 937 CircleF
5858 946 CircleF
5861 946 CircleF
5864 954 CircleF
5866 967 CircleF
5869 929 CircleF
5874 958 CircleF
5877 971 CircleF
5882 937 CircleF
5885 920 CircleF
5888 941 CircleF
5891 962 CircleF
5893 946 CircleF
5896 933 CircleF
5898 912 CircleF
5901 899 CircleF
5904 925 CircleF
5906 912 CircleF
5909 899 CircleF
5912 916 CircleF
5914 992 CircleF
5917 904 CircleF
5919 883 CircleF
5922 891 CircleF
5924 946 CircleF
5927 891 CircleF
5929 899 CircleF
5931 866 CircleF
5934 866 CircleF
5936 891 CircleF
5939 866 CircleF
5941 866 CircleF
5944 853 CircleF
5946 878 CircleF
5949 840 CircleF
5951 874 CircleF
5954 870 CircleF
5956 840 CircleF
5959 853 CircleF
5961 845 CircleF
5963 849 CircleF
5966 849 CircleF
5971 832 CircleF
5972 853 CircleF
5975 845 CircleF
5977 857 CircleF
5979 840 CircleF
5982 836 CircleF
5984 861 CircleF
5987 866 CircleF
5989 845 CircleF
5991 857 CircleF
2691 4762 CircleF
% End plot #1
% Begin plot #2
1.500 UP
1.000 UL
LT1
LCb setrgbcolor
2348 4450 M
[ [(Helvetica) 208.0 130.0 true true 0 (232)]
[(Helvetica) 260.0 0.0 true true 0 (U)]
] -112.7 MRshow
LT1
2688 946 Circle
2801 979 Circle
2901 1000 Circle
3137 912 Circle
3203 916 Circle
3264 836 Circle
3321 899 Circle
3374 840 Circle
3423 891 Circle
3469 937 Circle
3512 887 Circle
3554 912 Circle
3593 958 Circle
3631 1013 Circle
3666 979 Circle
3701 1013 Circle
3733 1000 Circle
3764 996 Circle
3794 1093 Circle
3823 1068 Circle
3851 1055 Circle
3877 1055 Circle
3903 1072 Circle
3928 1164 Circle
3952 1063 Circle
3976 1135 Circle
3998 1127 Circle
4031 1059 Circle
4093 1089 Circle
4122 1106 Circle
4150 1097 Circle
4177 1152 Circle
4202 1156 Circle
4227 1177 Circle
4251 1211 Circle
4274 1202 Circle
4297 1232 Circle
4319 1202 Circle
4341 1202 Circle
4362 1232 Circle
4382 1202 Circle
4421 1308 Circle
4440 1320 Circle
4459 1291 Circle
4477 1345 Circle
4495 1476 Circle
4512 1501 Circle
4528 1472 Circle
4545 1581 Circle
4561 1682 Circle
4577 1770 Circle
4592 1724 Circle
4607 1888 Circle
4622 1930 Circle
4636 2015 Circle
4650 2015 Circle
4664 2057 Circle
4678 2141 Circle
4692 2183 Circle
4717 2141 Circle
4730 2267 Circle
4742 2435 Circle
4754 2520 Circle
4767 2351 Circle
4779 2435 Circle
4790 2562 Circle
4802 2646 Circle
4813 2562 Circle
4824 2688 Circle
4836 2898 Circle
4846 2898 Circle
4857 2856 Circle
4868 2772 Circle
4878 2856 Circle
4888 2814 Circle
4898 2898 Circle
4908 3109 Circle
4918 2982 Circle
4928 3067 Circle
4938 3151 Circle
4947 3067 Circle
4956 3067 Circle
4965 3193 Circle
4975 3151 Circle
5000 3193 Circle
5009 3319 Circle
5017 3193 Circle
5026 3277 Circle
5034 3277 Circle
5042 3319 Circle
5051 3403 Circle
5059 3235 Circle
5067 3403 Circle
5075 3235 Circle
5083 3319 Circle
5091 3361 Circle
5099 3530 Circle
5104 3488 Circle
5112 3319 Circle
5119 3445 Circle
5127 3488 Circle
5134 3488 Circle
5148 3361 Circle
5155 3445 Circle
5162 3445 Circle
5169 3403 Circle
5176 3445 Circle
5183 3530 Circle
5190 3488 Circle
5197 3193 Circle
5204 3445 Circle
5210 3193 Circle
5217 3319 Circle
5223 3361 Circle
5230 3277 Circle
5243 3151 Circle
5255 3277 Circle
5261 3151 Circle
5268 3235 Circle
5280 3151 Circle
5286 3193 Circle
5292 3109 Circle
5298 3067 Circle
5303 3109 Circle
5309 2982 Circle
5315 3109 Circle
5321 3067 Circle
5327 2982 Circle
5332 3025 Circle
5338 3109 Circle
5343 2898 Circle
5349 2982 Circle
5354 2940 Circle
5366 3067 Circle
5372 2940 Circle
5402 2898 Circle
5426 2856 Circle
5443 2898 Circle
5449 2730 Circle
5471 2688 Circle
5477 2730 Circle
5482 2772 Circle
5487 2730 Circle
5508 2730 Circle
5513 2604 Circle
5518 2646 Circle
5533 2520 Circle
5573 2477 Circle
5606 2393 Circle
5611 2393 Circle
5617 2351 Circle
5625 2267 Circle
5629 2351 Circle
5634 2183 Circle
5638 2225 Circle
5642 2267 Circle
5646 2267 Circle
5650 2183 Circle
5658 2099 Circle
5662 2183 Circle
5670 2057 Circle
5674 2183 Circle
5678 2141 Circle
5682 2099 Circle
5686 2183 Circle
5693 2057 Circle
5697 2057 Circle
5701 2057 Circle
5705 2099 Circle
5708 2057 Circle
5712 2015 Circle
5716 2015 Circle
5720 1972 Circle
5731 1888 Circle
5735 1972 Circle
5738 1972 Circle
5742 1930 Circle
5746 1888 Circle
5749 1930 Circle
5753 1930 Circle
5756 1930 Circle
5760 1888 Circle
5767 1779 Circle
5771 1745 Circle
5774 1749 Circle
5778 1846 Circle
5781 1846 Circle
5785 1775 Circle
5788 1712 Circle
5792 1766 Circle
5795 1695 Circle
5799 1661 Circle
5802 1691 Circle
5813 1766 Circle
5816 1758 Circle
5819 1749 Circle
5822 1741 Circle
5824 1716 Circle
5830 1703 Circle
5833 1661 Circle
5839 1644 Circle
5841 1674 Circle
5844 1636 Circle
5847 1606 Circle
5850 1526 Circle
5853 1573 Circle
5855 1627 Circle
5858 1661 Circle
5861 1606 Circle
5864 1560 Circle
5866 1552 Circle
5869 1501 Circle
5874 1518 Circle
5877 1543 Circle
5882 1438 Circle
5885 1371 Circle
5888 1421 Circle
5891 1489 Circle
5893 1421 Circle
5896 1417 Circle
5898 1320 Circle
5901 1291 Circle
5904 1383 Circle
5906 1409 Circle
5909 1337 Circle
5912 1358 Circle
5914 1341 Circle
5917 1299 Circle
5919 1249 Circle
5922 1282 Circle
5924 1308 Circle
5927 1287 Circle
5929 1299 Circle
5931 1202 Circle
5934 1173 Circle
5936 1236 Circle
5939 1198 Circle
5941 1303 Circle
5944 1181 Circle
5946 1223 Circle
5949 1093 Circle
5951 1223 Circle
5954 1228 Circle
5956 1143 Circle
5959 1186 Circle
5961 1139 Circle
5963 1160 Circle
5966 1160 Circle
5971 1089 Circle
5972 1181 Circle
5975 1181 Circle
5977 1198 Circle
5979 1093 Circle
5982 1093 Circle
5984 1156 Circle
5987 1202 Circle
5989 1122 Circle
5991 1131 Circle
2691 4450 Circle
% End plot #2
1.000 UL
LTb
1586 5735 N
0 -4903 V
5145 0 V
0 4903 V
-5145 0 V
Z stroke
1.000 UP
1.000 UL
LTb
stroke
grestore
end
showpage
%%Trailer
%%DocumentFonts: Symbol Helvetica
