%!PS-Adobe-2.0 EPSF-2.0
%%Title: B8_22Na_logn0a.eps
%%Creator: gnuplot 4.2 patchlevel 6 
%%CreationDate: Thu Aug  4 15:46:14 2011
%%DocumentFonts: (atend)
%%BoundingBox: 50 50 410 352
%%EndComments
%%BeginProlog
/gnudict 256 dict def
gnudict begin
%
% The following 6 true/false flags may be edited by hand if required
% The unit line width may also be changed
%
/Color false def
/Blacktext false def
/Solid false def
/Dashlength 1 def
/Landscape false def
/Level1 false def
/Rounded false def
/TransparentPatterns false def
/gnulinewidth 5.000 def
/userlinewidth gnulinewidth def
%
/vshift -86 def
/dl1 {
  10.0 Dashlength mul mul
  Rounded { currentlinewidth 0.75 mul sub dup 0 le { pop 0.01 } if } if
} def
/dl2 {
  10.0 Dashlength mul mul
  Rounded { currentlinewidth 0.75 mul add } if
} def
/hpt_ 31.5 def
/vpt_ 31.5 def
/hpt hpt_ def
/vpt vpt_ def
Level1 {} {
/SDict 10 dict def
systemdict /pdfmark known not {
  userdict /pdfmark systemdict /cleartomark get put
} if
SDict begin [
  /Title (B8_22Na_logn0a.eps)
  /Subject (gnuplot plot)
  /Creator (gnuplot 4.2 patchlevel 6 )
  /Author (Bwalya Malama,,,)
%  /Producer (gnuplot)
%  /Keywords ()
  /CreationDate (Thu Aug  4 15:46:14 2011)
  /DOCINFO pdfmark
end
} ifelse
%
% Gnuplot Prolog Version 4.2 (August 2006)
%
/M {moveto} bind def
/L {lineto} bind def
/R {rmoveto} bind def
/V {rlineto} bind def
/N {newpath moveto} bind def
/Z {closepath} bind def
/C {setrgbcolor} bind def
/f {rlineto fill} bind def
/vpt2 vpt 2 mul def
/hpt2 hpt 2 mul def
/Lshow {currentpoint stroke M 0 vshift R 
	Blacktext {gsave 0 setgray show grestore} {show} ifelse} def
/Rshow {currentpoint stroke M dup stringwidth pop neg vshift R
	Blacktext {gsave 0 setgray show grestore} {show} ifelse} def
/Cshow {currentpoint stroke M dup stringwidth pop -2 div vshift R 
	Blacktext {gsave 0 setgray show grestore} {show} ifelse} def
/UP {dup vpt_ mul /vpt exch def hpt_ mul /hpt exch def
  /hpt2 hpt 2 mul def /vpt2 vpt 2 mul def} def
/DL {Color {setrgbcolor Solid {pop []} if 0 setdash}
 {pop pop pop 0 setgray Solid {pop []} if 0 setdash} ifelse} def
/BL {stroke userlinewidth 2 mul setlinewidth
	Rounded {1 setlinejoin 1 setlinecap} if} def
/AL {stroke userlinewidth 2 div setlinewidth
	Rounded {1 setlinejoin 1 setlinecap} if} def
/UL {dup gnulinewidth mul /userlinewidth exch def
	dup 1 lt {pop 1} if 10 mul /udl exch def} def
/PL {stroke userlinewidth setlinewidth
	Rounded {1 setlinejoin 1 setlinecap} if} def
% Default Line colors
/LCw {1 1 1} def
/LCb {0 0 0} def
/LCa {0 0 0} def
/LC0 {1 0 0} def
/LC1 {0 1 0} def
/LC2 {0 0 1} def
/LC3 {1 0 1} def
/LC4 {0 1 1} def
/LC5 {1 1 0} def
/LC6 {0 0 0} def
/LC7 {1 0.3 0} def
/LC8 {0.5 0.5 0.5} def
% Default Line Types
/LTw {PL [] 1 setgray} def
/LTb {BL [] LCb DL} def
/LTa {AL [1 udl mul 2 udl mul] 0 setdash LCa setrgbcolor} def
/LT0 {PL [] LC0 DL} def
/LT1 {PL [4 dl1 2 dl2] LC1 DL} def
/LT2 {PL [2 dl1 3 dl2] LC2 DL} def
/LT3 {PL [1 dl1 1.5 dl2] LC3 DL} def
/LT4 {PL [6 dl1 2 dl2 1 dl1 2 dl2] LC4 DL} def
/LT5 {PL [3 dl1 3 dl2 1 dl1 3 dl2] LC5 DL} def
/LT6 {PL [2 dl1 2 dl2 2 dl1 6 dl2] LC6 DL} def
/LT7 {PL [1 dl1 2 dl2 6 dl1 2 dl2 1 dl1 2 dl2] LC7 DL} def
/LT8 {PL [2 dl1 2 dl2 2 dl1 2 dl2 2 dl1 2 dl2 2 dl1 4 dl2] LC8 DL} def
/Pnt {stroke [] 0 setdash gsave 1 setlinecap M 0 0 V stroke grestore} def
/Dia {stroke [] 0 setdash 2 copy vpt add M
  hpt neg vpt neg V hpt vpt neg V
  hpt vpt V hpt neg vpt V closepath stroke
  Pnt} def
/Pls {stroke [] 0 setdash vpt sub M 0 vpt2 V
  currentpoint stroke M
  hpt neg vpt neg R hpt2 0 V stroke
 } def
/Box {stroke [] 0 setdash 2 copy exch hpt sub exch vpt add M
  0 vpt2 neg V hpt2 0 V 0 vpt2 V
  hpt2 neg 0 V closepath stroke
  Pnt} def
/Crs {stroke [] 0 setdash exch hpt sub exch vpt add M
  hpt2 vpt2 neg V currentpoint stroke M
  hpt2 neg 0 R hpt2 vpt2 V stroke} def
/TriU {stroke [] 0 setdash 2 copy vpt 1.12 mul add M
  hpt neg vpt -1.62 mul V
  hpt 2 mul 0 V
  hpt neg vpt 1.62 mul V closepath stroke
  Pnt} def
/Star {2 copy Pls Crs} def
/BoxF {stroke [] 0 setdash exch hpt sub exch vpt add M
  0 vpt2 neg V hpt2 0 V 0 vpt2 V
  hpt2 neg 0 V closepath fill} def
/TriUF {stroke [] 0 setdash vpt 1.12 mul add M
  hpt neg vpt -1.62 mul V
  hpt 2 mul 0 V
  hpt neg vpt 1.62 mul V closepath fill} def
/TriD {stroke [] 0 setdash 2 copy vpt 1.12 mul sub M
  hpt neg vpt 1.62 mul V
  hpt 2 mul 0 V
  hpt neg vpt -1.62 mul V closepath stroke
  Pnt} def
/TriDF {stroke [] 0 setdash vpt 1.12 mul sub M
  hpt neg vpt 1.62 mul V
  hpt 2 mul 0 V
  hpt neg vpt -1.62 mul V closepath fill} def
/DiaF {stroke [] 0 setdash vpt add M
  hpt neg vpt neg V hpt vpt neg V
  hpt vpt V hpt neg vpt V closepath fill} def
/Pent {stroke [] 0 setdash 2 copy gsave
  translate 0 hpt M 4 {72 rotate 0 hpt L} repeat
  closepath stroke grestore Pnt} def
/PentF {stroke [] 0 setdash gsave
  translate 0 hpt M 4 {72 rotate 0 hpt L} repeat
  closepath fill grestore} def
/Circle {stroke [] 0 setdash 2 copy
  hpt 0 360 arc stroke Pnt} def
/CircleF {stroke [] 0 setdash hpt 0 360 arc fill} def
/C0 {BL [] 0 setdash 2 copy moveto vpt 90 450 arc} bind def
/C1 {BL [] 0 setdash 2 copy moveto
	2 copy vpt 0 90 arc closepath fill
	vpt 0 360 arc closepath} bind def
/C2 {BL [] 0 setdash 2 copy moveto
	2 copy vpt 90 180 arc closepath fill
	vpt 0 360 arc closepath} bind def
/C3 {BL [] 0 setdash 2 copy moveto
	2 copy vpt 0 180 arc closepath fill
	vpt 0 360 arc closepath} bind def
/C4 {BL [] 0 setdash 2 copy moveto
	2 copy vpt 180 270 arc closepath fill
	vpt 0 360 arc closepath} bind def
/C5 {BL [] 0 setdash 2 copy moveto
	2 copy vpt 0 90 arc
	2 copy moveto
	2 copy vpt 180 270 arc closepath fill
	vpt 0 360 arc} bind def
/C6 {BL [] 0 setdash 2 copy moveto
	2 copy vpt 90 270 arc closepath fill
	vpt 0 360 arc closepath} bind def
/C7 {BL [] 0 setdash 2 copy moveto
	2 copy vpt 0 270 arc closepath fill
	vpt 0 360 arc closepath} bind def
/C8 {BL [] 0 setdash 2 copy moveto
	2 copy vpt 270 360 arc closepath fill
	vpt 0 360 arc closepath} bind def
/C9 {BL [] 0 setdash 2 copy moveto
	2 copy vpt 270 450 arc closepath fill
	vpt 0 360 arc closepath} bind def
/C10 {BL [] 0 setdash 2 copy 2 copy moveto vpt 270 360 arc closepath fill
	2 copy moveto
	2 copy vpt 90 180 arc closepath fill
	vpt 0 360 arc closepath} bind def
/C11 {BL [] 0 setdash 2 copy moveto
	2 copy vpt 0 180 arc closepath fill
	2 copy moveto
	2 copy vpt 270 360 arc closepath fill
	vpt 0 360 arc closepath} bind def
/C12 {BL [] 0 setdash 2 copy moveto
	2 copy vpt 180 360 arc closepath fill
	vpt 0 360 arc closepath} bind def
/C13 {BL [] 0 setdash 2 copy moveto
	2 copy vpt 0 90 arc closepath fill
	2 copy moveto
	2 copy vpt 180 360 arc closepath fill
	vpt 0 360 arc closepath} bind def
/C14 {BL [] 0 setdash 2 copy moveto
	2 copy vpt 90 360 arc closepath fill
	vpt 0 360 arc} bind def
/C15 {BL [] 0 setdash 2 copy vpt 0 360 arc closepath fill
	vpt 0 360 arc closepath} bind def
/Rec {newpath 4 2 roll moveto 1 index 0 rlineto 0 exch rlineto
	neg 0 rlineto closepath} bind def
/Square {dup Rec} bind def
/Bsquare {vpt sub exch vpt sub exch vpt2 Square} bind def
/S0 {BL [] 0 setdash 2 copy moveto 0 vpt rlineto BL Bsquare} bind def
/S1 {BL [] 0 setdash 2 copy vpt Square fill Bsquare} bind def
/S2 {BL [] 0 setdash 2 copy exch vpt sub exch vpt Square fill Bsquare} bind def
/S3 {BL [] 0 setdash 2 copy exch vpt sub exch vpt2 vpt Rec fill Bsquare} bind def
/S4 {BL [] 0 setdash 2 copy exch vpt sub exch vpt sub vpt Square fill Bsquare} bind def
/S5 {BL [] 0 setdash 2 copy 2 copy vpt Square fill
	exch vpt sub exch vpt sub vpt Square fill Bsquare} bind def
/S6 {BL [] 0 setdash 2 copy exch vpt sub exch vpt sub vpt vpt2 Rec fill Bsquare} bind def
/S7 {BL [] 0 setdash 2 copy exch vpt sub exch vpt sub vpt vpt2 Rec fill
	2 copy vpt Square fill Bsquare} bind def
/S8 {BL [] 0 setdash 2 copy vpt sub vpt Square fill Bsquare} bind def
/S9 {BL [] 0 setdash 2 copy vpt sub vpt vpt2 Rec fill Bsquare} bind def
/S10 {BL [] 0 setdash 2 copy vpt sub vpt Square fill 2 copy exch vpt sub exch vpt Square fill
	Bsquare} bind def
/S11 {BL [] 0 setdash 2 copy vpt sub vpt Square fill 2 copy exch vpt sub exch vpt2 vpt Rec fill
	Bsquare} bind def
/S12 {BL [] 0 setdash 2 copy exch vpt sub exch vpt sub vpt2 vpt Rec fill Bsquare} bind def
/S13 {BL [] 0 setdash 2 copy exch vpt sub exch vpt sub vpt2 vpt Rec fill
	2 copy vpt Square fill Bsquare} bind def
/S14 {BL [] 0 setdash 2 copy exch vpt sub exch vpt sub vpt2 vpt Rec fill
	2 copy exch vpt sub exch vpt Square fill Bsquare} bind def
/S15 {BL [] 0 setdash 2 copy Bsquare fill Bsquare} bind def
/D0 {gsave translate 45 rotate 0 0 S0 stroke grestore} bind def
/D1 {gsave translate 45 rotate 0 0 S1 stroke grestore} bind def
/D2 {gsave translate 45 rotate 0 0 S2 stroke grestore} bind def
/D3 {gsave translate 45 rotate 0 0 S3 stroke grestore} bind def
/D4 {gsave translate 45 rotate 0 0 S4 stroke grestore} bind def
/D5 {gsave translate 45 rotate 0 0 S5 stroke grestore} bind def
/D6 {gsave translate 45 rotate 0 0 S6 stroke grestore} bind def
/D7 {gsave translate 45 rotate 0 0 S7 stroke grestore} bind def
/D8 {gsave translate 45 rotate 0 0 S8 stroke grestore} bind def
/D9 {gsave translate 45 rotate 0 0 S9 stroke grestore} bind def
/D10 {gsave translate 45 rotate 0 0 S10 stroke grestore} bind def
/D11 {gsave translate 45 rotate 0 0 S11 stroke grestore} bind def
/D12 {gsave translate 45 rotate 0 0 S12 stroke grestore} bind def
/D13 {gsave translate 45 rotate 0 0 S13 stroke grestore} bind def
/D14 {gsave translate 45 rotate 0 0 S14 stroke grestore} bind def
/D15 {gsave translate 45 rotate 0 0 S15 stroke grestore} bind def
/DiaE {stroke [] 0 setdash vpt add M
  hpt neg vpt neg V hpt vpt neg V
  hpt vpt V hpt neg vpt V closepath stroke} def
/BoxE {stroke [] 0 setdash exch hpt sub exch vpt add M
  0 vpt2 neg V hpt2 0 V 0 vpt2 V
  hpt2 neg 0 V closepath stroke} def
/TriUE {stroke [] 0 setdash vpt 1.12 mul add M
  hpt neg vpt -1.62 mul V
  hpt 2 mul 0 V
  hpt neg vpt 1.62 mul V closepath stroke} def
/TriDE {stroke [] 0 setdash vpt 1.12 mul sub M
  hpt neg vpt 1.62 mul V
  hpt 2 mul 0 V
  hpt neg vpt -1.62 mul V closepath stroke} def
/PentE {stroke [] 0 setdash gsave
  translate 0 hpt M 4 {72 rotate 0 hpt L} repeat
  closepath stroke grestore} def
/CircE {stroke [] 0 setdash 
  hpt 0 360 arc stroke} def
/Opaque {gsave closepath 1 setgray fill grestore 0 setgray closepath} def
/DiaW {stroke [] 0 setdash vpt add M
  hpt neg vpt neg V hpt vpt neg V
  hpt vpt V hpt neg vpt V Opaque stroke} def
/BoxW {stroke [] 0 setdash exch hpt sub exch vpt add M
  0 vpt2 neg V hpt2 0 V 0 vpt2 V
  hpt2 neg 0 V Opaque stroke} def
/TriUW {stroke [] 0 setdash vpt 1.12 mul add M
  hpt neg vpt -1.62 mul V
  hpt 2 mul 0 V
  hpt neg vpt 1.62 mul V Opaque stroke} def
/TriDW {stroke [] 0 setdash vpt 1.12 mul sub M
  hpt neg vpt 1.62 mul V
  hpt 2 mul 0 V
  hpt neg vpt -1.62 mul V Opaque stroke} def
/PentW {stroke [] 0 setdash gsave
  translate 0 hpt M 4 {72 rotate 0 hpt L} repeat
  Opaque stroke grestore} def
/CircW {stroke [] 0 setdash 
  hpt 0 360 arc Opaque stroke} def
/BoxFill {gsave Rec 1 setgray fill grestore} def
/Density {
  /Fillden exch def
  currentrgbcolor
  /ColB exch def /ColG exch def /ColR exch def
  /ColR ColR Fillden mul Fillden sub 1 add def
  /ColG ColG Fillden mul Fillden sub 1 add def
  /ColB ColB Fillden mul Fillden sub 1 add def
  ColR ColG ColB setrgbcolor} def
/BoxColFill {gsave Rec PolyFill} def
/PolyFill {gsave Density fill grestore grestore} def
/h {rlineto rlineto rlineto gsave closepath fill grestore} bind def
%
% PostScript Level 1 Pattern Fill routine for rectangles
% Usage: x y w h s a XX PatternFill
%	x,y = lower left corner of box to be filled
%	w,h = width and height of box
%	  a = angle in degrees between lines and x-axis
%	 XX = 0/1 for no/yes cross-hatch
%
/PatternFill {gsave /PFa [ 9 2 roll ] def
  PFa 0 get PFa 2 get 2 div add PFa 1 get PFa 3 get 2 div add translate
  PFa 2 get -2 div PFa 3 get -2 div PFa 2 get PFa 3 get Rec
  gsave 1 setgray fill grestore clip
  currentlinewidth 0.5 mul setlinewidth
  /PFs PFa 2 get dup mul PFa 3 get dup mul add sqrt def
  0 0 M PFa 5 get rotate PFs -2 div dup translate
  0 1 PFs PFa 4 get div 1 add floor cvi
	{PFa 4 get mul 0 M 0 PFs V} for
  0 PFa 6 get ne {
	0 1 PFs PFa 4 get div 1 add floor cvi
	{PFa 4 get mul 0 2 1 roll M PFs 0 V} for
 } if
  stroke grestore} def
%
/languagelevel where
 {pop languagelevel} {1} ifelse
 2 lt
	{/InterpretLevel1 true def}
	{/InterpretLevel1 Level1 def}
 ifelse
%
% PostScript level 2 pattern fill definitions
%
/Level2PatternFill {
/Tile8x8 {/PaintType 2 /PatternType 1 /TilingType 1 /BBox [0 0 8 8] /XStep 8 /YStep 8}
	bind def
/KeepColor {currentrgbcolor [/Pattern /DeviceRGB] setcolorspace} bind def
<< Tile8x8
 /PaintProc {0.5 setlinewidth pop 0 0 M 8 8 L 0 8 M 8 0 L stroke} 
>> matrix makepattern
/Pat1 exch def
<< Tile8x8
 /PaintProc {0.5 setlinewidth pop 0 0 M 8 8 L 0 8 M 8 0 L stroke
	0 4 M 4 8 L 8 4 L 4 0 L 0 4 L stroke}
>> matrix makepattern
/Pat2 exch def
<< Tile8x8
 /PaintProc {0.5 setlinewidth pop 0 0 M 0 8 L
	8 8 L 8 0 L 0 0 L fill}
>> matrix makepattern
/Pat3 exch def
<< Tile8x8
 /PaintProc {0.5 setlinewidth pop -4 8 M 8 -4 L
	0 12 M 12 0 L stroke}
>> matrix makepattern
/Pat4 exch def
<< Tile8x8
 /PaintProc {0.5 setlinewidth pop -4 0 M 8 12 L
	0 -4 M 12 8 L stroke}
>> matrix makepattern
/Pat5 exch def
<< Tile8x8
 /PaintProc {0.5 setlinewidth pop -2 8 M 4 -4 L
	0 12 M 8 -4 L 4 12 M 10 0 L stroke}
>> matrix makepattern
/Pat6 exch def
<< Tile8x8
 /PaintProc {0.5 setlinewidth pop -2 0 M 4 12 L
	0 -4 M 8 12 L 4 -4 M 10 8 L stroke}
>> matrix makepattern
/Pat7 exch def
<< Tile8x8
 /PaintProc {0.5 setlinewidth pop 8 -2 M -4 4 L
	12 0 M -4 8 L 12 4 M 0 10 L stroke}
>> matrix makepattern
/Pat8 exch def
<< Tile8x8
 /PaintProc {0.5 setlinewidth pop 0 -2 M 12 4 L
	-4 0 M 12 8 L -4 4 M 8 10 L stroke}
>> matrix makepattern
/Pat9 exch def
/Pattern1 {PatternBgnd KeepColor Pat1 setpattern} bind def
/Pattern2 {PatternBgnd KeepColor Pat2 setpattern} bind def
/Pattern3 {PatternBgnd KeepColor Pat3 setpattern} bind def
/Pattern4 {PatternBgnd KeepColor Landscape {Pat5} {Pat4} ifelse setpattern} bind def
/Pattern5 {PatternBgnd KeepColor Landscape {Pat4} {Pat5} ifelse setpattern} bind def
/Pattern6 {PatternBgnd KeepColor Landscape {Pat9} {Pat6} ifelse setpattern} bind def
/Pattern7 {PatternBgnd KeepColor Landscape {Pat8} {Pat7} ifelse setpattern} bind def
} def
%
%
%End of PostScript Level 2 code
%
/PatternBgnd {
  TransparentPatterns {} {gsave 1 setgray fill grestore} ifelse
} def
%
% Substitute for Level 2 pattern fill codes with
% grayscale if Level 2 support is not selected.
%
/Level1PatternFill {
/Pattern1 {0.250 Density} bind def
/Pattern2 {0.500 Density} bind def
/Pattern3 {0.750 Density} bind def
/Pattern4 {0.125 Density} bind def
/Pattern5 {0.375 Density} bind def
/Pattern6 {0.625 Density} bind def
/Pattern7 {0.875 Density} bind def
} def
%
% Now test for support of Level 2 code
%
Level1 {Level1PatternFill} {Level2PatternFill} ifelse
%
/Symbol-Oblique /Symbol findfont [1 0 .167 1 0 0] makefont
dup length dict begin {1 index /FID eq {pop pop} {def} ifelse} forall
currentdict end definefont pop
/MFshow {
   { dup 5 get 3 ge
     { 5 get 3 eq {gsave} {grestore} ifelse }
     {dup dup 0 get findfont exch 1 get scalefont setfont
     [ currentpoint ] exch dup 2 get 0 exch R dup 5 get 2 ne {dup dup 6
     get exch 4 get {show} {stringwidth pop 0 R} ifelse }if dup 5 get 0 eq
     {dup 3 get {2 get neg 0 exch R pop} {pop aload pop M} ifelse} {dup 5
     get 1 eq {dup 2 get exch dup 3 get exch 6 get stringwidth pop -2 div
     dup 0 R} {dup 6 get stringwidth pop -2 div 0 R 6 get
     show 2 index {aload pop M neg 3 -1 roll neg R pop pop} {pop pop pop
     pop aload pop M} ifelse }ifelse }ifelse }
     ifelse }
   forall} bind def
/MFwidth {0 exch { dup 5 get 3 ge { 5 get 3 eq { 0 } { pop } ifelse }
 {dup 3 get{dup dup 0 get findfont exch 1 get scalefont setfont
     6 get stringwidth pop add} {pop} ifelse} ifelse} forall} bind def
/MLshow { currentpoint stroke M
  0 exch R
  Blacktext {gsave 0 setgray MFshow grestore} {MFshow} ifelse } bind def
/MRshow { currentpoint stroke M
  exch dup MFwidth neg 3 -1 roll R
  Blacktext {gsave 0 setgray MFshow grestore} {MFshow} ifelse } bind def
/MCshow { currentpoint stroke M
  exch dup MFwidth -2 div 3 -1 roll R
  Blacktext {gsave 0 setgray MFshow grestore} {MFshow} ifelse } bind def
/XYsave    { [( ) 1 2 true false 3 ()] } bind def
/XYrestore { [( ) 1 2 true false 4 ()] } bind def
end
%%EndProlog
gnudict begin
gsave
50 50 translate
0.050 0.050 scale
0 setgray
newpath
(Helvetica) findfont 260 scalefont setfont
1.000 UL
LTb
1742 832 M
63 0 V
5005 0 R
-63 0 V
stroke
1586 832 M
[ [(Helvetica) 260.0 0.0 true true 0 ( 0)]
] -86.7 MRshow
1.000 UL
LTb
1742 2467 M
63 0 V
5005 0 R
-63 0 V
stroke
1586 2467 M
[ [(Helvetica) 260.0 0.0 true true 0 ( 0.05)]
] -86.7 MRshow
1.000 UL
LTb
1742 4101 M
63 0 V
5005 0 R
-63 0 V
stroke
1586 4101 M
[ [(Helvetica) 260.0 0.0 true true 0 ( 0.1)]
] -86.7 MRshow
1.000 UL
LTb
1742 5736 M
63 0 V
5005 0 R
-63 0 V
stroke
1586 5736 M
[ [(Helvetica) 260.0 0.0 true true 0 ( 0.15)]
] -86.7 MRshow
1.000 UL
LTb
1742 832 M
0 63 V
0 4841 R
0 -63 V
stroke
1742 572 M
[ [(Helvetica) 260.0 0.0 true true 0 ( 0)]
] -86.7 MCshow
1.000 UL
LTb
2466 832 M
0 63 V
0 4841 R
0 -63 V
stroke
2466 572 M
[ [(Helvetica) 260.0 0.0 true true 0 ( 1)]
] -86.7 MCshow
1.000 UL
LTb
3190 832 M
0 63 V
0 4841 R
0 -63 V
stroke
3190 572 M
[ [(Helvetica) 260.0 0.0 true true 0 ( 2)]
] -86.7 MCshow
1.000 UL
LTb
3914 832 M
0 63 V
0 4841 R
0 -63 V
stroke
3914 572 M
[ [(Helvetica) 260.0 0.0 true true 0 ( 3)]
] -86.7 MCshow
1.000 UL
LTb
4638 832 M
0 63 V
0 4841 R
0 -63 V
stroke
4638 572 M
[ [(Helvetica) 260.0 0.0 true true 0 ( 4)]
] -86.7 MCshow
1.000 UL
LTb
5362 832 M
0 63 V
0 4841 R
0 -63 V
stroke
5362 572 M
[ [(Helvetica) 260.0 0.0 true true 0 ( 5)]
] -86.7 MCshow
1.000 UL
LTb
6086 832 M
0 63 V
0 4841 R
0 -63 V
stroke
6086 572 M
[ [(Helvetica) 260.0 0.0 true true 0 ( 6)]
] -86.7 MCshow
1.000 UL
LTb
6810 832 M
0 63 V
0 4841 R
0 -63 V
stroke
6810 572 M
[ [(Helvetica) 260.0 0.0 true true 0 ( 7)]
] -86.7 MCshow
1.000 UL
LTb
1.000 UL
LTb
1742 5736 N
0 -4904 V
5068 0 V
0 4904 V
-5068 0 V
Z stroke
LCb setrgbcolor
520 3284 M
currentpoint gsave translate 90 rotate 0 0 moveto
[ [(Helvetica) 260.0 0.0 true true 0 (c \()]
[(Symbol) 260.0 0.0 true true 0 (m)]
[(Helvetica) 260.0 0.0 true true 0 (Ci/ml\))]
] -86.7 MCshow
grestore
LTb
LCb setrgbcolor
4276 182 M
[ [(Helvetica) 260.0 0.0 true true 0 (t \(days\))]
] -86.7 MCshow
LTb
1.000 UP
5000 3447 M
[ [(Symbol) 260.0 0.0 true true 0 (f)]
[(Helvetica) 208.0 -78.0 true true 0 (m)]
[(Helvetica) 260.0 0.0 true true 0 ( = 0.047)]
] -60.7 MLshow
5000 3121 M
[ [(Symbol) 260.0 0.0 true true 0 (a)]
[(Helvetica) 208.0 -78.0 true true 0 (L)]
[(Helvetica) 260.0 0.0 true true 0 ( = 3.01 cm)]
] -60.7 MLshow
5000 2794 M
[ [(Symbol) 260.0 0.0 true true 0 (m)]
[(Helvetica) 260.0 0.0 true true 0 ( = - 1.53)]
] -86.7 MLshow
5000 2467 M
[ [(Symbol) 260.0 0.0 true true 0 (s)]
[(Helvetica) 260.0 0.0 true true 0 ( = 1.86)]
] -86.7 MLshow
5000 2140 M
[ [(Helvetica) 260.0 0.0 true true 0 (t)]
[(Helvetica) 208.0 -78.0 true true 0 (inj)]
[(Helvetica) 260.0 0.0 true true 0 ( = 2.70 days)]
] -60.7 MLshow
1843 5491 M
[ [(Helvetica) 260.0 0.0 true true 0 (\(a\) test B8)]
] -86.7 MLshow
1.000 UL
LTb
1.300 UP
1.000 UL
LT0
LTb
5967 5517 M
[ [(Helvetica) 260.0 0.0 true true 0 (data)]
] -86.7 MRshow
LT0
1756 850 Circle
1761 852 Circle
1765 850 Circle
1770 848 Circle
1774 850 Circle
1779 849 Circle
1784 850 Circle
1788 848 Circle
1793 848 Circle
1798 849 Circle
1803 849 Circle
1807 850 Circle
1812 849 Circle
1817 849 Circle
1827 848 Circle
1835 851 Circle
1840 849 Circle
1845 848 Circle
1849 849 Circle
1854 846 Circle
1859 849 Circle
1864 850 Circle
1869 850 Circle
1873 850 Circle
1878 850 Circle
1883 852 Circle
1887 851 Circle
1892 852 Circle
1897 852 Circle
1902 854 Circle
1906 855 Circle
1911 856 Circle
1916 860 Circle
1921 860 Circle
1925 865 Circle
1930 866 Circle
1935 871 Circle
1939 878 Circle
1944 883 Circle
1949 888 Circle
1954 895 Circle
1958 906 Circle
1963 914 Circle
1968 925 Circle
1972 933 Circle
1977 947 Circle
1982 954 Circle
1987 970 Circle
1991 986 Circle
1996 994 Circle
2001 1013 Circle
2005 1022 Circle
2010 1047 Circle
2015 1070 Circle
2019 1075 Circle
2024 1103 Circle
2029 1125 Circle
2034 1128 Circle
2038 1147 Circle
2043 1179 Circle
2048 1206 Circle
2052 1233 Circle
2057 1250 Circle
2062 1253 Circle
2067 1297 Circle
2081 1374 Circle
2109 1529 Circle
2123 1600 Circle
2137 1724 Circle
2151 1819 Circle
2165 1852 Circle
2179 1926 Circle
2194 2014 Circle
2208 2149 Circle
2222 2216 Circle
2236 2253 Circle
2264 2438 Circle
2295 2559 Circle
2309 2623 Circle
2323 2634 Circle
2337 2765 Circle
2351 2849 Circle
2366 2856 Circle
2380 2974 Circle
2394 2964 Circle
2408 2964 Circle
2422 3135 Circle
2437 3098 Circle
2451 3186 Circle
2465 3172 Circle
2479 3273 Circle
2493 3250 Circle
2508 3283 Circle
2522 3364 Circle
2536 3324 Circle
2551 3492 Circle
2565 3486 Circle
2580 3523 Circle
2594 3509 Circle
2608 3499 Circle
2622 3533 Circle
2637 3610 Circle
2651 3644 Circle
2665 3462 Circle
2679 3651 Circle
2694 3681 Circle
2708 3738 Circle
2722 3792 Circle
2736 3741 Circle
2750 3782 Circle
2765 3768 Circle
2779 3819 Circle
2793 3866 Circle
2807 3832 Circle
2821 3876 Circle
2835 3896 Circle
2864 3940 Circle
2878 3893 Circle
2892 3920 Circle
2907 3842 Circle
2921 4018 Circle
2935 3937 Circle
2949 4028 Circle
2963 3991 Circle
2978 4028 Circle
2992 4122 Circle
3004 4038 Circle
3018 4085 Circle
3032 4068 Circle
3047 4186 Circle
3061 4102 Circle
3075 4122 Circle
3089 4098 Circle
3103 4119 Circle
3118 4193 Circle
3132 4196 Circle
3146 4085 Circle
3160 4233 Circle
3174 4159 Circle
3189 4115 Circle
3203 4055 Circle
3217 4156 Circle
3231 4233 Circle
3245 4199 Circle
3260 4199 Circle
3274 4233 Circle
3288 4199 Circle
3302 4300 Circle
3317 4267 Circle
3331 4368 Circle
3345 4334 Circle
3359 4267 Circle
3373 4300 Circle
3388 4267 Circle
3402 4334 Circle
3416 4189 Circle
3430 4267 Circle
3444 4334 Circle
3458 4368 Circle
3472 4267 Circle
3487 4368 Circle
3501 4300 Circle
3515 4435 Circle
3529 4300 Circle
3544 4267 Circle
3558 4300 Circle
3572 4401 Circle
3587 4368 Circle
3601 4334 Circle
3615 4435 Circle
3629 4368 Circle
3643 4469 Circle
3667 4435 Circle
3712 4469 Circle
3726 4368 Circle
3740 4502 Circle
3754 4435 Circle
3768 4368 Circle
3782 4334 Circle
3796 4435 Circle
3811 4401 Circle
3825 4401 Circle
3839 4401 Circle
3853 4435 Circle
3896 4334 Circle
3910 4368 Circle
3924 4300 Circle
3939 4334 Circle
3967 4267 Circle
3981 4146 Circle
3995 4267 Circle
4009 4088 Circle
4024 4034 Circle
4038 3950 Circle
4052 3802 Circle
4066 3758 Circle
4080 3694 Circle
4109 3536 Circle
4123 3475 Circle
4137 3415 Circle
4151 3337 Circle
4165 3280 Circle
4179 3115 Circle
4193 3135 Circle
4208 3061 Circle
4222 2970 Circle
4236 2913 Circle
4250 2819 Circle
4264 2768 Circle
4278 2708 Circle
4293 2654 Circle
4307 2583 Circle
4321 2563 Circle
4335 2512 Circle
4349 2445 Circle
4364 2421 Circle
4378 2398 Circle
4392 2330 Circle
4406 2317 Circle
4421 2213 Circle
4435 2216 Circle
4449 2182 Circle
4463 2176 Circle
4477 2142 Circle
4492 2034 Circle
4506 2061 Circle
4520 2061 Circle
4534 1963 Circle
4548 1990 Circle
4562 1994 Circle
4577 1906 Circle
4591 1906 Circle
4605 1876 Circle
4619 1819 Circle
4634 1819 Circle
4648 1819 Circle
4662 1775 Circle
4676 1765 Circle
4690 1745 Circle
4705 1708 Circle
4719 1714 Circle
4733 1701 Circle
4747 1684 Circle
4761 1660 Circle
4776 1644 Circle
4790 1620 Circle
4804 1583 Circle
4818 1583 Circle
4832 1569 Circle
4846 1566 Circle
4860 1573 Circle
4874 1543 Circle
4888 1522 Circle
4902 1522 Circle
4916 1509 Circle
4930 1489 Circle
4945 1492 Circle
4959 1479 Circle
4973 1448 Circle
4987 1455 Circle
5001 1438 Circle
5015 1425 Circle
5030 1415 Circle
5044 1415 Circle
5058 1384 Circle
5072 1371 Circle
5087 1378 Circle
5101 1361 Circle
5115 1354 Circle
6310 5517 Circle
3.000 UL
LT0
LTb
5967 5205 M
[ [(Helvetica) 260.0 0.0 true true 0 (single porosity)]
] -86.7 MRshow
LT0
6123 5205 M
375 0 V
1750 848 M
1 0 V
1 0 V
1 0 V
1 0 V
1 0 V
1 0 V
1 0 V
1 0 V
1 0 V
1 0 V
1 0 V
1 0 V
1 0 V
1 0 V
1 0 V
1 0 V
1 0 V
1 0 V
1 0 V
1 0 V
1 0 V
1 0 V
1 0 V
1 0 V
1 0 V
1 0 V
1 0 V
1 0 V
1 0 V
1 0 V
1 0 V
1 0 V
1 0 V
1 0 V
1 0 V
1 0 V
1 0 V
1 0 V
1 0 V
1 0 V
1 0 V
1 0 V
1 0 V
1 0 V
1 0 V
1 0 V
1 0 V
1 0 V
1 0 V
1 0 V
1 0 V
1 0 V
1 0 V
1 0 V
1 0 V
1 0 V
1 0 V
1 0 V
1 0 V
1 0 V
1 1 V
1 0 V
1 0 V
1 0 V
1 0 V
1 0 V
1 0 V
1 0 V
1 0 V
1 0 V
1 0 V
1 0 V
1 0 V
1 0 V
1 0 V
1 0 V
8 1 V
9 2 V
8 3 V
8 4 V
9 5 V
8 6 V
8 8 V
9 10 V
8 12 V
9 13 V
8 16 V
8 17 V
9 19 V
8 20 V
8 22 V
9 24 V
8 26 V
9 27 V
8 28 V
8 29 V
9 31 V
8 31 V
9 33 V
8 34 V
8 34 V
9 35 V
stroke 2044 1339 M
8 36 V
8 37 V
9 36 V
8 38 V
9 37 V
8 38 V
8 39 V
9 38 V
8 39 V
8 38 V
9 39 V
8 39 V
9 39 V
8 38 V
8 39 V
9 38 V
8 38 V
9 38 V
8 38 V
8 38 V
9 37 V
8 37 V
8 37 V
9 36 V
8 36 V
9 36 V
8 35 V
8 35 V
9 35 V
8 34 V
8 34 V
9 33 V
8 33 V
9 33 V
8 32 V
8 32 V
9 32 V
8 31 V
8 30 V
9 30 V
8 30 V
9 29 V
8 29 V
8 29 V
9 28 V
8 27 V
9 28 V
8 26 V
8 27 V
9 26 V
8 25 V
8 26 V
9 25 V
8 24 V
9 24 V
8 24 V
8 23 V
9 23 V
8 22 V
8 22 V
9 22 V
8 22 V
9 21 V
8 21 V
84 189 V
84 159 V
83 133 V
84 111 V
84 94 V
84 77 V
84 65 V
83 55 V
84 45 V
84 37 V
84 31 V
84 28 V
83 30 V
84 23 V
84 -29 V
84 -143 V
84 -269 V
83 -366 V
84 -378 V
84 -354 V
84 -318 V
83 -278 V
84 -238 V
84 -202 V
84 -171 V
84 -144 V
83 -120 V
84 -101 V
84 -84 V
84 -70 V
84 -58 V
83 -49 V
84 -41 V
84 -34 V
84 -28 V
84 -24 V
83 -20 V
84 -17 V
84 -14 V
84 -12 V
stroke 5932 895 M
84 -10 V
83 -8 V
84 -7 V
84 -6 V
84 -5 V
84 -4 V
83 -4 V
84 -3 V
84 -2 V
84 -2 V
40 -1 V
stroke
LT6
LTb
5967 4893 M
[ [(Helvetica) 260.0 0.0 true true 0 (double porosity)]
] -86.7 MRshow
LT6
6123 4893 M
375 0 V
1750 848 M
1 0 V
1 0 V
1 0 V
1 0 V
1 0 V
1 0 V
1 0 V
1 0 V
1 0 V
1 0 V
1 0 V
1 0 V
1 0 V
1 0 V
1 0 V
1 0 V
1 0 V
1 0 V
1 0 V
1 0 V
1 0 V
1 0 V
1 0 V
1 0 V
1 0 V
1 0 V
1 0 V
1 0 V
1 0 V
1 0 V
1 0 V
1 0 V
1 0 V
1 0 V
1 0 V
1 0 V
1 0 V
1 0 V
1 0 V
1 0 V
1 0 V
1 0 V
1 0 V
1 0 V
1 0 V
1 0 V
1 0 V
1 0 V
1 0 V
1 0 V
1 0 V
1 0 V
1 0 V
1 0 V
1 0 V
1 0 V
1 0 V
1 0 V
1 0 V
1 0 V
1 0 V
1 0 V
1 0 V
1 0 V
1 0 V
1 0 V
1 0 V
1 0 V
1 0 V
1 0 V
1 0 V
1 0 V
1 0 V
1 0 V
1 0 V
1 0 V
8 0 V
9 1 V
8 0 V
8 0 V
9 1 V
8 2 V
8 2 V
9 3 V
8 4 V
9 6 V
8 7 V
8 9 V
9 10 V
8 13 V
8 14 V
9 16 V
8 19 V
9 21 V
8 22 V
8 25 V
9 27 V
8 29 V
9 31 V
8 32 V
8 35 V
9 35 V
stroke 2044 1212 M
8 38 V
8 38 V
9 40 V
8 41 V
9 42 V
8 43 V
8 44 V
9 44 V
8 45 V
8 45 V
9 46 V
8 46 V
9 46 V
8 46 V
8 47 V
9 46 V
8 46 V
9 46 V
8 45 V
8 46 V
9 45 V
8 44 V
8 44 V
9 44 V
8 43 V
9 43 V
8 42 V
8 41 V
9 41 V
8 40 V
8 40 V
9 39 V
8 38 V
9 38 V
8 36 V
8 37 V
9 35 V
8 35 V
8 34 V
9 33 V
8 33 V
9 32 V
8 31 V
8 31 V
9 30 V
8 29 V
9 29 V
8 28 V
8 27 V
9 27 V
8 26 V
8 26 V
9 25 V
8 24 V
9 24 V
8 23 V
8 23 V
9 22 V
8 22 V
8 21 V
9 20 V
8 20 V
9 20 V
8 19 V
84 168 V
84 132 V
83 105 V
84 86 V
84 70 V
84 59 V
84 51 V
83 45 V
84 41 V
84 37 V
84 33 V
84 33 V
83 35 V
84 34 V
84 0 V
84 -101 V
84 -256 V
83 -387 V
84 -434 V
84 -410 V
84 -349 V
83 -272 V
84 -195 V
84 -159 V
84 -122 V
84 -92 V
83 -71 V
84 -57 V
84 -46 V
84 -38 V
84 -32 V
83 -27 V
84 -23 V
84 -21 V
84 -20 V
84 -17 V
83 -17 V
84 -15 V
84 -15 V
84 -14 V
stroke 5932 1235 M
84 -14 V
83 -13 V
84 -13 V
84 -12 V
84 -11 V
84 -12 V
83 -10 V
84 -11 V
84 -10 V
84 -10 V
40 -5 V
stroke
8.000 UL
LT0
LTb
5967 4581 M
[ [(Helvetica) 260.0 0.0 true true 0 (multirate lognormal)]
] -86.7 MRshow
LT0
6123 4581 M
375 0 V
1750 848 M
1 0 V
1 0 V
1 0 V
1 0 V
1 0 V
1 0 V
1 0 V
1 0 V
1 0 V
1 0 V
1 0 V
1 0 V
1 0 V
1 0 V
1 0 V
1 0 V
1 0 V
1 0 V
1 0 V
1 0 V
1 0 V
1 0 V
1 0 V
1 0 V
1 0 V
1 0 V
1 0 V
1 0 V
1 0 V
1 0 V
1 0 V
1 0 V
1 0 V
1 0 V
1 0 V
1 0 V
1 0 V
1 0 V
1 0 V
1 0 V
1 0 V
1 0 V
1 0 V
1 0 V
1 0 V
1 0 V
1 0 V
1 0 V
1 0 V
1 0 V
1 0 V
1 0 V
1 0 V
1 0 V
1 0 V
1 0 V
1 0 V
1 0 V
1 0 V
1 0 V
1 0 V
1 0 V
1 0 V
1 0 V
1 0 V
1 0 V
1 0 V
1 0 V
1 0 V
1 0 V
1 0 V
1 0 V
1 0 V
1 0 V
1 0 V
1 0 V
8 0 V
9 0 V
8 0 V
8 0 V
9 1 V
8 0 V
8 1 V
9 1 V
8 1 V
9 3 V
8 4 V
8 5 V
9 7 V
8 9 V
8 11 V
9 14 V
8 16 V
9 19 V
8 22 V
8 24 V
9 28 V
8 30 V
9 32 V
8 35 V
8 38 V
9 39 V
stroke 2044 1188 M
8 42 V
8 43 V
9 45 V
8 46 V
9 47 V
8 48 V
8 49 V
9 50 V
8 50 V
8 50 V
9 51 V
8 50 V
9 50 V
8 50 V
8 50 V
9 49 V
8 48 V
9 48 V
8 48 V
8 46 V
9 46 V
8 45 V
8 45 V
9 43 V
8 43 V
9 42 V
8 41 V
8 40 V
9 40 V
8 38 V
8 38 V
9 36 V
8 36 V
9 35 V
8 35 V
8 33 V
9 33 V
8 32 V
8 31 V
9 30 V
8 30 V
9 29 V
8 29 V
8 27 V
9 27 V
8 27 V
9 26 V
8 25 V
8 24 V
9 25 V
8 23 V
8 23 V
9 22 V
8 22 V
9 22 V
8 21 V
8 20 V
9 21 V
8 19 V
8 19 V
9 19 V
8 19 V
9 18 V
8 17 V
84 158 V
84 131 V
83 109 V
84 92 V
84 79 V
84 69 V
84 60 V
83 53 V
84 47 V
84 41 V
84 37 V
84 34 V
83 34 V
84 36 V
84 15 V
84 -80 V
84 -267 V
83 -432 V
84 -467 V
84 -406 V
84 -322 V
83 -251 V
84 -195 V
84 -151 V
84 -134 V
84 -106 V
83 -87 V
84 -74 V
84 -63 V
84 -55 V
84 -47 V
83 -41 V
84 -36 V
84 -32 V
84 -29 V
84 -25 V
83 -23 V
84 -21 V
84 -18 V
84 -17 V
stroke 5932 1080 M
84 -16 V
83 -14 V
84 -13 V
84 -12 V
84 -10 V
84 -10 V
83 -10 V
84 -8 V
84 -8 V
84 -8 V
40 -3 V
stroke
1.000 UL
LTb
1742 5736 N
0 -4904 V
5068 0 V
0 4904 V
-5068 0 V
Z stroke
1.000 UP
1.000 UL
LTb
stroke
grestore
end
showpage
%%Trailer
%%DocumentFonts: Symbol Helvetica
