%!PS-Adobe-2.0 EPSF-2.0
%%Title: B8_22Na_pred.eps
%%Creator: gnuplot 4.2 patchlevel 6 
%%CreationDate: Mon Nov 14 12:01:11 2011
%%DocumentFonts: (atend)
%%BoundingBox: 50 50 410 352
%%EndComments
%%BeginProlog
/gnudict 256 dict def
gnudict begin
%
% The following 6 true/false flags may be edited by hand if required
% The unit line width may also be changed
%
/Color false def
/Blacktext false def
/Solid false def
/Dashlength 4 def
/Landscape false def
/Level1 false def
/Rounded false def
/TransparentPatterns false def
/gnulinewidth 5.000 def
/userlinewidth gnulinewidth def
%
/vshift -86 def
/dl1 {
  10.0 Dashlength mul mul
  Rounded { currentlinewidth 0.75 mul sub dup 0 le { pop 0.01 } if } if
} def
/dl2 {
  10.0 Dashlength mul mul
  Rounded { currentlinewidth 0.75 mul add } if
} def
/hpt_ 31.5 def
/vpt_ 31.5 def
/hpt hpt_ def
/vpt vpt_ def
Level1 {} {
/SDict 10 dict def
systemdict /pdfmark known not {
  userdict /pdfmark systemdict /cleartomark get put
} if
SDict begin [
  /Title (B8_22Na_pred.eps)
  /Subject (gnuplot plot)
  /Creator (gnuplot 4.2 patchlevel 6 )
  /Author (Bwalya Malama,,,)
%  /Producer (gnuplot)
%  /Keywords ()
  /CreationDate (Mon Nov 14 12:01:11 2011)
  /DOCINFO pdfmark
end
} ifelse
%
% Gnuplot Prolog Version 4.2 (August 2006)
%
/M {moveto} bind def
/L {lineto} bind def
/R {rmoveto} bind def
/V {rlineto} bind def
/N {newpath moveto} bind def
/Z {closepath} bind def
/C {setrgbcolor} bind def
/f {rlineto fill} bind def
/vpt2 vpt 2 mul def
/hpt2 hpt 2 mul def
/Lshow {currentpoint stroke M 0 vshift R 
	Blacktext {gsave 0 setgray show grestore} {show} ifelse} def
/Rshow {currentpoint stroke M dup stringwidth pop neg vshift R
	Blacktext {gsave 0 setgray show grestore} {show} ifelse} def
/Cshow {currentpoint stroke M dup stringwidth pop -2 div vshift R 
	Blacktext {gsave 0 setgray show grestore} {show} ifelse} def
/UP {dup vpt_ mul /vpt exch def hpt_ mul /hpt exch def
  /hpt2 hpt 2 mul def /vpt2 vpt 2 mul def} def
/DL {Color {setrgbcolor Solid {pop []} if 0 setdash}
 {pop pop pop 0 setgray Solid {pop []} if 0 setdash} ifelse} def
/BL {stroke userlinewidth 2 mul setlinewidth
	Rounded {1 setlinejoin 1 setlinecap} if} def
/AL {stroke userlinewidth 2 div setlinewidth
	Rounded {1 setlinejoin 1 setlinecap} if} def
/UL {dup gnulinewidth mul /userlinewidth exch def
	dup 1 lt {pop 1} if 10 mul /udl exch def} def
/PL {stroke userlinewidth setlinewidth
	Rounded {1 setlinejoin 1 setlinecap} if} def
% Default Line colors
/LCw {1 1 1} def
/LCb {0 0 0} def
/LCa {0 0 0} def
/LC0 {1 0 0} def
/LC1 {0 1 0} def
/LC2 {0 0 1} def
/LC3 {1 0 1} def
/LC4 {0 1 1} def
/LC5 {1 1 0} def
/LC6 {0 0 0} def
/LC7 {1 0.3 0} def
/LC8 {0.5 0.5 0.5} def
% Default Line Types
/LTw {PL [] 1 setgray} def
/LTb {BL [] LCb DL} def
/LTa {AL [1 udl mul 2 udl mul] 0 setdash LCa setrgbcolor} def
/LT0 {PL [] LC0 DL} def
/LT1 {PL [4 dl1 2 dl2] LC1 DL} def
/LT2 {PL [2 dl1 3 dl2] LC2 DL} def
/LT3 {PL [1 dl1 1.5 dl2] LC3 DL} def
/LT4 {PL [6 dl1 2 dl2 1 dl1 2 dl2] LC4 DL} def
/LT5 {PL [3 dl1 3 dl2 1 dl1 3 dl2] LC5 DL} def
/LT6 {PL [2 dl1 2 dl2 2 dl1 6 dl2] LC6 DL} def
/LT7 {PL [1 dl1 2 dl2 6 dl1 2 dl2 1 dl1 2 dl2] LC7 DL} def
/LT8 {PL [2 dl1 2 dl2 2 dl1 2 dl2 2 dl1 2 dl2 2 dl1 4 dl2] LC8 DL} def
/Pnt {stroke [] 0 setdash gsave 1 setlinecap M 0 0 V stroke grestore} def
/Dia {stroke [] 0 setdash 2 copy vpt add M
  hpt neg vpt neg V hpt vpt neg V
  hpt vpt V hpt neg vpt V closepath stroke
  Pnt} def
/Pls {stroke [] 0 setdash vpt sub M 0 vpt2 V
  currentpoint stroke M
  hpt neg vpt neg R hpt2 0 V stroke
 } def
/Box {stroke [] 0 setdash 2 copy exch hpt sub exch vpt add M
  0 vpt2 neg V hpt2 0 V 0 vpt2 V
  hpt2 neg 0 V closepath stroke
  Pnt} def
/Crs {stroke [] 0 setdash exch hpt sub exch vpt add M
  hpt2 vpt2 neg V currentpoint stroke M
  hpt2 neg 0 R hpt2 vpt2 V stroke} def
/TriU {stroke [] 0 setdash 2 copy vpt 1.12 mul add M
  hpt neg vpt -1.62 mul V
  hpt 2 mul 0 V
  hpt neg vpt 1.62 mul V closepath stroke
  Pnt} def
/Star {2 copy Pls Crs} def
/BoxF {stroke [] 0 setdash exch hpt sub exch vpt add M
  0 vpt2 neg V hpt2 0 V 0 vpt2 V
  hpt2 neg 0 V closepath fill} def
/TriUF {stroke [] 0 setdash vpt 1.12 mul add M
  hpt neg vpt -1.62 mul V
  hpt 2 mul 0 V
  hpt neg vpt 1.62 mul V closepath fill} def
/TriD {stroke [] 0 setdash 2 copy vpt 1.12 mul sub M
  hpt neg vpt 1.62 mul V
  hpt 2 mul 0 V
  hpt neg vpt -1.62 mul V closepath stroke
  Pnt} def
/TriDF {stroke [] 0 setdash vpt 1.12 mul sub M
  hpt neg vpt 1.62 mul V
  hpt 2 mul 0 V
  hpt neg vpt -1.62 mul V closepath fill} def
/DiaF {stroke [] 0 setdash vpt add M
  hpt neg vpt neg V hpt vpt neg V
  hpt vpt V hpt neg vpt V closepath fill} def
/Pent {stroke [] 0 setdash 2 copy gsave
  translate 0 hpt M 4 {72 rotate 0 hpt L} repeat
  closepath stroke grestore Pnt} def
/PentF {stroke [] 0 setdash gsave
  translate 0 hpt M 4 {72 rotate 0 hpt L} repeat
  closepath fill grestore} def
/Circle {stroke [] 0 setdash 2 copy
  hpt 0 360 arc stroke Pnt} def
/CircleF {stroke [] 0 setdash hpt 0 360 arc fill} def
/C0 {BL [] 0 setdash 2 copy moveto vpt 90 450 arc} bind def
/C1 {BL [] 0 setdash 2 copy moveto
	2 copy vpt 0 90 arc closepath fill
	vpt 0 360 arc closepath} bind def
/C2 {BL [] 0 setdash 2 copy moveto
	2 copy vpt 90 180 arc closepath fill
	vpt 0 360 arc closepath} bind def
/C3 {BL [] 0 setdash 2 copy moveto
	2 copy vpt 0 180 arc closepath fill
	vpt 0 360 arc closepath} bind def
/C4 {BL [] 0 setdash 2 copy moveto
	2 copy vpt 180 270 arc closepath fill
	vpt 0 360 arc closepath} bind def
/C5 {BL [] 0 setdash 2 copy moveto
	2 copy vpt 0 90 arc
	2 copy moveto
	2 copy vpt 180 270 arc closepath fill
	vpt 0 360 arc} bind def
/C6 {BL [] 0 setdash 2 copy moveto
	2 copy vpt 90 270 arc closepath fill
	vpt 0 360 arc closepath} bind def
/C7 {BL [] 0 setdash 2 copy moveto
	2 copy vpt 0 270 arc closepath fill
	vpt 0 360 arc closepath} bind def
/C8 {BL [] 0 setdash 2 copy moveto
	2 copy vpt 270 360 arc closepath fill
	vpt 0 360 arc closepath} bind def
/C9 {BL [] 0 setdash 2 copy moveto
	2 copy vpt 270 450 arc closepath fill
	vpt 0 360 arc closepath} bind def
/C10 {BL [] 0 setdash 2 copy 2 copy moveto vpt 270 360 arc closepath fill
	2 copy moveto
	2 copy vpt 90 180 arc closepath fill
	vpt 0 360 arc closepath} bind def
/C11 {BL [] 0 setdash 2 copy moveto
	2 copy vpt 0 180 arc closepath fill
	2 copy moveto
	2 copy vpt 270 360 arc closepath fill
	vpt 0 360 arc closepath} bind def
/C12 {BL [] 0 setdash 2 copy moveto
	2 copy vpt 180 360 arc closepath fill
	vpt 0 360 arc closepath} bind def
/C13 {BL [] 0 setdash 2 copy moveto
	2 copy vpt 0 90 arc closepath fill
	2 copy moveto
	2 copy vpt 180 360 arc closepath fill
	vpt 0 360 arc closepath} bind def
/C14 {BL [] 0 setdash 2 copy moveto
	2 copy vpt 90 360 arc closepath fill
	vpt 0 360 arc} bind def
/C15 {BL [] 0 setdash 2 copy vpt 0 360 arc closepath fill
	vpt 0 360 arc closepath} bind def
/Rec {newpath 4 2 roll moveto 1 index 0 rlineto 0 exch rlineto
	neg 0 rlineto closepath} bind def
/Square {dup Rec} bind def
/Bsquare {vpt sub exch vpt sub exch vpt2 Square} bind def
/S0 {BL [] 0 setdash 2 copy moveto 0 vpt rlineto BL Bsquare} bind def
/S1 {BL [] 0 setdash 2 copy vpt Square fill Bsquare} bind def
/S2 {BL [] 0 setdash 2 copy exch vpt sub exch vpt Square fill Bsquare} bind def
/S3 {BL [] 0 setdash 2 copy exch vpt sub exch vpt2 vpt Rec fill Bsquare} bind def
/S4 {BL [] 0 setdash 2 copy exch vpt sub exch vpt sub vpt Square fill Bsquare} bind def
/S5 {BL [] 0 setdash 2 copy 2 copy vpt Square fill
	exch vpt sub exch vpt sub vpt Square fill Bsquare} bind def
/S6 {BL [] 0 setdash 2 copy exch vpt sub exch vpt sub vpt vpt2 Rec fill Bsquare} bind def
/S7 {BL [] 0 setdash 2 copy exch vpt sub exch vpt sub vpt vpt2 Rec fill
	2 copy vpt Square fill Bsquare} bind def
/S8 {BL [] 0 setdash 2 copy vpt sub vpt Square fill Bsquare} bind def
/S9 {BL [] 0 setdash 2 copy vpt sub vpt vpt2 Rec fill Bsquare} bind def
/S10 {BL [] 0 setdash 2 copy vpt sub vpt Square fill 2 copy exch vpt sub exch vpt Square fill
	Bsquare} bind def
/S11 {BL [] 0 setdash 2 copy vpt sub vpt Square fill 2 copy exch vpt sub exch vpt2 vpt Rec fill
	Bsquare} bind def
/S12 {BL [] 0 setdash 2 copy exch vpt sub exch vpt sub vpt2 vpt Rec fill Bsquare} bind def
/S13 {BL [] 0 setdash 2 copy exch vpt sub exch vpt sub vpt2 vpt Rec fill
	2 copy vpt Square fill Bsquare} bind def
/S14 {BL [] 0 setdash 2 copy exch vpt sub exch vpt sub vpt2 vpt Rec fill
	2 copy exch vpt sub exch vpt Square fill Bsquare} bind def
/S15 {BL [] 0 setdash 2 copy Bsquare fill Bsquare} bind def
/D0 {gsave translate 45 rotate 0 0 S0 stroke grestore} bind def
/D1 {gsave translate 45 rotate 0 0 S1 stroke grestore} bind def
/D2 {gsave translate 45 rotate 0 0 S2 stroke grestore} bind def
/D3 {gsave translate 45 rotate 0 0 S3 stroke grestore} bind def
/D4 {gsave translate 45 rotate 0 0 S4 stroke grestore} bind def
/D5 {gsave translate 45 rotate 0 0 S5 stroke grestore} bind def
/D6 {gsave translate 45 rotate 0 0 S6 stroke grestore} bind def
/D7 {gsave translate 45 rotate 0 0 S7 stroke grestore} bind def
/D8 {gsave translate 45 rotate 0 0 S8 stroke grestore} bind def
/D9 {gsave translate 45 rotate 0 0 S9 stroke grestore} bind def
/D10 {gsave translate 45 rotate 0 0 S10 stroke grestore} bind def
/D11 {gsave translate 45 rotate 0 0 S11 stroke grestore} bind def
/D12 {gsave translate 45 rotate 0 0 S12 stroke grestore} bind def
/D13 {gsave translate 45 rotate 0 0 S13 stroke grestore} bind def
/D14 {gsave translate 45 rotate 0 0 S14 stroke grestore} bind def
/D15 {gsave translate 45 rotate 0 0 S15 stroke grestore} bind def
/DiaE {stroke [] 0 setdash vpt add M
  hpt neg vpt neg V hpt vpt neg V
  hpt vpt V hpt neg vpt V closepath stroke} def
/BoxE {stroke [] 0 setdash exch hpt sub exch vpt add M
  0 vpt2 neg V hpt2 0 V 0 vpt2 V
  hpt2 neg 0 V closepath stroke} def
/TriUE {stroke [] 0 setdash vpt 1.12 mul add M
  hpt neg vpt -1.62 mul V
  hpt 2 mul 0 V
  hpt neg vpt 1.62 mul V closepath stroke} def
/TriDE {stroke [] 0 setdash vpt 1.12 mul sub M
  hpt neg vpt 1.62 mul V
  hpt 2 mul 0 V
  hpt neg vpt -1.62 mul V closepath stroke} def
/PentE {stroke [] 0 setdash gsave
  translate 0 hpt M 4 {72 rotate 0 hpt L} repeat
  closepath stroke grestore} def
/CircE {stroke [] 0 setdash 
  hpt 0 360 arc stroke} def
/Opaque {gsave closepath 1 setgray fill grestore 0 setgray closepath} def
/DiaW {stroke [] 0 setdash vpt add M
  hpt neg vpt neg V hpt vpt neg V
  hpt vpt V hpt neg vpt V Opaque stroke} def
/BoxW {stroke [] 0 setdash exch hpt sub exch vpt add M
  0 vpt2 neg V hpt2 0 V 0 vpt2 V
  hpt2 neg 0 V Opaque stroke} def
/TriUW {stroke [] 0 setdash vpt 1.12 mul add M
  hpt neg vpt -1.62 mul V
  hpt 2 mul 0 V
  hpt neg vpt 1.62 mul V Opaque stroke} def
/TriDW {stroke [] 0 setdash vpt 1.12 mul sub M
  hpt neg vpt 1.62 mul V
  hpt 2 mul 0 V
  hpt neg vpt -1.62 mul V Opaque stroke} def
/PentW {stroke [] 0 setdash gsave
  translate 0 hpt M 4 {72 rotate 0 hpt L} repeat
  Opaque stroke grestore} def
/CircW {stroke [] 0 setdash 
  hpt 0 360 arc Opaque stroke} def
/BoxFill {gsave Rec 1 setgray fill grestore} def
/Density {
  /Fillden exch def
  currentrgbcolor
  /ColB exch def /ColG exch def /ColR exch def
  /ColR ColR Fillden mul Fillden sub 1 add def
  /ColG ColG Fillden mul Fillden sub 1 add def
  /ColB ColB Fillden mul Fillden sub 1 add def
  ColR ColG ColB setrgbcolor} def
/BoxColFill {gsave Rec PolyFill} def
/PolyFill {gsave Density fill grestore grestore} def
/h {rlineto rlineto rlineto gsave closepath fill grestore} bind def
%
% PostScript Level 1 Pattern Fill routine for rectangles
% Usage: x y w h s a XX PatternFill
%	x,y = lower left corner of box to be filled
%	w,h = width and height of box
%	  a = angle in degrees between lines and x-axis
%	 XX = 0/1 for no/yes cross-hatch
%
/PatternFill {gsave /PFa [ 9 2 roll ] def
  PFa 0 get PFa 2 get 2 div add PFa 1 get PFa 3 get 2 div add translate
  PFa 2 get -2 div PFa 3 get -2 div PFa 2 get PFa 3 get Rec
  gsave 1 setgray fill grestore clip
  currentlinewidth 0.5 mul setlinewidth
  /PFs PFa 2 get dup mul PFa 3 get dup mul add sqrt def
  0 0 M PFa 5 get rotate PFs -2 div dup translate
  0 1 PFs PFa 4 get div 1 add floor cvi
	{PFa 4 get mul 0 M 0 PFs V} for
  0 PFa 6 get ne {
	0 1 PFs PFa 4 get div 1 add floor cvi
	{PFa 4 get mul 0 2 1 roll M PFs 0 V} for
 } if
  stroke grestore} def
%
/languagelevel where
 {pop languagelevel} {1} ifelse
 2 lt
	{/InterpretLevel1 true def}
	{/InterpretLevel1 Level1 def}
 ifelse
%
% PostScript level 2 pattern fill definitions
%
/Level2PatternFill {
/Tile8x8 {/PaintType 2 /PatternType 1 /TilingType 1 /BBox [0 0 8 8] /XStep 8 /YStep 8}
	bind def
/KeepColor {currentrgbcolor [/Pattern /DeviceRGB] setcolorspace} bind def
<< Tile8x8
 /PaintProc {0.5 setlinewidth pop 0 0 M 8 8 L 0 8 M 8 0 L stroke} 
>> matrix makepattern
/Pat1 exch def
<< Tile8x8
 /PaintProc {0.5 setlinewidth pop 0 0 M 8 8 L 0 8 M 8 0 L stroke
	0 4 M 4 8 L 8 4 L 4 0 L 0 4 L stroke}
>> matrix makepattern
/Pat2 exch def
<< Tile8x8
 /PaintProc {0.5 setlinewidth pop 0 0 M 0 8 L
	8 8 L 8 0 L 0 0 L fill}
>> matrix makepattern
/Pat3 exch def
<< Tile8x8
 /PaintProc {0.5 setlinewidth pop -4 8 M 8 -4 L
	0 12 M 12 0 L stroke}
>> matrix makepattern
/Pat4 exch def
<< Tile8x8
 /PaintProc {0.5 setlinewidth pop -4 0 M 8 12 L
	0 -4 M 12 8 L stroke}
>> matrix makepattern
/Pat5 exch def
<< Tile8x8
 /PaintProc {0.5 setlinewidth pop -2 8 M 4 -4 L
	0 12 M 8 -4 L 4 12 M 10 0 L stroke}
>> matrix makepattern
/Pat6 exch def
<< Tile8x8
 /PaintProc {0.5 setlinewidth pop -2 0 M 4 12 L
	0 -4 M 8 12 L 4 -4 M 10 8 L stroke}
>> matrix makepattern
/Pat7 exch def
<< Tile8x8
 /PaintProc {0.5 setlinewidth pop 8 -2 M -4 4 L
	12 0 M -4 8 L 12 4 M 0 10 L stroke}
>> matrix makepattern
/Pat8 exch def
<< Tile8x8
 /PaintProc {0.5 setlinewidth pop 0 -2 M 12 4 L
	-4 0 M 12 8 L -4 4 M 8 10 L stroke}
>> matrix makepattern
/Pat9 exch def
/Pattern1 {PatternBgnd KeepColor Pat1 setpattern} bind def
/Pattern2 {PatternBgnd KeepColor Pat2 setpattern} bind def
/Pattern3 {PatternBgnd KeepColor Pat3 setpattern} bind def
/Pattern4 {PatternBgnd KeepColor Landscape {Pat5} {Pat4} ifelse setpattern} bind def
/Pattern5 {PatternBgnd KeepColor Landscape {Pat4} {Pat5} ifelse setpattern} bind def
/Pattern6 {PatternBgnd KeepColor Landscape {Pat9} {Pat6} ifelse setpattern} bind def
/Pattern7 {PatternBgnd KeepColor Landscape {Pat8} {Pat7} ifelse setpattern} bind def
} def
%
%
%End of PostScript Level 2 code
%
/PatternBgnd {
  TransparentPatterns {} {gsave 1 setgray fill grestore} ifelse
} def
%
% Substitute for Level 2 pattern fill codes with
% grayscale if Level 2 support is not selected.
%
/Level1PatternFill {
/Pattern1 {0.250 Density} bind def
/Pattern2 {0.500 Density} bind def
/Pattern3 {0.750 Density} bind def
/Pattern4 {0.125 Density} bind def
/Pattern5 {0.375 Density} bind def
/Pattern6 {0.625 Density} bind def
/Pattern7 {0.875 Density} bind def
} def
%
% Now test for support of Level 2 code
%
Level1 {Level1PatternFill} {Level2PatternFill} ifelse
%
/Symbol-Oblique /Symbol findfont [1 0 .167 1 0 0] makefont
dup length dict begin {1 index /FID eq {pop pop} {def} ifelse} forall
currentdict end definefont pop
/MFshow {
   { dup 5 get 3 ge
     { 5 get 3 eq {gsave} {grestore} ifelse }
     {dup dup 0 get findfont exch 1 get scalefont setfont
     [ currentpoint ] exch dup 2 get 0 exch R dup 5 get 2 ne {dup dup 6
     get exch 4 get {show} {stringwidth pop 0 R} ifelse }if dup 5 get 0 eq
     {dup 3 get {2 get neg 0 exch R pop} {pop aload pop M} ifelse} {dup 5
     get 1 eq {dup 2 get exch dup 3 get exch 6 get stringwidth pop -2 div
     dup 0 R} {dup 6 get stringwidth pop -2 div 0 R 6 get
     show 2 index {aload pop M neg 3 -1 roll neg R pop pop} {pop pop pop
     pop aload pop M} ifelse }ifelse }ifelse }
     ifelse }
   forall} bind def
/MFwidth {0 exch { dup 5 get 3 ge { 5 get 3 eq { 0 } { pop } ifelse }
 {dup 3 get{dup dup 0 get findfont exch 1 get scalefont setfont
     6 get stringwidth pop add} {pop} ifelse} ifelse} forall} bind def
/MLshow { currentpoint stroke M
  0 exch R
  Blacktext {gsave 0 setgray MFshow grestore} {MFshow} ifelse } bind def
/MRshow { currentpoint stroke M
  exch dup MFwidth neg 3 -1 roll R
  Blacktext {gsave 0 setgray MFshow grestore} {MFshow} ifelse } bind def
/MCshow { currentpoint stroke M
  exch dup MFwidth -2 div 3 -1 roll R
  Blacktext {gsave 0 setgray MFshow grestore} {MFshow} ifelse } bind def
/XYsave    { [( ) 1 2 true false 3 ()] } bind def
/XYrestore { [( ) 1 2 true false 4 ()] } bind def
end
%%EndProlog
gnudict begin
gsave
50 50 translate
0.050 0.050 scale
0 setgray
newpath
(Helvetica) findfont 260 scalefont setfont
1.000 UL
LTb
1742 832 M
63 0 V
5005 0 R
-63 0 V
stroke
1586 832 M
[ [(Helvetica) 260.0 0.0 true true 0 ( 0)]
] -86.7 MRshow
1.000 UL
LTb
1742 1649 M
63 0 V
5005 0 R
-63 0 V
stroke
1586 1649 M
[ [(Helvetica) 260.0 0.0 true true 0 ( 0.02)]
] -86.7 MRshow
1.000 UL
LTb
1742 2467 M
63 0 V
5005 0 R
-63 0 V
stroke
1586 2467 M
[ [(Helvetica) 260.0 0.0 true true 0 ( 0.04)]
] -86.7 MRshow
1.000 UL
LTb
1742 3284 M
63 0 V
5005 0 R
-63 0 V
stroke
1586 3284 M
[ [(Helvetica) 260.0 0.0 true true 0 ( 0.06)]
] -86.7 MRshow
1.000 UL
LTb
1742 4101 M
63 0 V
5005 0 R
-63 0 V
stroke
1586 4101 M
[ [(Helvetica) 260.0 0.0 true true 0 ( 0.08)]
] -86.7 MRshow
1.000 UL
LTb
1742 4919 M
63 0 V
5005 0 R
-63 0 V
stroke
1586 4919 M
[ [(Helvetica) 260.0 0.0 true true 0 ( 0.1)]
] -86.7 MRshow
1.000 UL
LTb
1742 5736 M
63 0 V
5005 0 R
-63 0 V
stroke
1586 5736 M
[ [(Helvetica) 260.0 0.0 true true 0 ( 0.12)]
] -86.7 MRshow
1.000 UL
LTb
1742 832 M
0 63 V
0 4841 R
0 -63 V
stroke
1742 572 M
[ [(Helvetica) 260.0 0.0 true true 0 ( 0)]
] -86.7 MCshow
1.000 UL
LTb
2756 832 M
0 63 V
0 4841 R
0 -63 V
stroke
2756 572 M
[ [(Helvetica) 260.0 0.0 true true 0 ( 2)]
] -86.7 MCshow
1.000 UL
LTb
3769 832 M
0 63 V
0 4841 R
0 -63 V
stroke
3769 572 M
[ [(Helvetica) 260.0 0.0 true true 0 ( 4)]
] -86.7 MCshow
1.000 UL
LTb
4783 832 M
0 63 V
0 4841 R
0 -63 V
stroke
4783 572 M
[ [(Helvetica) 260.0 0.0 true true 0 ( 6)]
] -86.7 MCshow
1.000 UL
LTb
5796 832 M
0 63 V
0 4841 R
0 -63 V
stroke
5796 572 M
[ [(Helvetica) 260.0 0.0 true true 0 ( 8)]
] -86.7 MCshow
1.000 UL
LTb
6810 832 M
0 63 V
0 4841 R
0 -63 V
stroke
6810 572 M
[ [(Helvetica) 260.0 0.0 true true 0 ( 10)]
] -86.7 MCshow
1.000 UL
LTb
1.000 UL
LTb
1742 5736 N
0 -4904 V
5068 0 V
0 4904 V
-5068 0 V
Z stroke
LCb setrgbcolor
520 3284 M
currentpoint gsave translate 90 rotate 0 0 moveto
[ [(Helvetica) 260.0 0.0 true true 0 (c \()]
[(Symbol) 260.0 0.0 true true 0 (m)]
[(Helvetica) 260.0 0.0 true true 0 (Ci/ml\))]
] -86.7 MCshow
grestore
LTb
LCb setrgbcolor
4276 182 M
[ [(Helvetica) 260.0 0.0 true true 0 (t \(days\))]
] -86.7 MCshow
LTb
1.000 UP
1.000 UL
LTb
1.500 UP
1.000 UL
LT0
LTb
5655 5478 M
[ [(Helvetica) 260.0 0.0 true true 0 (data)]
] -86.7 MRshow
LT0
1801 852 Circle
1807 856 Circle
1811 853 Circle
1814 852 Circle
1817 853 Circle
1821 849 Circle
1824 854 Circle
1827 854 Circle
1831 854 Circle
1834 854 Circle
1837 854 Circle
1840 857 Circle
1844 857 Circle
1847 857 Circle
1850 857 Circle
1854 860 Circle
1857 861 Circle
1860 863 Circle
1864 868 Circle
1867 868 Circle
1870 872 Circle
1874 874 Circle
1877 881 Circle
1880 890 Circle
1884 896 Circle
1887 902 Circle
1890 911 Circle
1893 924 Circle
1897 934 Circle
1900 948 Circle
1903 958 Circle
1907 975 Circle
1910 984 Circle
1913 1005 Circle
1916 1025 Circle
1920 1034 Circle
1923 1058 Circle
1926 1070 Circle
1930 1101 Circle
1933 1129 Circle
1936 1136 Circle
1940 1171 Circle
1943 1198 Circle
1946 1201 Circle
1949 1226 Circle
1953 1266 Circle
1956 1299 Circle
1959 1333 Circle
1963 1354 Circle
1966 1358 Circle
1969 1413 Circle
1979 1510 Circle
1999 1703 Circle
2009 1792 Circle
2018 1948 Circle
2028 2065 Circle
2038 2107 Circle
2048 2200 Circle
2058 2309 Circle
2068 2478 Circle
2078 2562 Circle
2088 2608 Circle
2108 2840 Circle
2129 2991 Circle
2139 3071 Circle
2149 3084 Circle
2159 3248 Circle
2169 3353 Circle
2179 3362 Circle
2188 3509 Circle
2198 3497 Circle
2208 3497 Circle
2218 3711 Circle
2228 3665 Circle
2238 3774 Circle
2248 3758 Circle
2258 3884 Circle
2268 3854 Circle
2278 3896 Circle
2288 3998 Circle
2298 3947 Circle
2309 4157 Circle
2318 4149 Circle
2328 4195 Circle
2338 4179 Circle
2348 4166 Circle
2358 4208 Circle
2368 4305 Circle
2378 4347 Circle
2388 4119 Circle
2398 4355 Circle
2408 4393 Circle
2418 4465 Circle
2428 4532 Circle
2438 4469 Circle
2448 4519 Circle
2458 4503 Circle
2468 4566 Circle
2478 4624 Circle
2487 4582 Circle
2497 4637 Circle
2507 4662 Circle
2527 4717 Circle
2537 4658 Circle
2547 4692 Circle
2557 4595 Circle
2567 4814 Circle
2577 4713 Circle
2587 4827 Circle
2597 4780 Circle
2607 4827 Circle
2617 4944 Circle
2625 4839 Circle
2635 4898 Circle
2645 4877 Circle
2655 5025 Circle
2665 4919 Circle
2675 4944 Circle
2685 4915 Circle
2695 4940 Circle
2705 5033 Circle
2715 5037 Circle
2725 4898 Circle
2735 5083 Circle
2745 4991 Circle
2755 4936 Circle
2765 4860 Circle
2774 4987 Circle
2784 5083 Circle
2794 5041 Circle
2804 5041 Circle
2814 5083 Circle
2824 5041 Circle
2834 5168 Circle
2844 5125 Circle
2854 5252 Circle
2864 5210 Circle
2874 5125 Circle
2884 5168 Circle
2894 5125 Circle
2904 5210 Circle
2914 5029 Circle
2924 5125 Circle
2934 5210 Circle
2943 5252 Circle
2953 5125 Circle
2963 5252 Circle
2973 5168 Circle
2983 5336 Circle
2993 5168 Circle
3003 5125 Circle
3013 5168 Circle
3023 5294 Circle
3033 5252 Circle
3043 5210 Circle
3053 5336 Circle
3063 5252 Circle
3073 5378 Circle
3090 5336 Circle
3121 5378 Circle
3131 5252 Circle
3140 5420 Circle
3150 5336 Circle
3160 5252 Circle
3170 5210 Circle
3180 5336 Circle
3190 5294 Circle
3200 5294 Circle
3210 5294 Circle
3220 5336 Circle
3250 5210 Circle
3260 5252 Circle
3270 5168 Circle
3280 5210 Circle
3300 5125 Circle
3310 4974 Circle
3319 5125 Circle
3329 4902 Circle
3339 4835 Circle
3349 4730 Circle
3359 4545 Circle
3369 4490 Circle
3379 4410 Circle
3399 4212 Circle
3409 4136 Circle
3418 4060 Circle
3428 3964 Circle
3448 3686 Circle
3458 3711 Circle
3468 3619 Circle
3478 3505 Circle
3488 3433 Circle
3498 3315 Circle
3508 3253 Circle
3517 3177 Circle
3527 3109 Circle
3537 3021 Circle
3547 2995 Circle
3557 2933 Circle
3567 2848 Circle
3577 2819 Circle
3587 2790 Circle
3597 2705 Circle
3607 2688 Circle
3617 2558 Circle
3627 2562 Circle
3637 2520 Circle
3647 2511 Circle
3657 2469 Circle
3667 2335 Circle
3677 2368 Circle
3687 2368 Circle
3696 2246 Circle
3706 2280 Circle
3716 2284 Circle
3726 2174 Circle
3736 2174 Circle
3746 2137 Circle
3756 2065 Circle
3766 2065 Circle
3776 2065 Circle
3786 2011 Circle
3796 1998 Circle
3806 1973 Circle
3816 1926 Circle
3826 1935 Circle
3836 1918 Circle
3846 1897 Circle
3855 1867 Circle
3865 1846 Circle
3875 1817 Circle
3885 1770 Circle
3895 1770 Circle
3905 1754 Circle
3915 1749 Circle
3924 1758 Circle
3934 1720 Circle
3944 1695 Circle
3954 1695 Circle
3964 1678 Circle
3974 1653 Circle
3984 1657 Circle
3994 1640 Circle
4004 1602 Circle
4014 1611 Circle
4023 1590 Circle
4033 1573 Circle
4043 1560 Circle
4053 1560 Circle
4063 1522 Circle
4073 1505 Circle
4083 1514 Circle
4093 1493 Circle
4103 1484 Circle
6154 5478 Circle
8.000 UL
LT0
LTb
5655 5088 M
[ [(Symbol) 260.0 0.0 true true 0 (F)]
[(Helvetica) 208.0 -78.0 true true 0 (opt)]
] -60.7 MRshow
LT0
5811 5088 M
687 0 V
1748 852 M
1 0 V
1 0 V
1 0 V
1 0 V
1 0 V
1 0 V
1 0 V
1 0 V
1 0 V
1 0 V
1 0 V
1 0 V
1 0 V
1 0 V
1 0 V
1 0 V
1 0 V
1 0 V
1 0 V
1 0 V
1 0 V
1 0 V
1 0 V
1 0 V
1 0 V
1 0 V
1 0 V
1 0 V
1 0 V
1 0 V
1 0 V
1 0 V
1 0 V
1 0 V
1 0 V
1 0 V
1 0 V
1 0 V
1 0 V
1 0 V
1 0 V
1 0 V
1 0 V
1 0 V
1 0 V
1 0 V
1 0 V
1 0 V
1 0 V
1 0 V
1 0 V
1 0 V
1 0 V
6 0 V
5 0 V
6 0 V
6 1 V
6 0 V
6 0 V
6 1 V
6 1 V
5 2 V
6 4 V
6 4 V
6 7 V
6 9 V
6 11 V
6 14 V
6 17 V
5 20 V
6 24 V
6 27 V
6 31 V
6 34 V
6 37 V
6 41 V
5 44 V
6 47 V
6 49 V
6 52 V
6 54 V
6 56 V
6 58 V
5 59 V
6 60 V
6 62 V
6 61 V
6 63 V
6 63 V
6 63 V
6 63 V
5 62 V
6 63 V
6 62 V
6 61 V
6 61 V
6 60 V
6 59 V
5 58 V
6 58 V
6 56 V
6 56 V
stroke 2088 2647 M
6 54 V
6 54 V
6 52 V
6 51 V
5 51 V
6 49 V
6 48 V
6 47 V
6 46 V
6 45 V
6 43 V
5 43 V
6 42 V
6 41 V
6 40 V
6 39 V
6 38 V
6 37 V
6 37 V
5 35 V
6 35 V
6 33 V
6 34 V
6 32 V
6 31 V
6 31 V
5 30 V
6 30 V
6 28 V
6 28 V
6 28 V
6 27 V
6 26 V
6 26 V
5 25 V
6 24 V
6 24 V
6 24 V
6 23 V
6 22 V
6 22 V
58 198 V
59 163 V
59 136 V
58 115 V
59 99 V
59 86 V
58 75 V
59 66 V
58 59 V
59 52 V
59 46 V
58 42 V
59 43 V
59 45 V
58 19 V
59 -100 V
59 -334 V
58 -540 V
59 -584 V
59 -507 V
58 -403 V
59 -314 V
59 -243 V
58 -189 V
59 -168 V
59 -132 V
58 -109 V
59 -92 V
59 -79 V
58 -68 V
59 -59 V
59 -52 V
58 -45 V
59 -40 V
59 -36 V
58 -32 V
59 -28 V
59 -26 V
58 -23 V
59 -21 V
59 -20 V
58 -17 V
59 -16 V
59 -15 V
58 -14 V
59 -12 V
58 -12 V
59 -11 V
59 -10 V
58 -9 V
59 -8 V
59 -8 V
58 -8 V
59 -7 V
59 -6 V
58 -6 V
59 -6 V
59 -6 V
58 -5 V
59 -5 V
59 -4 V
58 -4 V
59 -4 V
stroke 6024 929 M
59 -4 V
58 -4 V
59 -3 V
59 -3 V
58 -3 V
59 -3 V
59 -3 V
58 -3 V
59 -2 V
59 -3 V
58 -2 V
59 -2 V
59 -2 V
23 -1 V
stroke
2.000 UL
LT2
LTb
5655 4698 M
[ [(Symbol) 260.0 0.0 true true 0 (e)]
[(Helvetica) 260.0 0.0 true true 0 ( = 2)]
] -86.7 MRshow
LT2
5811 4698 M
687 0 V
1748 852 M
1 0 V
1 0 V
1 0 V
1 0 V
1 0 V
1 0 V
1 0 V
1 0 V
1 0 V
1 0 V
1 0 V
1 0 V
1 0 V
1 0 V
1 0 V
1 0 V
1 0 V
1 0 V
1 0 V
1 0 V
1 0 V
1 0 V
1 0 V
1 0 V
1 0 V
1 0 V
1 0 V
1 0 V
1 0 V
1 0 V
1 0 V
1 0 V
1 0 V
1 0 V
1 0 V
1 0 V
1 0 V
1 0 V
1 0 V
1 0 V
1 0 V
1 0 V
1 0 V
1 0 V
1 0 V
1 0 V
1 0 V
1 0 V
1 0 V
1 0 V
1 0 V
1 0 V
1 0 V
6 0 V
5 1 V
6 0 V
6 0 V
6 1 V
6 2 V
6 3 V
6 3 V
5 5 V
6 7 V
6 9 V
6 11 V
6 14 V
6 16 V
6 19 V
6 21 V
5 25 V
6 27 V
6 30 V
6 32 V
6 36 V
6 37 V
6 40 V
5 42 V
6 45 V
6 46 V
6 48 V
6 49 V
6 51 V
6 52 V
5 53 V
6 54 V
6 55 V
6 55 V
6 56 V
6 56 V
6 57 V
6 56 V
5 57 V
6 56 V
6 57 V
6 56 V
6 55 V
6 56 V
6 55 V
5 54 V
6 54 V
6 53 V
6 53 V
stroke 2088 2572 M
6 52 V
6 52 V
6 50 V
6 50 V
5 49 V
6 49 V
6 47 V
6 47 V
6 46 V
6 45 V
6 45 V
5 43 V
6 43 V
6 42 V
6 41 V
6 41 V
6 39 V
6 39 V
6 38 V
5 37 V
6 37 V
6 36 V
6 35 V
6 34 V
6 34 V
6 33 V
5 33 V
6 31 V
6 31 V
6 31 V
6 29 V
6 30 V
6 28 V
6 28 V
5 27 V
6 27 V
6 26 V
6 26 V
6 25 V
6 25 V
6 24 V
58 216 V
59 176 V
59 145 V
58 120 V
59 101 V
59 85 V
58 73 V
59 63 V
58 54 V
59 47 V
59 41 V
58 37 V
59 39 V
59 37 V
58 3 V
59 -119 V
59 -319 V
58 -484 V
59 -534 V
59 -494 V
58 -414 V
59 -378 V
59 -266 V
58 -222 V
59 -180 V
59 -146 V
58 -121 V
59 -99 V
59 -83 V
58 -70 V
59 -60 V
59 -50 V
58 -44 V
59 -38 V
59 -33 V
58 -29 V
59 -25 V
59 -23 V
58 -20 V
59 -18 V
59 -16 V
58 -15 V
59 -13 V
59 -12 V
58 -11 V
59 -10 V
58 -9 V
59 -8 V
59 -8 V
58 -7 V
59 -6 V
59 -6 V
58 -6 V
59 -5 V
59 -5 V
58 -4 V
59 -4 V
59 -4 V
58 -4 V
59 -3 V
59 -4 V
58 -3 V
59 -2 V
stroke 6024 900 M
59 -3 V
58 -3 V
59 -2 V
59 -2 V
58 -2 V
59 -2 V
59 -2 V
58 -2 V
59 -2 V
59 -1 V
58 -2 V
59 -1 V
59 -2 V
23 0 V
stroke
LT1
LTb
5655 4308 M
[ [(Symbol) 260.0 0.0 true true 0 (e)]
[(Helvetica) 260.0 0.0 true true 0 ( = 5)]
] -86.7 MRshow
LT1
5811 4308 M
687 0 V
1748 852 M
1 0 V
1 0 V
1 0 V
1 0 V
1 0 V
1 0 V
1 0 V
1 0 V
1 0 V
1 0 V
1 0 V
1 0 V
1 0 V
1 0 V
1 0 V
1 0 V
1 0 V
1 0 V
1 0 V
1 0 V
1 0 V
1 0 V
1 0 V
1 0 V
1 0 V
1 0 V
1 0 V
1 0 V
1 0 V
1 0 V
1 0 V
1 0 V
1 0 V
1 0 V
1 0 V
1 0 V
1 0 V
1 0 V
1 0 V
1 0 V
1 1 V
1 0 V
1 0 V
1 0 V
1 0 V
1 0 V
1 0 V
1 0 V
1 0 V
1 0 V
1 0 V
1 0 V
1 0 V
6 1 V
5 1 V
6 2 V
6 3 V
6 5 V
6 5 V
6 8 V
6 9 V
5 12 V
6 13 V
6 16 V
6 18 V
6 21 V
6 22 V
6 25 V
6 28 V
5 29 V
6 32 V
6 34 V
6 35 V
6 38 V
6 39 V
6 41 V
5 42 V
6 44 V
6 45 V
6 46 V
6 48 V
6 48 V
6 49 V
5 50 V
6 50 V
6 51 V
6 51 V
6 52 V
6 51 V
6 53 V
6 52 V
5 52 V
6 52 V
6 52 V
6 52 V
6 52 V
6 51 V
6 52 V
5 51 V
6 50 V
6 50 V
6 50 V
stroke 2088 2586 M
6 49 V
6 49 V
6 48 V
6 48 V
5 47 V
6 46 V
6 46 V
6 46 V
6 45 V
6 44 V
6 43 V
5 43 V
6 42 V
6 42 V
6 41 V
6 40 V
6 40 V
6 39 V
6 38 V
5 38 V
6 37 V
6 37 V
6 36 V
6 35 V
6 34 V
6 34 V
5 34 V
6 32 V
6 33 V
6 31 V
6 31 V
6 31 V
6 29 V
6 30 V
5 28 V
6 28 V
6 28 V
6 27 V
6 27 V
6 26 V
6 25 V
58 229 V
59 188 V
59 153 V
58 125 V
59 102 V
59 84 V
58 70 V
59 58 V
58 48 V
59 40 V
59 33 V
58 30 V
59 32 V
59 28 V
58 -19 V
59 -154 V
59 -351 V
58 -473 V
59 -464 V
59 -475 V
58 -424 V
59 -365 V
59 -304 V
58 -251 V
59 -206 V
59 -167 V
58 -136 V
59 -111 V
59 -90 V
58 -74 V
59 -61 V
59 -51 V
58 -41 V
59 -35 V
59 -30 V
58 -24 V
59 -21 V
59 -18 V
58 -16 V
59 -13 V
59 -11 V
58 -11 V
59 -8 V
59 -8 V
58 -7 V
59 -6 V
58 -5 V
59 -5 V
59 -5 V
58 -3 V
59 -4 V
59 -3 V
58 -3 V
59 -3 V
59 -2 V
58 -3 V
59 -2 V
59 -2 V
58 -1 V
59 -2 V
59 -1 V
58 -2 V
59 -1 V
stroke 6024 861 M
59 -1 V
58 -2 V
59 -1 V
59 -1 V
58 -1 V
59 -1 V
59 0 V
58 -1 V
59 -1 V
59 -1 V
58 0 V
59 -1 V
59 -1 V
23 0 V
stroke
LT0
LTb
5655 3918 M
[ [(Symbol) 260.0 0.0 true true 0 (e)]
[(Helvetica) 260.0 0.0 true true 0 ( = 10)]
] -86.7 MRshow
LT0
5811 3918 M
687 0 V
1748 852 M
1 0 V
1 0 V
1 0 V
1 0 V
1 0 V
1 0 V
1 0 V
1 0 V
1 0 V
1 0 V
1 0 V
1 0 V
1 0 V
1 0 V
1 0 V
1 0 V
1 0 V
1 0 V
1 0 V
1 0 V
1 0 V
1 0 V
1 0 V
1 0 V
1 0 V
1 0 V
1 0 V
1 0 V
1 0 V
1 0 V
1 0 V
1 0 V
1 0 V
1 0 V
1 0 V
1 0 V
1 0 V
1 0 V
1 0 V
1 0 V
1 1 V
1 0 V
1 0 V
1 0 V
1 0 V
1 0 V
1 0 V
1 0 V
1 0 V
1 0 V
1 0 V
1 0 V
1 0 V
6 1 V
5 1 V
6 3 V
6 4 V
6 5 V
6 7 V
6 8 V
6 11 V
5 14 V
6 15 V
6 18 V
6 21 V
6 23 V
6 26 V
6 28 V
6 30 V
5 32 V
6 35 V
6 37 V
6 38 V
6 40 V
6 42 V
6 44 V
5 45 V
6 46 V
6 47 V
6 48 V
6 49 V
6 50 V
6 51 V
5 51 V
6 52 V
6 52 V
6 52 V
6 53 V
6 52 V
6 53 V
6 53 V
5 52 V
6 53 V
6 52 V
6 52 V
6 52 V
6 52 V
6 51 V
5 51 V
6 50 V
6 50 V
6 49 V
stroke 2088 2654 M
6 49 V
6 48 V
6 48 V
6 47 V
5 47 V
6 46 V
6 46 V
6 44 V
6 45 V
6 43 V
6 43 V
5 42 V
6 42 V
6 41 V
6 40 V
6 40 V
6 39 V
6 38 V
6 38 V
5 37 V
6 36 V
6 36 V
6 35 V
6 35 V
6 34 V
6 33 V
5 33 V
6 32 V
6 31 V
6 31 V
6 31 V
6 29 V
6 29 V
6 29 V
5 28 V
6 28 V
6 27 V
6 26 V
6 26 V
6 25 V
6 25 V
58 223 V
59 181 V
59 147 V
58 118 V
59 95 V
59 76 V
58 62 V
59 50 V
58 40 V
59 31 V
59 25 V
58 21 V
59 23 V
59 25 V
58 -7 V
59 -128 V
59 -313 V
58 -451 V
59 -514 V
59 -496 V
58 -443 V
59 -382 V
59 -320 V
58 -264 V
59 -216 V
59 -175 V
58 -142 V
59 -114 V
59 -92 V
58 -74 V
59 -59 V
59 -48 V
58 -38 V
59 -31 V
59 -25 V
58 -20 V
59 -17 V
59 -13 V
58 -10 V
59 -9 V
59 -7 V
58 -6 V
59 -4 V
59 -4 V
58 -3 V
59 -3 V
58 -2 V
59 -2 V
59 -1 V
58 -1 V
59 -1 V
59 -1 V
58 -1 V
59 0 V
59 -1 V
58 0 V
59 0 V
59 -1 V
58 0 V
59 0 V
59 0 V
58 0 V
59 0 V
stroke 6024 834 M
59 -1 V
58 0 V
59 0 V
59 0 V
58 0 V
59 0 V
59 0 V
58 0 V
59 0 V
59 0 V
58 0 V
59 0 V
59 0 V
23 0 V
1748 852 M
1 0 V
1 0 V
1 0 V
1 0 V
1 0 V
1 0 V
1 0 V
1 0 V
1 0 V
1 0 V
1 0 V
1 0 V
1 0 V
1 0 V
1 0 V
1 0 V
1 0 V
1 0 V
1 0 V
1 0 V
1 0 V
1 0 V
1 0 V
1 0 V
1 0 V
1 0 V
1 0 V
1 0 V
1 0 V
1 0 V
1 0 V
1 0 V
1 0 V
1 0 V
1 0 V
1 0 V
1 0 V
1 0 V
1 0 V
1 0 V
1 0 V
1 0 V
1 0 V
1 0 V
1 0 V
1 0 V
1 0 V
1 0 V
1 0 V
1 0 V
1 0 V
1 0 V
1 0 V
6 0 V
5 0 V
6 1 V
6 0 V
6 0 V
6 1 V
6 1 V
6 2 V
5 3 V
6 5 V
6 7 V
6 9 V
6 12 V
6 15 V
6 18 V
6 22 V
5 26 V
6 31 V
6 34 V
6 39 V
6 42 V
6 47 V
6 50 V
5 54 V
6 57 V
6 60 V
6 63 V
6 66 V
6 67 V
6 69 V
5 70 V
6 71 V
6 72 V
6 73 V
6 73 V
6 72 V
stroke 2012 2084 M
6 73 V
6 71 V
5 71 V
6 71 V
6 69 V
6 68 V
6 66 V
6 66 V
6 63 V
5 63 V
6 61 V
6 59 V
6 57 V
6 56 V
6 54 V
6 53 V
6 51 V
5 49 V
6 48 V
6 46 V
6 45 V
6 43 V
6 41 V
6 41 V
5 39 V
6 37 V
6 36 V
6 35 V
6 34 V
6 33 V
6 32 V
6 30 V
5 30 V
6 28 V
6 28 V
6 27 V
6 26 V
6 25 V
6 24 V
5 24 V
6 23 V
6 22 V
6 22 V
6 21 V
6 20 V
6 20 V
6 20 V
5 18 V
6 19 V
6 18 V
6 17 V
6 18 V
6 16 V
6 17 V
58 148 V
59 125 V
59 111 V
58 100 V
59 92 V
59 86 V
58 79 V
59 75 V
58 69 V
59 65 V
59 60 V
58 58 V
59 61 V
59 61 V
58 29 V
59 -109 V
59 -386 V
58 -636 V
59 -649 V
59 -496 V
58 -339 V
59 -233 V
59 -169 V
58 -130 V
59 -105 V
59 -90 V
58 -79 V
59 -71 V
59 -65 V
58 -60 V
59 -55 V
59 -52 V
58 -48 V
59 -45 V
59 -42 V
58 -39 V
59 -37 V
59 -35 V
58 -32 V
59 -30 V
59 -29 V
58 -27 V
59 -25 V
59 -24 V
58 -23 V
59 -21 V
58 -20 V
59 -19 V
59 -18 V
58 -18 V
stroke 5261 1191 M
59 -16 V
59 -15 V
58 -14 V
59 -14 V
59 -13 V
58 -13 V
59 -11 V
59 -11 V
58 -11 V
59 -10 V
59 -10 V
58 -9 V
59 -8 V
59 -9 V
58 -8 V
59 -7 V
59 -7 V
58 -7 V
59 -7 V
59 -6 V
58 -6 V
59 -5 V
59 -6 V
58 -5 V
59 -5 V
59 -5 V
23 -2 V
stroke
LT1
1748 852 M
1 0 V
1 0 V
1 0 V
1 0 V
1 0 V
1 0 V
1 0 V
1 0 V
1 0 V
1 0 V
1 0 V
1 0 V
1 0 V
1 0 V
1 0 V
1 0 V
1 0 V
1 0 V
1 0 V
1 0 V
1 0 V
1 0 V
1 0 V
1 0 V
1 0 V
1 0 V
1 0 V
1 0 V
1 0 V
1 0 V
1 0 V
1 0 V
1 0 V
1 0 V
1 0 V
1 0 V
1 0 V
1 0 V
1 0 V
1 0 V
1 0 V
1 0 V
1 0 V
1 0 V
1 0 V
1 0 V
1 0 V
1 0 V
1 0 V
1 0 V
1 0 V
1 0 V
1 0 V
6 0 V
5 0 V
6 1 V
6 0 V
6 0 V
6 0 V
6 1 V
6 2 V
5 3 V
6 3 V
6 5 V
6 7 V
6 9 V
6 12 V
6 14 V
6 17 V
5 20 V
6 23 V
6 27 V
6 30 V
6 34 V
6 37 V
6 41 V
5 43 V
6 47 V
6 49 V
6 52 V
6 55 V
6 57 V
6 59 V
5 60 V
6 63 V
6 63 V
6 64 V
6 66 V
6 65 V
6 66 V
6 67 V
5 66 V
6 66 V
6 66 V
6 66 V
6 64 V
6 64 V
6 64 V
5 62 V
6 61 V
6 60 V
6 59 V
6 58 V
6 57 V
stroke 2100 2827 M
6 55 V
6 54 V
5 53 V
6 51 V
6 51 V
6 48 V
6 48 V
6 46 V
6 45 V
5 43 V
6 43 V
6 41 V
6 39 V
6 39 V
6 37 V
6 37 V
6 35 V
5 34 V
6 33 V
6 32 V
6 31 V
6 30 V
6 29 V
6 29 V
5 27 V
6 27 V
6 26 V
6 25 V
6 24 V
6 23 V
6 23 V
6 22 V
5 22 V
6 21 V
6 20 V
6 20 V
6 19 V
6 19 V
6 18 V
58 160 V
59 128 V
59 107 V
58 94 V
59 84 V
59 76 V
58 70 V
59 66 V
58 61 V
59 57 V
59 53 V
58 51 V
59 53 V
59 55 V
58 27 V
59 -86 V
59 -314 V
58 -547 V
59 -620 V
59 -532 V
58 -393 V
59 -277 V
59 -196 V
58 -146 V
59 -113 V
59 -91 V
58 -75 V
59 -65 V
59 -58 V
58 -53 V
59 -48 V
59 -44 V
58 -41 V
59 -39 V
59 -36 V
58 -34 V
59 -32 V
59 -30 V
58 -28 V
59 -26 V
59 -25 V
58 -24 V
59 -22 V
59 -21 V
58 -20 V
59 -19 V
58 -18 V
59 -16 V
59 -16 V
58 -16 V
59 -14 V
59 -14 V
58 -12 V
59 -13 V
59 -11 V
58 -12 V
59 -10 V
59 -10 V
58 -10 V
59 -9 V
59 -9 V
58 -8 V
59 -8 V
59 -7 V
58 -8 V
stroke 6141 1012 M
59 -7 V
59 -6 V
58 -6 V
59 -6 V
59 -6 V
58 -6 V
59 -5 V
59 -5 V
58 -5 V
59 -4 V
59 -5 V
23 -2 V
stroke
LT2
1748 852 M
1 0 V
1 0 V
1 0 V
1 0 V
1 0 V
1 0 V
1 0 V
1 0 V
1 0 V
1 0 V
1 0 V
1 0 V
1 0 V
1 0 V
1 0 V
1 0 V
1 0 V
1 0 V
1 0 V
1 0 V
1 0 V
1 0 V
1 0 V
1 0 V
1 0 V
1 0 V
1 0 V
1 0 V
1 0 V
1 0 V
1 0 V
1 0 V
1 0 V
1 0 V
1 0 V
1 0 V
1 0 V
1 0 V
1 0 V
1 0 V
1 0 V
1 0 V
1 0 V
1 0 V
1 0 V
1 0 V
1 0 V
1 0 V
1 0 V
1 0 V
1 0 V
1 0 V
1 0 V
6 0 V
5 0 V
6 1 V
6 0 V
6 0 V
6 1 V
6 1 V
6 3 V
5 3 V
6 4 V
6 6 V
6 8 V
6 10 V
6 13 V
6 15 V
6 18 V
5 20 V
6 24 V
6 27 V
6 30 V
6 33 V
6 35 V
6 39 V
5 42 V
6 44 V
6 47 V
6 49 V
6 51 V
6 53 V
6 55 V
5 57 V
6 58 V
6 59 V
6 60 V
6 61 V
6 61 V
6 62 V
6 62 V
5 63 V
6 62 V
6 62 V
6 62 V
6 62 V
6 61 V
6 61 V
5 60 V
6 59 V
6 58 V
6 58 V
6 57 V
6 56 V
stroke 2100 2745 M
6 54 V
6 54 V
5 53 V
6 52 V
6 50 V
6 50 V
6 48 V
6 48 V
6 46 V
5 45 V
6 44 V
6 43 V
6 42 V
6 41 V
6 40 V
6 39 V
6 38 V
5 37 V
6 36 V
6 35 V
6 34 V
6 33 V
6 33 V
6 31 V
5 31 V
6 29 V
6 29 V
6 29 V
6 27 V
6 27 V
6 26 V
6 26 V
5 24 V
6 25 V
6 23 V
6 23 V
6 22 V
6 22 V
6 21 V
58 187 V
59 148 V
59 123 V
58 103 V
59 89 V
59 79 V
58 70 V
59 65 V
58 58 V
59 53 V
59 49 V
58 47 V
59 49 V
59 49 V
58 15 V
59 -105 V
59 -321 V
58 -523 V
59 -587 V
59 -523 V
58 -413 V
59 -309 V
59 -227 V
58 -178 V
59 -138 V
59 -108 V
58 -89 V
59 -75 V
59 -64 V
58 -56 V
59 -50 V
59 -45 V
58 -40 V
59 -37 V
59 -34 V
58 -32 V
59 -29 V
59 -27 V
58 -25 V
59 -23 V
59 -22 V
58 -20 V
59 -20 V
59 -18 V
58 -16 V
59 -16 V
58 -15 V
59 -14 V
59 -14 V
58 -12 V
59 -12 V
59 -11 V
58 -11 V
59 -10 V
59 -10 V
58 -9 V
59 -8 V
59 -9 V
58 -7 V
59 -8 V
59 -7 V
58 -7 V
59 -6 V
59 -6 V
58 -6 V
stroke 6141 987 M
59 -6 V
59 -5 V
58 -5 V
59 -5 V
59 -5 V
58 -4 V
59 -5 V
59 -4 V
58 -4 V
59 -3 V
59 -4 V
23 -2 V
stroke
1.000 UL
LTb
1742 5736 N
0 -4904 V
5068 0 V
0 4904 V
-5068 0 V
Z stroke
1.000 UP
1.000 UL
LTb
stroke
grestore
end
showpage
