%!PS-Adobe-2.0 EPSF-2.0
%%Title: B8_22Na_logn0b.eps
%%Creator: gnuplot 4.2 patchlevel 6 
%%CreationDate: Thu Aug  4 15:46:54 2011
%%DocumentFonts: (atend)
%%BoundingBox: 50 50 410 352
%%EndComments
%%BeginProlog
/gnudict 256 dict def
gnudict begin
%
% The following 6 true/false flags may be edited by hand if required
% The unit line width may also be changed
%
/Color true def
/Blacktext false def
/Solid false def
/Dashlength 1 def
/Landscape false def
/Level1 false def
/Rounded false def
/TransparentPatterns false def
/gnulinewidth 5.000 def
/userlinewidth gnulinewidth def
%
/vshift -86 def
/dl1 {
  10.0 Dashlength mul mul
  Rounded { currentlinewidth 0.75 mul sub dup 0 le { pop 0.01 } if } if
} def
/dl2 {
  10.0 Dashlength mul mul
  Rounded { currentlinewidth 0.75 mul add } if
} def
/hpt_ 31.5 def
/vpt_ 31.5 def
/hpt hpt_ def
/vpt vpt_ def
Level1 {} {
/SDict 10 dict def
systemdict /pdfmark known not {
  userdict /pdfmark systemdict /cleartomark get put
} if
SDict begin [
  /Title (B8_22Na_logn0b.eps)
  /Subject (gnuplot plot)
  /Creator (gnuplot 4.2 patchlevel 6 )
  /Author (Bwalya Malama,,,)
%  /Producer (gnuplot)
%  /Keywords ()
  /CreationDate (Thu Aug  4 15:46:54 2011)
  /DOCINFO pdfmark
end
} ifelse
%
% Gnuplot Prolog Version 4.2 (August 2006)
%
/M {moveto} bind def
/L {lineto} bind def
/R {rmoveto} bind def
/V {rlineto} bind def
/N {newpath moveto} bind def
/Z {closepath} bind def
/C {setrgbcolor} bind def
/f {rlineto fill} bind def
/vpt2 vpt 2 mul def
/hpt2 hpt 2 mul def
/Lshow {currentpoint stroke M 0 vshift R 
	Blacktext {gsave 0 setgray show grestore} {show} ifelse} def
/Rshow {currentpoint stroke M dup stringwidth pop neg vshift R
	Blacktext {gsave 0 setgray show grestore} {show} ifelse} def
/Cshow {currentpoint stroke M dup stringwidth pop -2 div vshift R 
	Blacktext {gsave 0 setgray show grestore} {show} ifelse} def
/UP {dup vpt_ mul /vpt exch def hpt_ mul /hpt exch def
  /hpt2 hpt 2 mul def /vpt2 vpt 2 mul def} def
/DL {Color {setrgbcolor Solid {pop []} if 0 setdash}
 {pop pop pop 0 setgray Solid {pop []} if 0 setdash} ifelse} def
/BL {stroke userlinewidth 2 mul setlinewidth
	Rounded {1 setlinejoin 1 setlinecap} if} def
/AL {stroke userlinewidth 2 div setlinewidth
	Rounded {1 setlinejoin 1 setlinecap} if} def
/UL {dup gnulinewidth mul /userlinewidth exch def
	dup 1 lt {pop 1} if 10 mul /udl exch def} def
/PL {stroke userlinewidth setlinewidth
	Rounded {1 setlinejoin 1 setlinecap} if} def
% Default Line colors
/LCw {1 1 1} def
/LCb {0 0 0} def
/LCa {0 0 0} def
/LC0 {1 0 0} def
/LC1 {0 1 0} def
/LC2 {0 0 1} def
/LC3 {1 0 1} def
/LC4 {0 1 1} def
/LC5 {1 1 0} def
/LC6 {0 0 0} def
/LC7 {1 0.3 0} def
/LC8 {0.5 0.5 0.5} def
% Default Line Types
/LTw {PL [] 1 setgray} def
/LTb {BL [] LCb DL} def
/LTa {AL [1 udl mul 2 udl mul] 0 setdash LCa setrgbcolor} def
/LT0 {PL [] LC0 DL} def
/LT1 {PL [4 dl1 2 dl2] LC1 DL} def
/LT2 {PL [2 dl1 3 dl2] LC2 DL} def
/LT3 {PL [1 dl1 1.5 dl2] LC3 DL} def
/LT4 {PL [6 dl1 2 dl2 1 dl1 2 dl2] LC4 DL} def
/LT5 {PL [3 dl1 3 dl2 1 dl1 3 dl2] LC5 DL} def
/LT6 {PL [2 dl1 2 dl2 2 dl1 6 dl2] LC6 DL} def
/LT7 {PL [1 dl1 2 dl2 6 dl1 2 dl2 1 dl1 2 dl2] LC7 DL} def
/LT8 {PL [2 dl1 2 dl2 2 dl1 2 dl2 2 dl1 2 dl2 2 dl1 4 dl2] LC8 DL} def
/Pnt {stroke [] 0 setdash gsave 1 setlinecap M 0 0 V stroke grestore} def
/Dia {stroke [] 0 setdash 2 copy vpt add M
  hpt neg vpt neg V hpt vpt neg V
  hpt vpt V hpt neg vpt V closepath stroke
  Pnt} def
/Pls {stroke [] 0 setdash vpt sub M 0 vpt2 V
  currentpoint stroke M
  hpt neg vpt neg R hpt2 0 V stroke
 } def
/Box {stroke [] 0 setdash 2 copy exch hpt sub exch vpt add M
  0 vpt2 neg V hpt2 0 V 0 vpt2 V
  hpt2 neg 0 V closepath stroke
  Pnt} def
/Crs {stroke [] 0 setdash exch hpt sub exch vpt add M
  hpt2 vpt2 neg V currentpoint stroke M
  hpt2 neg 0 R hpt2 vpt2 V stroke} def
/TriU {stroke [] 0 setdash 2 copy vpt 1.12 mul add M
  hpt neg vpt -1.62 mul V
  hpt 2 mul 0 V
  hpt neg vpt 1.62 mul V closepath stroke
  Pnt} def
/Star {2 copy Pls Crs} def
/BoxF {stroke [] 0 setdash exch hpt sub exch vpt add M
  0 vpt2 neg V hpt2 0 V 0 vpt2 V
  hpt2 neg 0 V closepath fill} def
/TriUF {stroke [] 0 setdash vpt 1.12 mul add M
  hpt neg vpt -1.62 mul V
  hpt 2 mul 0 V
  hpt neg vpt 1.62 mul V closepath fill} def
/TriD {stroke [] 0 setdash 2 copy vpt 1.12 mul sub M
  hpt neg vpt 1.62 mul V
  hpt 2 mul 0 V
  hpt neg vpt -1.62 mul V closepath stroke
  Pnt} def
/TriDF {stroke [] 0 setdash vpt 1.12 mul sub M
  hpt neg vpt 1.62 mul V
  hpt 2 mul 0 V
  hpt neg vpt -1.62 mul V closepath fill} def
/DiaF {stroke [] 0 setdash vpt add M
  hpt neg vpt neg V hpt vpt neg V
  hpt vpt V hpt neg vpt V closepath fill} def
/Pent {stroke [] 0 setdash 2 copy gsave
  translate 0 hpt M 4 {72 rotate 0 hpt L} repeat
  closepath stroke grestore Pnt} def
/PentF {stroke [] 0 setdash gsave
  translate 0 hpt M 4 {72 rotate 0 hpt L} repeat
  closepath fill grestore} def
/Circle {stroke [] 0 setdash 2 copy
  hpt 0 360 arc stroke Pnt} def
/CircleF {stroke [] 0 setdash hpt 0 360 arc fill} def
/C0 {BL [] 0 setdash 2 copy moveto vpt 90 450 arc} bind def
/C1 {BL [] 0 setdash 2 copy moveto
	2 copy vpt 0 90 arc closepath fill
	vpt 0 360 arc closepath} bind def
/C2 {BL [] 0 setdash 2 copy moveto
	2 copy vpt 90 180 arc closepath fill
	vpt 0 360 arc closepath} bind def
/C3 {BL [] 0 setdash 2 copy moveto
	2 copy vpt 0 180 arc closepath fill
	vpt 0 360 arc closepath} bind def
/C4 {BL [] 0 setdash 2 copy moveto
	2 copy vpt 180 270 arc closepath fill
	vpt 0 360 arc closepath} bind def
/C5 {BL [] 0 setdash 2 copy moveto
	2 copy vpt 0 90 arc
	2 copy moveto
	2 copy vpt 180 270 arc closepath fill
	vpt 0 360 arc} bind def
/C6 {BL [] 0 setdash 2 copy moveto
	2 copy vpt 90 270 arc closepath fill
	vpt 0 360 arc closepath} bind def
/C7 {BL [] 0 setdash 2 copy moveto
	2 copy vpt 0 270 arc closepath fill
	vpt 0 360 arc closepath} bind def
/C8 {BL [] 0 setdash 2 copy moveto
	2 copy vpt 270 360 arc closepath fill
	vpt 0 360 arc closepath} bind def
/C9 {BL [] 0 setdash 2 copy moveto
	2 copy vpt 270 450 arc closepath fill
	vpt 0 360 arc closepath} bind def
/C10 {BL [] 0 setdash 2 copy 2 copy moveto vpt 270 360 arc closepath fill
	2 copy moveto
	2 copy vpt 90 180 arc closepath fill
	vpt 0 360 arc closepath} bind def
/C11 {BL [] 0 setdash 2 copy moveto
	2 copy vpt 0 180 arc closepath fill
	2 copy moveto
	2 copy vpt 270 360 arc closepath fill
	vpt 0 360 arc closepath} bind def
/C12 {BL [] 0 setdash 2 copy moveto
	2 copy vpt 180 360 arc closepath fill
	vpt 0 360 arc closepath} bind def
/C13 {BL [] 0 setdash 2 copy moveto
	2 copy vpt 0 90 arc closepath fill
	2 copy moveto
	2 copy vpt 180 360 arc closepath fill
	vpt 0 360 arc closepath} bind def
/C14 {BL [] 0 setdash 2 copy moveto
	2 copy vpt 90 360 arc closepath fill
	vpt 0 360 arc} bind def
/C15 {BL [] 0 setdash 2 copy vpt 0 360 arc closepath fill
	vpt 0 360 arc closepath} bind def
/Rec {newpath 4 2 roll moveto 1 index 0 rlineto 0 exch rlineto
	neg 0 rlineto closepath} bind def
/Square {dup Rec} bind def
/Bsquare {vpt sub exch vpt sub exch vpt2 Square} bind def
/S0 {BL [] 0 setdash 2 copy moveto 0 vpt rlineto BL Bsquare} bind def
/S1 {BL [] 0 setdash 2 copy vpt Square fill Bsquare} bind def
/S2 {BL [] 0 setdash 2 copy exch vpt sub exch vpt Square fill Bsquare} bind def
/S3 {BL [] 0 setdash 2 copy exch vpt sub exch vpt2 vpt Rec fill Bsquare} bind def
/S4 {BL [] 0 setdash 2 copy exch vpt sub exch vpt sub vpt Square fill Bsquare} bind def
/S5 {BL [] 0 setdash 2 copy 2 copy vpt Square fill
	exch vpt sub exch vpt sub vpt Square fill Bsquare} bind def
/S6 {BL [] 0 setdash 2 copy exch vpt sub exch vpt sub vpt vpt2 Rec fill Bsquare} bind def
/S7 {BL [] 0 setdash 2 copy exch vpt sub exch vpt sub vpt vpt2 Rec fill
	2 copy vpt Square fill Bsquare} bind def
/S8 {BL [] 0 setdash 2 copy vpt sub vpt Square fill Bsquare} bind def
/S9 {BL [] 0 setdash 2 copy vpt sub vpt vpt2 Rec fill Bsquare} bind def
/S10 {BL [] 0 setdash 2 copy vpt sub vpt Square fill 2 copy exch vpt sub exch vpt Square fill
	Bsquare} bind def
/S11 {BL [] 0 setdash 2 copy vpt sub vpt Square fill 2 copy exch vpt sub exch vpt2 vpt Rec fill
	Bsquare} bind def
/S12 {BL [] 0 setdash 2 copy exch vpt sub exch vpt sub vpt2 vpt Rec fill Bsquare} bind def
/S13 {BL [] 0 setdash 2 copy exch vpt sub exch vpt sub vpt2 vpt Rec fill
	2 copy vpt Square fill Bsquare} bind def
/S14 {BL [] 0 setdash 2 copy exch vpt sub exch vpt sub vpt2 vpt Rec fill
	2 copy exch vpt sub exch vpt Square fill Bsquare} bind def
/S15 {BL [] 0 setdash 2 copy Bsquare fill Bsquare} bind def
/D0 {gsave translate 45 rotate 0 0 S0 stroke grestore} bind def
/D1 {gsave translate 45 rotate 0 0 S1 stroke grestore} bind def
/D2 {gsave translate 45 rotate 0 0 S2 stroke grestore} bind def
/D3 {gsave translate 45 rotate 0 0 S3 stroke grestore} bind def
/D4 {gsave translate 45 rotate 0 0 S4 stroke grestore} bind def
/D5 {gsave translate 45 rotate 0 0 S5 stroke grestore} bind def
/D6 {gsave translate 45 rotate 0 0 S6 stroke grestore} bind def
/D7 {gsave translate 45 rotate 0 0 S7 stroke grestore} bind def
/D8 {gsave translate 45 rotate 0 0 S8 stroke grestore} bind def
/D9 {gsave translate 45 rotate 0 0 S9 stroke grestore} bind def
/D10 {gsave translate 45 rotate 0 0 S10 stroke grestore} bind def
/D11 {gsave translate 45 rotate 0 0 S11 stroke grestore} bind def
/D12 {gsave translate 45 rotate 0 0 S12 stroke grestore} bind def
/D13 {gsave translate 45 rotate 0 0 S13 stroke grestore} bind def
/D14 {gsave translate 45 rotate 0 0 S14 stroke grestore} bind def
/D15 {gsave translate 45 rotate 0 0 S15 stroke grestore} bind def
/DiaE {stroke [] 0 setdash vpt add M
  hpt neg vpt neg V hpt vpt neg V
  hpt vpt V hpt neg vpt V closepath stroke} def
/BoxE {stroke [] 0 setdash exch hpt sub exch vpt add M
  0 vpt2 neg V hpt2 0 V 0 vpt2 V
  hpt2 neg 0 V closepath stroke} def
/TriUE {stroke [] 0 setdash vpt 1.12 mul add M
  hpt neg vpt -1.62 mul V
  hpt 2 mul 0 V
  hpt neg vpt 1.62 mul V closepath stroke} def
/TriDE {stroke [] 0 setdash vpt 1.12 mul sub M
  hpt neg vpt 1.62 mul V
  hpt 2 mul 0 V
  hpt neg vpt -1.62 mul V closepath stroke} def
/PentE {stroke [] 0 setdash gsave
  translate 0 hpt M 4 {72 rotate 0 hpt L} repeat
  closepath stroke grestore} def
/CircE {stroke [] 0 setdash 
  hpt 0 360 arc stroke} def
/Opaque {gsave closepath 1 setgray fill grestore 0 setgray closepath} def
/DiaW {stroke [] 0 setdash vpt add M
  hpt neg vpt neg V hpt vpt neg V
  hpt vpt V hpt neg vpt V Opaque stroke} def
/BoxW {stroke [] 0 setdash exch hpt sub exch vpt add M
  0 vpt2 neg V hpt2 0 V 0 vpt2 V
  hpt2 neg 0 V Opaque stroke} def
/TriUW {stroke [] 0 setdash vpt 1.12 mul add M
  hpt neg vpt -1.62 mul V
  hpt 2 mul 0 V
  hpt neg vpt 1.62 mul V Opaque stroke} def
/TriDW {stroke [] 0 setdash vpt 1.12 mul sub M
  hpt neg vpt 1.62 mul V
  hpt 2 mul 0 V
  hpt neg vpt -1.62 mul V Opaque stroke} def
/PentW {stroke [] 0 setdash gsave
  translate 0 hpt M 4 {72 rotate 0 hpt L} repeat
  Opaque stroke grestore} def
/CircW {stroke [] 0 setdash 
  hpt 0 360 arc Opaque stroke} def
/BoxFill {gsave Rec 1 setgray fill grestore} def
/Density {
  /Fillden exch def
  currentrgbcolor
  /ColB exch def /ColG exch def /ColR exch def
  /ColR ColR Fillden mul Fillden sub 1 add def
  /ColG ColG Fillden mul Fillden sub 1 add def
  /ColB ColB Fillden mul Fillden sub 1 add def
  ColR ColG ColB setrgbcolor} def
/BoxColFill {gsave Rec PolyFill} def
/PolyFill {gsave Density fill grestore grestore} def
/h {rlineto rlineto rlineto gsave closepath fill grestore} bind def
%
% PostScript Level 1 Pattern Fill routine for rectangles
% Usage: x y w h s a XX PatternFill
%	x,y = lower left corner of box to be filled
%	w,h = width and height of box
%	  a = angle in degrees between lines and x-axis
%	 XX = 0/1 for no/yes cross-hatch
%
/PatternFill {gsave /PFa [ 9 2 roll ] def
  PFa 0 get PFa 2 get 2 div add PFa 1 get PFa 3 get 2 div add translate
  PFa 2 get -2 div PFa 3 get -2 div PFa 2 get PFa 3 get Rec
  gsave 1 setgray fill grestore clip
  currentlinewidth 0.5 mul setlinewidth
  /PFs PFa 2 get dup mul PFa 3 get dup mul add sqrt def
  0 0 M PFa 5 get rotate PFs -2 div dup translate
  0 1 PFs PFa 4 get div 1 add floor cvi
	{PFa 4 get mul 0 M 0 PFs V} for
  0 PFa 6 get ne {
	0 1 PFs PFa 4 get div 1 add floor cvi
	{PFa 4 get mul 0 2 1 roll M PFs 0 V} for
 } if
  stroke grestore} def
%
/languagelevel where
 {pop languagelevel} {1} ifelse
 2 lt
	{/InterpretLevel1 true def}
	{/InterpretLevel1 Level1 def}
 ifelse
%
% PostScript level 2 pattern fill definitions
%
/Level2PatternFill {
/Tile8x8 {/PaintType 2 /PatternType 1 /TilingType 1 /BBox [0 0 8 8] /XStep 8 /YStep 8}
	bind def
/KeepColor {currentrgbcolor [/Pattern /DeviceRGB] setcolorspace} bind def
<< Tile8x8
 /PaintProc {0.5 setlinewidth pop 0 0 M 8 8 L 0 8 M 8 0 L stroke} 
>> matrix makepattern
/Pat1 exch def
<< Tile8x8
 /PaintProc {0.5 setlinewidth pop 0 0 M 8 8 L 0 8 M 8 0 L stroke
	0 4 M 4 8 L 8 4 L 4 0 L 0 4 L stroke}
>> matrix makepattern
/Pat2 exch def
<< Tile8x8
 /PaintProc {0.5 setlinewidth pop 0 0 M 0 8 L
	8 8 L 8 0 L 0 0 L fill}
>> matrix makepattern
/Pat3 exch def
<< Tile8x8
 /PaintProc {0.5 setlinewidth pop -4 8 M 8 -4 L
	0 12 M 12 0 L stroke}
>> matrix makepattern
/Pat4 exch def
<< Tile8x8
 /PaintProc {0.5 setlinewidth pop -4 0 M 8 12 L
	0 -4 M 12 8 L stroke}
>> matrix makepattern
/Pat5 exch def
<< Tile8x8
 /PaintProc {0.5 setlinewidth pop -2 8 M 4 -4 L
	0 12 M 8 -4 L 4 12 M 10 0 L stroke}
>> matrix makepattern
/Pat6 exch def
<< Tile8x8
 /PaintProc {0.5 setlinewidth pop -2 0 M 4 12 L
	0 -4 M 8 12 L 4 -4 M 10 8 L stroke}
>> matrix makepattern
/Pat7 exch def
<< Tile8x8
 /PaintProc {0.5 setlinewidth pop 8 -2 M -4 4 L
	12 0 M -4 8 L 12 4 M 0 10 L stroke}
>> matrix makepattern
/Pat8 exch def
<< Tile8x8
 /PaintProc {0.5 setlinewidth pop 0 -2 M 12 4 L
	-4 0 M 12 8 L -4 4 M 8 10 L stroke}
>> matrix makepattern
/Pat9 exch def
/Pattern1 {PatternBgnd KeepColor Pat1 setpattern} bind def
/Pattern2 {PatternBgnd KeepColor Pat2 setpattern} bind def
/Pattern3 {PatternBgnd KeepColor Pat3 setpattern} bind def
/Pattern4 {PatternBgnd KeepColor Landscape {Pat5} {Pat4} ifelse setpattern} bind def
/Pattern5 {PatternBgnd KeepColor Landscape {Pat4} {Pat5} ifelse setpattern} bind def
/Pattern6 {PatternBgnd KeepColor Landscape {Pat9} {Pat6} ifelse setpattern} bind def
/Pattern7 {PatternBgnd KeepColor Landscape {Pat8} {Pat7} ifelse setpattern} bind def
} def
%
%
%End of PostScript Level 2 code
%
/PatternBgnd {
  TransparentPatterns {} {gsave 1 setgray fill grestore} ifelse
} def
%
% Substitute for Level 2 pattern fill codes with
% grayscale if Level 2 support is not selected.
%
/Level1PatternFill {
/Pattern1 {0.250 Density} bind def
/Pattern2 {0.500 Density} bind def
/Pattern3 {0.750 Density} bind def
/Pattern4 {0.125 Density} bind def
/Pattern5 {0.375 Density} bind def
/Pattern6 {0.625 Density} bind def
/Pattern7 {0.875 Density} bind def
} def
%
% Now test for support of Level 2 code
%
Level1 {Level1PatternFill} {Level2PatternFill} ifelse
%
/Symbol-Oblique /Symbol findfont [1 0 .167 1 0 0] makefont
dup length dict begin {1 index /FID eq {pop pop} {def} ifelse} forall
currentdict end definefont pop
/MFshow {
   { dup 5 get 3 ge
     { 5 get 3 eq {gsave} {grestore} ifelse }
     {dup dup 0 get findfont exch 1 get scalefont setfont
     [ currentpoint ] exch dup 2 get 0 exch R dup 5 get 2 ne {dup dup 6
     get exch 4 get {show} {stringwidth pop 0 R} ifelse }if dup 5 get 0 eq
     {dup 3 get {2 get neg 0 exch R pop} {pop aload pop M} ifelse} {dup 5
     get 1 eq {dup 2 get exch dup 3 get exch 6 get stringwidth pop -2 div
     dup 0 R} {dup 6 get stringwidth pop -2 div 0 R 6 get
     show 2 index {aload pop M neg 3 -1 roll neg R pop pop} {pop pop pop
     pop aload pop M} ifelse }ifelse }ifelse }
     ifelse }
   forall} bind def
/MFwidth {0 exch { dup 5 get 3 ge { 5 get 3 eq { 0 } { pop } ifelse }
 {dup 3 get{dup dup 0 get findfont exch 1 get scalefont setfont
     6 get stringwidth pop add} {pop} ifelse} ifelse} forall} bind def
/MLshow { currentpoint stroke M
  0 exch R
  Blacktext {gsave 0 setgray MFshow grestore} {MFshow} ifelse } bind def
/MRshow { currentpoint stroke M
  exch dup MFwidth neg 3 -1 roll R
  Blacktext {gsave 0 setgray MFshow grestore} {MFshow} ifelse } bind def
/MCshow { currentpoint stroke M
  exch dup MFwidth -2 div 3 -1 roll R
  Blacktext {gsave 0 setgray MFshow grestore} {MFshow} ifelse } bind def
/XYsave    { [( ) 1 2 true false 3 ()] } bind def
/XYrestore { [( ) 1 2 true false 4 ()] } bind def
end
%%EndProlog
gnudict begin
gsave
50 50 translate
0.050 0.050 scale
0 setgray
newpath
(Helvetica) findfont 260 scalefont setfont
1.000 UL
LTb
1430 832 M
63 0 V
5317 0 R
-63 0 V
stroke
1274 832 M
[ [(Helvetica) 260.0 0.0 true true 0 (10)]
[(Helvetica) 208.0 130.0 true true 0 (-4)]
] -112.7 MRshow
1.000 UL
LTb
1430 1279 M
31 0 V
5349 0 R
-31 0 V
1430 1541 M
31 0 V
5349 0 R
-31 0 V
1430 1726 M
31 0 V
5349 0 R
-31 0 V
1430 1870 M
31 0 V
5349 0 R
-31 0 V
1430 1988 M
31 0 V
5349 0 R
-31 0 V
-5349 99 R
31 0 V
5349 0 R
-31 0 V
-5349 87 R
31 0 V
5349 0 R
-31 0 V
-5349 76 R
31 0 V
5349 0 R
-31 0 V
-5349 68 R
63 0 V
5317 0 R
-63 0 V
stroke
1274 2318 M
[ [(Helvetica) 260.0 0.0 true true 0 (10)]
[(Helvetica) 208.0 130.0 true true 0 (-3)]
] -112.7 MRshow
1.000 UL
LTb
1430 2765 M
31 0 V
5349 0 R
-31 0 V
1430 3026 M
31 0 V
5349 0 R
-31 0 V
1430 3212 M
31 0 V
5349 0 R
-31 0 V
1430 3356 M
31 0 V
5349 0 R
-31 0 V
1430 3474 M
31 0 V
5349 0 R
-31 0 V
-5349 99 R
31 0 V
5349 0 R
-31 0 V
-5349 86 R
31 0 V
5349 0 R
-31 0 V
-5349 76 R
31 0 V
5349 0 R
-31 0 V
-5349 68 R
63 0 V
5317 0 R
-63 0 V
stroke
1274 3803 M
[ [(Helvetica) 260.0 0.0 true true 0 (10)]
[(Helvetica) 208.0 130.0 true true 0 (-2)]
] -112.7 MRshow
1.000 UL
LTb
1430 4250 M
31 0 V
5349 0 R
-31 0 V
1430 4512 M
31 0 V
5349 0 R
-31 0 V
1430 4698 M
31 0 V
5349 0 R
-31 0 V
1430 4842 M
31 0 V
5349 0 R
-31 0 V
1430 4959 M
31 0 V
5349 0 R
-31 0 V
1430 5059 M
31 0 V
5349 0 R
-31 0 V
-5349 86 R
31 0 V
5349 0 R
-31 0 V
-5349 76 R
31 0 V
5349 0 R
-31 0 V
-5349 68 R
63 0 V
5317 0 R
-63 0 V
stroke
1274 5289 M
[ [(Helvetica) 260.0 0.0 true true 0 (10)]
[(Helvetica) 208.0 130.0 true true 0 (-1)]
] -112.7 MRshow
1.000 UL
LTb
1430 5736 M
31 0 V
5349 0 R
-31 0 V
1430 832 M
0 31 V
0 4873 R
0 -31 V
1696 832 M
0 31 V
0 4873 R
0 -31 V
1903 832 M
0 31 V
0 4873 R
0 -31 V
2072 832 M
0 31 V
0 4873 R
0 -31 V
2215 832 M
0 31 V
0 4873 R
0 -31 V
2338 832 M
0 31 V
0 4873 R
0 -31 V
2447 832 M
0 31 V
0 4873 R
0 -31 V
2545 832 M
0 63 V
0 4841 R
0 -63 V
stroke
2545 572 M
[ [(Helvetica) 260.0 0.0 true true 0 (10)]
[(Helvetica) 208.0 130.0 true true 0 (4)]
] -112.7 MCshow
1.000 UL
LTb
3187 832 M
0 31 V
0 4873 R
0 -31 V
3562 832 M
0 31 V
0 4873 R
0 -31 V
3829 832 M
0 31 V
0 4873 R
0 -31 V
4036 832 M
0 31 V
0 4873 R
0 -31 V
4204 832 M
0 31 V
0 4873 R
0 -31 V
4347 832 M
0 31 V
0 4873 R
0 -31 V
4471 832 M
0 31 V
0 4873 R
0 -31 V
4580 832 M
0 31 V
0 4873 R
0 -31 V
4678 832 M
0 63 V
0 4841 R
0 -63 V
stroke
4678 572 M
[ [(Helvetica) 260.0 0.0 true true 0 (10)]
[(Helvetica) 208.0 130.0 true true 0 (5)]
] -112.7 MCshow
1.000 UL
LTb
5319 832 M
0 31 V
0 4873 R
0 -31 V
5695 832 M
0 31 V
0 4873 R
0 -31 V
5961 832 M
0 31 V
0 4873 R
0 -31 V
6168 832 M
0 31 V
0 4873 R
0 -31 V
6337 832 M
0 31 V
0 4873 R
0 -31 V
6480 832 M
0 31 V
0 4873 R
0 -31 V
6603 832 M
0 31 V
0 4873 R
0 -31 V
6712 832 M
0 31 V
0 4873 R
0 -31 V
6810 832 M
0 63 V
0 4841 R
0 -63 V
stroke
6810 572 M
[ [(Helvetica) 260.0 0.0 true true 0 (10)]
[(Helvetica) 208.0 130.0 true true 0 (6)]
] -112.7 MCshow
1.000 UL
LTb
1.000 UL
LTb
1430 5736 N
0 -4904 V
5380 0 V
0 4904 V
-5380 0 V
Z stroke
LCb setrgbcolor
520 3284 M
currentpoint gsave translate 90 rotate 0 0 moveto
[ [(Helvetica) 260.0 0.0 true true 0 (c \()]
[(Symbol) 260.0 0.0 true true 0 (m)]
[(Helvetica) 260.0 0.0 true true 0 (Ci/ml\))]
] -86.7 MCshow
grestore
LTb
LCb setrgbcolor
4120 182 M
[ [(Helvetica) 260.0 0.0 true true 0 (t \(seconds\))]
] -86.7 MCshow
LTb
1.000 UP
1538 5491 M
[ [(Helvetica) 260.0 0.0 true true 0 (\(b\) test B8)]
] -86.7 MLshow
1.000 UL
LTb
1.300 UP
1.000 UL
LT0
LTb
5008 2018 M
[ [(Helvetica) 260.0 0.0 true true 0 (data)]
] -86.7 MRshow
LT0
1521 1875 Circle
1665 1931 Circle
1790 1902 Circle
1900 1928 Circle
1999 1867 Circle
2089 1859 Circle
2171 1897 Circle
2246 1898 Circle
2314 1926 Circle
2377 1907 Circle
2438 1893 Circle
2553 1867 Circle
2644 1961 Circle
2690 1884 Circle
2733 1870 Circle
2775 1901 Circle
2815 1750 Circle
2854 1910 Circle
2891 1936 Circle
2927 1926 Circle
2961 1928 Circle
2993 1927 Circle
3025 1995 Circle
3056 1984 Circle
3085 1995 Circle
3114 2004 Circle
3142 2072 Circle
3169 2095 Circle
3196 2131 Circle
3221 2226 Circle
3246 2229 Circle
3270 2314 Circle
3293 2337 Circle
3316 2438 Circle
3339 2540 Circle
3361 2607 Circle
3382 2668 Circle
3403 2741 Circle
3424 2842 Circle
3444 2910 Circle
3463 2992 Circle
3482 3043 Circle
3501 3128 Circle
3519 3167 Circle
3537 3249 Circle
3554 3318 Circle
3572 3350 Circle
3589 3422 Circle
3606 3454 Circle
3622 3533 Circle
3638 3598 Circle
3654 3613 Circle
3670 3682 Circle
3685 3732 Circle
3700 3738 Circle
3715 3779 Circle
3729 3841 Circle
3744 3890 Circle
3758 3934 Circle
3772 3961 Circle
3785 3966 Circle
3799 4030 Circle
3838 4130 Circle
3912 4292 Circle
3947 4354 Circle
3981 4451 Circle
4014 4516 Circle
4045 4537 Circle
4076 4583 Circle
4105 4632 Circle
4134 4702 Circle
4161 4734 Circle
4189 4751 Circle
4240 4830 Circle
4292 4877 Circle
4316 4901 Circle
4339 4904 Circle
4361 4950 Circle
4382 4977 Circle
4404 4979 Circle
4425 5016 Circle
4445 5013 Circle
4465 5013 Circle
4485 5063 Circle
4504 5052 Circle
4522 5077 Circle
4541 5073 Circle
4559 5100 Circle
4577 5094 Circle
4594 5103 Circle
4611 5124 Circle
4628 5114 Circle
4645 5156 Circle
4661 5154 Circle
4677 5163 Circle
4693 5160 Circle
4708 5157 Circle
4723 5166 Circle
4738 5184 Circle
4753 5192 Circle
4767 5148 Circle
4781 5193 Circle
4795 5200 Circle
4809 5213 Circle
4823 5225 Circle
4836 5214 Circle
4849 5222 Circle
4862 5219 Circle
4875 5230 Circle
4887 5241 Circle
4900 5233 Circle
4912 5243 Circle
4924 5247 Circle
4948 5256 Circle
4959 5246 Circle
4971 5252 Circle
4983 5236 Circle
4993 5272 Circle
5004 5255 Circle
5015 5274 Circle
5026 5267 Circle
5037 5274 Circle
5048 5293 Circle
5057 5276 Circle
5067 5286 Circle
5077 5282 Circle
5088 5305 Circle
5098 5289 Circle
5107 5293 Circle
5117 5288 Circle
5127 5292 Circle
5137 5307 Circle
5146 5307 Circle
5156 5286 Circle
5165 5314 Circle
5174 5300 Circle
5183 5292 Circle
5193 5280 Circle
5201 5299 Circle
5210 5314 Circle
5219 5308 Circle
5228 5308 Circle
5236 5314 Circle
5245 5308 Circle
5253 5327 Circle
5262 5321 Circle
5270 5339 Circle
5278 5333 Circle
5286 5321 Circle
5295 5327 Circle
5303 5321 Circle
5311 5333 Circle
5319 5306 Circle
5326 5321 Circle
5334 5333 Circle
5341 5339 Circle
5349 5321 Circle
5357 5339 Circle
5364 5327 Circle
5372 5352 Circle
5379 5327 Circle
5386 5321 Circle
5394 5327 Circle
5401 5345 Circle
5408 5339 Circle
5415 5333 Circle
5422 5352 Circle
5429 5339 Circle
5436 5358 Circle
5448 5352 Circle
5469 5358 Circle
5476 5339 Circle
5482 5363 Circle
5489 5352 Circle
5495 5339 Circle
5502 5333 Circle
5508 5352 Circle
5514 5345 Circle
5521 5345 Circle
5527 5345 Circle
5533 5352 Circle
5552 5333 Circle
5558 5339 Circle
5564 5327 Circle
5570 5333 Circle
5582 5321 Circle
5588 5297 Circle
5594 5321 Circle
5599 5286 Circle
5605 5275 Circle
5611 5258 Circle
5617 5227 Circle
5622 5217 Circle
5628 5203 Circle
5639 5166 Circle
5645 5152 Circle
5650 5137 Circle
5655 5117 Circle
5661 5102 Circle
5666 5057 Circle
5672 5063 Circle
5677 5042 Circle
5682 5015 Circle
5688 4997 Circle
5693 4967 Circle
5698 4951 Circle
5703 4930 Circle
5708 4912 Circle
5714 4886 Circle
5719 4878 Circle
5724 4859 Circle
5729 4833 Circle
5734 4823 Circle
5739 4814 Circle
5744 4785 Circle
5749 4780 Circle
5754 4733 Circle
5759 4734 Circle
5764 4718 Circle
5768 4715 Circle
5773 4699 Circle
5778 4643 Circle
5783 4658 Circle
5787 4658 Circle
5792 4604 Circle
5797 4619 Circle
5801 4621 Circle
5806 4571 Circle
5811 4571 Circle
5815 4552 Circle
5820 4516 Circle
5825 4516 Circle
5829 4516 Circle
5834 4487 Circle
5838 4480 Circle
5843 4465 Circle
5847 4439 Circle
5851 4444 Circle
5856 4434 Circle
5860 4421 Circle
5865 4403 Circle
5869 4390 Circle
5873 4371 Circle
5878 4340 Circle
5882 4340 Circle
5886 4328 Circle
5890 4325 Circle
5894 4331 Circle
5899 4304 Circle
5903 4285 Circle
5907 4285 Circle
5911 4273 Circle
5915 4253 Circle
5919 4256 Circle
5923 4243 Circle
5927 4212 Circle
5931 4219 Circle
5935 4201 Circle
5939 4187 Circle
5943 4176 Circle
5947 4176 Circle
5951 4141 Circle
5955 4126 Circle
5959 4134 Circle
5963 4113 Circle
5967 4105 Circle
5351 2018 Circle
3.000 UL
LT0
LTb
5008 1706 M
[ [(Helvetica) 260.0 0.0 true true 0 (single porosity)]
] -86.7 MRshow
LT0
5164 1706 M
375 0 V
1430 1870 M
30 0 V
30 0 V
28 0 V
28 0 V
27 0 V
26 0 V
25 0 V
25 0 V
24 0 V
23 0 V
23 0 V
23 0 V
21 0 V
22 0 V
21 0 V
20 0 V
20 0 V
19 0 V
19 0 V
19 0 V
18 0 V
18 0 V
18 0 V
17 0 V
17 0 V
17 0 V
16 0 V
17 0 V
15 0 V
16 1 V
15 0 V
15 0 V
15 0 V
15 0 V
14 0 V
14 0 V
14 0 V
14 0 V
13 0 V
14 1 V
13 0 V
13 0 V
13 0 V
12 1 V
13 0 V
12 0 V
12 1 V
12 0 V
12 1 V
11 0 V
12 1 V
11 1 V
11 0 V
12 1 V
11 1 V
10 1 V
11 1 V
11 2 V
10 1 V
10 1 V
11 2 V
10 2 V
10 1 V
10 2 V
10 2 V
9 2 V
10 3 V
9 2 V
10 3 V
9 3 V
88 38 V
81 58 V
74 81 V
69 99 V
64 113 V
59 122 V
56 125 V
53 124 V
50 122 V
48 116 V
45 111 V
43 106 V
41 99 V
40 93 V
38 87 V
36 83 V
35 77 V
34 73 V
32 69 V
31 64 V
31 61 V
29 58 V
29 54 V
27 52 V
27 48 V
26 47 V
26 44 V
24 42 V
24 39 V
24 38 V
23 36 V
22 35 V
stroke 3874 4321 M
22 33 V
21 31 V
21 31 V
20 29 V
20 27 V
20 27 V
19 25 V
19 25 V
18 23 V
18 23 V
18 22 V
17 20 V
17 21 V
17 19 V
16 19 V
16 18 V
16 17 V
15 17 V
16 16 V
15 16 V
15 15 V
14 15 V
15 14 V
14 14 V
14 13 V
13 13 V
14 12 V
13 13 V
13 11 V
13 12 V
13 11 V
13 10 V
12 11 V
12 10 V
12 10 V
12 9 V
12 9 V
12 9 V
11 9 V
12 9 V
11 8 V
11 8 V
11 8 V
11 7 V
11 8 V
10 7 V
11 7 V
10 7 V
10 6 V
10 7 V
10 6 V
10 6 V
10 6 V
10 6 V
9 6 V
10 5 V
9 6 V
10 5 V
88 46 V
80 36 V
74 29 V
69 24 V
64 19 V
60 15 V
56 13 V
53 10 V
50 8 V
47 7 V
46 6 V
43 5 V
41 5 V
39 4 V
38 -5 V
36 -26 V
35 -52 V
34 -79 V
33 -93 V
31 -101 V
30 -107 V
30 -110 V
28 -112 V
28 -114 V
27 -115 V
26 -115 V
25 -115 V
25 -116 V
24 -114 V
23 -115 V
23 -114 V
23 -114 V
21 -113 V
22 -113 V
20 -113 V
21 -112 V
20 -111 V
19 -111 V
19 -111 V
19 -110 V
18 -110 V
18 -110 V
18 -109 V
17 -109 V
17 -108 V
17 -109 V
stroke 6273 2089 M
16 -107 V
17 -108 V
15 -107 V
16 -107 V
15 -107 V
15 -107 V
15 -106 V
15 -107 V
14 -106 V
14 -106 V
14 -105 V
11 -84 V
stroke
LT6
LTb
5008 1394 M
[ [(Helvetica) 260.0 0.0 true true 0 (double porosity)]
] -86.7 MRshow
LT6
5164 1394 M
375 0 V
1430 1870 M
30 0 V
30 0 V
28 0 V
28 0 V
27 0 V
26 0 V
25 0 V
25 0 V
24 0 V
23 0 V
23 0 V
23 0 V
21 0 V
22 0 V
21 0 V
20 0 V
20 0 V
19 0 V
19 0 V
19 0 V
18 0 V
18 0 V
18 0 V
17 0 V
17 0 V
17 0 V
16 0 V
17 0 V
15 0 V
16 0 V
15 0 V
15 0 V
15 0 V
15 0 V
14 0 V
14 0 V
14 0 V
14 0 V
13 0 V
14 0 V
13 0 V
13 0 V
13 0 V
12 0 V
13 0 V
12 0 V
12 0 V
12 0 V
12 0 V
11 0 V
12 0 V
11 0 V
11 0 V
12 0 V
11 0 V
10 0 V
11 0 V
11 0 V
10 0 V
10 0 V
11 1 V
10 0 V
10 0 V
10 0 V
10 0 V
9 0 V
10 0 V
9 0 V
10 0 V
9 0 V
88 2 V
81 6 V
74 10 V
69 21 V
64 33 V
59 50 V
56 68 V
53 86 V
50 101 V
48 111 V
45 119 V
43 122 V
41 121 V
40 120 V
38 115 V
36 111 V
35 105 V
34 101 V
32 95 V
31 90 V
31 84 V
29 81 V
29 75 V
27 72 V
27 67 V
26 64 V
26 60 V
24 57 V
24 54 V
24 52 V
23 48 V
22 46 V
stroke 3874 4218 M
22 44 V
21 42 V
21 39 V
20 38 V
20 36 V
20 34 V
19 32 V
19 31 V
18 30 V
18 28 V
18 27 V
17 26 V
17 25 V
17 23 V
16 23 V
16 22 V
16 21 V
15 19 V
16 20 V
15 18 V
15 17 V
14 17 V
15 16 V
14 16 V
14 15 V
13 14 V
14 14 V
13 13 V
13 13 V
13 13 V
13 11 V
13 12 V
12 11 V
12 10 V
12 11 V
12 9 V
12 10 V
12 9 V
11 9 V
12 8 V
11 9 V
11 7 V
11 8 V
11 8 V
11 7 V
10 7 V
11 6 V
10 7 V
10 6 V
10 6 V
10 6 V
10 5 V
10 6 V
10 5 V
9 5 V
10 5 V
9 5 V
10 5 V
88 39 V
80 30 V
74 22 V
69 18 V
64 14 V
60 12 V
56 10 V
53 8 V
50 8 V
47 7 V
46 6 V
43 6 V
41 7 V
39 6 V
38 0 V
36 -19 V
35 -49 V
34 -82 V
33 -107 V
31 -120 V
30 -123 V
30 -116 V
28 -98 V
28 -93 V
27 -80 V
26 -69 V
25 -60 V
25 -51 V
24 -45 V
23 -39 V
23 -35 V
23 -31 V
21 -29 V
22 -26 V
20 -25 V
21 -24 V
20 -24 V
19 -23 V
19 -22 V
19 -22 V
18 -23 V
18 -22 V
18 -21 V
17 -22 V
17 -22 V
17 -22 V
stroke 6273 3806 M
16 -22 V
17 -21 V
15 -22 V
16 -22 V
15 -22 V
15 -21 V
15 -22 V
15 -22 V
14 -21 V
14 -22 V
14 -22 V
14 -22 V
13 -21 V
14 -22 V
13 -22 V
13 -22 V
13 -22 V
12 -21 V
13 -22 V
12 -22 V
12 -22 V
12 -21 V
12 -22 V
11 -22 V
12 -22 V
11 -22 V
11 -22 V
12 -22 V
10 -21 V
11 -22 V
11 -22 V
11 -22 V
10 -22 V
10 -22 V
11 -22 V
10 -22 V
10 -22 V
10 -22 V
9 -21 V
10 -22 V
10 -22 V
9 -22 V
10 -22 V
9 -22 V
stroke
8.000 UL
LT0
LTb
5008 1082 M
[ [(Helvetica) 260.0 0.0 true true 0 (multirate lognormal)]
] -86.7 MRshow
LT0
5164 1082 M
375 0 V
1430 1870 M
30 0 V
30 0 V
28 0 V
28 0 V
27 0 V
26 0 V
25 0 V
25 0 V
24 0 V
23 0 V
23 0 V
23 0 V
21 0 V
22 0 V
21 0 V
20 0 V
20 0 V
19 0 V
19 0 V
19 0 V
18 0 V
18 0 V
18 0 V
17 0 V
17 0 V
17 0 V
16 0 V
17 0 V
15 0 V
16 0 V
15 0 V
15 0 V
15 0 V
15 0 V
14 0 V
14 0 V
14 0 V
14 0 V
13 0 V
14 0 V
13 0 V
13 0 V
13 0 V
12 0 V
13 0 V
12 0 V
12 0 V
12 0 V
12 0 V
11 0 V
12 0 V
11 0 V
11 0 V
12 0 V
11 0 V
10 0 V
11 0 V
11 0 V
10 0 V
10 0 V
11 0 V
10 0 V
10 0 V
10 0 V
10 0 V
9 0 V
10 0 V
9 0 V
10 0 V
9 0 V
88 0 V
81 1 V
74 1 V
69 2 V
64 6 V
59 12 V
56 23 V
53 38 V
50 57 V
48 79 V
45 98 V
43 116 V
41 127 V
40 134 V
38 136 V
36 134 V
35 130 V
34 124 V
32 119 V
31 112 V
31 105 V
29 98 V
29 93 V
27 87 V
27 81 V
26 76 V
26 71 V
24 66 V
24 63 V
24 58 V
23 55 V
22 52 V
stroke 3874 4224 M
22 48 V
21 46 V
21 43 V
20 40 V
20 38 V
20 37 V
19 34 V
19 32 V
18 30 V
18 29 V
18 27 V
17 26 V
17 25 V
17 23 V
16 22 V
16 21 V
16 20 V
15 19 V
16 18 V
15 18 V
15 16 V
14 16 V
15 15 V
14 14 V
14 14 V
13 14 V
14 12 V
13 12 V
13 12 V
13 11 V
13 11 V
13 10 V
12 10 V
12 10 V
12 9 V
12 9 V
12 8 V
12 8 V
11 8 V
12 8 V
11 7 V
11 7 V
11 7 V
11 7 V
11 6 V
10 6 V
11 6 V
10 6 V
10 6 V
10 5 V
10 6 V
10 5 V
10 5 V
10 5 V
9 5 V
10 4 V
9 5 V
10 4 V
88 38 V
80 29 V
74 24 V
69 19 V
64 16 V
60 14 V
56 12 V
53 10 V
50 9 V
47 7 V
46 7 V
43 6 V
41 7 V
39 6 V
38 3 V
36 -15 V
35 -50 V
34 -91 V
33 -116 V
31 -120 V
30 -115 V
30 -107 V
28 -96 V
28 -86 V
27 -88 V
26 -78 V
25 -74 V
25 -69 V
24 -65 V
23 -62 V
23 -59 V
23 -57 V
21 -54 V
22 -52 V
20 -51 V
21 -48 V
20 -47 V
19 -45 V
19 -44 V
19 -43 V
18 -42 V
18 -40 V
18 -39 V
17 -38 V
17 -38 V
17 -36 V
stroke 6273 3391 M
16 -36 V
17 -35 V
15 -34 V
16 -33 V
15 -33 V
15 -31 V
15 -32 V
15 -31 V
14 -30 V
14 -29 V
14 -29 V
14 -29 V
13 -28 V
14 -28 V
13 -27 V
13 -26 V
13 -27 V
12 -26 V
13 -25 V
12 -25 V
12 -25 V
12 -24 V
12 -24 V
11 -24 V
12 -24 V
11 -23 V
11 -22 V
12 -23 V
10 -22 V
11 -22 V
11 -22 V
11 -21 V
10 -21 V
10 -21 V
11 -20 V
10 -21 V
10 -20 V
10 -20 V
9 -19 V
10 -20 V
10 -19 V
9 -19 V
10 -19 V
9 -18 V
stroke
1.000 UL
LTb
1430 5736 N
0 -4904 V
5380 0 V
0 4904 V
-5380 0 V
Z stroke
1.000 UP
1.000 UL
LTb
stroke
grestore
end
showpage
%%Trailer
%%DocumentFonts: Symbol Helvetica
