%!PS-Adobe-3.0 EPSF-3.0
%%Creator: MATLAB, The Mathworks, Inc. Version 7.9.0.529 (R2009b). Operating System: Darwin 10.8.0 Darwin Kernel Version 10.8.0: Tue Jun  7 16:33:36 PDT 2011; root:xnu-1504.15.3~1/RELEASE_I386 i386.
%%Title: ./B8-run10-v1-all-param-hist.eps
%%CreationDate: 02/08/2012  13:46:44
%%DocumentNeededFonts: Helvetica
%%DocumentProcessColors: Cyan Magenta Yellow Black
%%LanguageLevel: 2
%%Pages: 1
%%BoundingBox:    51    74   561   716
%%EndComments

%%BeginProlog
% MathWorks dictionary
/MathWorks 160 dict begin
% definition operators
/bdef {bind def} bind def
/ldef {load def} bind def
/xdef {exch def} bdef
/xstore {exch store} bdef
% operator abbreviations
/c  /clip ldef
/cc /concat ldef
/cp /closepath ldef
/gr /grestore ldef
/gs /gsave ldef
/mt /moveto ldef
/np /newpath ldef
/cm /currentmatrix ldef
/sm /setmatrix ldef
/rm /rmoveto ldef
/rl /rlineto ldef
/s {show newpath} bdef
/sc {setcmykcolor} bdef
/sr /setrgbcolor ldef
/sg /setgray ldef
/w /setlinewidth ldef
/j /setlinejoin ldef
/cap /setlinecap ldef
/rc {rectclip} bdef
/rf {rectfill} bdef
% page state control
/pgsv () def
/bpage {/pgsv save def} bdef
/epage {pgsv restore} bdef
/bplot /gsave ldef
/eplot {stroke grestore} bdef
% orientation switch
/portraitMode 0 def /landscapeMode 1 def /rotateMode 2 def
% coordinate system mappings
/dpi2point 0 def
% font control
/FontSize 0 def
/FMS {/FontSize xstore findfont [FontSize 0 0 FontSize neg 0 0]
  makefont setfont} bdef
/reencode {exch dup where {pop load} {pop StandardEncoding} ifelse
  exch dup 3 1 roll findfont dup length dict begin
  { 1 index /FID ne {def}{pop pop} ifelse } forall
  /Encoding exch def currentdict end definefont pop} bdef
/isroman {findfont /CharStrings get /Agrave known} bdef
/FMSR {3 1 roll 1 index dup isroman {reencode} {pop pop} ifelse
  exch FMS} bdef
/csm {1 dpi2point div -1 dpi2point div scale neg translate
 dup landscapeMode eq {pop -90 rotate}
  {rotateMode eq {90 rotate} if} ifelse} bdef
% line types: solid, dotted, dashed, dotdash
/SO { [] 0 setdash } bdef
/DO { [.5 dpi2point mul 4 dpi2point mul] 0 setdash } bdef
/DA { [6 dpi2point mul] 0 setdash } bdef
/DD { [.5 dpi2point mul 4 dpi2point mul 6 dpi2point mul 4
  dpi2point mul] 0 setdash } bdef
% macros for lines and objects
/L {lineto stroke} bdef
/MP {3 1 roll moveto 1 sub {rlineto} repeat} bdef
/AP {{rlineto} repeat} bdef
/PDlw -1 def
/W {/PDlw currentlinewidth def setlinewidth} def
/PP {closepath eofill} bdef
/DP {closepath stroke} bdef
/MR {4 -2 roll moveto dup  0 exch rlineto exch 0 rlineto
  neg 0 exch rlineto closepath} bdef
/FR {MR stroke} bdef
/PR {MR fill} bdef
/L1i {{currentfile picstr readhexstring pop} image} bdef
/tMatrix matrix def
/MakeOval {newpath tMatrix currentmatrix pop translate scale
0 0 1 0 360 arc tMatrix setmatrix} bdef
/FO {MakeOval stroke} bdef
/PO {MakeOval fill} bdef
/PD {currentlinewidth 2 div 0 360 arc fill
   PDlw -1 eq not {PDlw w /PDlw -1 def} if} def
/FA {newpath tMatrix currentmatrix pop translate scale
  0 0 1 5 -2 roll arc tMatrix setmatrix stroke} bdef
/PA {newpath tMatrix currentmatrix pop	translate 0 0 moveto scale
  0 0 1 5 -2 roll arc closepath tMatrix setmatrix fill} bdef
/FAn {newpath tMatrix currentmatrix pop translate scale
  0 0 1 5 -2 roll arcn tMatrix setmatrix stroke} bdef
/PAn {newpath tMatrix currentmatrix pop translate 0 0 moveto scale
  0 0 1 5 -2 roll arcn closepath tMatrix setmatrix fill} bdef
/vradius 0 def /hradius 0 def /lry 0 def
/lrx 0 def /uly 0 def /ulx 0 def /rad 0 def
/MRR {/vradius xdef /hradius xdef /lry xdef /lrx xdef /uly xdef
  /ulx xdef newpath tMatrix currentmatrix pop ulx hradius add uly
  vradius add translate hradius vradius scale 0 0 1 180 270 arc 
  tMatrix setmatrix lrx hradius sub uly vradius add translate
  hradius vradius scale 0 0 1 270 360 arc tMatrix setmatrix
  lrx hradius sub lry vradius sub translate hradius vradius scale
  0 0 1 0 90 arc tMatrix setmatrix ulx hradius add lry vradius sub
  translate hradius vradius scale 0 0 1 90 180 arc tMatrix setmatrix
  closepath} bdef
/FRR {MRR stroke } bdef
/PRR {MRR fill } bdef
/MlrRR {/lry xdef /lrx xdef /uly xdef /ulx xdef /rad lry uly sub 2 div def
  newpath tMatrix currentmatrix pop ulx rad add uly rad add translate
  rad rad scale 0 0 1 90 270 arc tMatrix setmatrix lrx rad sub lry rad
  sub translate rad rad scale 0 0 1 270 90 arc tMatrix setmatrix
  closepath} bdef
/FlrRR {MlrRR stroke } bdef
/PlrRR {MlrRR fill } bdef
/MtbRR {/lry xdef /lrx xdef /uly xdef /ulx xdef /rad lrx ulx sub 2 div def
  newpath tMatrix currentmatrix pop ulx rad add uly rad add translate
  rad rad scale 0 0 1 180 360 arc tMatrix setmatrix lrx rad sub lry rad
  sub translate rad rad scale 0 0 1 0 180 arc tMatrix setmatrix
  closepath} bdef
/FtbRR {MtbRR stroke } bdef
/PtbRR {MtbRR fill } bdef
/stri 6 array def /dtri 6 array def
/smat 6 array def /dmat 6 array def
/tmat1 6 array def /tmat2 6 array def /dif 3 array def
/asub {/ind2 exch def /ind1 exch def dup dup
  ind1 get exch ind2 get sub exch } bdef
/tri_to_matrix {
  2 0 asub 3 1 asub 4 0 asub 5 1 asub
  dup 0 get exch 1 get 7 -1 roll astore } bdef
/compute_transform {
  dmat dtri tri_to_matrix tmat1 invertmatrix 
  smat stri tri_to_matrix tmat2 concatmatrix } bdef
/ds {stri astore pop} bdef
/dt {dtri astore pop} bdef
/db {2 copy /cols xdef /rows xdef mul dup 3 mul string
  currentfile 
  3 index 0 eq {/ASCIIHexDecode filter}
  {/ASCII85Decode filter 3 index 2 eq {/RunLengthDecode filter} if }
  ifelse exch readstring pop
  dup 0 3 index getinterval /rbmap xdef
  dup 2 index dup getinterval /gbmap xdef
  1 index dup 2 mul exch getinterval /bbmap xdef pop pop}bdef
/it {gs np dtri aload pop moveto lineto lineto cp c
  cols rows 8 compute_transform 
  rbmap gbmap bbmap true 3 colorimage gr}bdef
/il {newpath moveto lineto stroke}bdef
currentdict end def
%%EndProlog

%%BeginSetup
MathWorks begin

0 cap

end
%%EndSetup

%%Page: 1 1
%%BeginPageSetup
%%PageBoundingBox:    51    74   561   716
MathWorks begin
bpage
%%EndPageSetup

%%BeginObject: obj1
bplot

/dpi2point 12 def
landscapeMode 0216 0216 csm

  674   403  7702  6115 rc
85 dict begin %Colortable dictionary
/c0 { 0.000000 0.000000 0.000000 sr} bdef
/c1 { 1.000000 1.000000 1.000000 sr} bdef
/c2 { 0.900000 0.000000 0.000000 sr} bdef
/c3 { 0.000000 0.820000 0.000000 sr} bdef
/c4 { 0.000000 0.000000 0.800000 sr} bdef
/c5 { 0.910000 0.820000 0.320000 sr} bdef
/c6 { 1.000000 0.260000 0.820000 sr} bdef
/c7 { 0.000000 0.820000 0.820000 sr} bdef
c0
1 j
1 sg
   0    0 9073 6913 rf
6 w
0 1492 3036 0 0 -1492 1179 2010 4 MP
PP
-3036 0 0 1492 3036 0 0 -1492 1179 2010 5 MP stroke
4 w
DO
SO
6 w
0 sg
1179 2010 mt 4215 2010 L
1179 2010 mt 1179  518 L
1179 2010 mt 1179 1979 L
%%IncludeResource: font Helvetica
/Helvetica /ISOLatin1Encoding 120 FMSR

1029 2155 mt 
(0.124) s
1938 2010 mt 1938 1979 L
1788 2155 mt 
(0.125) s
2697 2010 mt 2697 1979 L
2547 2155 mt 
(0.126) s
3456 2010 mt 3456 1979 L
3306 2155 mt 
(0.127) s
4215 2010 mt 4215 1979 L
4065 2155 mt 
(0.128) s
1179 2010 mt 1209 2010 L
1078 2054 mt 
(0) s
1179 1711 mt 1209 1711 L
 944 1755 mt 
(200) s
1179 1413 mt 1209 1413 L
 944 1457 mt 
(400) s
1179 1114 mt 1209 1114 L
 944 1158 mt 
(600) s
1179  816 mt 1209  816 L
 944  860 mt 
(800) s
1179  518 mt 1209  518 L
 878  562 mt 
(1000) s
gs 1179 518 3037 1493 rc
/c8 { 0.000000 0.000000 0.562500 sr} bdef
c8
0 4 71 0 0 -4 1623 2010 4 MP
PP
0 sg
-71 0 0 4 71 0 0 -4 1623 2010 5 MP stroke
c8
0 7 72 0 0 -7 1694 2010 4 MP
PP
0 sg
-72 0 0 7 72 0 0 -7 1694 2010 5 MP stroke
c8
0 6 71 0 0 -6 1766 2010 4 MP
PP
0 sg
-71 0 0 6 71 0 0 -6 1766 2010 5 MP stroke
c8
0 5 71 0 0 -5 1837 2010 4 MP
PP
0 sg
-71 0 0 5 71 0 0 -5 1837 2010 5 MP stroke
c8
0 25 71 0 0 -25 1908 2010 4 MP
PP
0 sg
-71 0 0 25 71 0 0 -25 1908 2010 5 MP stroke
c8
0 48 72 0 0 -48 1979 2010 4 MP
PP
0 sg
-72 0 0 48 72 0 0 -48 1979 2010 5 MP stroke
c8
0 45 71 0 0 -45 2051 2010 4 MP
PP
0 sg
-71 0 0 45 71 0 0 -45 2051 2010 5 MP stroke
c8
0 79 71 0 0 -79 2122 2010 4 MP
PP
0 sg
-71 0 0 79 71 0 0 -79 2122 2010 5 MP stroke
c8
0 178 72 0 0 -178 2193 2010 4 MP
PP
0 sg
-72 0 0 178 72 0 0 -178 2193 2010 5 MP stroke
c8
0 228 71 0 0 -228 2265 2010 4 MP
PP
0 sg
-71 0 0 228 71 0 0 -228 2265 2010 5 MP stroke
c8
0 351 71 0 0 -351 2336 2010 4 MP
PP
0 sg
-71 0 0 351 71 0 0 -351 2336 2010 5 MP stroke
c8
0 500 71 0 0 -500 2407 2010 4 MP
PP
0 sg
-71 0 0 500 71 0 0 -500 2407 2010 5 MP stroke
c8
0 694 72 0 0 -694 2478 2010 4 MP
PP
0 sg
-72 0 0 694 72 0 0 -694 2478 2010 5 MP stroke
c8
0 912 71 0 0 -912 2550 2010 4 MP
PP
0 sg
-71 0 0 912 71 0 0 -912 2550 2010 5 MP stroke
c8
0 1025 71 0 0 -1025 2621 2010 4 MP
PP
0 sg
-71 0 0 1025 71 0 0 -1025 2621 2010 5 MP stroke
c8
0 1100 72 0 0 -1100 2692 2010 4 MP
PP
0 sg
-72 0 0 1100 72 0 0 -1100 2692 2010 5 MP stroke
c8
0 1116 71 0 0 -1116 2764 2010 4 MP
PP
0 sg
-71 0 0 1116 71 0 0 -1116 2764 2010 5 MP stroke
c8
0 1435 71 0 0 -1435 2835 2010 4 MP
PP
0 sg
-71 0 0 1435 71 0 0 -1435 2835 2010 5 MP stroke
c8
0 1289 71 0 0 -1289 2906 2010 4 MP
PP
0 sg
-71 0 0 1289 71 0 0 -1289 2906 2010 5 MP stroke
c8
0 1269 72 0 0 -1269 2977 2010 4 MP
PP
0 sg
-72 0 0 1269 72 0 0 -1269 2977 2010 5 MP stroke
c8
0 1238 71 0 0 -1238 3049 2010 4 MP
PP
0 sg
-71 0 0 1238 71 0 0 -1238 3049 2010 5 MP stroke
c8
0 1138 71 0 0 -1138 3120 2010 4 MP
PP
0 sg
-71 0 0 1138 71 0 0 -1138 3120 2010 5 MP stroke
c8
0 850 72 0 0 -850 3191 2010 4 MP
PP
0 sg
-72 0 0 850 72 0 0 -850 3191 2010 5 MP stroke
c8
0 620 71 0 0 -620 3263 2010 4 MP
PP
0 sg
-71 0 0 620 71 0 0 -620 3263 2010 5 MP stroke
c8
0 527 71 0 0 -527 3334 2010 4 MP
PP
0 sg
-71 0 0 527 71 0 0 -527 3334 2010 5 MP stroke
c8
0 475 71 0 0 -475 3405 2010 4 MP
PP
0 sg
-71 0 0 475 71 0 0 -475 3405 2010 5 MP stroke
c8
0 258 72 0 0 -258 3476 2010 4 MP
PP
0 sg
-72 0 0 258 72 0 0 -258 3476 2010 5 MP stroke
c8
0 209 71 0 0 -209 3548 2010 4 MP
PP
0 sg
-71 0 0 209 71 0 0 -209 3548 2010 5 MP stroke
c8
0 104 71 0 0 -104 3619 2010 4 MP
PP
0 sg
-71 0 0 104 71 0 0 -104 3619 2010 5 MP stroke
c8
0 74 72 0 0 -74 3690 2010 4 MP
PP
0 sg
-72 0 0 74 72 0 0 -74 3690 2010 5 MP stroke
c8
0 36 71 0 0 -36 3762 2010 4 MP
PP
0 sg
-71 0 0 36 71 0 0 -36 3762 2010 5 MP stroke
c8
0 31 71 0 0 -31 3833 2010 4 MP
PP
0 sg
-71 0 0 31 71 0 0 -31 3833 2010 5 MP stroke
c8
0 11 71 0 0 -11 3904 2010 4 MP
PP
0 sg
-71 0 0 11 71 0 0 -11 3904 2010 5 MP stroke
c8
0 5 72 0 0 -5 3975 2010 4 MP
PP
0 sg
-72 0 0 5 72 0 0 -5 3975 2010 5 MP stroke
c8
0 11 71 0 0 -11 4047 2010 4 MP
PP
0 sg
-71 0 0 11 71 0 0 -11 4047 2010 5 MP stroke
3036 0 1179 2010 2 MP stroke
/c9 { 1.000000 0.000000 0.000000 sr} bdef
c9
71 3 71 6 71 11 72 19 71 30 71 46 72 67 71 92 
71 119 71 144 72 165 71 174 71 168 72 145 71 104 71 51 
71 -9 72 -68 71 -119 71 -154 72 -172 71 -172 71 -160 71 -137 
72 -110 71 -84 71 -60 72 -41 71 -26 71 -16 71 -9 72 -5 
71 -3 71 -1 1659 2008 35 MP stroke
gr

c9
0 sg
%%IncludeResource: font Helvetica
/Helvetica /ISOLatin1Encoding 144 FMSR

2607 2282 mt 
(c) s
%%IncludeResource: font Helvetica
/Helvetica /ISOLatin1Encoding 108 FMSR

2679 2354 mt 
(inj) s
 799 1662 mt  -90 rotate
(posterior density) s
90 rotate
%%IncludeResource: font Symbol
/Symbol /ISOLatin1Encoding 120 FMSR

1483  710 mt 
(m) s
%%IncludeResource: font Helvetica
/Helvetica /ISOLatin1Encoding 120 FMSR

1552  710 mt 
(=0.1263) s
%%IncludeResource: font Symbol
/Symbol /ISOLatin1Encoding 120 FMSR

3305  710 mt 
(s) s
%%IncludeResource: font Helvetica
/Helvetica /ISOLatin1Encoding 96 FMSR

3377  650 mt 
(2) s
%%IncludeResource: font Helvetica
/Helvetica /ISOLatin1Encoding 120 FMSR

3430  710 mt 
(=1.94e-07) s
1 sg
0 1492 3036 0 0 -1492 5174 2010 4 MP
PP
-3036 0 0 1492 3036 0 0 -1492 5174 2010 5 MP stroke
4 w
DO
SO
6 w
0 sg
5174 2010 mt 8210 2010 L
5174 2010 mt 5174  518 L
5174 2010 mt 5174 1979 L
5108 2155 mt 
(64) s
6186 2010 mt 6186 1979 L
6070 2155 mt 
(64.5) s
7198 2010 mt 7198 1979 L
7132 2155 mt 
(65) s
8210 2010 mt 8210 1979 L
8094 2155 mt 
(65.5) s
5174 2010 mt 5204 2010 L
5073 2054 mt 
(0) s
5174 1761 mt 5204 1761 L
4973 1805 mt 
(0.5) s
5174 1512 mt 5204 1512 L
5073 1556 mt 
(1) s
5174 1264 mt 5204 1264 L
4973 1308 mt 
(1.5) s
5174 1015 mt 5204 1015 L
5073 1059 mt 
(2) s
5174  766 mt 5204  766 L
4973  810 mt 
(2.5) s
5174  518 mt 5204  518 L
5073  562 mt 
(3) s
gs 5174 518 3037 1493 rc
c8
0 5 72 0 0 -5 5244 2010 4 MP
PP
0 sg
-72 0 0 5 72 0 0 -5 5244 2010 5 MP stroke
c8
0 4 72 0 0 -4 5316 2010 4 MP
PP
0 sg
-72 0 0 4 72 0 0 -4 5316 2010 5 MP stroke
c8
0 1 72 0 0 -1 5388 2010 4 MP
PP
0 sg
-72 0 0 1 72 0 0 -1 5388 2010 5 MP stroke
c8
0 1 73 0 0 -1 5460 2010 4 MP
PP
0 sg
-73 0 0 1 73 0 0 -1 5460 2010 5 MP stroke
c8
0 2 72 0 0 -2 5533 2010 4 MP
PP
0 sg
-72 0 0 2 72 0 0 -2 5533 2010 5 MP stroke
c8
0 12 72 0 0 -12 5605 2010 4 MP
PP
0 sg
-72 0 0 12 72 0 0 -12 5605 2010 5 MP stroke
c8
0 23 72 0 0 -23 5677 2010 4 MP
PP
0 sg
-72 0 0 23 72 0 0 -23 5677 2010 5 MP stroke
c8
0 26 73 0 0 -26 5749 2010 4 MP
PP
0 sg
-73 0 0 26 73 0 0 -26 5749 2010 5 MP stroke
c8
0 59 72 0 0 -59 5822 2010 4 MP
PP
0 sg
-72 0 0 59 72 0 0 -59 5822 2010 5 MP stroke
c8
0 71 72 0 0 -71 5894 2010 4 MP
PP
0 sg
-72 0 0 71 72 0 0 -71 5894 2010 5 MP stroke
c8
0 133 72 0 0 -133 5966 2010 4 MP
PP
0 sg
-72 0 0 133 72 0 0 -133 5966 2010 5 MP stroke
c8
0 188 73 0 0 -188 6038 2010 4 MP
PP
0 sg
-73 0 0 188 73 0 0 -188 6038 2010 5 MP stroke
c8
0 281 72 0 0 -281 6111 2010 4 MP
PP
0 sg
-72 0 0 281 72 0 0 -281 6111 2010 5 MP stroke
c8
0 377 72 0 0 -377 6183 2010 4 MP
PP
0 sg
-72 0 0 377 72 0 0 -377 6183 2010 5 MP stroke
c8
0 531 72 0 0 -531 6255 2010 4 MP
PP
0 sg
-72 0 0 531 72 0 0 -531 6255 2010 5 MP stroke
c8
0 782 73 0 0 -782 6327 2010 4 MP
PP
0 sg
-73 0 0 782 73 0 0 -782 6327 2010 5 MP stroke
c8
0 918 72 0 0 -918 6400 2010 4 MP
PP
0 sg
-72 0 0 918 72 0 0 -918 6400 2010 5 MP stroke
c8
0 1172 72 0 0 -1172 6472 2010 4 MP
PP
0 sg
-72 0 0 1172 72 0 0 -1172 6472 2010 5 MP stroke
c8
0 1192 72 0 0 -1192 6544 2010 4 MP
PP
0 sg
-72 0 0 1192 72 0 0 -1192 6544 2010 5 MP stroke
c8
0 1234 73 0 0 -1234 6616 2010 4 MP
PP
0 sg
-73 0 0 1234 73 0 0 -1234 6616 2010 5 MP stroke
c8
0 1385 72 0 0 -1385 6689 2010 4 MP
PP
0 sg
-72 0 0 1385 72 0 0 -1385 6689 2010 5 MP stroke
c8
0 1246 72 0 0 -1246 6761 2010 4 MP
PP
0 sg
-72 0 0 1246 72 0 0 -1246 6761 2010 5 MP stroke
c8
0 1130 72 0 0 -1130 6833 2010 4 MP
PP
0 sg
-72 0 0 1130 72 0 0 -1130 6833 2010 5 MP stroke
c8
0 917 73 0 0 -917 6905 2010 4 MP
PP
0 sg
-73 0 0 917 73 0 0 -917 6905 2010 5 MP stroke
c8
0 756 72 0 0 -756 6978 2010 4 MP
PP
0 sg
-72 0 0 756 72 0 0 -756 6978 2010 5 MP stroke
c8
0 607 72 0 0 -607 7050 2010 4 MP
PP
0 sg
-72 0 0 607 72 0 0 -607 7050 2010 5 MP stroke
c8
0 403 72 0 0 -403 7122 2010 4 MP
PP
0 sg
-72 0 0 403 72 0 0 -403 7122 2010 5 MP stroke
c8
0 245 72 0 0 -245 7194 2010 4 MP
PP
0 sg
-72 0 0 245 72 0 0 -245 7194 2010 5 MP stroke
c8
0 134 73 0 0 -134 7266 2010 4 MP
PP
0 sg
-73 0 0 134 73 0 0 -134 7266 2010 5 MP stroke
c8
0 74 72 0 0 -74 7339 2010 4 MP
PP
0 sg
-72 0 0 74 72 0 0 -74 7339 2010 5 MP stroke
c8
0 28 72 0 0 -28 7411 2010 4 MP
PP
0 sg
-72 0 0 28 72 0 0 -28 7411 2010 5 MP stroke
c8
0 7 72 0 0 -7 7483 2010 4 MP
PP
0 sg
-72 0 0 7 72 0 0 -7 7483 2010 5 MP stroke
c8
0 4 73 0 0 -4 7555 2010 4 MP
PP
0 sg
-73 0 0 4 73 0 0 -4 7555 2010 5 MP stroke
c8
0 1 72 0 0 -1 7628 2010 4 MP
PP
0 sg
-72 0 0 1 72 0 0 -1 7628 2010 5 MP stroke
c8
0 1 72 0 0 -1 7700 2010 4 MP
PP
0 sg
-72 0 0 1 72 0 0 -1 7700 2010 5 MP stroke
3036 0 5174 2010 2 MP stroke
c9
72 4 72 7 73 14 72 24 72 40 72 63 73 92 72 125 
72 156 72 181 73 191 72 179 72 143 72 86 73 14 72 -59 
72 -123 72 -168 73 -189 72 -187 72 -168 72 -137 73 -104 72 -73 
72 -49 72 -29 73 -18 72 -9 72 -5 72 -2 72 -1 73 0 
72 0 72 0 5280 2009 35 MP stroke
gr

c9
0 sg
%%IncludeResource: font Helvetica
/Helvetica /ISOLatin1Encoding 144 FMSR

6618 2282 mt 
(t) s
%%IncludeResource: font Helvetica
/Helvetica /ISOLatin1Encoding 108 FMSR

6658 2354 mt 
(inj) s
4894 1662 mt  -90 rotate
(posterior density) s
90 rotate
%%IncludeResource: font Symbol
/Symbol /ISOLatin1Encoding 120 FMSR

5478  710 mt 
(m) s
%%IncludeResource: font Helvetica
/Helvetica /ISOLatin1Encoding 120 FMSR

5547  710 mt 
(=64.74) s
%%IncludeResource: font Symbol
/Symbol /ISOLatin1Encoding 120 FMSR

7300  710 mt 
(s) s
%%IncludeResource: font Helvetica
/Helvetica /ISOLatin1Encoding 96 FMSR

7372  650 mt 
(2) s
%%IncludeResource: font Helvetica
/Helvetica /ISOLatin1Encoding 120 FMSR

7425  710 mt 
(=0.02242) s
1 sg
0 1492 3036 0 0 -1492 1179 4081 4 MP
PP
-3036 0 0 1492 3036 0 0 -1492 1179 4081 5 MP stroke
4 w
DO
SO
6 w
0 sg
1179 4081 mt 4215 4081 L
1179 4081 mt 1179 2589 L
1179 4081 mt 1179 4050 L
1029 4226 mt 
(0.044) s
1685 4081 mt 1685 4050 L
1535 4226 mt 
(0.046) s
2190 4081 mt 2190 4050 L
2040 4226 mt 
(0.048) s
2697 4081 mt 2697 4050 L
2581 4226 mt 
(0.05) s
3203 4081 mt 3203 4050 L
3053 4226 mt 
(0.052) s
3708 4081 mt 3708 4050 L
3558 4226 mt 
(0.054) s
4215 4081 mt 4215 4050 L
4065 4226 mt 
(0.056) s
1179 4081 mt 1209 4081 L
1078 4125 mt 
(0) s
1179 3708 mt 1209 3708 L
 944 3752 mt 
(100) s
1179 3335 mt 1209 3335 L
 944 3379 mt 
(200) s
1179 2962 mt 1209 2962 L
 944 3006 mt 
(300) s
1179 2589 mt 1209 2589 L
 944 2633 mt 
(400) s
gs 1179 2589 3037 1493 rc
c8
0 1 66 0 0 -1 1583 4081 4 MP
PP
0 sg
-66 0 0 1 66 0 0 -1 1583 4081 5 MP stroke
c8
0 3 65 0 0 -3 1649 4081 4 MP
PP
0 sg
-65 0 0 3 65 0 0 -3 1649 4081 5 MP stroke
c8
0 4 66 0 0 -4 1714 4081 4 MP
PP
0 sg
-66 0 0 4 66 0 0 -4 1714 4081 5 MP stroke
c8
0 27 66 0 0 -27 1780 4081 4 MP
PP
0 sg
-66 0 0 27 66 0 0 -27 1780 4081 5 MP stroke
c8
0 17 66 0 0 -17 1846 4081 4 MP
PP
0 sg
-66 0 0 17 66 0 0 -17 1846 4081 5 MP stroke
c8
0 32 65 0 0 -32 1912 4081 4 MP
PP
0 sg
-65 0 0 32 65 0 0 -32 1912 4081 5 MP stroke
c8
0 8 66 0 0 -8 1977 4081 4 MP
PP
0 sg
-66 0 0 8 66 0 0 -8 1977 4081 5 MP stroke
c8
0 42 66 0 0 -42 2043 4081 4 MP
PP
0 sg
-66 0 0 42 66 0 0 -42 2043 4081 5 MP stroke
c8
0 43 66 0 0 -43 2109 4081 4 MP
PP
0 sg
-66 0 0 43 66 0 0 -43 2109 4081 5 MP stroke
c8
0 99 66 0 0 -99 2175 4081 4 MP
PP
0 sg
-66 0 0 99 66 0 0 -99 2175 4081 5 MP stroke
c8
0 143 65 0 0 -143 2241 4081 4 MP
PP
0 sg
-65 0 0 143 65 0 0 -143 2241 4081 5 MP stroke
c8
0 201 66 0 0 -201 2306 4081 4 MP
PP
0 sg
-66 0 0 201 66 0 0 -201 2306 4081 5 MP stroke
c8
0 392 66 0 0 -392 2372 4081 4 MP
PP
0 sg
-66 0 0 392 66 0 0 -392 2372 4081 5 MP stroke
c8
0 438 66 0 0 -438 2438 4081 4 MP
PP
0 sg
-66 0 0 438 66 0 0 -438 2438 4081 5 MP stroke
c8
0 638 65 0 0 -638 2504 4081 4 MP
PP
0 sg
-65 0 0 638 65 0 0 -638 2504 4081 5 MP stroke
c8
0 718 66 0 0 -718 2569 4081 4 MP
PP
0 sg
-66 0 0 718 66 0 0 -718 2569 4081 5 MP stroke
c8
0 818 66 0 0 -818 2635 4081 4 MP
PP
0 sg
-66 0 0 818 66 0 0 -818 2635 4081 5 MP stroke
c8
0 1022 66 0 0 -1022 2701 4081 4 MP
PP
0 sg
-66 0 0 1022 66 0 0 -1022 2701 4081 5 MP stroke
c8
0 1067 65 0 0 -1067 2767 4081 4 MP
PP
0 sg
-65 0 0 1067 65 0 0 -1067 2767 4081 5 MP stroke
c8
0 1080 66 0 0 -1080 2832 4081 4 MP
PP
0 sg
-66 0 0 1080 66 0 0 -1080 2832 4081 5 MP stroke
c8
0 1238 66 0 0 -1238 2898 4081 4 MP
PP
0 sg
-66 0 0 1238 66 0 0 -1238 2898 4081 5 MP stroke
c8
0 1206 66 0 0 -1206 2964 4081 4 MP
PP
0 sg
-66 0 0 1206 66 0 0 -1206 2964 4081 5 MP stroke
c8
0 1258 66 0 0 -1258 3030 4081 4 MP
PP
0 sg
-66 0 0 1258 66 0 0 -1258 3030 4081 5 MP stroke
c8
0 1013 65 0 0 -1013 3096 4081 4 MP
PP
0 sg
-65 0 0 1013 65 0 0 -1013 3096 4081 5 MP stroke
c8
0 878 66 0 0 -878 3161 4081 4 MP
PP
0 sg
-66 0 0 878 66 0 0 -878 3161 4081 5 MP stroke
c8
0 792 66 0 0 -792 3227 4081 4 MP
PP
0 sg
-66 0 0 792 66 0 0 -792 3227 4081 5 MP stroke
c8
0 474 66 0 0 -474 3293 4081 4 MP
PP
0 sg
-66 0 0 474 66 0 0 -474 3293 4081 5 MP stroke
c8
0 277 65 0 0 -277 3359 4081 4 MP
PP
0 sg
-65 0 0 277 65 0 0 -277 3359 4081 5 MP stroke
c8
0 247 66 0 0 -247 3424 4081 4 MP
PP
0 sg
-66 0 0 247 66 0 0 -247 3424 4081 5 MP stroke
c8
0 111 66 0 0 -111 3490 4081 4 MP
PP
0 sg
-66 0 0 111 66 0 0 -111 3490 4081 5 MP stroke
c8
0 36 66 0 0 -36 3556 4081 4 MP
PP
0 sg
-66 0 0 36 66 0 0 -36 3556 4081 5 MP stroke
c8
0 25 65 0 0 -25 3622 4081 4 MP
PP
0 sg
-65 0 0 25 65 0 0 -25 3622 4081 5 MP stroke
c8
0 14 66 0 0 -14 3687 4081 4 MP
PP
0 sg
-66 0 0 14 66 0 0 -14 3687 4081 5 MP stroke
c8
0 2 66 0 0 -2 3753 4081 4 MP
PP
0 sg
-66 0 0 2 66 0 0 -2 3753 4081 5 MP stroke
c8
0 4 66 0 0 -4 3819 4081 4 MP
PP
0 sg
-66 0 0 4 66 0 0 -4 3819 4081 5 MP stroke
3036 0 1179 4081 2 MP stroke
c9
66 9 66 15 65 25 66 38 66 55 66 76 66 99 65 124 
66 145 66 157 66 157 65 143 66 111 66 64 66 9 65 -48 
66 -101 66 -139 66 -162 66 -166 65 -156 66 -135 66 -107 66 -81 
65 -57 66 -37 66 -23 66 -13 65 -7 66 -3 66 -2 66 -1 
65 0 66 0 1616 4080 35 MP stroke
gr

c9
0 sg
%%IncludeResource: font Symbol
/Symbol /ISOLatin1Encoding 144 FMSR

2614 4335 mt 
(f) s
%%IncludeResource: font Helvetica
/Helvetica /ISOLatin1Encoding 108 FMSR

2689 4407 mt 
(m) s
 865 3733 mt  -90 rotate
(posterior density) s
90 rotate
%%IncludeResource: font Symbol
/Symbol /ISOLatin1Encoding 120 FMSR

1483 2781 mt 
(m) s
%%IncludeResource: font Helvetica
/Helvetica /ISOLatin1Encoding 120 FMSR

1552 2781 mt 
(=0.0508) s
%%IncludeResource: font Symbol
/Symbol /ISOLatin1Encoding 120 FMSR

3305 2781 mt 
(s) s
%%IncludeResource: font Helvetica
/Helvetica /ISOLatin1Encoding 96 FMSR

3377 2721 mt 
(2) s
%%IncludeResource: font Helvetica
/Helvetica /ISOLatin1Encoding 120 FMSR

3430 2781 mt 
(=1.423e-06) s
1 sg
0 1492 3036 0 0 -1492 5174 4081 4 MP
PP
-3036 0 0 1492 3036 0 0 -1492 5174 4081 5 MP stroke
4 w
DO
SO
6 w
0 sg
5174 4081 mt 8210 4081 L
5174 4081 mt 5174 2589 L
5174 4081 mt 5174 4050 L
5141 4226 mt 
(3) s
5607 4081 mt 5607 4050 L
5524 4226 mt 
(3.2) s
6041 4081 mt 6041 4050 L
5958 4226 mt 
(3.4) s
6475 4081 mt 6475 4050 L
6392 4226 mt 
(3.6) s
6908 4081 mt 6908 4050 L
6825 4226 mt 
(3.8) s
7342 4081 mt 7342 4050 L
7309 4226 mt 
(4) s
7776 4081 mt 7776 4050 L
7693 4226 mt 
(4.2) s
8210 4081 mt 8210 4050 L
8127 4226 mt 
(4.4) s
5174 4081 mt 5204 4081 L
5073 4125 mt 
(0) s
5174 3832 mt 5204 3832 L
4973 3876 mt 
(0.5) s
5174 3583 mt 5204 3583 L
5073 3627 mt 
(1) s
5174 3335 mt 5204 3335 L
4973 3379 mt 
(1.5) s
5174 3086 mt 5204 3086 L
5073 3130 mt 
(2) s
5174 2837 mt 5204 2837 L
4973 2881 mt 
(2.5) s
5174 2589 mt 5204 2589 L
5073 2633 mt 
(3) s
gs 5174 2589 3037 1493 rc
c8
0 6 73 0 0 -6 5191 4081 4 MP
PP
0 sg
-73 0 0 6 73 0 0 -6 5191 4081 5 MP stroke
c8
0 17 73 0 0 -17 5264 4081 4 MP
PP
0 sg
-73 0 0 17 73 0 0 -17 5264 4081 5 MP stroke
c8
0 11 72 0 0 -11 5337 4081 4 MP
PP
0 sg
-72 0 0 11 72 0 0 -11 5337 4081 5 MP stroke
c8
0 27 73 0 0 -27 5409 4081 4 MP
PP
0 sg
-73 0 0 27 73 0 0 -27 5409 4081 5 MP stroke
c8
0 37 73 0 0 -37 5482 4081 4 MP
PP
0 sg
-73 0 0 37 73 0 0 -37 5482 4081 5 MP stroke
c8
0 22 72 0 0 -22 5555 4081 4 MP
PP
0 sg
-72 0 0 22 72 0 0 -22 5555 4081 5 MP stroke
c8
0 43 73 0 0 -43 5627 4081 4 MP
PP
0 sg
-73 0 0 43 73 0 0 -43 5627 4081 5 MP stroke
c8
0 44 73 0 0 -44 5700 4081 4 MP
PP
0 sg
-73 0 0 44 73 0 0 -44 5700 4081 5 MP stroke
c8
0 122 72 0 0 -122 5773 4081 4 MP
PP
0 sg
-72 0 0 122 72 0 0 -122 5773 4081 5 MP stroke
c8
0 229 73 0 0 -229 5845 4081 4 MP
PP
0 sg
-73 0 0 229 73 0 0 -229 5845 4081 5 MP stroke
c8
0 344 73 0 0 -344 5918 4081 4 MP
PP
0 sg
-73 0 0 344 73 0 0 -344 5918 4081 5 MP stroke
c8
0 450 72 0 0 -450 5991 4081 4 MP
PP
0 sg
-72 0 0 450 72 0 0 -450 5991 4081 5 MP stroke
c8
0 622 73 0 0 -622 6063 4081 4 MP
PP
0 sg
-73 0 0 622 73 0 0 -622 6063 4081 5 MP stroke
c8
0 753 73 0 0 -753 6136 4081 4 MP
PP
0 sg
-73 0 0 753 73 0 0 -753 6136 4081 5 MP stroke
c8
0 944 72 0 0 -944 6209 4081 4 MP
PP
0 sg
-72 0 0 944 72 0 0 -944 6209 4081 5 MP stroke
c8
0 948 73 0 0 -948 6281 4081 4 MP
PP
0 sg
-73 0 0 948 73 0 0 -948 6281 4081 5 MP stroke
c8
0 1244 73 0 0 -1244 6354 4081 4 MP
PP
0 sg
-73 0 0 1244 73 0 0 -1244 6354 4081 5 MP stroke
c8
0 1264 72 0 0 -1264 6427 4081 4 MP
PP
0 sg
-72 0 0 1264 72 0 0 -1264 6427 4081 5 MP stroke
c8
0 1311 73 0 0 -1311 6499 4081 4 MP
PP
0 sg
-73 0 0 1311 73 0 0 -1311 6499 4081 5 MP stroke
c8
0 1328 73 0 0 -1328 6572 4081 4 MP
PP
0 sg
-73 0 0 1328 73 0 0 -1328 6572 4081 5 MP stroke
c8
0 1203 72 0 0 -1203 6645 4081 4 MP
PP
0 sg
-72 0 0 1203 72 0 0 -1203 6645 4081 5 MP stroke
c8
0 1033 73 0 0 -1033 6717 4081 4 MP
PP
0 sg
-73 0 0 1033 73 0 0 -1033 6717 4081 5 MP stroke
c8
0 881 73 0 0 -881 6790 4081 4 MP
PP
0 sg
-73 0 0 881 73 0 0 -881 6790 4081 5 MP stroke
c8
0 664 72 0 0 -664 6863 4081 4 MP
PP
0 sg
-72 0 0 664 72 0 0 -664 6863 4081 5 MP stroke
c8
0 492 73 0 0 -492 6935 4081 4 MP
PP
0 sg
-73 0 0 492 73 0 0 -492 6935 4081 5 MP stroke
c8
0 282 73 0 0 -282 7008 4081 4 MP
PP
0 sg
-73 0 0 282 73 0 0 -282 7008 4081 5 MP stroke
c8
0 229 72 0 0 -229 7081 4081 4 MP
PP
0 sg
-72 0 0 229 72 0 0 -229 7081 4081 5 MP stroke
c8
0 144 73 0 0 -144 7153 4081 4 MP
PP
0 sg
-73 0 0 144 73 0 0 -144 7153 4081 5 MP stroke
c8
0 86 73 0 0 -86 7226 4081 4 MP
PP
0 sg
-73 0 0 86 73 0 0 -86 7226 4081 5 MP stroke
c8
0 32 73 0 0 -32 7299 4081 4 MP
PP
0 sg
-73 0 0 32 73 0 0 -32 7299 4081 5 MP stroke
c8
0 24 72 0 0 -24 7372 4081 4 MP
PP
0 sg
-72 0 0 24 72 0 0 -24 7372 4081 5 MP stroke
c8
0 11 73 0 0 -11 7444 4081 4 MP
PP
0 sg
-73 0 0 11 73 0 0 -11 7444 4081 5 MP stroke
c8
0 4 73 0 0 -4 7517 4081 4 MP
PP
0 sg
-73 0 0 4 73 0 0 -4 7517 4081 5 MP stroke
c8
0 0 72 0 0 0 7590 4081 4 MP
PP
0 sg
-72 0 0 0 72 0 0 0 7590 4081 5 MP stroke
c8
0 4 73 0 0 -4 7662 4081 4 MP
PP
0 sg
-73 0 0 4 73 0 0 -4 7662 4081 5 MP stroke
3036 0 5174 4081 2 MP stroke
c9
73 3 73 6 72 10 73 16 73 25 73 39 72 56 73 77 
73 101 72 127 73 150 73 164 72 167 73 153 73 121 72 73 
73 13 73 -49 72 -108 73 -152 73 -176 72 -182 73 -168 73 -144 
72 -113 73 -82 73 -55 72 -35 73 -20 73 -11 72 -5 73 -3 
73 -1 72 0 5228 4080 35 MP stroke
gr

c9
0 sg
%%IncludeResource: font Symbol
/Symbol /ISOLatin1Encoding 144 FMSR

6616 4335 mt 
(a) s
%%IncludeResource: font Helvetica
/Helvetica /ISOLatin1Encoding 108 FMSR

6706 4407 mt 
(L) s
4894 3733 mt  -90 rotate
(posterior density) s
90 rotate
%%IncludeResource: font Symbol
/Symbol /ISOLatin1Encoding 120 FMSR

5478 2781 mt 
(m) s
%%IncludeResource: font Helvetica
/Helvetica /ISOLatin1Encoding 120 FMSR

5547 2781 mt 
(=3.614) s
%%IncludeResource: font Symbol
/Symbol /ISOLatin1Encoding 120 FMSR

7300 2781 mt 
(s) s
%%IncludeResource: font Helvetica
/Helvetica /ISOLatin1Encoding 96 FMSR

7372 2721 mt 
(2) s
%%IncludeResource: font Helvetica
/Helvetica /ISOLatin1Encoding 120 FMSR

7425 2781 mt 
(=0.02281) s
1 sg
0 1491 3036 0 0 -1491 1179 6152 4 MP
PP
-3036 0 0 1491 3036 0 0 -1491 1179 6152 5 MP stroke
4 w
DO
SO
6 w
0 sg
1179 6152 mt 4215 6152 L
1179 6152 mt 1179 4661 L
1179 6152 mt 1179 6121 L
 993 6297 mt 
(-1.65) s
1938 6152 mt 1938 6121 L
1785 6297 mt 
(-1.6) s
2697 6152 mt 2697 6121 L
2511 6297 mt 
(-1.55) s
3456 6152 mt 3456 6121 L
3303 6297 mt 
(-1.5) s
4215 6152 mt 4215 6121 L
4029 6297 mt 
(-1.45) s
1179 6152 mt 1209 6152 L
1078 6196 mt 
(0) s
1179 5853 mt 1209 5853 L
1078 5897 mt 
(5) s
1179 5555 mt 1209 5555 L
1011 5599 mt 
(10) s
1179 5257 mt 1209 5257 L
1011 5301 mt 
(15) s
1179 4959 mt 1209 4959 L
1011 5003 mt 
(20) s
1179 4661 mt 1209 4661 L
1011 4705 mt 
(25) s
gs 1179 4661 3037 1492 rc
c8
0 2 69 0 0 -2 1667 6152 4 MP
PP
0 sg
-69 0 0 2 69 0 0 -2 1667 6152 5 MP stroke
c8
0 9 69 0 0 -9 1736 6152 4 MP
PP
0 sg
-69 0 0 9 69 0 0 -9 1736 6152 5 MP stroke
c8
0 6 70 0 0 -6 1805 6152 4 MP
PP
0 sg
-70 0 0 6 70 0 0 -6 1805 6152 5 MP stroke
c8
0 30 69 0 0 -30 1875 6152 4 MP
PP
0 sg
-69 0 0 30 69 0 0 -30 1875 6152 5 MP stroke
c8
0 48 69 0 0 -48 1944 6152 4 MP
PP
0 sg
-69 0 0 48 69 0 0 -48 1944 6152 5 MP stroke
c8
0 92 69 0 0 -92 2013 6152 4 MP
PP
0 sg
-69 0 0 92 69 0 0 -92 2013 6152 5 MP stroke
c8
0 178 69 0 0 -178 2082 6152 4 MP
PP
0 sg
-69 0 0 178 69 0 0 -178 2082 6152 5 MP stroke
c8
0 219 69 0 0 -219 2151 6152 4 MP
PP
0 sg
-69 0 0 219 69 0 0 -219 2151 6152 5 MP stroke
c8
0 433 70 0 0 -433 2220 6152 4 MP
PP
0 sg
-70 0 0 433 70 0 0 -433 2220 6152 5 MP stroke
c8
0 531 69 0 0 -531 2290 6152 4 MP
PP
0 sg
-69 0 0 531 69 0 0 -531 2290 6152 5 MP stroke
c8
0 760 69 0 0 -760 2359 6152 4 MP
PP
0 sg
-69 0 0 760 69 0 0 -760 2359 6152 5 MP stroke
c8
0 994 69 0 0 -994 2428 6152 4 MP
PP
0 sg
-69 0 0 994 69 0 0 -994 2428 6152 5 MP stroke
c8
0 1264 69 0 0 -1264 2497 6152 4 MP
PP
0 sg
-69 0 0 1264 69 0 0 -1264 2497 6152 5 MP stroke
c8
0 1261 70 0 0 -1261 2566 6152 4 MP
PP
0 sg
-70 0 0 1261 70 0 0 -1261 2566 6152 5 MP stroke
c8
0 1363 69 0 0 -1363 2636 6152 4 MP
PP
0 sg
-69 0 0 1363 69 0 0 -1363 2636 6152 5 MP stroke
c8
0 1363 69 0 0 -1363 2705 6152 4 MP
PP
0 sg
-69 0 0 1363 69 0 0 -1363 2705 6152 5 MP stroke
c8
0 1134 69 0 0 -1134 2774 6152 4 MP
PP
0 sg
-69 0 0 1134 69 0 0 -1134 2774 6152 5 MP stroke
c8
0 939 69 0 0 -939 2843 6152 4 MP
PP
0 sg
-69 0 0 939 69 0 0 -939 2843 6152 5 MP stroke
c8
0 693 69 0 0 -693 2912 6152 4 MP
PP
0 sg
-69 0 0 693 69 0 0 -693 2912 6152 5 MP stroke
c8
0 564 70 0 0 -564 2981 6152 4 MP
PP
0 sg
-70 0 0 564 70 0 0 -564 2981 6152 5 MP stroke
c8
0 396 69 0 0 -396 3051 6152 4 MP
PP
0 sg
-69 0 0 396 69 0 0 -396 3051 6152 5 MP stroke
c8
0 236 69 0 0 -236 3120 6152 4 MP
PP
0 sg
-69 0 0 236 69 0 0 -236 3120 6152 5 MP stroke
c8
0 207 69 0 0 -207 3189 6152 4 MP
PP
0 sg
-69 0 0 207 69 0 0 -207 3189 6152 5 MP stroke
c8
0 118 69 0 0 -118 3258 6152 4 MP
PP
0 sg
-69 0 0 118 69 0 0 -118 3258 6152 5 MP stroke
c8
0 109 69 0 0 -109 3327 6152 4 MP
PP
0 sg
-69 0 0 109 69 0 0 -109 3327 6152 5 MP stroke
c8
0 53 70 0 0 -53 3396 6152 4 MP
PP
0 sg
-70 0 0 53 70 0 0 -53 3396 6152 5 MP stroke
c8
0 38 69 0 0 -38 3466 6152 4 MP
PP
0 sg
-69 0 0 38 69 0 0 -38 3466 6152 5 MP stroke
c8
0 24 69 0 0 -24 3535 6152 4 MP
PP
0 sg
-69 0 0 24 69 0 0 -24 3535 6152 5 MP stroke
c8
0 6 69 0 0 -6 3604 6152 4 MP
PP
0 sg
-69 0 0 6 69 0 0 -6 3604 6152 5 MP stroke
c8
0 7 69 0 0 -7 3673 6152 4 MP
PP
0 sg
-69 0 0 7 69 0 0 -7 3673 6152 5 MP stroke
c8
0 14 70 0 0 -14 3742 6152 4 MP
PP
0 sg
-70 0 0 14 70 0 0 -14 3742 6152 5 MP stroke
c8
0 9 69 0 0 -9 3812 6152 4 MP
PP
0 sg
-69 0 0 9 69 0 0 -9 3812 6152 5 MP stroke
c8
0 2 69 0 0 -2 3881 6152 4 MP
PP
0 sg
-69 0 0 2 69 0 0 -2 3881 6152 5 MP stroke
c8
0 1 69 0 0 -1 3950 6152 4 MP
PP
0 sg
-69 0 0 1 69 0 0 -1 3950 6152 5 MP stroke
c8
0 1 69 0 0 -1 4019 6152 4 MP
PP
0 sg
-69 0 0 1 69 0 0 -1 4019 6152 5 MP stroke
3036 0 1179 6152 2 MP stroke
c9
70 0 69 0 69 0 69 0 69 1 69 3 70 5 69 9 
69 19 69 32 69 53 69 79 70 112 69 145 69 173 69 188 
69 182 70 152 69 97 69 27 69 -49 69 -115 69 -164 70 -186 
69 -186 69 -166 69 -135 69 -102 70 -70 69 -46 69 -28 69 -15 
69 -8 69 -4 1702 6148 35 MP stroke
gr

c9
0 sg
%%IncludeResource: font Symbol
/Symbol /ISOLatin1Encoding 144 FMSR

2655 6451 mt 
(m) s
%%IncludeResource: font Helvetica
/Helvetica /ISOLatin1Encoding 108 FMSR

 932 5804 mt  -90 rotate
(posterior density) s
90 rotate
%%IncludeResource: font Symbol
/Symbol /ISOLatin1Encoding 120 FMSR

1483 4853 mt 
(m) s
%%IncludeResource: font Helvetica
/Helvetica /ISOLatin1Encoding 120 FMSR

1552 4853 mt 
(=-1.551) s
%%IncludeResource: font Symbol
/Symbol /ISOLatin1Encoding 120 FMSR

3305 4853 mt 
(s) s
%%IncludeResource: font Helvetica
/Helvetica /ISOLatin1Encoding 96 FMSR

3377 4793 mt 
(2) s
%%IncludeResource: font Helvetica
/Helvetica /ISOLatin1Encoding 120 FMSR

3430 4853 mt 
(=0.0003465) s
1 sg
0 1491 3037 0 0 -1491 5173 6152 4 MP
PP
-3037 0 0 1491 3037 0 0 -1491 5173 6152 5 MP stroke
4 w
DO
SO
6 w
0 sg
5173 6152 mt 8210 6152 L
5173 6152 mt 5173 4661 L
5173 6152 mt 5173 6121 L
5090 6297 mt 
(1.4) s
5679 6152 mt 5679 6121 L
5596 6297 mt 
(1.5) s
6185 6152 mt 6185 6121 L
6102 6297 mt 
(1.6) s
6692 6152 mt 6692 6121 L
6609 6297 mt 
(1.7) s
7197 6152 mt 7197 6121 L
7114 6297 mt 
(1.8) s
7703 6152 mt 7703 6121 L
7620 6297 mt 
(1.9) s
8210 6152 mt 8210 6121 L
8177 6297 mt 
(2) s
5173 6152 mt 5204 6152 L
5073 6196 mt 
(0) s
5173 5903 mt 5204 5903 L
5073 5947 mt 
(1) s
5173 5655 mt 5204 5655 L
5073 5699 mt 
(2) s
5173 5406 mt 5204 5406 L
5073 5450 mt 
(3) s
5173 5158 mt 5204 5158 L
5073 5202 mt 
(4) s
5173 4909 mt 5204 4909 L
5073 4953 mt 
(5) s
5173 4661 mt 5204 4661 L
5073 4705 mt 
(6) s
gs 5173 4661 3038 1492 rc
c8
0 7 83 0 0 -7 5267 6152 4 MP
PP
0 sg
-83 0 0 7 83 0 0 -7 5267 6152 5 MP stroke
c8
0 9 84 0 0 -9 5350 6152 4 MP
PP
0 sg
-84 0 0 9 84 0 0 -9 5350 6152 5 MP stroke
c8
0 23 84 0 0 -23 5434 6152 4 MP
PP
0 sg
-84 0 0 23 84 0 0 -23 5434 6152 5 MP stroke
c8
0 33 84 0 0 -33 5518 6152 4 MP
PP
0 sg
-84 0 0 33 84 0 0 -33 5518 6152 5 MP stroke
c8
0 70 84 0 0 -70 5602 6152 4 MP
PP
0 sg
-84 0 0 70 84 0 0 -70 5602 6152 5 MP stroke
c8
0 94 83 0 0 -94 5686 6152 4 MP
PP
0 sg
-83 0 0 94 83 0 0 -94 5686 6152 5 MP stroke
c8
0 146 84 0 0 -146 5769 6152 4 MP
PP
0 sg
-84 0 0 146 84 0 0 -146 5769 6152 5 MP stroke
c8
0 302 84 0 0 -302 5853 6152 4 MP
PP
0 sg
-84 0 0 302 84 0 0 -302 5853 6152 5 MP stroke
c8
0 475 84 0 0 -475 5937 6152 4 MP
PP
0 sg
-84 0 0 475 84 0 0 -475 5937 6152 5 MP stroke
c8
0 620 84 0 0 -620 6021 6152 4 MP
PP
0 sg
-84 0 0 620 84 0 0 -620 6021 6152 5 MP stroke
c8
0 854 83 0 0 -854 6105 6152 4 MP
PP
0 sg
-83 0 0 854 83 0 0 -854 6105 6152 5 MP stroke
c8
0 992 84 0 0 -992 6188 6152 4 MP
PP
0 sg
-84 0 0 992 84 0 0 -992 6188 6152 5 MP stroke
c8
0 1075 84 0 0 -1075 6272 6152 4 MP
PP
0 sg
-84 0 0 1075 84 0 0 -1075 6272 6152 5 MP stroke
c8
0 1181 84 0 0 -1181 6356 6152 4 MP
PP
0 sg
-84 0 0 1181 84 0 0 -1181 6356 6152 5 MP stroke
c8
0 1267 84 0 0 -1267 6440 6152 4 MP
PP
0 sg
-84 0 0 1267 84 0 0 -1267 6440 6152 5 MP stroke
c8
0 1150 83 0 0 -1150 6524 6152 4 MP
PP
0 sg
-83 0 0 1150 83 0 0 -1150 6524 6152 5 MP stroke
c8
0 988 84 0 0 -988 6607 6152 4 MP
PP
0 sg
-84 0 0 988 84 0 0 -988 6607 6152 5 MP stroke
c8
0 954 84 0 0 -954 6691 6152 4 MP
PP
0 sg
-84 0 0 954 84 0 0 -954 6691 6152 5 MP stroke
c8
0 937 84 0 0 -937 6775 6152 4 MP
PP
0 sg
-84 0 0 937 84 0 0 -937 6775 6152 5 MP stroke
c8
0 849 84 0 0 -849 6859 6152 4 MP
PP
0 sg
-84 0 0 849 84 0 0 -849 6859 6152 5 MP stroke
c8
0 706 83 0 0 -706 6943 6152 4 MP
PP
0 sg
-83 0 0 706 83 0 0 -706 6943 6152 5 MP stroke
c8
0 593 84 0 0 -593 7026 6152 4 MP
PP
0 sg
-84 0 0 593 84 0 0 -593 7026 6152 5 MP stroke
c8
0 552 84 0 0 -552 7110 6152 4 MP
PP
0 sg
-84 0 0 552 84 0 0 -552 7110 6152 5 MP stroke
c8
0 429 84 0 0 -429 7194 6152 4 MP
PP
0 sg
-84 0 0 429 84 0 0 -429 7194 6152 5 MP stroke
c8
0 248 84 0 0 -248 7278 6152 4 MP
PP
0 sg
-84 0 0 248 84 0 0 -248 7278 6152 5 MP stroke
c8
0 155 84 0 0 -155 7362 6152 4 MP
PP
0 sg
-84 0 0 155 84 0 0 -155 7362 6152 5 MP stroke
c8
0 125 83 0 0 -125 7446 6152 4 MP
PP
0 sg
-83 0 0 125 83 0 0 -125 7446 6152 5 MP stroke
c8
0 67 84 0 0 -67 7529 6152 4 MP
PP
0 sg
-84 0 0 67 84 0 0 -67 7529 6152 5 MP stroke
c8
0 59 84 0 0 -59 7613 6152 4 MP
PP
0 sg
-84 0 0 59 84 0 0 -59 7613 6152 5 MP stroke
c8
0 25 84 0 0 -25 7697 6152 4 MP
PP
0 sg
-84 0 0 25 84 0 0 -25 7697 6152 5 MP stroke
c8
0 21 84 0 0 -21 7781 6152 4 MP
PP
0 sg
-84 0 0 21 84 0 0 -21 7781 6152 5 MP stroke
c8
0 7 83 0 0 -7 7865 6152 4 MP
PP
0 sg
-83 0 0 7 83 0 0 -7 7865 6152 5 MP stroke
c8
0 6 84 0 0 -6 7948 6152 4 MP
PP
0 sg
-84 0 0 6 84 0 0 -6 7948 6152 5 MP stroke
c8
0 3 84 0 0 -3 8032 6152 4 MP
PP
0 sg
-84 0 0 3 84 0 0 -3 8032 6152 5 MP stroke
c8
0 1 84 0 0 -1 8116 6152 4 MP
PP
0 sg
-84 0 0 1 84 0 0 -1 8116 6152 5 MP stroke
3037 0 5173 6152 2 MP stroke
c9
84 1 84 2 84 3 83 6 84 10 84 17 84 27 84 40 
83 57 84 78 84 100 84 122 84 139 83 150 84 148 84 133 
84 105 84 65 83 16 84 -33 84 -80 84 -117 84 -140 83 -150 
84 -147 84 -134 84 -114 84 -92 84 -71 83 -51 84 -35 84 -22 
84 -15 84 -8 5308 6141 35 MP stroke
gr

c9
0 sg
%%IncludeResource: font Symbol
/Symbol /ISOLatin1Encoding 144 FMSR

6647 6451 mt 
(s) s
%%IncludeResource: font Helvetica
/Helvetica /ISOLatin1Encoding 108 FMSR

4994 5804 mt  -90 rotate
(posterior density) s
90 rotate
%%IncludeResource: font Symbol
/Symbol /ISOLatin1Encoding 120 FMSR

5477 4853 mt 
(m) s
%%IncludeResource: font Helvetica
/Helvetica /ISOLatin1Encoding 120 FMSR

5546 4853 mt 
(=1.678) s
%%IncludeResource: font Symbol
/Symbol /ISOLatin1Encoding 120 FMSR

7300 4853 mt 
(s) s
%%IncludeResource: font Helvetica
/Helvetica /ISOLatin1Encoding 96 FMSR

7372 4793 mt 
(2) s
%%IncludeResource: font Helvetica
/Helvetica /ISOLatin1Encoding 120 FMSR

7425 4853 mt 
(=0.006596) s

end %%Color Dict

eplot
%%EndObject

epage
end

showpage

%%Trailer
%%EOF
