%!PS-Adobe-3.0
%%Pages: (atend)
%%BoundingBox: 0 0 576 432
%%HiResBoundingBox: 0.000000 0.000000 575.999982 431.999987
%.........................................
%%Creator: GPL Ghostscript 871 (pswrite)
%%CreationDate: 2012/07/18 14:54:08
%%DocumentData: Clean7Bit
%%LanguageLevel: 2
%%EndComments
%%BeginProlog
% This copyright applies to everything between here and the %%EndProlog:
% Copyright (C) 2010 Artifex Software, Inc.  All rights reserved.
%%BeginResource: procset GS_pswrite_2_0_1001 1.001 0
/GS_pswrite_2_0_1001 80 dict dup begin
/PageSize 2 array def/setpagesize{ PageSize aload pop 3 index eq exch
4 index eq and{ pop pop pop}{ PageSize dup  1
5 -1 roll put 0 4 -1 roll put dup null eq {false} {dup where} ifelse{ exch get exec}
{ pop/setpagedevice where
{ pop 1 dict dup /PageSize PageSize put setpagedevice}
{ /setpage where{ pop PageSize aload pop pageparams 3 {exch pop} repeat
setpage}if}ifelse}ifelse}ifelse} bind def
/!{bind def}bind def/#{load def}!/N/counttomark #
/rG{3{3 -1 roll 255 div}repeat setrgbcolor}!/G{255 div setgray}!/K{0 G}!
/r6{dup 3 -1 roll rG}!/r5{dup 3 1 roll rG}!/r3{dup rG}!
/w/setlinewidth #/J/setlinecap #
/j/setlinejoin #/M/setmiterlimit #/d/setdash #/i/setflat #
/m/moveto #/l/lineto #/c/rcurveto #
/p{N 2 idiv{N -2 roll rlineto}repeat}!
/P{N 0 gt{N -2 roll moveto p}if}!
/h{p closepath}!/H{P closepath}!
/lx{0 rlineto}!/ly{0 exch rlineto}!/v{0 0 6 2 roll c}!/y{2 copy c}!
/re{4 -2 roll m exch dup lx exch ly neg lx h}!
/^{3 index neg 3 index neg}!
/f{P fill}!/f*{P eofill}!/s{H stroke}!/S{P stroke}!
/q/gsave #/Q/grestore #/rf{re fill}!
/Y{P clip newpath}!/Y*{P eoclip newpath}!/rY{re Y}!
/|={pop exch 4 1 roll 1 array astore cvx 3 array astore cvx exch 1 index def exec}!
/|{exch string readstring |=}!
/+{dup type/nametype eq{2 index 7 add -3 bitshift 2 index mul}if}!
/@/currentfile #/${+ @ |}!
/B{{2 copy string{readstring pop}aload pop 4 array astore cvx
3 1 roll}repeat pop pop true}!
/Ix{[1 0 0 1 11 -2 roll exch neg exch neg]exch}!
/,{true exch Ix imagemask}!/If{false exch Ix imagemask}!/I{exch Ix image}!
/Ic{exch Ix false 3 colorimage}!
/F{/Columns counttomark 3 add -2 roll/Rows exch/K -1/BlackIs1 true>>
/CCITTFaxDecode filter}!/FX{<</EndOfBlock false F}!
/X{/ASCII85Decode filter}!/@X{@ X}!/&2{2 index 2 index}!
/@F{@ &2<<F}!/@C{@X &2 FX}!
/$X{+ @X |}!/&4{4 index 4 index}!/$F{+ @ &4<<F |}!/$C{+ @X &4 FX |}!
/IC{3 1 roll 10 dict begin 1{/ImageType/Interpolate/Decode/DataSource
/ImageMatrix/BitsPerComponent/Height/Width}{exch def}forall
currentdict end image}!
/~{@ read {pop} if}!
end def
%%EndResource
/pagesave null def
%%EndProlog
%%Page: 1 1
%%PageBoundingBox: 0 0 576 432
%%BeginPageSetup
GS_pswrite_2_0_1001 begin
576 432 null setpagesize
/pagesave save store 197 dict begin
0.012 0.012 scale
%%EndPageSetup
gsave mark
Q q
0 0 48000 36000 re
Y
255 G
0 0 48000 36000 re
f
83.3333 w
2 J
1 j
0 0 48000 0 0 36000 ^ ^ S
6000 5400 37200 27000 re
f
Q q
6000 5400 37200 27000 re
Y
255 0 r6
6000 5400 413.332 0 re
f
83.3333 w
2 J
1 j
K
6000 5400 413.33 0 0 0 ^ ^ S
Q q
6000 5400 37200 27000 re
Y
255 0 r6
6413.33 5400 413.332 0 re
f
83.3333 w
2 J
1 j
K
6413.33 5400 413.33 0 0 0 ^ ^ S
Q q
6000 5400 37200 27000 re
Y
255 0 r6
6826.66 5400 413.336 0 re
f
83.3333 w
2 J
1 j
K
6826.66 5400 413.34 0 0 0 ^ ^ S
Q q
6000 5400 37200 27000 re
Y
255 0 r6
7240 5400 413.332 337.5 re
f
83.3333 w
2 J
1 j
K
7240 5400 413.33 0 0 337.5 ^ ^ S
Q q
6000 5400 37200 27000 re
Y
255 0 r6
7653.33 5400 413.336 337.5 re
f
83.3333 w
2 J
1 j
K
7653.33 5400 413.34 0 0 337.5 ^ ^ S
Q q
6000 5400 37200 27000 re
Y
255 0 r6
8066.67 5400 413.332 168.75 re
f
83.3333 w
2 J
1 j
K
8066.67 5400 413.33 0 0 168.75 ^ ^ S
Q q
6000 5400 37200 27000 re
Y
255 0 r6
8480 5400 413.332 337.5 re
f
83.3333 w
2 J
1 j
K
8480 5400 413.33 0 0 337.5 ^ ^ S
Q q
6000 5400 37200 27000 re
Y
255 0 r6
8893.33 5400 413.336 337.5 re
f
83.3333 w
2 J
1 j
K
8893.33 5400 413.34 0 0 337.5 ^ ^ S
Q q
6000 5400 37200 27000 re
Y
255 0 r6
9306.67 5400 413.332 337.5 re
f
83.3333 w
2 J
1 j
K
9306.67 5400 413.33 0 0 337.5 ^ ^ S
Q q
6000 5400 37200 27000 re
Y
255 0 r6
9720 5400 413.332 675 re
f
83.3333 w
2 J
1 j
K
9720 5400 413.33 0 0 675 ^ ^ S
Q q
6000 5400 37200 27000 re
Y
255 0 r6
10133.3 5400 413.336 506.25 re
f
83.3333 w
2 J
1 j
K
10133.3 5400 413.34 0 0 506.25 ^ ^ S
Q q
6000 5400 37200 27000 re
Y
255 0 r6
10546.7 5400 413.332 675 re
f
83.3333 w
2 J
1 j
K
10546.7 5400 413.33 0 0 675 ^ ^ S
Q q
6000 5400 37200 27000 re
Y
255 0 r6
10960 5400 413.332 843.75 re
f
83.3333 w
2 J
1 j
K
10960 5400 413.33 0 0 843.75 ^ ^ S
Q q
6000 5400 37200 27000 re
Y
255 0 r6
11373.3 5400 413.336 168.75 re
f
83.3333 w
2 J
1 j
K
11373.3 5400 413.34 0 0 168.75 ^ ^ S
Q q
6000 5400 37200 27000 re
Y
255 0 r6
11786.7 5400 413.332 675 re
f
83.3333 w
2 J
1 j
K
11786.7 5400 413.33 0 0 675 ^ ^ S
Q q
6000 5400 37200 27000 re
Y
255 0 r6
12200 5400 413.332 843.75 re
f
83.3333 w
2 J
1 j
K
12200 5400 413.33 0 0 843.75 ^ ^ S
Q q
6000 5400 37200 27000 re
Y
255 0 r6
12613.3 5400 413.336 1181.25 re
f
83.3333 w
2 J
1 j
K
12613.3 5400 413.34 0 0 1181.25 ^ ^ S
Q q
6000 5400 37200 27000 re
Y
255 0 r6
13026.7 5400 413.332 1350 re
f
83.3333 w
2 J
1 j
K
13026.7 5400 413.33 0 0 1350 ^ ^ S
Q q
6000 5400 37200 27000 re
Y
255 0 r6
13440 5400 413.332 4556.25 re
f
83.3333 w
2 J
1 j
K
13440 5400 413.33 0 0 4556.25 ^ ^ S
Q q
6000 5400 37200 27000 re
Y
255 0 r6
13853.3 5400 413.336 6412.5 re
f
83.3333 w
2 J
1 j
K
13853.3 5400 413.34 0 0 6412.5 ^ ^ S
Q q
6000 5400 37200 27000 re
Y
255 0 r6
14266.7 5400 413.332 18056.2 re
f
83.3333 w
2 J
1 j
K
14266.7 5400 413.33 0 0 18056.2 ^ ^ S
Q q
6000 5400 37200 27000 re
Y
255 0 r6
14680 5400 413.332 23962.5 re
f
83.3333 w
2 J
1 j
K
14680 5400 413.33 0 0 23962.5 ^ ^ S
Q q
6000 5400 37200 27000 re
Y
255 0 r6
15093.3 5400 413.336 9956.25 re
f
83.3333 w
2 J
1 j
K
15093.3 5400 413.34 0 0 9956.25 ^ ^ S
Q q
6000 5400 37200 27000 re
Y
255 0 r6
15506.7 5400 413.332 2025 re
f
83.3333 w
2 J
1 j
K
15506.7 5400 413.33 0 0 2025 ^ ^ S
Q q
6000 5400 37200 27000 re
Y
255 0 r6
15920 5400 413.332 2700 re
f
83.3333 w
2 J
1 j
K
15920 5400 413.33 0 0 2700 ^ ^ S
Q q
6000 5400 37200 27000 re
Y
255 0 r6
16333.3 5400 413.336 1856.25 re
f
83.3333 w
2 J
1 j
K
16333.3 5400 413.34 0 0 1856.25 ^ ^ S
Q q
6000 5400 37200 27000 re
Y
255 0 r6
16746.7 5400 413.332 843.75 re
f
83.3333 w
2 J
1 j
K
16746.7 5400 413.33 0 0 843.75 ^ ^ S
Q q
6000 5400 37200 27000 re
Y
255 0 r6
17160 5400 413.332 1181.25 re
f
83.3333 w
2 J
1 j
K
17160 5400 413.33 0 0 1181.25 ^ ^ S
Q q
6000 5400 37200 27000 re
Y
255 0 r6
17573.3 5400 413.336 675 re
f
83.3333 w
2 J
1 j
K
17573.3 5400 413.34 0 0 675 ^ ^ S
Q q
6000 5400 37200 27000 re
Y
255 0 r6
17986.7 5400 413.332 1518.75 re
f
83.3333 w
2 J
1 j
K
17986.7 5400 413.33 0 0 1518.75 ^ ^ S
Q q
6000 5400 37200 27000 re
Y
255 0 r6
18400 5400 413.332 1012.5 re
f
83.3333 w
2 J
1 j
K
18400 5400 413.33 0 0 1012.5 ^ ^ S
Q q
6000 5400 37200 27000 re
Y
255 0 r6
18813.3 5400 413.336 337.5 re
f
83.3333 w
2 J
1 j
K
18813.3 5400 413.34 0 0 337.5 ^ ^ S
Q q
6000 5400 37200 27000 re
Y
255 0 r6
19226.7 5400 413.332 168.75 re
f
83.3333 w
2 J
1 j
K
19226.7 5400 413.33 0 0 168.75 ^ ^ S
Q q
6000 5400 37200 27000 re
Y
255 0 r6
19640 5400 413.332 168.75 re
f
83.3333 w
2 J
1 j
K
19640 5400 413.33 0 0 168.75 ^ ^ S
Q q
6000 5400 37200 27000 re
Y
255 0 r6
20053.3 5400 413.336 0 re
f
83.3333 w
2 J
1 j
K
20053.3 5400 413.34 0 0 0 ^ ^ S
Q q
6000 5400 37200 27000 re
Y
255 0 r6
20466.7 5400 413.332 0 re
f
83.3333 w
2 J
1 j
K
20466.7 5400 413.33 0 0 0 ^ ^ S
Q q
6000 5400 37200 27000 re
Y
255 0 r6
20880 5400 413.332 0 re
f
83.3333 w
2 J
1 j
K
20880 5400 413.33 0 0 0 ^ ^ S
Q q
6000 5400 37200 27000 re
Y
255 0 r6
21293.3 5400 413.336 0 re
f
83.3333 w
2 J
1 j
K
21293.3 5400 413.34 0 0 0 ^ ^ S
Q q
6000 5400 37200 27000 re
Y
255 0 r6
21706.7 5400 413.332 168.75 re
f
83.3333 w
2 J
1 j
K
21706.7 5400 413.33 0 0 168.75 ^ ^ S
Q q
6000 5400 37200 27000 re
Y
255 0 r6
22120 5400 413.332 0 re
f
83.3333 w
2 J
1 j
K
22120 5400 413.33 0 0 0 ^ ^ S
Q q
6000 5400 37200 27000 re
Y
255 0 r6
22533.3 5400 413.332 0 re
f
83.3333 w
2 J
1 j
K
22533.3 5400 413.33 0 0 0 ^ ^ S
Q q
6000 5400 37200 27000 re
Y
255 0 r6
22946.7 5400 413.336 0 re
f
83.3333 w
2 J
1 j
K
22946.7 5400 413.34 0 0 0 ^ ^ S
Q q
6000 5400 37200 27000 re
Y
255 0 r6
23360 5400 413.332 0 re
f
83.3333 w
2 J
1 j
K
23360 5400 413.33 0 0 0 ^ ^ S
Q q
6000 5400 37200 27000 re
Y
255 0 r6
23773.3 5400 413.332 0 re
f
83.3333 w
2 J
1 j
K
23773.3 5400 413.33 0 0 0 ^ ^ S
Q q
6000 5400 37200 27000 re
Y
255 0 r6
24186.7 5400 413.336 0 re
f
83.3333 w
2 J
1 j
K
24186.7 5400 413.34 0 0 0 ^ ^ S
Q q
6000 5400 37200 27000 re
Y
255 0 r6
24600 5400 413.332 0 re
f
83.3333 w
2 J
1 j
K
24600 5400 413.33 0 0 0 ^ ^ S
Q q
6000 5400 37200 27000 re
Y
255 0 r6
25013.3 5400 413.332 0 re
f
83.3333 w
2 J
1 j
K
25013.3 5400 413.33 0 0 0 ^ ^ S
Q q
6000 5400 37200 27000 re
Y
255 0 r6
25426.7 5400 413.336 0 re
f
83.3333 w
2 J
1 j
K
25426.7 5400 413.34 0 0 0 ^ ^ S
Q q
6000 5400 37200 27000 re
Y
255 0 r6
25840 5400 413.332 0 re
f
83.3333 w
2 J
1 j
K
25840 5400 413.33 0 0 0 ^ ^ S
Q q
6000 5400 37200 27000 re
Y
255 0 r6
26253.3 5400 413.332 0 re
f
83.3333 w
2 J
1 j
K
26253.3 5400 413.33 0 0 0 ^ ^ S
Q q
6000 5400 37200 27000 re
Y
255 0 r6
26666.7 5400 413.336 0 re
f
83.3333 w
2 J
1 j
K
26666.7 5400 413.34 0 0 0 ^ ^ S
Q q
6000 5400 37200 27000 re
Y
255 0 r6
27080 5400 413.332 0 re
f
83.3333 w
2 J
1 j
K
27080 5400 413.33 0 0 0 ^ ^ S
Q q
6000 5400 37200 27000 re
Y
255 0 r6
27493.3 5400 413.336 0 re
f
83.3333 w
2 J
1 j
K
27493.3 5400 413.34 0 0 0 ^ ^ S
Q q
6000 5400 37200 27000 re
Y
255 0 r6
27906.7 5400 413.332 0 re
f
83.3333 w
2 J
1 j
K
27906.7 5400 413.33 0 0 0 ^ ^ S
Q q
6000 5400 37200 27000 re
Y
255 0 r6
28320 5400 413.332 0 re
f
83.3333 w
2 J
1 j
K
28320 5400 413.33 0 0 0 ^ ^ S
Q q
6000 5400 37200 27000 re
Y
255 0 r6
28733.3 5400 413.336 0 re
f
83.3333 w
2 J
1 j
K
28733.3 5400 413.34 0 0 0 ^ ^ S
Q q
6000 5400 37200 27000 re
Y
255 0 r6
29146.7 5400 413.332 0 re
f
83.3333 w
2 J
1 j
K
29146.7 5400 413.33 0 0 0 ^ ^ S
Q q
6000 5400 37200 27000 re
Y
255 0 r6
29560 5400 413.332 0 re
f
83.3333 w
2 J
1 j
K
29560 5400 413.33 0 0 0 ^ ^ S
Q q
6000 5400 37200 27000 re
Y
255 0 r6
29973.3 5400 413.336 0 re
f
83.3333 w
2 J
1 j
K
29973.3 5400 413.34 0 0 0 ^ ^ S
Q q
6000 5400 37200 27000 re
Y
255 0 r6
30386.7 5400 413.332 0 re
f
83.3333 w
2 J
1 j
K
30386.7 5400 413.33 0 0 0 ^ ^ S
Q q
6000 5400 37200 27000 re
Y
255 0 r6
30800 5400 413.332 0 re
f
83.3333 w
2 J
1 j
K
30800 5400 413.33 0 0 0 ^ ^ S
Q q
6000 5400 37200 27000 re
Y
255 0 r6
31213.3 5400 413.332 0 re
f
83.3333 w
2 J
1 j
K
31213.3 5400 413.33 0 0 0 ^ ^ S
Q q
6000 5400 37200 27000 re
Y
255 0 r6
31626.7 5400 413.336 0 re
f
83.3333 w
2 J
1 j
K
31626.7 5400 413.34 0 0 0 ^ ^ S
Q q
6000 5400 37200 27000 re
Y
255 0 r6
32040 5400 413.332 0 re
f
83.3333 w
2 J
1 j
K
32040 5400 413.33 0 0 0 ^ ^ S
Q q
6000 5400 37200 27000 re
Y
255 0 r6
32453.3 5400 413.332 0 re
f
83.3333 w
2 J
1 j
K
32453.3 5400 413.33 0 0 0 ^ ^ S
Q q
6000 5400 37200 27000 re
Y
255 0 r6
32866.7 5400 413.332 0 re
f
83.3333 w
2 J
1 j
K
32866.7 5400 413.33 0 0 0 ^ ^ S
Q q
6000 5400 37200 27000 re
Y
255 0 r6
33280 5400 413.336 0 re
f
83.3333 w
2 J
1 j
K
33280 5400 413.34 0 0 0 ^ ^ S
Q q
6000 5400 37200 27000 re
Y
255 0 r6
33693.3 5400 413.332 0 re
f
83.3333 w
2 J
1 j
K
33693.3 5400 413.33 0 0 0 ^ ^ S
Q q
6000 5400 37200 27000 re
Y
255 0 r6
34106.7 5400 413.332 0 re
f
83.3333 w
2 J
1 j
K
34106.7 5400 413.33 0 0 0 ^ ^ S
Q q
6000 5400 37200 27000 re
Y
255 0 r6
34520 5400 413.336 0 re
f
83.3333 w
2 J
1 j
K
34520 5400 413.34 0 0 0 ^ ^ S
Q q
6000 5400 37200 27000 re
Y
255 0 r6
34933.3 5400 413.332 0 re
f
83.3333 w
2 J
1 j
K
34933.3 5400 413.33 0 0 0 ^ ^ S
Q q
6000 5400 37200 27000 re
Y
255 0 r6
35346.7 5400 413.332 0 re
f
83.3333 w
2 J
1 j
K
35346.7 5400 413.33 0 0 0 ^ ^ S
Q q
6000 5400 37200 27000 re
Y
255 0 r6
35760 5400 413.332 0 re
f
83.3333 w
2 J
1 j
K
35760 5400 413.33 0 0 0 ^ ^ S
Q q
6000 5400 37200 27000 re
Y
255 0 r6
36173.3 5400 413.336 0 re
f
83.3333 w
2 J
1 j
K
36173.3 5400 413.34 0 0 0 ^ ^ S
Q q
6000 5400 37200 27000 re
Y
255 0 r6
36586.7 5400 413.332 0 re
f
83.3333 w
2 J
1 j
K
36586.7 5400 413.33 0 0 0 ^ ^ S
Q q
6000 5400 37200 27000 re
Y
255 0 r6
37000 5400 413.336 0 re
f
83.3333 w
2 J
1 j
K
37000 5400 413.34 0 0 0 ^ ^ S
Q q
6000 5400 37200 27000 re
Y
255 0 r6
37413.3 5400 413.332 0 re
f
83.3333 w
2 J
1 j
K
37413.3 5400 413.33 0 0 0 ^ ^ S
Q q
6000 5400 37200 27000 re
Y
255 0 r6
37826.7 5400 413.336 0 re
f
83.3333 w
2 J
1 j
K
37826.7 5400 413.34 0 0 0 ^ ^ S
Q q
6000 5400 37200 27000 re
Y
255 0 r6
38240 5400 413.332 0 re
f
83.3333 w
2 J
1 j
K
38240 5400 413.33 0 0 0 ^ ^ S
Q q
6000 5400 37200 27000 re
Y
255 0 r6
38653.3 5400 413.332 0 re
f
83.3333 w
2 J
1 j
K
38653.3 5400 413.33 0 0 0 ^ ^ S
Q q
6000 5400 37200 27000 re
Y
255 0 r6
39066.7 5400 413.336 0 re
f
83.3333 w
2 J
1 j
K
39066.7 5400 413.34 0 0 0 ^ ^ S
Q q
6000 5400 37200 27000 re
Y
255 0 r6
39480 5400 413.332 0 re
f
83.3333 w
2 J
1 j
K
39480 5400 413.33 0 0 0 ^ ^ S
Q q
6000 5400 37200 27000 re
Y
255 0 r6
39893.3 5400 413.332 0 re
f
83.3333 w
2 J
1 j
K
39893.3 5400 413.33 0 0 0 ^ ^ S
Q q
6000 5400 37200 27000 re
Y
255 0 r6
40306.7 5400 413.336 0 re
f
83.3333 w
2 J
1 j
K
40306.7 5400 413.34 0 0 0 ^ ^ S
Q q
6000 5400 37200 27000 re
Y
255 0 r6
40720 5400 413.332 0 re
f
83.3333 w
2 J
1 j
K
40720 5400 413.33 0 0 0 ^ ^ S
Q q
6000 5400 37200 27000 re
Y
255 0 r6
41133.3 5400 413.332 0 re
f
83.3333 w
2 J
1 j
K
41133.3 5400 413.33 0 0 0 ^ ^ S
Q q
6000 5400 37200 27000 re
Y
255 0 r6
41546.7 5400 413.332 0 re
f
83.3333 w
2 J
1 j
K
41546.7 5400 413.33 0 0 0 ^ ^ S
Q q
6000 5400 37200 27000 re
Y
255 0 r6
41960 5400 413.336 0 re
f
83.3333 w
2 J
1 j
K
41960 5400 413.34 0 0 0 ^ ^ S
Q q
6000 5400 37200 27000 re
Y
255 0 r6
42373.3 5400 413.332 0 re
f
83.3333 w
2 J
1 j
K
42373.3 5400 413.33 0 0 0 ^ ^ S
Q q
6000 5400 37200 27000 re
Y
255 0 r6
42786.7 5400 413.336 0 re
f
83.3333 w
2 J
1 j
K
42786.7 5400 413.34 0 0 0 ^ ^ S
Q q
6000 5400 37200 27000 re
Y
127 0 r5
6000 5400 413.332 0 re
f
83.3333 w
2 J
1 j
K
6000 5400 413.33 0 0 0 ^ ^ S
Q q
6000 5400 37200 27000 re
Y
127 0 r5
6413.33 5400 413.332 0 re
f
83.3333 w
2 J
1 j
K
6413.33 5400 413.33 0 0 0 ^ ^ S
Q q
6000 5400 37200 27000 re
Y
127 0 r5
6826.66 5400 413.336 0 re
f
83.3333 w
2 J
1 j
K
6826.66 5400 413.34 0 0 0 ^ ^ S
Q q
6000 5400 37200 27000 re
Y
127 0 r5
7240 5400 413.332 0 re
f
83.3333 w
2 J
1 j
K
7240 5400 413.33 0 0 0 ^ ^ S
Q q
6000 5400 37200 27000 re
Y
127 0 r5
7653.33 5400 413.336 0 re
f
83.3333 w
2 J
1 j
K
7653.33 5400 413.34 0 0 0 ^ ^ S
Q q
6000 5400 37200 27000 re
Y
127 0 r5
8066.67 5400 413.332 0 re
f
83.3333 w
2 J
1 j
K
8066.67 5400 413.33 0 0 0 ^ ^ S
Q q
6000 5400 37200 27000 re
Y
127 0 r5
8480 5400 413.332 0 re
f
83.3333 w
2 J
1 j
K
8480 5400 413.33 0 0 0 ^ ^ S
Q q
6000 5400 37200 27000 re
Y
127 0 r5
8893.33 5400 413.336 0 re
f
83.3333 w
2 J
1 j
K
8893.33 5400 413.34 0 0 0 ^ ^ S
Q q
6000 5400 37200 27000 re
Y
127 0 r5
9306.67 5400 413.332 0 re
f
83.3333 w
2 J
1 j
K
9306.67 5400 413.33 0 0 0 ^ ^ S
Q q
6000 5400 37200 27000 re
Y
127 0 r5
9720 5400 413.332 0 re
f
83.3333 w
2 J
1 j
K
9720 5400 413.33 0 0 0 ^ ^ S
Q q
6000 5400 37200 27000 re
Y
127 0 r5
10133.3 5400 413.336 0 re
f
83.3333 w
2 J
1 j
K
10133.3 5400 413.34 0 0 0 ^ ^ S
Q q
6000 5400 37200 27000 re
Y
127 0 r5
10546.7 5400 413.332 0 re
f
83.3333 w
2 J
1 j
K
10546.7 5400 413.33 0 0 0 ^ ^ S
Q q
6000 5400 37200 27000 re
Y
127 0 r5
10960 5400 413.332 0 re
f
83.3333 w
2 J
1 j
K
10960 5400 413.33 0 0 0 ^ ^ S
Q q
6000 5400 37200 27000 re
Y
127 0 r5
11373.3 5400 413.336 0 re
f
83.3333 w
2 J
1 j
K
11373.3 5400 413.34 0 0 0 ^ ^ S
Q q
6000 5400 37200 27000 re
Y
127 0 r5
11786.7 5400 413.332 0 re
f
83.3333 w
2 J
1 j
K
11786.7 5400 413.33 0 0 0 ^ ^ S
Q q
6000 5400 37200 27000 re
Y
127 0 r5
12200 5400 413.332 0 re
f
83.3333 w
2 J
1 j
K
12200 5400 413.33 0 0 0 ^ ^ S
Q q
6000 5400 37200 27000 re
Y
127 0 r5
12613.3 5400 413.336 0 re
f
83.3333 w
2 J
1 j
K
12613.3 5400 413.34 0 0 0 ^ ^ S
Q q
6000 5400 37200 27000 re
Y
127 0 r5
13026.7 5400 413.332 0 re
f
83.3333 w
2 J
1 j
K
13026.7 5400 413.33 0 0 0 ^ ^ S
Q q
6000 5400 37200 27000 re
Y
127 0 r5
13440 5400 413.332 0 re
f
83.3333 w
2 J
1 j
K
13440 5400 413.33 0 0 0 ^ ^ S
Q q
6000 5400 37200 27000 re
Y
127 0 r5
13853.3 5400 413.336 0 re
f
83.3333 w
2 J
1 j
K
13853.3 5400 413.34 0 0 0 ^ ^ S
Q q
6000 5400 37200 27000 re
Y
127 0 r5
14266.7 5400 413.332 168.75 re
f
83.3333 w
2 J
1 j
K
14266.7 5400 413.33 0 0 168.75 ^ ^ S
Q q
6000 5400 37200 27000 re
Y
127 0 r5
14680 5400 413.332 843.75 re
f
83.3333 w
2 J
1 j
K
14680 5400 413.33 0 0 843.75 ^ ^ S
Q q
6000 5400 37200 27000 re
Y
127 0 r5
15093.3 5400 413.336 675 re
f
83.3333 w
2 J
1 j
K
15093.3 5400 413.34 0 0 675 ^ ^ S
Q q
6000 5400 37200 27000 re
Y
127 0 r5
15506.7 5400 413.332 675 re
f
83.3333 w
2 J
1 j
K
15506.7 5400 413.33 0 0 675 ^ ^ S
Q q
6000 5400 37200 27000 re
Y
127 0 r5
15920 5400 413.332 675 re
f
83.3333 w
2 J
1 j
K
15920 5400 413.33 0 0 675 ^ ^ S
Q q
6000 5400 37200 27000 re
Y
127 0 r5
16333.3 5400 413.336 506.25 re
f
83.3333 w
2 J
1 j
K
16333.3 5400 413.34 0 0 506.25 ^ ^ S
Q q
6000 5400 37200 27000 re
Y
127 0 r5
16746.7 5400 413.332 168.75 re
f
83.3333 w
2 J
1 j
K
16746.7 5400 413.33 0 0 168.75 ^ ^ S
Q q
6000 5400 37200 27000 re
Y
127 0 r5
17160 5400 413.332 1181.25 re
f
83.3333 w
2 J
1 j
K
17160 5400 413.33 0 0 1181.25 ^ ^ S
Q q
6000 5400 37200 27000 re
Y
127 0 r5
17573.3 5400 413.336 1350 re
f
83.3333 w
2 J
1 j
K
17573.3 5400 413.34 0 0 1350 ^ ^ S
Q q
6000 5400 37200 27000 re
Y
127 0 r5
17986.7 5400 413.332 1518.75 re
f
83.3333 w
2 J
1 j
K
17986.7 5400 413.33 0 0 1518.75 ^ ^ S
Q q
6000 5400 37200 27000 re
Y
127 0 r5
18400 5400 413.332 1856.25 re
f
83.3333 w
2 J
1 j
K
18400 5400 413.33 0 0 1856.25 ^ ^ S
Q q
6000 5400 37200 27000 re
Y
127 0 r5
18813.3 5400 413.336 2025 re
f
83.3333 w
2 J
1 j
K
18813.3 5400 413.34 0 0 2025 ^ ^ S
Q q
6000 5400 37200 27000 re
Y
127 0 r5
19226.7 5400 413.332 15356.2 re
f
83.3333 w
2 J
1 j
K
19226.7 5400 413.33 0 0 15356.2 ^ ^ S
Q q
6000 5400 37200 27000 re
Y
127 0 r5
19640 5400 413.332 23118.8 re
f
83.3333 w
2 J
1 j
K
19640 5400 413.33 0 0 23118.8 ^ ^ S
Q q
6000 5400 37200 27000 re
Y
127 0 r5
20053.3 5400 413.336 18900 re
f
83.3333 w
2 J
1 j
K
20053.3 5400 413.34 0 0 18900 ^ ^ S
Q q
6000 5400 37200 27000 re
Y
127 0 r5
20466.7 5400 413.332 2868.75 re
f
83.3333 w
2 J
1 j
K
20466.7 5400 413.33 0 0 2868.75 ^ ^ S
Q q
6000 5400 37200 27000 re
Y
127 0 r5
20880 5400 413.332 1350 re
f
83.3333 w
2 J
1 j
K
20880 5400 413.33 0 0 1350 ^ ^ S
Q q
6000 5400 37200 27000 re
Y
127 0 r5
21293.3 5400 413.336 1181.25 re
f
83.3333 w
2 J
1 j
K
21293.3 5400 413.34 0 0 1181.25 ^ ^ S
Q q
6000 5400 37200 27000 re
Y
127 0 r5
21706.7 5400 413.332 1518.75 re
f
83.3333 w
2 J
1 j
K
21706.7 5400 413.33 0 0 1518.75 ^ ^ S
Q q
6000 5400 37200 27000 re
Y
127 0 r5
22120 5400 413.332 2193.75 re
f
83.3333 w
2 J
1 j
K
22120 5400 413.33 0 0 2193.75 ^ ^ S
Q q
6000 5400 37200 27000 re
Y
127 0 r5
22533.3 5400 413.332 843.75 re
f
83.3333 w
2 J
1 j
K
22533.3 5400 413.33 0 0 843.75 ^ ^ S
Q q
6000 5400 37200 27000 re
Y
127 0 r5
22946.7 5400 413.336 1687.5 re
f
83.3333 w
2 J
1 j
K
22946.7 5400 413.34 0 0 1687.5 ^ ^ S
Q q
6000 5400 37200 27000 re
Y
127 0 r5
23360 5400 413.332 1518.75 re
f
83.3333 w
2 J
1 j
K
23360 5400 413.33 0 0 1518.75 ^ ^ S
Q q
6000 5400 37200 27000 re
Y
127 0 r5
23773.3 5400 413.332 843.75 re
f
83.3333 w
2 J
1 j
K
23773.3 5400 413.33 0 0 843.75 ^ ^ S
Q q
6000 5400 37200 27000 re
Y
127 0 r5
24186.7 5400 413.336 675 re
f
83.3333 w
2 J
1 j
K
24186.7 5400 413.34 0 0 675 ^ ^ S
Q q
6000 5400 37200 27000 re
Y
127 0 r5
24600 5400 413.332 0 re
f
83.3333 w
2 J
1 j
K
24600 5400 413.33 0 0 0 ^ ^ S
Q q
6000 5400 37200 27000 re
Y
127 0 r5
25013.3 5400 413.332 0 re
f
83.3333 w
2 J
1 j
K
25013.3 5400 413.33 0 0 0 ^ ^ S
Q q
6000 5400 37200 27000 re
Y
127 0 r5
25426.7 5400 413.336 0 re
f
83.3333 w
2 J
1 j
K
25426.7 5400 413.34 0 0 0 ^ ^ S
Q q
6000 5400 37200 27000 re
Y
127 0 r5
25840 5400 413.332 0 re
f
83.3333 w
2 J
1 j
K
25840 5400 413.33 0 0 0 ^ ^ S
Q q
6000 5400 37200 27000 re
Y
127 0 r5
26253.3 5400 413.332 0 re
f
83.3333 w
2 J
1 j
K
26253.3 5400 413.33 0 0 0 ^ ^ S
Q q
6000 5400 37200 27000 re
Y
127 0 r5
26666.7 5400 413.336 0 re
f
83.3333 w
2 J
1 j
K
26666.7 5400 413.34 0 0 0 ^ ^ S
Q q
6000 5400 37200 27000 re
Y
127 0 r5
27080 5400 413.332 0 re
f
83.3333 w
2 J
1 j
K
27080 5400 413.33 0 0 0 ^ ^ S
Q q
6000 5400 37200 27000 re
Y
127 0 r5
27493.3 5400 413.336 0 re
f
83.3333 w
2 J
1 j
K
27493.3 5400 413.34 0 0 0 ^ ^ S
Q q
6000 5400 37200 27000 re
Y
127 0 r5
27906.7 5400 413.332 0 re
f
83.3333 w
2 J
1 j
K
27906.7 5400 413.33 0 0 0 ^ ^ S
Q q
6000 5400 37200 27000 re
Y
127 0 r5
28320 5400 413.332 0 re
f
83.3333 w
2 J
1 j
K
28320 5400 413.33 0 0 0 ^ ^ S
Q q
6000 5400 37200 27000 re
Y
127 0 r5
28733.3 5400 413.336 0 re
f
83.3333 w
2 J
1 j
K
28733.3 5400 413.34 0 0 0 ^ ^ S
Q q
6000 5400 37200 27000 re
Y
127 0 r5
29146.7 5400 413.332 0 re
f
83.3333 w
2 J
1 j
K
29146.7 5400 413.33 0 0 0 ^ ^ S
Q q
6000 5400 37200 27000 re
Y
127 0 r5
29560 5400 413.332 0 re
f
83.3333 w
2 J
1 j
K
29560 5400 413.33 0 0 0 ^ ^ S
Q q
6000 5400 37200 27000 re
Y
127 0 r5
29973.3 5400 413.336 0 re
f
83.3333 w
2 J
1 j
K
29973.3 5400 413.34 0 0 0 ^ ^ S
Q q
6000 5400 37200 27000 re
Y
127 0 r5
30386.7 5400 413.332 0 re
f
83.3333 w
2 J
1 j
K
30386.7 5400 413.33 0 0 0 ^ ^ S
Q q
6000 5400 37200 27000 re
Y
127 0 r5
30800 5400 413.332 0 re
f
83.3333 w
2 J
1 j
K
30800 5400 413.33 0 0 0 ^ ^ S
Q q
6000 5400 37200 27000 re
Y
127 0 r5
31213.3 5400 413.332 0 re
f
83.3333 w
2 J
1 j
K
31213.3 5400 413.33 0 0 0 ^ ^ S
Q q
6000 5400 37200 27000 re
Y
127 0 r5
31626.7 5400 413.336 0 re
f
83.3333 w
2 J
1 j
K
31626.7 5400 413.34 0 0 0 ^ ^ S
Q q
6000 5400 37200 27000 re
Y
127 0 r5
32040 5400 413.332 0 re
f
83.3333 w
2 J
1 j
K
32040 5400 413.33 0 0 0 ^ ^ S
Q q
6000 5400 37200 27000 re
Y
127 0 r5
32453.3 5400 413.332 168.75 re
f
83.3333 w
2 J
1 j
K
32453.3 5400 413.33 0 0 168.75 ^ ^ S
Q q
6000 5400 37200 27000 re
Y
127 0 r5
32866.7 5400 413.332 0 re
f
83.3333 w
2 J
1 j
K
32866.7 5400 413.33 0 0 0 ^ ^ S
Q q
6000 5400 37200 27000 re
Y
127 0 r5
33280 5400 413.336 0 re
f
83.3333 w
2 J
1 j
K
33280 5400 413.34 0 0 0 ^ ^ S
Q q
6000 5400 37200 27000 re
Y
127 0 r5
33693.3 5400 413.332 0 re
f
83.3333 w
2 J
1 j
K
33693.3 5400 413.33 0 0 0 ^ ^ S
Q q
6000 5400 37200 27000 re
Y
127 0 r5
34106.7 5400 413.332 0 re
f
83.3333 w
2 J
1 j
K
34106.7 5400 413.33 0 0 0 ^ ^ S
Q q
6000 5400 37200 27000 re
Y
127 0 r5
34520 5400 413.336 0 re
f
83.3333 w
2 J
1 j
K
34520 5400 413.34 0 0 0 ^ ^ S
Q q
6000 5400 37200 27000 re
Y
127 0 r5
34933.3 5400 413.332 0 re
f
83.3333 w
2 J
1 j
K
34933.3 5400 413.33 0 0 0 ^ ^ S
Q q
6000 5400 37200 27000 re
Y
127 0 r5
35346.7 5400 413.332 0 re
f
83.3333 w
2 J
1 j
K
35346.7 5400 413.33 0 0 0 ^ ^ S
Q q
6000 5400 37200 27000 re
Y
127 0 r5
35760 5400 413.332 0 re
f
83.3333 w
2 J
1 j
K
35760 5400 413.33 0 0 0 ^ ^ S
Q q
6000 5400 37200 27000 re
Y
127 0 r5
36173.3 5400 413.336 0 re
f
83.3333 w
2 J
1 j
K
36173.3 5400 413.34 0 0 0 ^ ^ S
Q q
6000 5400 37200 27000 re
Y
127 0 r5
36586.7 5400 413.332 0 re
f
83.3333 w
2 J
1 j
K
36586.7 5400 413.33 0 0 0 ^ ^ S
Q q
6000 5400 37200 27000 re
Y
127 0 r5
37000 5400 413.336 0 re
f
83.3333 w
2 J
1 j
K
37000 5400 413.34 0 0 0 ^ ^ S
Q q
6000 5400 37200 27000 re
Y
127 0 r5
37413.3 5400 413.332 0 re
f
83.3333 w
2 J
1 j
K
37413.3 5400 413.33 0 0 0 ^ ^ S
Q q
6000 5400 37200 27000 re
Y
127 0 r5
37826.7 5400 413.336 0 re
f
83.3333 w
2 J
1 j
K
37826.7 5400 413.34 0 0 0 ^ ^ S
Q q
6000 5400 37200 27000 re
Y
127 0 r5
38240 5400 413.332 0 re
f
83.3333 w
2 J
1 j
K
38240 5400 413.33 0 0 0 ^ ^ S
Q q
6000 5400 37200 27000 re
Y
127 0 r5
38653.3 5400 413.332 0 re
f
83.3333 w
2 J
1 j
K
38653.3 5400 413.33 0 0 0 ^ ^ S
Q q
6000 5400 37200 27000 re
Y
127 0 r5
39066.7 5400 413.336 0 re
f
83.3333 w
2 J
1 j
K
39066.7 5400 413.34 0 0 0 ^ ^ S
Q q
6000 5400 37200 27000 re
Y
127 0 r5
39480 5400 413.332 0 re
f
83.3333 w
2 J
1 j
K
39480 5400 413.33 0 0 0 ^ ^ S
Q q
6000 5400 37200 27000 re
Y
127 0 r5
39893.3 5400 413.332 0 re
f
83.3333 w
2 J
1 j
K
39893.3 5400 413.33 0 0 0 ^ ^ S
Q q
6000 5400 37200 27000 re
Y
127 0 r5
40306.7 5400 413.336 0 re
f
83.3333 w
2 J
1 j
K
40306.7 5400 413.34 0 0 0 ^ ^ S
Q q
6000 5400 37200 27000 re
Y
127 0 r5
40720 5400 413.332 0 re
f
83.3333 w
2 J
1 j
K
40720 5400 413.33 0 0 0 ^ ^ S
Q q
6000 5400 37200 27000 re
Y
127 0 r5
41133.3 5400 413.332 0 re
f
83.3333 w
2 J
1 j
K
41133.3 5400 413.33 0 0 0 ^ ^ S
Q q
6000 5400 37200 27000 re
Y
127 0 r5
41546.7 5400 413.332 0 re
f
83.3333 w
2 J
1 j
K
41546.7 5400 413.33 0 0 0 ^ ^ S
Q q
6000 5400 37200 27000 re
Y
127 0 r5
41960 5400 413.336 0 re
f
83.3333 w
2 J
1 j
K
41960 5400 413.34 0 0 0 ^ ^ S
Q q
6000 5400 37200 27000 re
Y
127 0 r5
42373.3 5400 413.332 0 re
f
83.3333 w
2 J
1 j
K
42373.3 5400 413.33 0 0 0 ^ ^ S
Q q
6000 5400 37200 27000 re
Y
127 0 r5
42786.7 5400 413.336 0 re
f
83.3333 w
2 J
1 j
K
42786.7 5400 413.34 0 0 0 ^ ^ S
Q q
6000 5400 37200 27000 re
Y
255 0 r3
6000 5400 413.332 0 re
f
83.3333 w
2 J
1 j
K
6000 5400 413.33 0 0 0 ^ ^ S
Q q
6000 5400 37200 27000 re
Y
255 0 r3
6413.33 5400 413.332 0 re
f
83.3333 w
2 J
1 j
K
6413.33 5400 413.33 0 0 0 ^ ^ S
Q q
6000 5400 37200 27000 re
Y
255 0 r3
6826.66 5400 413.336 0 re
f
83.3333 w
2 J
1 j
K
6826.66 5400 413.34 0 0 0 ^ ^ S
Q q
6000 5400 37200 27000 re
Y
255 0 r3
7240 5400 413.332 0 re
f
83.3333 w
2 J
1 j
K
7240 5400 413.33 0 0 0 ^ ^ S
Q q
6000 5400 37200 27000 re
Y
255 0 r3
7653.33 5400 413.336 0 re
f
83.3333 w
2 J
1 j
K
7653.33 5400 413.34 0 0 0 ^ ^ S
Q q
6000 5400 37200 27000 re
Y
255 0 r3
8066.67 5400 413.332 0 re
f
83.3333 w
2 J
1 j
K
8066.67 5400 413.33 0 0 0 ^ ^ S
Q q
6000 5400 37200 27000 re
Y
255 0 r3
8480 5400 413.332 0 re
f
83.3333 w
2 J
1 j
K
8480 5400 413.33 0 0 0 ^ ^ S
Q q
6000 5400 37200 27000 re
Y
255 0 r3
8893.33 5400 413.336 0 re
f
83.3333 w
2 J
1 j
K
8893.33 5400 413.34 0 0 0 ^ ^ S
Q q
6000 5400 37200 27000 re
Y
255 0 r3
9306.67 5400 413.332 0 re
f
83.3333 w
2 J
1 j
K
9306.67 5400 413.33 0 0 0 ^ ^ S
Q q
6000 5400 37200 27000 re
Y
255 0 r3
9720 5400 413.332 0 re
f
83.3333 w
2 J
1 j
K
9720 5400 413.33 0 0 0 ^ ^ S
Q q
6000 5400 37200 27000 re
Y
255 0 r3
10133.3 5400 413.336 0 re
f
83.3333 w
2 J
1 j
K
10133.3 5400 413.34 0 0 0 ^ ^ S
Q q
6000 5400 37200 27000 re
Y
255 0 r3
10546.7 5400 413.332 0 re
f
83.3333 w
2 J
1 j
K
10546.7 5400 413.33 0 0 0 ^ ^ S
Q q
6000 5400 37200 27000 re
Y
255 0 r3
10960 5400 413.332 0 re
f
83.3333 w
2 J
1 j
K
10960 5400 413.33 0 0 0 ^ ^ S
Q q
6000 5400 37200 27000 re
Y
255 0 r3
11373.3 5400 413.336 0 re
f
83.3333 w
2 J
1 j
K
11373.3 5400 413.34 0 0 0 ^ ^ S
Q q
6000 5400 37200 27000 re
Y
255 0 r3
11786.7 5400 413.332 0 re
f
83.3333 w
2 J
1 j
K
11786.7 5400 413.33 0 0 0 ^ ^ S
Q q
6000 5400 37200 27000 re
Y
255 0 r3
12200 5400 413.332 0 re
f
83.3333 w
2 J
1 j
K
12200 5400 413.33 0 0 0 ^ ^ S
Q q
6000 5400 37200 27000 re
Y
255 0 r3
12613.3 5400 413.336 0 re
f
83.3333 w
2 J
1 j
K
12613.3 5400 413.34 0 0 0 ^ ^ S
Q q
6000 5400 37200 27000 re
Y
255 0 r3
13026.7 5400 413.332 0 re
f
83.3333 w
2 J
1 j
K
13026.7 5400 413.33 0 0 0 ^ ^ S
Q q
6000 5400 37200 27000 re
Y
255 0 r3
13440 5400 413.332 0 re
f
83.3333 w
2 J
1 j
K
13440 5400 413.33 0 0 0 ^ ^ S
Q q
6000 5400 37200 27000 re
Y
255 0 r3
13853.3 5400 413.336 0 re
f
83.3333 w
2 J
1 j
K
13853.3 5400 413.34 0 0 0 ^ ^ S
Q q
6000 5400 37200 27000 re
Y
255 0 r3
14266.7 5400 413.332 0 re
f
83.3333 w
2 J
1 j
K
14266.7 5400 413.33 0 0 0 ^ ^ S
Q q
6000 5400 37200 27000 re
Y
255 0 r3
14680 5400 413.332 0 re
f
83.3333 w
2 J
1 j
K
14680 5400 413.33 0 0 0 ^ ^ S
Q q
6000 5400 37200 27000 re
Y
255 0 r3
15093.3 5400 413.336 0 re
f
83.3333 w
2 J
1 j
K
15093.3 5400 413.34 0 0 0 ^ ^ S
Q q
6000 5400 37200 27000 re
Y
255 0 r3
15506.7 5400 413.332 0 re
f
83.3333 w
2 J
1 j
K
15506.7 5400 413.33 0 0 0 ^ ^ S
Q q
6000 5400 37200 27000 re
Y
255 0 r3
15920 5400 413.332 0 re
f
83.3333 w
2 J
1 j
K
15920 5400 413.33 0 0 0 ^ ^ S
Q q
6000 5400 37200 27000 re
Y
255 0 r3
16333.3 5400 413.336 0 re
f
83.3333 w
2 J
1 j
K
16333.3 5400 413.34 0 0 0 ^ ^ S
Q q
6000 5400 37200 27000 re
Y
255 0 r3
16746.7 5400 413.332 0 re
f
83.3333 w
2 J
1 j
K
16746.7 5400 413.33 0 0 0 ^ ^ S
Q q
6000 5400 37200 27000 re
Y
255 0 r3
17160 5400 413.332 0 re
f
83.3333 w
2 J
1 j
K
17160 5400 413.33 0 0 0 ^ ^ S
Q q
6000 5400 37200 27000 re
Y
255 0 r3
17573.3 5400 413.336 0 re
f
83.3333 w
2 J
1 j
K
17573.3 5400 413.34 0 0 0 ^ ^ S
Q q
6000 5400 37200 27000 re
Y
255 0 r3
17986.7 5400 413.332 0 re
f
83.3333 w
2 J
1 j
K
17986.7 5400 413.33 0 0 0 ^ ^ S
Q q
6000 5400 37200 27000 re
Y
255 0 r3
18400 5400 413.332 0 re
f
83.3333 w
2 J
1 j
K
18400 5400 413.33 0 0 0 ^ ^ S
Q q
6000 5400 37200 27000 re
Y
255 0 r3
18813.3 5400 413.336 0 re
f
83.3333 w
2 J
1 j
K
18813.3 5400 413.34 0 0 0 ^ ^ S
Q q
6000 5400 37200 27000 re
Y
255 0 r3
19226.7 5400 413.332 0 re
f
83.3333 w
2 J
1 j
K
19226.7 5400 413.33 0 0 0 ^ ^ S
Q q
6000 5400 37200 27000 re
Y
255 0 r3
19640 5400 413.332 0 re
f
83.3333 w
2 J
1 j
K
19640 5400 413.33 0 0 0 ^ ^ S
Q q
6000 5400 37200 27000 re
Y
255 0 r3
20053.3 5400 413.336 0 re
f
83.3333 w
2 J
1 j
K
20053.3 5400 413.34 0 0 0 ^ ^ S
Q q
6000 5400 37200 27000 re
Y
255 0 r3
20466.7 5400 413.332 0 re
f
83.3333 w
2 J
1 j
K
20466.7 5400 413.33 0 0 0 ^ ^ S
Q q
6000 5400 37200 27000 re
Y
255 0 r3
20880 5400 413.332 0 re
f
83.3333 w
2 J
1 j
K
20880 5400 413.33 0 0 0 ^ ^ S
Q q
6000 5400 37200 27000 re
Y
255 0 r3
21293.3 5400 413.336 0 re
f
83.3333 w
2 J
1 j
K
21293.3 5400 413.34 0 0 0 ^ ^ S
Q q
6000 5400 37200 27000 re
Y
255 0 r3
21706.7 5400 413.332 0 re
f
83.3333 w
2 J
1 j
K
21706.7 5400 413.33 0 0 0 ^ ^ S
Q q
6000 5400 37200 27000 re
Y
255 0 r3
22120 5400 413.332 337.5 re
f
83.3333 w
2 J
1 j
K
22120 5400 413.33 0 0 337.5 ^ ^ S
Q q
6000 5400 37200 27000 re
Y
255 0 r3
22533.3 5400 413.332 337.5 re
f
83.3333 w
2 J
1 j
K
22533.3 5400 413.33 0 0 337.5 ^ ^ S
Q q
6000 5400 37200 27000 re
Y
255 0 r3
22946.7 5400 413.336 506.25 re
f
83.3333 w
2 J
1 j
K
22946.7 5400 413.34 0 0 506.25 ^ ^ S
Q q
6000 5400 37200 27000 re
Y
255 0 r3
23360 5400 413.332 337.5 re
f
83.3333 w
2 J
1 j
K
23360 5400 413.33 0 0 337.5 ^ ^ S
Q q
6000 5400 37200 27000 re
Y
255 0 r3
23773.3 5400 413.332 1181.25 re
f
83.3333 w
2 J
1 j
K
23773.3 5400 413.33 0 0 1181.25 ^ ^ S
Q q
6000 5400 37200 27000 re
Y
255 0 r3
24186.7 5400 413.336 168.75 re
f
83.3333 w
2 J
1 j
K
24186.7 5400 413.34 0 0 168.75 ^ ^ S
Q q
6000 5400 37200 27000 re
Y
255 0 r3
24600 5400 413.332 506.25 re
f
83.3333 w
2 J
1 j
K
24600 5400 413.33 0 0 506.25 ^ ^ S
Q q
6000 5400 37200 27000 re
Y
255 0 r3
25013.3 5400 413.332 0 re
f
83.3333 w
2 J
1 j
K
25013.3 5400 413.33 0 0 0 ^ ^ S
Q q
6000 5400 37200 27000 re
Y
255 0 r3
25426.7 5400 413.336 506.25 re
f
83.3333 w
2 J
1 j
K
25426.7 5400 413.34 0 0 506.25 ^ ^ S
Q q
6000 5400 37200 27000 re
Y
255 0 r3
25840 5400 413.332 337.5 re
f
83.3333 w
2 J
1 j
K
25840 5400 413.33 0 0 337.5 ^ ^ S
Q q
6000 5400 37200 27000 re
Y
255 0 r3
26253.3 5400 413.332 675 re
f
83.3333 w
2 J
1 j
K
26253.3 5400 413.33 0 0 675 ^ ^ S
Q q
6000 5400 37200 27000 re
Y
255 0 r3
26666.7 5400 413.336 168.75 re
f
83.3333 w
2 J
1 j
K
26666.7 5400 413.34 0 0 168.75 ^ ^ S
Q q
6000 5400 37200 27000 re
Y
255 0 r3
27080 5400 413.332 843.75 re
f
83.3333 w
2 J
1 j
K
27080 5400 413.33 0 0 843.75 ^ ^ S
Q q
6000 5400 37200 27000 re
Y
255 0 r3
27493.3 5400 413.336 843.75 re
f
83.3333 w
2 J
1 j
K
27493.3 5400 413.34 0 0 843.75 ^ ^ S
Q q
6000 5400 37200 27000 re
Y
255 0 r3
27906.7 5400 413.332 843.75 re
f
83.3333 w
2 J
1 j
K
27906.7 5400 413.33 0 0 843.75 ^ ^ S
Q q
6000 5400 37200 27000 re
Y
255 0 r3
28320 5400 413.332 506.25 re
f
83.3333 w
2 J
1 j
K
28320 5400 413.33 0 0 506.25 ^ ^ S
Q q
6000 5400 37200 27000 re
Y
255 0 r3
28733.3 5400 413.336 1687.5 re
f
83.3333 w
2 J
1 j
K
28733.3 5400 413.34 0 0 1687.5 ^ ^ S
Q q
6000 5400 37200 27000 re
Y
255 0 r3
29146.7 5400 413.332 1518.75 re
f
83.3333 w
2 J
1 j
K
29146.7 5400 413.33 0 0 1518.75 ^ ^ S
Q q
6000 5400 37200 27000 re
Y
255 0 r3
29560 5400 413.332 337.5 re
f
83.3333 w
2 J
1 j
K
29560 5400 413.33 0 0 337.5 ^ ^ S
Q q
6000 5400 37200 27000 re
Y
255 0 r3
29973.3 5400 413.336 168.75 re
f
83.3333 w
2 J
1 j
K
29973.3 5400 413.34 0 0 168.75 ^ ^ S
Q q
6000 5400 37200 27000 re
Y
255 0 r3
30386.7 5400 413.332 1518.75 re
f
83.3333 w
2 J
1 j
K
30386.7 5400 413.33 0 0 1518.75 ^ ^ S
Q q
6000 5400 37200 27000 re
Y
255 0 r3
30800 5400 413.332 4387.5 re
f
83.3333 w
2 J
1 j
K
30800 5400 413.33 0 0 4387.5 ^ ^ S
Q q
6000 5400 37200 27000 re
Y
255 0 r3
31213.3 5400 413.332 6243.75 re
f
83.3333 w
2 J
1 j
K
31213.3 5400 413.33 0 0 6243.75 ^ ^ S
Q q
6000 5400 37200 27000 re
Y
255 0 r3
31626.7 5400 413.336 5400 re
f
83.3333 w
2 J
1 j
K
31626.7 5400 413.34 0 0 5400 ^ ^ S
Q q
6000 5400 37200 27000 re
Y
255 0 r3
32040 5400 413.332 19237.5 re
f
83.3333 w
2 J
1 j
K
32040 5400 413.33 0 0 19237.5 ^ ^ S
Q q
6000 5400 37200 27000 re
Y
255 0 r3
32453.3 5400 413.332 12150 re
f
83.3333 w
2 J
1 j
K
32453.3 5400 413.33 0 0 12150 ^ ^ S
Q q
6000 5400 37200 27000 re
Y
255 0 r3
32866.7 5400 413.332 7931.25 re
f
83.3333 w
2 J
1 j
K
32866.7 5400 413.33 0 0 7931.25 ^ ^ S
Q q
6000 5400 37200 27000 re
Y
255 0 r3
33280 5400 413.336 4893.75 re
f
83.3333 w
2 J
1 j
K
33280 5400 413.34 0 0 4893.75 ^ ^ S
Q q
6000 5400 37200 27000 re
Y
255 0 r3
33693.3 5400 413.332 2868.75 re
f
83.3333 w
2 J
1 j
K
33693.3 5400 413.33 0 0 2868.75 ^ ^ S
Q q
6000 5400 37200 27000 re
Y
255 0 r3
34106.7 5400 413.332 675 re
f
83.3333 w
2 J
1 j
K
34106.7 5400 413.33 0 0 675 ^ ^ S
Q q
6000 5400 37200 27000 re
Y
255 0 r3
34520 5400 413.336 337.5 re
f
83.3333 w
2 J
1 j
K
34520 5400 413.34 0 0 337.5 ^ ^ S
Q q
6000 5400 37200 27000 re
Y
255 0 r3
34933.3 5400 413.332 168.75 re
f
83.3333 w
2 J
1 j
K
34933.3 5400 413.33 0 0 168.75 ^ ^ S
Q q
6000 5400 37200 27000 re
Y
255 0 r3
35346.7 5400 413.332 843.75 re
f
83.3333 w
2 J
1 j
K
35346.7 5400 413.33 0 0 843.75 ^ ^ S
Q q
6000 5400 37200 27000 re
Y
255 0 r3
35760 5400 413.332 675 re
f
83.3333 w
2 J
1 j
K
35760 5400 413.33 0 0 675 ^ ^ S
Q q
6000 5400 37200 27000 re
Y
255 0 r3
36173.3 5400 413.336 506.25 re
f
83.3333 w
2 J
1 j
K
36173.3 5400 413.34 0 0 506.25 ^ ^ S
Q q
6000 5400 37200 27000 re
Y
255 0 r3
36586.7 5400 413.332 506.25 re
f
83.3333 w
2 J
1 j
K
36586.7 5400 413.33 0 0 506.25 ^ ^ S
Q q
6000 5400 37200 27000 re
Y
255 0 r3
37000 5400 413.336 337.5 re
f
83.3333 w
2 J
1 j
K
37000 5400 413.34 0 0 337.5 ^ ^ S
Q q
6000 5400 37200 27000 re
Y
255 0 r3
37413.3 5400 413.332 337.5 re
f
83.3333 w
2 J
1 j
K
37413.3 5400 413.33 0 0 337.5 ^ ^ S
Q q
6000 5400 37200 27000 re
Y
255 0 r3
37826.7 5400 413.336 337.5 re
f
83.3333 w
2 J
1 j
K
37826.7 5400 413.34 0 0 337.5 ^ ^ S
Q q
6000 5400 37200 27000 re
Y
255 0 r3
38240 5400 413.332 675 re
f
83.3333 w
2 J
1 j
K
38240 5400 413.33 0 0 675 ^ ^ S
Q q
6000 5400 37200 27000 re
Y
255 0 r3
38653.3 5400 413.332 0 re
f
83.3333 w
2 J
1 j
K
38653.3 5400 413.33 0 0 0 ^ ^ S
Q q
6000 5400 37200 27000 re
Y
255 0 r3
39066.7 5400 413.336 168.75 re
f
83.3333 w
2 J
1 j
K
39066.7 5400 413.34 0 0 168.75 ^ ^ S
Q q
6000 5400 37200 27000 re
Y
255 0 r3
39480 5400 413.332 337.5 re
f
83.3333 w
2 J
1 j
K
39480 5400 413.33 0 0 337.5 ^ ^ S
Q q
6000 5400 37200 27000 re
Y
255 0 r3
39893.3 5400 413.332 337.5 re
f
83.3333 w
2 J
1 j
K
39893.3 5400 413.33 0 0 337.5 ^ ^ S
Q q
6000 5400 37200 27000 re
Y
255 0 r3
40306.7 5400 413.336 506.25 re
f
83.3333 w
2 J
1 j
K
40306.7 5400 413.34 0 0 506.25 ^ ^ S
Q q
6000 5400 37200 27000 re
Y
255 0 r3
40720 5400 413.332 168.75 re
f
83.3333 w
2 J
1 j
K
40720 5400 413.33 0 0 168.75 ^ ^ S
Q q
6000 5400 37200 27000 re
Y
255 0 r3
41133.3 5400 413.332 1012.5 re
f
83.3333 w
2 J
1 j
K
41133.3 5400 413.33 0 0 1012.5 ^ ^ S
Q q
6000 5400 37200 27000 re
Y
255 0 r3
41546.7 5400 413.332 0 re
f
83.3333 w
2 J
1 j
K
41546.7 5400 413.33 0 0 0 ^ ^ S
Q q
6000 5400 37200 27000 re
Y
255 0 r3
41960 5400 413.336 0 re
f
83.3333 w
2 J
1 j
K
41960 5400 413.34 0 0 0 ^ ^ S
Q q
6000 5400 37200 27000 re
Y
255 0 r3
42373.3 5400 413.332 0 re
f
83.3333 w
2 J
1 j
K
42373.3 5400 413.33 0 0 0 ^ ^ S
Q q
6000 5400 37200 27000 re
Y
255 0 r3
42786.7 5400 413.336 0 re
f
83.3333 w
2 J
1 j
K
42786.7 5400 413.34 0 0 0 ^ ^ S
Q q
0 0 48000 36000 re
Y
41.6667 w
1 j
K
6000 5400 0 333.33 S
6000 32400 0 -333.33 S
10650 5400 0 333.33 S
10650 32400 0 -333.33 S
15300 5400 0 333.33 S
15300 32400 0 -333.33 S
19950 5400 0 333.33 S
19950 32400 0 -333.33 S
24600 5400 0 333.33 S
24600 32400 0 -333.33 S
29250 5400 0 333.33 S
29250 32400 0 -333.33 S
33900 5400 0 333.33 S
33900 32400 0 -333.33 S
38550 5400 0 333.33 S
38550 32400 0 -333.33 S
43200 5400 0 333.33 S
43200 32400 0 -333.33 S
6000 5400 333.33 0 S
43200 5400 -333.33 0 S
6000 8775 333.33 0 S
43200 8775 -333.33 0 S
6000 12150 333.33 0 S
43200 12150 -333.33 0 S
6000 15525 333.33 0 S
43200 15525 -333.33 0 S
6000 18900 333.33 0 S
43200 18900 -333.33 0 S
6000 22275 333.33 0 S
43200 22275 -333.33 0 S
6000 25650 333.33 0 S
43200 25650 -333.33 0 S
6000 29025 333.33 0 S
43200 29025 -333.33 0 S
6000 32400 333.33 0 S
43200 32400 -333.33 0 S
83.3333 w
2 J
6000 32400 37200 0 S
43200 5400 0 27000 S
6000 5400 37200 0 S
6000 5400 0 27000 S
255 G
35300.3 27333.9 7399.67 4566.08 re
f
K
35300.3 27333.9 7399.67 4566.08 re
S
255 0 r6
35700.3 30790.2 2000 700 re
f
K
35700.3 30790.2 2000 0 0 700 ^ ^ S
127 0 r5
35700.3 29368.2 2000 700 re
f
K
35700.3 29368.2 2000 0 0 700 ^ ^ S
255 0 r3
35700.3 27946.1 2000 700 re
f
K
35700.3 27946.1 2000 0 0 700 ^ ^ S
Q q
Y
0.83022 i
K
-7784.11 31777 93.82 0 P
74.72 0 113.74 5.79 146.95 21.52 c
58.95 28.15 92.21 81.13 92.21 146.52 c
0 62.91 -29.11 110.93 -83.9 138.24 c
-32.38 16.55 -83.85 25.74 -141.14 25.74 c
-290.58 0 0 -38.96 14.96 0 p
67.31 0 74.8 -4.25 74.8 -39.09 c
0 -443.02 p
0 -34.84 -7.48 -38.99 -74.8 -38.99 c
-14.96 0 0 -38.96 278.95 0 ^ -21.59 0 p
-67.25 0 -74.72 4.16 -74.72 39.1 c
0 24.13 h
-7784.11 31815.9 0 211.86 P
0 38.07 4.98 42.25 50.7 42.25 c
53.2 0 p
86.45 0 127.18 -40.59 127.18 -128.32 c
0 -85.24 -42.4 -125.79 -130.51 -125.79 c
h
f
-6986.79 32114.5 -30.74 0 -33.23 -49.83 P
-39.05 37.37 -92.22 57.35 -151.21 57.35 c
-108.84 0 -181.95 -69.74 -181.95 -173.49 c
0 -90.47 44.86 -135.29 167 -166.83 c
78.93 -19.92 p
61.48 -15.77 67.29 -17.43 84.74 -30.71 c
24.93 -19.09 38.27 -46.48 38.27 -78.85 c
0 -33.2 -12.49 -60.59 -37.39 -83 c
-27.39 -24.07 -54.78 -33.2 -100.43 -33.2 c
-61.42 0 -105.41 19.07 -144.42 62.19 c
-34.86 38.97 -52.29 77.95 -64.74 141.81 c
-35.69 0 3.32 -236.16 32.39 0 37.37 56.34 p
55.64 -45.57 102.14 -62.14 174.39 -62.14 c
122.07 0 200.14 71.32 200.14 182.47 c
0 51.42 -17.5 95.38 -49.9 126.89 c
-22.44 21.57 -54.84 35.67 -121.3 52.26 c
-88.9 22.39 p
-73.95 19.08 -108.84 51.42 -108.84 102.02 c
0 58.06 47.35 97.97 117.95 97.97 c
58.14 0 105.49 -24.91 138.71 -72.23 c
24.09 -34.04 39.04 -68.91 49.84 -111.25 c
35.76 0 h
f
-6753.07 31897 0 47.38 P
0 41.56 2.49 68.99 9.14 85.62 c
13.3 36.57 42.39 59.03 75.64 59.03 c
17.46 0 28.29 -5 28.29 -14.17 c
0 -2.5 -0.85 -4.16 -5.07 -10.83 c
-5.07 -8.33 -7.59 -17.5 -7.59 -26.66 c
0 -25 20.01 -44.16 45.86 -44.16 c
27.52 0 46.71 20.77 46.71 50.68 c
0 48.19 -41.58 78.11 -108.87 78.11 c
-57.32 0 -98.87 -19.93 -128.78 -61.44 c
-24.93 -34.87 -33.23 -70.57 -33.23 -137.82 c
0 -25.74 -73.24 0 0 -35.96 ^ 0 -282.07 p
0 -33.19 -9.16 -38.99 -62.44 -38.99 c
-3.33 0 0 -29.96 221.67 0 ^ -14.94 0 p
-53.93 0 -63.05 5.8 -63.05 38.99 c
0 282.07 91.27 0 0 35.96 h
f
-6475.62 31897 -146.95 -9.03 0 -35.96 34.04 0 P
30.72 0 35.7 -5.84 35.7 -41.52 c
0 -231.52 p
0 -33.19 -9.13 -39 -63.09 -39 c
-3.32 0 0 -29.96 221.67 0 ^ -15.78 0 p
-53.13 0 -62.27 5.8 -62.27 38.97 c
0 41.46 p
0 62.2 11.63 125.21 32.38 172.48 c
19.93 46.44 48.15 72.14 83.02 76.29 c
-11.62 -13.27 -14.95 -21.55 -14.95 -37.31 c
0 -26.54 19.09 -45.61 45.66 -45.61 c
29.89 0 50.64 22.39 50.64 56.38 c
0 39.8 -28.23 66.4 -72.23 66.4 c
-52.3 0 -97.97 -42.24 -124.54 -115.09 c
h
f
-5895.03 31777 m
0 52.29 -9.17 78.85 -33.22 98.77 c
-27.36 21.58 -67.99 33.22 -121.06 33.22 c
-92.87 0 -161.7 -43.94 -161.7 -103.58 c
0 -31.48 19.08 -51.36 48.12 -51.36 c
25.72 0 44.82 17.34 44.82 42.13 c
0 10.74 -4.1 22.3 -12.29 33.87 c
-4.91 5.79 -5.73 8.26 -5.73 10.74 c
0 17.35 33.95 32.24 73.69 32.24 c
25.67 0 54.65 -8.34 67.89 -20.76 c
15.73 -13.24 21.57 -33.11 21.57 -70.36 c
0 -32.28 p
-87.26 -14.9 -113.86 -21.52 -154.57 -37.25 c
-71.47 -26.49 -106.37 -65.39 -106.37 -117.54 c
0 -58.77 47.45 -96.85 120.7 -96.85 c
57.44 0 109.05 23.07 144.85 65.12 c
13.32 -42.49 34.13 -59.15 73.31 -59.15 c
37.09 0 75.84 24.47 75.84 48.95 c
0 4.98 -4.18 9.13 -8.34 9.13 c
-3.33 0 -6.66 -0.83 -12.5 -3.32 c
-13.33 -4.98 -16.66 -5.81 -23.33 -5.81 c
-23.33 0 -31.66 15.77 -31.66 57.27 c
h
-5972.94 31676.1 m
0 -49.69 -2.53 -61.29 -16.66 -82.82 c
-20.77 -30.64 -59 -51.35 -94.74 -51.35 c
-37.39 0 -65.65 27.33 -65.65 64.6 c
0 34.79 17.45 59.63 54.02 77.02 c
25.76 11.6 58.17 19.88 123.03 30.65 c
h
f
-5647 31570.9 m
-45.65 0.83 -48.14 1.66 -58.1 7.48 c
-5.81 3.32 -9.96 12.46 -9.96 21.61 c
0 24.93 22.35 35.73 77.81 37.4 c
78.64 1.66 91.06 3.32 118.38 15.79 c
49.67 22.44 77.85 65.65 77.85 120.5 c
0 33.24 -7.36 54.02 -30.25 81.44 c
14.11 14.96 21.59 19.95 28.23 19.95 c
4.15 0 6.64 -2.48 8.3 -11.56 c
3.32 -19.81 16.61 -30.54 37.36 -30.54 c
20.76 0 37.36 17.44 37.36 39.87 c
0 28.24 -22.42 48.19 -54.8 48.19 c
-26.57 0 -41.51 -8.56 -79.7 -43.54 c
-34.87 23.25 -61.44 31.55 -102.95 31.55 c
-98.8 0 -163.55 -54.83 -163.55 -137.87 c
0 -49 26.57 -91.35 69.74 -111.28 c
-55.52 -12.45 -78.71 -37.37 -78.71 -83.04 c
0 -36.54 16.39 -58.13 54.94 -71.41 c
-51.13 -18.27 -75.86 -44.84 -75.86 -78.89 c
0 -54.81 63.96 -85.53 175.26 -85.53 c
138.71 0 208.57 43.98 208.57 131.11 c
0 41.49 -19.12 74.68 -49.84 87.13 c
-21.58 8.3 -48.14 11.67 -105.41 11.67 c
h
-5598.12 31873.1 m
52.19 0 81.19 -36.45 81.19 -100.19 c
0 -64.57 -31.48 -103.47 -84.5 -103.47 c
-51.36 0 -83.67 38.9 -83.67 100.99 c
0 65.39 31.48 102.68 86.98 102.68 c
h
-5605.57 31500 m
69.02 0 74.02 0 86.49 -1.67 c
33.27 -3.34 54.06 -21.67 54.06 -48.34 c
0 -47.51 -54.06 -75.01 -147.2 -75.01 c
-69.86 0 -109.77 20.84 -109.77 58.34 c
0 27.5 14.96 45.84 54.88 66.68 c
h
f
-4965.62 31897 -146.95 -9.03 0 -35.96 34.04 0 P
30.72 0 35.7 -5.84 35.7 -41.52 c
0 -231.52 p
0 -33.19 -9.13 -39 -63.09 -39 c
-3.32 0 0 -29.96 221.67 0 ^ -15.78 0 p
-53.13 0 -62.27 5.8 -62.27 38.97 c
0 41.46 p
0 62.2 11.63 125.21 32.38 172.48 c
19.93 46.44 48.15 72.14 83.02 76.29 c
-11.62 -13.27 -14.95 -21.55 -14.95 -37.31 c
0 -26.54 19.09 -45.61 45.66 -45.61 c
29.89 0 50.64 22.39 50.64 56.38 c
0 39.8 -28.23 66.4 -72.23 66.4 c
-52.3 0 -97.97 -42.24 -124.54 -115.09 c
h
f
-4373.95 31697 m
0.83 124.23 -69.74 212.02 -171.02 212.02 c
-106.27 0 -185.97 -92 -185.97 -216.29 c
0 -116 75.55 -194.72 187.63 -194.72 c
78.87 0 135.32 38.87 169.36 117.45 c
-29.05 15.74 p
-34.04 -63.51 -68.91 -88.25 -124.54 -88.25 c
-42.34 0 -73.06 18.22 -94.64 54.66 c
-14.95 24.85 -21.59 53.84 -20.75 99.39 c
h
-4642.11 31733 m
0 25.54 3.32 43.67 11.63 66.74 c
17.43 49.43 44 73.36 83.85 73.36 c
50.64 0 83.85 -43.7 83.85 -109.62 c
0 -23.89 -7.47 -30.48 -34.04 -30.48 c
h
f
-4173.07 31897 -143.68 -9.03 0 -35.96 29.96 0 P
30.8 0 35.8 -5.83 35.8 -41.54 c
0 -399.44 p
0 -33.21 -9.16 -39.02 -62.44 -39.02 c
-3.33 0 0 -29.97 215.86 0 ^ -9.13 0 p
-53.93 0 -63.05 5.81 -63.05 39.04 c
0 153.75 p
27.37 -47.82 58.89 -66.78 109.48 -66.78 c
96.21 0 167.59 88.66 167.59 207.15 c
0 114.34 -71.38 203.86 -162.62 203.86 c
-51.42 0 -85.43 -21.5 -114.46 -71.09 c
h
-4073.04 31864.1 m
57.05 0 90.13 -57.11 90.13 -153.94 c
0 -106.76 -33.91 -167.17 -92.61 -167.17 c
-58.7 0 -97.56 61.24 -97.56 156.41 c
0 102.62 37.2 164.7 100.04 164.7 c
h
f
-3691.02 32122 -153.2 -8.98 0 -35.96 40.53 0 P
29.78 0 34.76 -5.86 34.76 -41.55 c
0 -456.51 p
0 -33.2 -9.11 -39.01 -62.03 -39.01 c
-5.79 0 0 -29.96 215.03 0 ^ -5.85 0 p
-54.27 0 -63.45 5.81 -63.45 39.02 c
0 33.21 h
f
-3225.03 31777 m
0 52.29 -9.17 78.85 -33.22 98.77 c
-27.36 21.58 -67.99 33.22 -121.06 33.22 c
-92.87 0 -161.7 -43.94 -161.7 -103.58 c
0 -31.48 19.08 -51.36 48.12 -51.36 c
25.72 0 44.82 17.34 44.82 42.13 c
0 10.74 -4.1 22.3 -12.29 33.87 c
-4.91 5.79 -5.73 8.26 -5.73 10.74 c
0 17.35 33.95 32.24 73.69 32.24 c
25.67 0 54.65 -8.34 67.89 -20.76 c
15.73 -13.24 21.57 -33.11 21.57 -70.36 c
0 -32.28 p
-87.26 -14.9 -113.86 -21.52 -154.57 -37.25 c
-71.47 -26.49 -106.37 -65.39 -106.37 -117.54 c
0 -58.77 47.45 -96.85 120.7 -96.85 c
57.44 0 109.05 23.07 144.85 65.12 c
13.32 -42.49 34.13 -59.15 73.31 -59.15 c
37.09 0 75.84 24.47 75.84 48.95 c
0 4.98 -4.18 9.13 -8.34 9.13 c
-3.33 0 -6.66 -0.83 -12.5 -3.32 c
-13.33 -4.98 -16.66 -5.81 -23.33 -5.81 c
-23.33 0 -31.66 15.77 -31.66 57.27 c
h
-3302.94 31676.1 m
0 -49.69 -2.53 -61.29 -16.66 -82.82 c
-20.77 -30.64 -59 -51.35 -94.74 -51.35 c
-37.39 0 -65.65 27.33 -65.65 64.6 c
0 34.79 17.45 59.63 54.02 77.02 c
25.76 11.6 58.17 19.88 123.03 30.65 c
h
f
-2818.78 31632 m
-26.61 -59.23 -54.87 -83.09 -98.11 -83.09 c
-66.52 0 -108.09 60.35 -108.09 157.09 c
0 100.04 40.78 167.02 102.36 167.02 c
24.97 0 46.62 -11.58 46.62 -24.8 c
0 -2.48 -1.66 -4.96 -4.98 -9.91 c
-13.28 -15.7 -16.6 -23.96 -16.6 -38 c
0 -27.27 20.76 -46.27 49.82 -46.27 c
29.07 0 50.67 23.19 50.67 56.33 c
0 55.5 -55.7 98.61 -129.61 98.61 c
-107.95 0 -185.18 -88.69 -185.18 -212.14 c
0 -117.66 70.58 -198.86 173.56 -198.86 c
73.9 0 116.25 33.91 151.99 121.59 c
h
f
-2383.95 31697 m
0.83 124.23 -69.74 212.02 -171.02 212.02 c
-106.27 0 -185.97 -92 -185.97 -216.29 c
0 -116 75.55 -194.72 187.63 -194.72 c
78.87 0 135.32 38.87 169.36 117.45 c
-29.05 15.74 p
-34.04 -63.51 -68.91 -88.25 -124.54 -88.25 c
-42.34 0 -73.06 18.22 -94.64 54.66 c
-14.95 24.85 -21.59 53.84 -20.75 99.39 c
h
-2652.11 31733 m
0 25.54 3.32 43.67 11.63 66.74 c
17.43 49.43 44 73.36 83.85 73.36 c
50.64 0 83.85 -43.7 83.85 -109.62 c
0 -23.89 -7.47 -30.48 -34.04 -30.48 c
h
f
-2183.07 31897 -147.83 -9.03 0 -35.96 34.12 0 P
30.79 0 35.8 -5.84 35.8 -41.52 c
0 -230.69 p
0 -34.02 -9.16 -39.83 -62.44 -39.83 c
-3.33 0 0 -29.96 209.21 0 ^ -3.33 0 p
-53.08 0 -62.2 5.8 -62.2 39.77 c
0 149.94 p
0 73.73 40.68 128.41 94.64 128.41 c
21.59 0 44.83 -11.61 54.8 -27.35 c
11.62 -15.74 16.63 -39.76 16.63 -73.73 c
0 -178.11 p
0 -33.13 -9.16 -38.93 -63.17 -38.93 c
-3.32 0 0 -29.96 210.05 0 ^ -3.33 0 p
-53.17 0 -62.31 5.8 -62.31 38.93 c
0 143.31 p
0 82.84 37.39 135.87 95.54 135.87 c
27.42 0 49.85 -15.75 60.65 -41.43 c
7.48 -18.23 9.98 -36.45 9.98 -68.76 c
0 -168.99 p
0 -33.13 -9.16 -38.93 -63.17 -38.93 c
-3.32 0 0 -29.96 210.04 0 ^ -3.32 0 p
-53.18 0 -62.31 5.8 -62.31 39.8 c
0 184.91 p
0 51.41 -5 68.82 -26.58 97.02 c
-24.07 30.68 -58.1 47.33 -97.94 47.33 c
-53.95 0 -93.79 -25.65 -129.48 -82.71 c
-14.11 49.62 -58.93 82.71 -114.54 82.71 c
-49.8 0 -87.16 -23.98 -119.52 -76.07 c
h
f
-1223.95 31697 m
0.83 124.23 -69.74 212.02 -171.02 212.02 c
-106.27 0 -185.97 -92 -185.97 -216.29 c
0 -116 75.55 -194.72 187.63 -194.72 c
78.87 0 135.32 38.87 169.36 117.45 c
-29.05 15.74 p
-34.04 -63.51 -68.91 -88.25 -124.54 -88.25 c
-42.34 0 -73.06 18.22 -94.64 54.66 c
-14.95 24.85 -21.59 53.84 -20.75 99.39 c
h
-1492.11 31733 m
0 25.54 3.32 43.67 11.63 66.74 c
17.43 49.43 44 73.36 83.85 73.36 c
50.64 0 83.85 -43.7 83.85 -109.62 c
0 -23.89 -7.47 -30.48 -34.04 -30.48 c
h
f
-1024.01 31897 -143.58 -9.03 0 -35.96 29.92 0 P
30.75 0 35.75 -5.84 35.75 -41.52 c
0 -231.52 p
0 -33.19 -9.16 -39 -62.34 -39 c
-3.32 0 0 -29.96 210.05 0 ^ -3.33 0 p
-54 0 -63.14 5.8 -63.14 38.93 c
0 119.29 p
0 40.59 5.82 77.87 14.96 96.92 c
17.47 37.28 54.89 62.97 90.65 62.97 c
21.62 0 46.57 -12.44 59.05 -29.01 c
12.47 -17.4 18.32 -43.08 18.32 -82.84 c
0 -167.34 p
0 -33.13 -9.18 -38.93 -63.37 -38.93 c
-3.34 0 0 -29.96 210.05 0 ^ -3.32 0 p
-53 0 -62.12 5.8 -62.12 38.97 c
0 163.35 p
0 59.7 -2.51 74.63 -17.46 102.82 c
-20.77 39.8 -63.14 63.91 -112.16 63.91 c
-53.18 0 -94.71 -24.81 -131.27 -79.39 c
h
f
-518.99 31897 0 164.28 -34.04 0 P
-8.3 -108.02 -44.81 -162.85 -112.02 -167.84 c
0 -32.4 68.16 0 0 -211.38 p
0 -58 1.66 -78.71 9.95 -97.77 c
13.28 -34.8 46.47 -53.86 94.6 -53.86 c
32.36 0 60.57 9.93 79.66 28.14 c
27.39 26.49 43.19 70.36 43.19 115.89 c
0 4.97 0 10.76 -0.85 19.05 c
-34.88 0 p
-2.49 -74.22 -24.08 -112.14 -64.77 -112.14 c
-19.1 0 -35.71 9.93 -41.52 24 c
-4.98 11.59 -7.47 32.28 -7.47 62.07 c
0 226 122.09 0 0 35.96 h
f
-36.21 31906 -29.1 0 -24.09 -29.89 P
-29.89 23.02 -59.79 32.9 -101.31 32.9 c
-73.08 0 -121.24 -48.08 -121.24 -120.09 c
0 -32.28 10.79 -59.6 29.05 -76.16 c
19.1 -17.39 38.19 -25.66 88 -37.25 c
44 -9.93 p
65.59 -15.73 88.88 -32.28 88.88 -65.39 c
0 -38.91 -34.04 -66.22 -83.01 -66.22 c
-69.72 0 -119.52 44.57 -139.45 127.13 c
-33.2 0 0 -156.46 29.09 0 29.09 33.94 p
34.08 -27.32 72.32 -40.56 113.88 -40.56 c
81.46 0 135.54 50.46 135.54 127.41 c
0 36.4 -11.7 64.54 -35.01 83.56 c
-19.98 17.38 -36.63 24 -87.41 34.75 c
-41.62 9.1 p
-45.79 9.93 -45.79 9.93 -60.77 18.21 c
-18.32 8.27 -29.14 25.65 -29.14 43.85 c
0 33.09 31.59 57.17 77.3 57.17 c
31.59 0 57.36 -10.77 80.63 -33.1 c
18.29 -18.2 27.43 -34.74 40.73 -72.79 c
29.13 0 h
f
q[8000 0 0 -40 -7991 31199]concat
1 1 false[1 0 0 -1 0 0]@X
imagemask
!!~>
Q
Q q
0 0 48000 0 0 36000 ^ Y
K
6074.77 4307.09 m
31.04 0 63.93 0 63.93 36.46 c
0 36.46 -32.89 36.46 -63.93 36.46 c
-987.89 0 p
-31.04 0 -63.91 0 -63.91 -36.46 c
0 -36.46 32.86 -36.46 63.91 -36.46 c
h
f
6484.38 4517.1 m
0 436.31 204.57 534.91 323.29 534.91 c
38.36 0 131.51 -7.28 168.04 -78.14 c
-29.23 0 -84.02 0 -84.02 -64.02 c
0 -49.38 40.18 -65.83 65.75 -65.83 c
16.44 0 65.75 7.29 65.75 69.32 c
0 114.93 -91.32 180.62 -217.35 180.62 c
-217.35 0 -445.66 -226.41 -445.66 -629.86 c
0 -496.56 206.39 -606.09 352.51 -606.09 c
177.17 0 345.32 158.82 345.32 403.45 c
0 228.2 -148.06 394.49 -334.36 394.49 c
-111.42 0 -193.61 -73.06 -239.27 -200.91 c
h
6712.9 3901.95 m
-224.87 0 -224.87 335.99 -224.87 403.55 c
0 131.47 62.16 321.47 232.18 321.47 c
31.09 0 120.67 0 181 -126.09 c
32.93 -71.22 32.93 -146.08 32.93 -237.39 c
0 -98.6 0 -171.64 -38.42 -244.68 c
-40.22 -74.87 -98.72 -116.87 -182.83 -116.87 c
h
f
10724.8 4317.09 m
31.04 0 63.93 0 63.93 36.46 c
0 36.46 -32.89 36.46 -63.93 36.46 c
-987.89 0 p
-31.04 0 -63.91 0 -63.91 -36.46 c
0 -36.46 32.86 -36.46 63.91 -36.46 c
h
f
11554.9 5078.73 m
0 38.36 -1.92 40.3 -34.8 40.3 c
-542.59 -864.04 0 -47.95 471.23 0 0 -178.4 p
0 -65.51 -3.65 -83.7 -131.51 -83.7 c
-34.7 0 0 -47.95 p
58.45 3.65 157.08 3.65 219.18 3.65 c
62.1 0 160.73 0 219.18 -3.65 c
0 47.95 -34.67 0 p
-127.67 0 -131.31 18.19 -131.31 83.7 c
0 178.4 186.07 0 0 47.95 ^ h
11454 4958.18 0 -703.19 -439.98 0 H
f
15374.8 4307.09 m
31.04 0 63.93 0 63.93 36.46 c
0 36.46 -32.89 36.46 -63.93 36.46 c
-987.89 0 p
-31.04 0 -63.91 0 -63.91 -36.46 c
0 -36.46 32.86 -36.46 63.91 -36.46 c
h
f
16352.9 4170.11 -32.97 0 P
-18.27 -129.73 -32.89 -151.66 -40.2 -162.61 c
-9.13 -14.61 -140.67 -14.61 -166.24 -14.61 c
-350.77 0 p
65.77 71.2 193.65 200.81 348.94 350.51 c
111.45 105.88 241.25 230.02 241.25 410.75 c
0 215.42 -171.8 339.82 -363.59 339.82 c
-200.91 0 -323.29 -177.18 -323.29 -341.48 c
0 -71.2 52.91 -80.32 74.81 -80.32 c
18.25 0 73.02 10.94 73.02 74.8 c
0 56.57 -47.49 73.02 -73.06 73.02 c
-10.96 0 -21.91 -1.71 -29.22 -5.14 c
34.73 154.68 140.74 231.16 252.23 231.16 c
159.02 0 263.23 -125.99 263.23 -292.08 c
0 -158.79 -93.21 -295.67 -197.37 -414.3 c
-363.64 -410.66 0 -41.97 642.92 0 h
f
20298 4475.22 m
0 111.36 -1.94 301.23 -78.65 447.27 c
-67.58 127.79 -175.34 173.46 -270.32 173.46 c
-87.67 0 -199.09 -40.2 -268.49 -171.64 c
-73.06 -136.92 -80.36 -306.7 -80.36 -449.1 c
0 -104.05 1.82 -262.89 58.45 -401.62 c
78.54 -188.04 219.18 -213.59 290.41 -213.59 c
84.02 0 211.87 34.68 286.76 208.11 c
54.79 125.97 62.21 273.84 62.21 407.11 c
h
19949.1 3888.97 m
-116.93 0 -186.34 100.43 -211.92 239.2 c
-20.09 107.74 -20.09 264.78 -20.09 367.04 c
0 140.6 0 257.47 23.75 368.86 c
34.72 155.21 137.02 202.93 208.27 202.93 c
74.91 0 171.73 -49.54 206.45 -199.27 c
23.74 -104.08 25.63 -226.43 25.63 -372.51 c
0 -118.7 0 -264.78 -21.98 -372.51 c
-38.37 -199.04 -146.16 -233.73 -210.1 -233.73 c
h
f
24942.9 4172.11 -32.97 0 P
-18.27 -129.73 -32.89 -151.66 -40.2 -162.61 c
-9.13 -14.61 -140.67 -14.61 -166.24 -14.61 c
-350.77 0 p
65.77 71.2 193.65 200.81 348.94 350.51 c
111.45 105.88 241.25 230.02 241.25 410.75 c
0 215.42 -171.8 339.82 -363.59 339.82 c
-200.91 0 -323.29 -177.18 -323.29 -341.48 c
0 -71.2 52.91 -80.32 74.81 -80.32 c
18.25 0 73.02 10.94 73.02 74.8 c
0 56.57 -47.49 73.02 -73.06 73.02 c
-10.96 0 -21.91 -1.71 -29.22 -5.14 c
34.73 154.68 140.74 231.16 252.23 231.16 c
159.02 0 263.23 -125.99 263.23 -292.08 c
0 -158.79 -93.21 -295.67 -197.37 -414.3 c
-363.64 -410.66 0 -41.97 642.92 0 h
f
29444.9 5070.73 m
0 38.36 -1.92 40.3 -34.8 40.3 c
-542.59 -864.04 0 -47.95 471.23 0 0 -178.4 p
0 -65.51 -3.65 -83.7 -131.51 -83.7 c
-34.7 0 0 -47.95 p
58.45 3.65 157.08 3.65 219.18 3.65 c
62.1 0 160.73 0 219.18 -3.65 c
0 47.95 -34.67 0 p
-127.67 0 -131.31 18.19 -131.31 83.7 c
0 178.4 186.07 0 0 47.95 ^ h
29344 4950.18 0 -703.19 -439.98 0 H
f
33674.4 4519.1 m
0 436.31 204.57 534.91 323.29 534.91 c
38.36 0 131.51 -7.28 168.04 -78.14 c
-29.23 0 -84.02 0 -84.02 -64.02 c
0 -49.38 40.18 -65.83 65.75 -65.83 c
16.44 0 65.75 7.29 65.75 69.32 c
0 114.93 -91.32 180.62 -217.35 180.62 c
-217.35 0 -445.66 -226.41 -445.66 -629.86 c
0 -496.56 206.39 -606.09 352.51 -606.09 c
177.17 0 345.32 158.82 345.32 403.45 c
0 228.2 -148.06 394.49 -334.36 394.49 c
-111.42 0 -193.61 -73.06 -239.27 -200.91 c
h
33902.9 3903.95 m
-224.87 0 -224.87 335.99 -224.87 403.55 c
0 131.47 62.16 321.47 232.18 321.47 c
31.09 0 120.67 0 181 -126.09 c
32.93 -71.22 32.93 -146.08 32.93 -237.39 c
0 -98.6 0 -171.64 -38.42 -244.68 c
-40.22 -74.87 -98.72 -116.87 -182.83 -116.87 c
h
f
38627.8 4546.43 m
115.12 58.42 232.07 146.05 232.07 286.61 c
0 166.13 -160.83 262.92 -308.84 262.92 c
-166.29 0 -312.48 -120.53 -312.48 -286.65 c
0 -45.64 10.97 -124.14 82.23 -193.52 c
18.28 -18.26 95.03 -73.02 144.36 -107.71 c
-82.23 -41.99 -274.1 -142.39 -274.1 -343.21 c
0 -188.04 179.04 -304.87 356.25 -304.87 c
195.47 0 359.96 140.57 359.96 326.78 c
0 166.13 -111.41 242.81 -184.47 292.09 c
h
38388.6 4707.16 m
-14.62 9.13 -87.71 65.7 -87.71 151.49 c
0 111.33 115.12 195.36 246.69 195.36 c
144.36 0 250.4 -102.28 250.4 -220.92 c
0 -169.73 -190.09 -266.46 -199.23 -266.46 c
-1.83 0 -3.65 0 -18.27 10.95 c
h
38724.6 4332.86 m
27.39 -20.07 115.07 -80.3 115.07 -191.64 c
0 -135.06 -135.16 -237.27 -288.54 -237.27 c
-166.17 0 -292.16 118.63 -292.16 262.82 c
0 144.19 111.39 264.64 237.38 321.31 c
h
f
42847.8 5055.76 m
0 38.33 -1.83 40.2 -27.4 40.2 c
-71.23 -85.93 -178.99 -113.36 -281.28 -117.01 c
-5.48 0 -14.61 0 -16.44 -3.63 c
-1.83 -3.62 -1.83 -7.25 -1.83 -45.31 c
56.71 0 151.86 10.97 225.06 54.88 c
0 -962.14 p
0 -63.9 -3.7 -85.8 -161.04 -85.8 c
-54.89 0 0 -47.95 p
87.67 1.83 179 3.65 266.67 3.65 c
87.67 0 179 -1.82 266.66 -3.65 c
0 47.95 -54.79 0 p
-157.08 0 -160.73 20.07 -160.73 85.78 c
h
f
43969 4475.22 m
0 111.36 -1.94 301.23 -78.65 447.27 c
-67.58 127.79 -175.34 173.46 -270.32 173.46 c
-87.67 0 -199.09 -40.2 -268.49 -171.64 c
-73.06 -136.92 -80.36 -306.7 -80.36 -449.1 c
0 -104.05 1.82 -262.89 58.45 -401.62 c
78.54 -188.04 219.18 -213.59 290.41 -213.59 c
84.02 0 211.87 34.68 286.76 208.11 c
54.79 125.97 62.21 273.84 62.21 407.11 c
h
43620.1 3888.97 m
-116.93 0 -186.34 100.43 -211.92 239.2 c
-20.09 107.74 -20.09 264.78 -20.09 367.04 c
0 140.6 0 257.47 23.75 368.86 c
34.72 155.21 137.02 202.93 208.27 202.93 c
74.91 0 171.73 -49.54 206.45 -199.27 c
23.74 -104.08 25.63 -226.43 25.63 -372.51 c
0 -118.7 0 -264.78 -21.98 -372.51 c
-38.37 -199.04 -146.16 -233.73 -210.1 -233.73 c
h
f
14970 2793.61 0 -956.61 153.82 0 0 496.44 P
0 136.88 34.64 226.31 107.6 279.25 c
47.43 34.68 93.02 45.63 198.85 47.52 c
0 155.32 p
-25.59 3.65 -38.36 5.49 -58.44 5.49 c
-98.56 0 -173.39 -58.45 -260.99 -200.84 c
0 173.43 h
f
16391 2263.94 m
0 146.12 -11.04 233.79 -38.44 305.02 c
-62.1 157.08 -208.22 252.05 -387.21 252.05 c
-266.66 0 -438.36 -204.52 -438.36 -518.51 c
0 -314 166.21 -507.51 434.7 -507.51 c
219.18 0 370.78 124.2 409.22 332.42 c
-153.54 0 p
-42.01 -125.91 -127.86 -191.58 -250.23 -191.58 c
-96.8 0 -179 43.74 -230.14 123.93 c
-36.53 54.67 -49.32 109.35 -51.14 204.19 c
h
15689.6 2387.8 m
12.79 177.25 120.55 292.38 273.97 292.38 c
149.77 0 264.84 -124.27 264.84 -281.42 c
0 -3.65 0 -7.31 -1.83 -10.96 c
h
f
17274 2527.41 m
-1.98 187.8 -126.12 293.61 -347.02 293.61 c
-222.71 0 -366.94 -115.17 -366.94 -292.16 c
0 -149.62 76.66 -220.79 302.97 -275.53 c
142.37 -34.67 p
105.86 -25.55 147.84 -63.86 147.84 -133.2 c
0 -89.41 -89.54 -149.62 -222.8 -149.62 c
-82.15 0 -151.52 23.71 -189.86 63.85 c
-23.74 27.36 -34.69 54.72 -43.81 122.25 c
-160.65 0 p
7.3 -221 131.44 -326.94 381.54 -326.94 c
240.98 0 394.4 118.6 394.4 302.89 c
0 142.33 -80.31 220.79 -270.13 266.41 c
-146.01 34.67 p
-124.11 29.2 -177.03 69.34 -177.03 136.85 c
0 87.58 78.52 144.36 202.69 144.36 c
122.34 0 188.08 -52.75 191.73 -152.77 c
h
f
17658 2793.96 -153.82 0 0 -956.96 ^ H
17658 3168.96 -153.82 0 0 -192.24 ^ H
f
18698 3168.96 -151.82 0 0 -495.43 P
-64 96.49 -166.26 147.49 -294.09 147.49 c
-248.34 0 -410.85 -199.04 -410.85 -503.91 c
0 -323.13 158.98 -522.12 416.64 -522.12 c
131.57 0 222.94 49.31 305.28 168.04 c
0 -126.03 134.84 0 h
18277.7 2678.18 m
164.38 0 268.49 -145.94 268.49 -373.86 c
0 -220.63 -105.94 -366.5 -266.67 -366.5 c
-168.04 0 -279.45 147.69 -279.45 370.14 c
0 222.45 111.41 370.21 277.63 370.21 c
h
f
19694 1836.98 0 956.98 -151.82 0 0 -542.76 P
0 -195.48 -102.12 -323.36 -260.64 -323.36 c
-120.25 0 -196.77 73.07 -196.77 188.17 c
0 677.95 -151.83 0 0 -737.85 p
0 -158.87 118.63 -261.12 304.79 -261.12 c
140.54 0 229.97 49.3 319.44 175.3 c
0 -133.3 h
f
20811.2 1926.5 m
-16.46 -3.65 -23.77 -3.65 -32.91 -3.65 c
-53.02 0 -82.27 27.38 -82.27 74.83 c
0 562.14 p
0 169.74 -124.24 261.2 -359.8 261.2 c
-138.78 0 -253.82 -40.19 -317.73 -111.3 c
-43.82 -49.23 -62.09 -103.93 -65.73 -198.74 c
153.31 0 p
12.77 116.44 82.13 169.21 224.49 169.21 c
136.89 0 213.64 -51.31 213.64 -142.54 c
0 -40.15 p
0 -63.86 -38.43 -91.23 -158.84 -105.83 c
-215.26 -27.37 -248.09 -34.67 -306.47 -58.39 c
-111.28 -45.62 -167.83 -131.37 -167.83 -255.46 c
0 -173.34 120.48 -282.82 314 -282.82 c
120.49 0 217.25 42.01 324.96 140.64 c
10.95 -96.8 58.42 -140.64 157 -140.64 c
31.04 0 54.77 3.65 104.19 16.44 c
h
20544.2 2138.13 m
0 -51.2 -14.61 -82.29 -60.21 -124.35 c
-62.03 -56.69 -136.82 -85.95 -226.21 -85.95 c
-118.57 0 -187.89 56.68 -187.89 153.61 c
0 100.58 67.5 151.78 229.85 175.55 c
160.54 21.95 193.37 29.26 244.46 53.05 c
h
f
20978 1837 153.82 1331.96 re
f
22175 3168.96 m
-182.7 -239.37 -297.79 -571.87 -297.79 -858.7 c
0 -288.66 115.09 -621.15 297.79 -860.48 c
100.5 0 p
-160.89 261.25 -250.46 568.17 -250.46 860.48 c
0 290.48 89.56 599.23 250.46 858.7 c
h
f
23064.9 2344.76 -365.2 363.64 P
-21.91 21.93 -25.56 25.63 -40.18 25.63 c
-18.26 0 -36.52 -16.5 -36.52 -36.6 c
0 -12.79 3.64 -16.45 23.71 -36.56 c
364.79 -367.39 -364.79 -367.39 p
-20.06 -20.11 -23.71 -23.76 -23.71 -36.56 c
0 -20.11 18.26 -36.55 36.52 -36.55 c
14.61 0 18.27 3.65 40.18 25.59 c
363.38 363.91 378 -378.53 p
3.65 -1.83 16.43 -10.97 27.39 -10.97 c
21.91 0 36.54 16.45 36.54 36.55 c
0 3.66 0 10.97 -5.55 20.11 c
-1.82 3.66 -292.45 290.63 -383.84 383.85 c
334.49 334.49 p
9.14 10.96 36.55 34.73 45.7 45.7 c
1.83 3.65 9.2 10.96 9.2 23.76 c
0 20.11 -14.63 36.6 -36.54 36.6 c
-14.61 0 -21.92 -7.35 -42 -27.46 c
h
f
24259.8 3003.76 m
0 38.33 -1.83 40.2 -27.4 40.2 c
-71.23 -85.93 -178.99 -113.36 -281.28 -117.01 c
-5.48 0 -14.61 0 -16.44 -3.63 c
-1.83 -3.62 -1.83 -7.25 -1.83 -45.31 c
56.71 0 151.86 10.97 225.06 54.88 c
0 -962.14 p
0 -63.9 -3.7 -85.8 -161.04 -85.8 c
-54.89 0 0 -47.95 p
87.67 1.83 179 3.65 266.67 3.65 c
87.67 0 179 -1.82 266.66 -3.65 c
0 47.95 -54.79 0 p
-157.08 0 -160.73 20.07 -160.73 85.78 c
h
f
25381 2423.22 m
0 111.36 -1.94 301.23 -78.65 447.27 c
-67.58 127.79 -175.34 173.46 -270.32 173.46 c
-87.67 0 -199.09 -40.2 -268.49 -171.64 c
-73.06 -136.92 -80.36 -306.7 -80.36 -449.1 c
0 -104.05 1.82 -262.89 58.45 -401.62 c
78.54 -188.04 219.18 -213.59 290.41 -213.59 c
84.02 0 211.87 34.68 286.76 208.11 c
54.79 125.97 62.21 273.84 62.21 407.11 c
h
25032.1 1836.97 m
-116.93 0 -186.34 100.43 -211.92 239.2 c
-20.09 107.74 -20.09 264.78 -20.09 367.04 c
0 140.6 0 257.47 23.75 368.86 c
34.72 155.21 137.02 202.93 208.27 202.93 c
74.91 0 171.73 -49.54 206.45 -199.27 c
23.74 -104.08 25.63 -226.43 25.63 -372.51 c
0 -118.7 0 -264.78 -21.98 -372.51 c
-38.37 -199.04 -146.16 -233.73 -210.1 -233.73 c
h
f
26296.2 2791.06 m
21.73 0 44.85 0 44.85 25.47 c
0 25.47 -23.12 25.47 -44.85 25.47 c
-691.52 0 p
-21.73 0 -44.73 0 -44.73 -25.47 c
0 -25.47 23 -25.47 44.73 -25.47 c
h
f
26679.3 2956.11 m
-21.74 -1.29 -26.86 -2.58 -26.86 -14.19 c
0 -12.9 6.4 -12.9 29.42 -12.9 c
58.83 0 p
108.7 0 157.34 -89.43 157.34 -212.05 c
0 -167.32 -86.99 -212.03 -149.65 -212.03 c
-61.39 0 -166.25 29.51 -203.34 114.19 c
40.92 -7.07 78.01 15.98 78.01 62.08 c
0 37.14 -26.86 62.77 -62.66 62.77 c
-30.69 0 -63.94 -17.99 -63.94 -66.63 c
0 -113.93 113.79 -207.37 255.71 -207.37 c
152.14 0 264.74 116.32 264.74 245.42 c
0 117.59 -94.63 209.62 -217.34 231.35 c
111.21 31.96 182.79 125.27 182.79 224.97 c
0 100.98 -104.81 175.25 -228.8 175.25 c
-127.82 0 -222.41 -77.77 -222.41 -170.8 c
0 -50.98 39.47 -61.18 58.57 -61.18 c
26.73 0 57.3 19.1 57.3 57.3 c
0 40.74 -30.55 58.57 -58.55 58.57 c
-7.64 0 -10.18 0 -14 0 c
48.59 85.14 168.8 85.14 175.2 85.14 c
42.2 0 125.32 -19.16 125.32 -144.21 c
0 -24.25 -3.84 -95.7 -40.92 -150.57 c
-38.37 -56.14 -81.85 -59.98 -116.37 -61.25 c
h
f
27877.1 1877.18 m
45.68 -41.85 113.3 -58.22 175.43 -58.22 c
116.95 0 197.36 78.4 239.43 134.93 c
18.23 -96.64 94.86 -134.93 158.7 -134.93 c
54.73 0 98.51 32.84 131.35 98.53 c
29.19 62.04 54.81 173.35 54.81 180.64 c
0 9.13 -7.3 16.49 -18.23 16.49 c
-16.41 0 -18.23 -9.15 -25.52 -36.47 c
-27.34 -107.48 -61.98 -222.23 -136.72 -222.23 c
-52.86 0 -56.51 47.42 -56.51 83.91 c
0 41.96 16.38 107.63 29.13 162.36 c
50.98 197.03 p
7.28 34.66 27.31 116.75 36.41 149.59 c
10.92 43.78 30.96 122.22 30.96 129.52 c
0 27.36 -22.05 45.66 -49.42 45.66 c
-16.43 0 -54.74 -7.36 -69.34 -62.08 c
-127.73 -507.15 p
-9.12 -36.48 -9.12 -40.13 -32.84 -69.32 c
-21.89 -31.01 -93.06 -129.52 -208.02 -129.52 c
-102.18 0 -135.03 74.77 -135.03 160.5 c
0 52.89 16.38 116.72 23.65 147.72 c
81.89 328.29 p
9.1 34.65 23.68 93.02 23.68 103.95 c
0 29.18 -23.75 45.64 -47.49 45.64 c
-16.44 0 -56.62 -5.66 -71.23 -64.09 c
-264.84 -1057.27 p
-1.83 -9.13 -5.48 -20.09 -5.48 -31.04 c
0 -27.39 21.93 -45.65 49.34 -45.65 c
53 0 63.96 42.04 76.75 93.21 c
h
f
30058.4 3106.4 m
0 16.55 -12.96 16.55 -16.61 16.55 c
-3.66 0 -10.96 0 -25.57 -18.31 c
-126.03 -153.5 p
-63.93 109.64 -164.38 171.8 -301.37 171.8 c
-394.52 0 -803.65 -400 -803.65 -829.12 c
0 -304.95 213.7 -494.85 480.36 -494.85 c
146.12 0 273.97 62.05 379.91 151.48 c
158.9 133.23 206.56 310.27 206.56 324.88 c
0 16.45 -14.73 16.45 -20.2 16.45 c
-16.44 0 -18.27 -10.96 -21.92 -18.27 c
-84.02 -284.72 -330.59 -421.6 -513.24 -421.6 c
-193.61 0 -361.64 124.16 -361.64 383.46 c
0 58.43 18.27 376.17 224.66 615.38 c
100.46 116.87 272.15 219.25 445.66 219.25 c
200.91 0 290.41 -166.28 290.41 -352.63 c
0 -47.5 -5.48 -87.7 -5.48 -95 c
0 -16.44 18.27 -16.44 23.75 -16.44 c
20.09 0 21.92 1.82 29.22 34.7 c
h
f
30620.9 2098.14 m
0 9.13 -7.34 16.49 -18.31 16.49 c
-16.45 0 -18.28 -5.51 -27.42 -36.47 c
-47.52 -165.77 -122.46 -222.23 -182.79 -222.23 c
-21.93 0 -47.52 5.46 -47.52 60.18 c
0 49.25 21.92 103.96 42.01 158.68 c
127.86 339.23 p
5.48 14.59 18.27 47.42 18.27 82.07 c
0 76.6 -54.81 145.95 -144.24 145.95 c
-167.91 0 -235.44 -264.44 -235.44 -279.02 c
0 -7.3 7.3 -16.41 20.1 -16.41 c
16.45 0 18.27 7.28 25.59 32.76 c
43.86 152.89 113.29 225.71 184.56 225.71 c
16.45 0 47.55 -1.87 47.55 -60.23 c
0 -47.42 -23.75 -107.61 -38.36 -147.72 c
-127.85 -339.23 p
-10.96 -29.18 -21.92 -58.36 -21.92 -91.19 c
0 -82.07 56.59 -147.72 144.22 -147.72 c
167.95 0 233.69 266.4 233.69 279.17 c
h
30605.9 2976.75 m
0 27.37 -21.96 60.24 -62.2 60.24 c
-42.07 0 -89.62 -40.17 -89.62 -87.62 c
0 -45.61 38.41 -60.21 60.36 -60.21 c
49.39 0 91.47 47.44 91.47 87.59 c
h
f
31497.8 3139.37 m
0 1.82 11.11 29.23 11.11 32.88 c
0 21.93 -18.42 34.73 -33.04 34.73 c
-9.13 0 -25.58 0 -40.19 -40.21 c
-612.02 -1719.14 p
0 -1.83 -10.96 -29.23 -10.96 -32.89 c
0 -21.92 18.26 -34.71 32.88 -34.71 c
10.96 0 27.4 1.82 40.19 40.19 c
h
f
31980.1 2371.11 m
3.65 10.96 49.28 102.31 116.81 160.77 c
47.45 43.84 109.51 73.18 180.68 73.18 c
73.01 0 98.57 -54.76 98.57 -127.71 c
0 -10.95 0 -47.41 -21.86 -133.13 c
-45.51 -187.86 p
-14.56 -54.71 -49.14 -189.68 -52.79 -209.74 c
-7.29 -27.36 -18.2 -74.77 -18.2 -82.07 c
0 -25.54 20.08 -45.59 47.46 -45.59 c
54.77 0 63.9 41.95 80.33 107.6 c
109.53 435.89 p
3.65 14.59 98.59 242.61 299.4 242.61 c
73.02 0 98.66 -54.76 98.66 -127.71 c
0 -102.13 -71.12 -300.93 -111.24 -410.35 c
-16.41 -43.77 -25.52 -67.48 -25.52 -100.31 c
0 -82.07 56.62 -147.72 144.29 -147.72 c
169.86 0 233.79 268.23 233.79 279.17 c
0 9.13 -7.3 16.49 -18.27 16.49 c
-16.44 0 -18.27 -5.51 -27.4 -36.47 c
-42.01 -145.73 -109.59 -222.23 -182.64 -222.23 c
-18.27 0 -47.49 1.82 -47.49 60.18 c
0 47.42 21.62 105.78 28.82 125.84 c
32.43 87.54 113.53 302.75 113.53 408.53 c
0 109.43 -64.05 191.54 -202.89 191.54 c
-122.41 0 -221.06 -69.24 -294.14 -176.71 c
-5.53 98.36 -65.55 176.71 -201.97 176.71 c
-161.88 0 -247.37 -114.75 -280.11 -160.27 c
-5.51 103.8 -80.34 160.27 -160.64 160.27 c
-52.93 0 -94.91 -25.57 -129.58 -94.87 c
-32.86 -65.64 -58.4 -176.86 -58.4 -184.16 c
0 -7.3 7.35 -16.41 20.21 -16.41 c
14.7 0 16.54 1.82 27.56 43.68 c
27.57 107.39 62.48 214.79 135.98 214.79 c
42.27 0 56.99 -29.22 56.99 -83.94 c
0 -40.12 -18.45 -111.25 -31.36 -167.79 c
-51.64 -196.97 p
-7.38 -34.65 -27.67 -116.72 -36.89 -149.55 c
-12.91 -47.42 -33.2 -133.14 -33.2 -142.26 c
0 -25.54 20.07 -45.59 47.45 -45.59 c
21.9 0 47.45 10.55 62.05 36.96 c
3.65 9.13 20.08 73.07 29.2 109.61 c
40.15 164.43 h
f
33627.9 3059.27 m
1.82 7.3 5.52 18.27 5.52 27.39 c
0 18.37 -18.21 18.37 -21.85 18.37 c
-1.81 0 -67.23 -5.47 -99.93 -9.12 c
-30.89 -1.82 -58.15 -5.47 -90.86 -7.29 c
-43.61 -3.64 -56.33 -5.46 -56.33 -38.28 c
0 -18.23 18.17 -18.23 36.34 -18.23 c
92.68 0 92.68 -16.52 92.68 -34.79 c
0 -7.3 0 -10.96 -9.09 -43.85 c
-225.32 -906.16 p
-5.45 -20.09 -9.09 -34.71 -9.09 -63.94 c
0 -91.35 67.2 -164.42 159.82 -164.42 c
59.94 0 99.89 40.14 128.95 96.7 c
30.88 60.21 56.32 175.17 56.32 182.47 c
0 9.13 -7.31 16.49 -18.25 16.49 c
-16.43 0 -18.25 -9.15 -25.55 -36.47 c
-32.84 -125.69 -65.69 -222.23 -138.68 -222.23 c
-54.74 0 -54.74 58.43 -54.74 84 c
0 7.3 0 45.65 12.77 96.77 c
h
f
33903.9 1449.79 m
182.74 239.33 297.9 571.82 297.9 858.65 c
0 288.66 -115.16 621.16 -297.9 860.52 c
-100.5 0 p
160.92 -261.29 250.57 -568.21 250.57 -860.52 c
0 -290.48 -89.65 -599.23 -250.57 -858.65 c
h
f
5596.01 5397.22 m
0 111.36 -1.94 301.23 -78.65 447.27 c
-67.58 127.79 -175.34 173.46 -270.32 173.46 c
-87.67 0 -199.09 -40.2 -268.49 -171.64 c
-73.06 -136.92 -80.36 -306.7 -80.36 -449.1 c
0 -104.05 1.82 -262.89 58.45 -401.62 c
78.54 -188.04 219.18 -213.59 290.41 -213.59 c
84.02 0 211.87 34.68 286.76 208.11 c
54.79 125.97 62.21 273.84 62.21 407.11 c
h
5247.06 4810.97 m
-116.93 0 -186.34 100.43 -211.92 239.2 c
-20.09 107.74 -20.09 264.78 -20.09 367.04 c
0 140.6 0 257.47 23.75 368.86 c
34.72 155.21 137.02 202.93 208.27 202.93 c
74.91 0 171.73 -49.54 206.45 -199.27 c
23.74 -104.08 25.63 -226.43 25.63 -372.51 c
0 -118.7 0 -264.78 -21.98 -372.51 c
-38.37 -199.04 -146.16 -233.73 -210.1 -233.73 c
h
f
4752.87 8469.11 -32.97 0 P
-18.27 -129.73 -32.89 -151.66 -40.2 -162.61 c
-9.13 -14.61 -140.67 -14.61 -166.24 -14.61 c
-350.77 0 p
65.77 71.2 193.65 200.81 348.94 350.51 c
111.45 105.88 241.25 230.02 241.25 410.75 c
0 215.42 -171.8 339.82 -363.59 339.82 c
-200.91 0 -323.29 -177.18 -323.29 -341.48 c
0 -71.2 52.91 -80.32 74.81 -80.32 c
18.25 0 73.02 10.94 73.02 74.8 c
0 56.57 -47.49 73.02 -73.06 73.02 c
-10.96 0 -21.91 -1.71 -29.22 -5.14 c
34.73 154.68 140.74 231.16 252.23 231.16 c
159.02 0 263.23 -125.99 263.23 -292.08 c
0 -158.79 -93.21 -295.67 -197.37 -414.3 c
-363.64 -410.66 0 -41.97 642.92 0 h
f
5598.01 8772.22 m
0 111.36 -1.94 301.23 -78.65 447.27 c
-67.58 127.79 -175.34 173.46 -270.32 173.46 c
-87.67 0 -199.09 -40.2 -268.49 -171.64 c
-73.06 -136.92 -80.36 -306.7 -80.36 -449.1 c
0 -104.05 1.82 -262.89 58.45 -401.62 c
78.54 -188.04 219.18 -213.59 290.41 -213.59 c
84.02 0 211.87 34.68 286.76 208.11 c
54.79 125.97 62.21 273.84 62.21 407.11 c
h
5249.06 8185.97 m
-116.93 0 -186.34 100.43 -211.92 239.2 c
-20.09 107.74 -20.09 264.78 -20.09 367.04 c
0 140.6 0 257.47 23.75 368.86 c
34.72 155.21 137.02 202.93 208.27 202.93 c
74.91 0 171.73 -49.54 206.45 -199.27 c
23.74 -104.08 25.63 -226.43 25.63 -372.51 c
0 -118.7 0 -264.78 -21.98 -372.51 c
-38.37 -199.04 -146.16 -233.73 -210.1 -233.73 c
h
f
4604.93 12742.7 m
0 38.36 -1.92 40.3 -34.8 40.3 c
-542.59 -864.04 0 -47.95 471.23 0 0 -178.4 p
0 -65.51 -3.65 -83.7 -131.51 -83.7 c
-34.7 0 0 -47.95 p
58.45 3.65 157.08 3.65 219.18 3.65 c
62.1 0 160.73 0 219.18 -3.65 c
0 47.95 -34.67 0 p
-127.67 0 -131.31 18.19 -131.31 83.7 c
0 178.4 186.07 0 0 47.95 ^ h
4504.04 12622.2 0 -703.19 -439.98 0 H
f
5598.01 12147.2 m
0 111.36 -1.94 301.23 -78.65 447.27 c
-67.58 127.79 -175.34 173.46 -270.32 173.46 c
-87.67 0 -199.09 -40.2 -268.49 -171.64 c
-73.06 -136.92 -80.36 -306.7 -80.36 -449.1 c
0 -104.05 1.82 -262.89 58.45 -401.62 c
78.54 -188.04 219.18 -213.59 290.41 -213.59 c
84.02 0 211.87 34.68 286.76 208.11 c
54.79 125.97 62.21 273.84 62.21 407.11 c
h
5249.06 11561 m
-116.93 0 -186.34 100.43 -211.92 239.2 c
-20.09 107.74 -20.09 264.78 -20.09 367.04 c
0 140.6 0 257.47 23.75 368.86 c
34.72 155.21 137.02 202.93 208.27 202.93 c
74.91 0 171.73 -49.54 206.45 -199.27 c
23.74 -104.08 25.63 -226.43 25.63 -372.51 c
0 -118.7 0 -264.78 -21.98 -372.51 c
-38.37 -199.04 -146.16 -233.73 -210.1 -233.73 c
h
f
4184.38 15566.1 m
0 436.31 204.57 534.91 323.29 534.91 c
38.36 0 131.51 -7.28 168.04 -78.14 c
-29.23 0 -84.02 0 -84.02 -64.02 c
0 -49.38 40.18 -65.83 65.75 -65.83 c
16.44 0 65.75 7.29 65.75 69.32 c
0 114.93 -91.32 180.62 -217.35 180.62 c
-217.35 0 -445.66 -226.41 -445.66 -629.86 c
0 -496.56 206.39 -606.09 352.51 -606.09 c
177.17 0 345.32 158.82 345.32 403.45 c
0 228.2 -148.06 394.49 -334.36 394.49 c
-111.42 0 -193.61 -73.06 -239.27 -200.91 c
h
4412.9 14951 m
-224.87 0 -224.87 335.99 -224.87 403.55 c
0 131.47 62.16 321.47 232.18 321.47 c
31.09 0 120.67 0 181 -126.09 c
32.93 -71.22 32.93 -146.08 32.93 -237.39 c
0 -98.6 0 -171.64 -38.42 -244.68 c
-40.22 -74.87 -98.72 -116.87 -182.83 -116.87 c
h
f
5598.01 15522.2 m
0 111.36 -1.94 301.23 -78.65 447.27 c
-67.58 127.79 -175.34 173.46 -270.32 173.46 c
-87.67 0 -199.09 -40.2 -268.49 -171.64 c
-73.06 -136.92 -80.36 -306.7 -80.36 -449.1 c
0 -104.05 1.82 -262.89 58.45 -401.62 c
78.54 -188.04 219.18 -213.59 290.41 -213.59 c
84.02 0 211.87 34.68 286.76 208.11 c
54.79 125.97 62.21 273.84 62.21 407.11 c
h
5249.06 14936 m
-116.93 0 -186.34 100.43 -211.92 239.2 c
-20.09 107.74 -20.09 264.78 -20.09 367.04 c
0 140.6 0 257.47 23.75 368.86 c
34.72 155.21 137.02 202.93 208.27 202.93 c
74.91 0 171.73 -49.54 206.45 -199.27 c
23.74 -104.08 25.63 -226.43 25.63 -372.51 c
0 -118.7 0 -264.78 -21.98 -372.51 c
-38.37 -199.04 -146.16 -233.73 -210.1 -233.73 c
h
f
4487.8 18968.4 m
115.12 58.42 232.07 146.05 232.07 286.61 c
0 166.13 -160.83 262.92 -308.84 262.92 c
-166.29 0 -312.48 -120.53 -312.48 -286.65 c
0 -45.64 10.97 -124.14 82.23 -193.52 c
18.28 -18.26 95.03 -73.02 144.36 -107.71 c
-82.23 -41.99 -274.1 -142.39 -274.1 -343.21 c
0 -188.04 179.04 -304.87 356.25 -304.87 c
195.47 0 359.96 140.57 359.96 326.78 c
0 166.13 -111.41 242.81 -184.47 292.09 c
h
4248.58 19129.2 m
-14.62 9.13 -87.71 65.7 -87.71 151.49 c
0 111.33 115.12 195.36 246.69 195.36 c
144.36 0 250.4 -102.28 250.4 -220.92 c
0 -169.73 -190.09 -266.46 -199.23 -266.46 c
-1.83 0 -3.65 0 -18.27 10.95 c
h
4584.61 18754.9 m
27.39 -20.07 115.07 -80.3 115.07 -191.64 c
0 -135.06 -135.16 -237.27 -288.54 -237.27 c
-166.17 0 -292.16 118.63 -292.16 262.82 c
0 144.19 111.39 264.64 237.38 321.31 c
h
f
5598.01 18897.2 m
0 111.36 -1.94 301.23 -78.65 447.27 c
-67.58 127.79 -175.34 173.46 -270.32 173.46 c
-87.67 0 -199.09 -40.2 -268.49 -171.64 c
-73.06 -136.92 -80.36 -306.7 -80.36 -449.1 c
0 -104.05 1.82 -262.89 58.45 -401.62 c
78.54 -188.04 219.18 -213.59 290.41 -213.59 c
84.02 0 211.87 34.68 286.76 208.11 c
54.79 125.97 62.21 273.84 62.21 407.11 c
h
5249.06 18311 m
-116.93 0 -186.34 100.43 -211.92 239.2 c
-20.09 107.74 -20.09 264.78 -20.09 367.04 c
0 140.6 0 257.47 23.75 368.86 c
34.72 155.21 137.02 202.93 208.27 202.93 c
74.91 0 171.73 -49.54 206.45 -199.27 c
23.74 -104.08 25.63 -226.43 25.63 -372.51 c
0 -118.7 0 -264.78 -21.98 -372.51 c
-38.37 -199.04 -146.16 -233.73 -210.1 -233.73 c
h
f
3639.84 22852.8 m
0 38.33 -1.83 40.2 -27.4 40.2 c
-71.23 -85.93 -178.99 -113.36 -281.28 -117.01 c
-5.48 0 -14.61 0 -16.44 -3.63 c
-1.83 -3.62 -1.83 -7.25 -1.83 -45.31 c
56.71 0 151.86 10.97 225.06 54.88 c
0 -962.14 p
0 -63.9 -3.7 -85.8 -161.04 -85.8 c
-54.89 0 0 -47.95 p
87.67 1.83 179 3.65 266.67 3.65 c
87.67 0 179 -1.82 266.66 -3.65 c
0 47.95 -54.79 0 p
-157.08 0 -160.73 20.07 -160.73 85.78 c
h
f
4761.01 22272.2 m
0 111.36 -1.94 301.23 -78.65 447.27 c
-67.58 127.79 -175.34 173.46 -270.32 173.46 c
-87.67 0 -199.09 -40.2 -268.49 -171.64 c
-73.06 -136.92 -80.36 -306.7 -80.36 -449.1 c
0 -104.05 1.82 -262.89 58.45 -401.62 c
78.54 -188.04 219.18 -213.59 290.41 -213.59 c
84.02 0 211.87 34.68 286.76 208.11 c
54.79 125.97 62.21 273.84 62.21 407.11 c
h
4412.06 21686 m
-116.93 0 -186.34 100.43 -211.92 239.2 c
-20.09 107.74 -20.09 264.78 -20.09 367.04 c
0 140.6 0 257.47 23.75 368.86 c
34.72 155.21 137.02 202.93 208.27 202.93 c
74.91 0 171.73 -49.54 206.45 -199.27 c
23.74 -104.08 25.63 -226.43 25.63 -372.51 c
0 -118.7 0 -264.78 -21.98 -372.51 c
-38.37 -199.04 -146.16 -233.73 -210.1 -233.73 c
h
f
5601.01 22272.2 m
0 111.36 -1.94 301.23 -78.65 447.27 c
-67.58 127.79 -175.34 173.46 -270.32 173.46 c
-87.67 0 -199.09 -40.2 -268.49 -171.64 c
-73.06 -136.92 -80.36 -306.7 -80.36 -449.1 c
0 -104.05 1.82 -262.89 58.45 -401.62 c
78.54 -188.04 219.18 -213.59 290.41 -213.59 c
84.02 0 211.87 34.68 286.76 208.11 c
54.79 125.97 62.21 273.84 62.21 407.11 c
h
5252.06 21686 m
-116.93 0 -186.34 100.43 -211.92 239.2 c
-20.09 107.74 -20.09 264.78 -20.09 367.04 c
0 140.6 0 257.47 23.75 368.86 c
34.72 155.21 137.02 202.93 208.27 202.93 c
74.91 0 171.73 -49.54 206.45 -199.27 c
23.74 -104.08 25.63 -226.43 25.63 -372.51 c
0 -118.7 0 -264.78 -21.98 -372.51 c
-38.37 -199.04 -146.16 -233.73 -210.1 -233.73 c
h
f
3639.84 26227.8 m
0 38.33 -1.83 40.2 -27.4 40.2 c
-71.23 -85.93 -178.99 -113.36 -281.28 -117.01 c
-5.48 0 -14.61 0 -16.44 -3.63 c
-1.83 -3.62 -1.83 -7.25 -1.83 -45.31 c
56.71 0 151.86 10.97 225.06 54.88 c
0 -962.14 p
0 -63.9 -3.7 -85.8 -161.04 -85.8 c
-54.89 0 0 -47.95 p
87.67 1.83 179 3.65 266.67 3.65 c
87.67 0 179 -1.82 266.66 -3.65 c
0 47.95 -54.79 0 p
-157.08 0 -160.73 20.07 -160.73 85.78 c
h
f
4755.87 25344.1 -32.97 0 P
-18.27 -129.73 -32.89 -151.66 -40.2 -162.61 c
-9.13 -14.61 -140.67 -14.61 -166.24 -14.61 c
-350.77 0 p
65.77 71.2 193.65 200.81 348.94 350.51 c
111.45 105.88 241.25 230.02 241.25 410.75 c
0 215.42 -171.8 339.82 -363.59 339.82 c
-200.91 0 -323.29 -177.18 -323.29 -341.48 c
0 -71.2 52.91 -80.32 74.81 -80.32 c
18.25 0 73.02 10.94 73.02 74.8 c
0 56.57 -47.49 73.02 -73.06 73.02 c
-10.96 0 -21.91 -1.71 -29.22 -5.14 c
34.73 154.68 140.74 231.16 252.23 231.16 c
159.02 0 263.23 -125.99 263.23 -292.08 c
0 -158.79 -93.21 -295.67 -197.37 -414.3 c
-363.64 -410.66 0 -41.97 642.92 0 h
f
5601.01 25647.2 m
0 111.36 -1.94 301.23 -78.65 447.27 c
-67.58 127.79 -175.34 173.46 -270.32 173.46 c
-87.67 0 -199.09 -40.2 -268.49 -171.64 c
-73.06 -136.92 -80.36 -306.7 -80.36 -449.1 c
0 -104.05 1.82 -262.89 58.45 -401.62 c
78.54 -188.04 219.18 -213.59 290.41 -213.59 c
84.02 0 211.87 34.68 286.76 208.11 c
54.79 125.97 62.21 273.84 62.21 407.11 c
h
5252.06 25061 m
-116.93 0 -186.34 100.43 -211.92 239.2 c
-20.09 107.74 -20.09 264.78 -20.09 367.04 c
0 140.6 0 257.47 23.75 368.86 c
34.72 155.21 137.02 202.93 208.27 202.93 c
74.91 0 171.73 -49.54 206.45 -199.27 c
23.74 -104.08 25.63 -226.43 25.63 -372.51 c
0 -118.7 0 -264.78 -21.98 -372.51 c
-38.37 -199.04 -146.16 -233.73 -210.1 -233.73 c
h
f
3639.84 29602.8 m
0 38.33 -1.83 40.2 -27.4 40.2 c
-71.23 -85.93 -178.99 -113.36 -281.28 -117.01 c
-5.48 0 -14.61 0 -16.44 -3.63 c
-1.83 -3.62 -1.83 -7.25 -1.83 -45.31 c
56.71 0 151.86 10.97 225.06 54.88 c
0 -962.14 p
0 -63.9 -3.7 -85.8 -161.04 -85.8 c
-54.89 0 0 -47.95 p
87.67 1.83 179 3.65 266.67 3.65 c
87.67 0 179 -1.82 266.66 -3.65 c
0 47.95 -54.79 0 p
-157.08 0 -160.73 20.07 -160.73 85.78 c
h
f
4607.93 29617.7 m
0 38.36 -1.92 40.3 -34.8 40.3 c
-542.59 -864.04 0 -47.95 471.23 0 0 -178.4 p
0 -65.51 -3.65 -83.7 -131.51 -83.7 c
-34.7 0 0 -47.95 p
58.45 3.65 157.08 3.65 219.18 3.65 c
62.1 0 160.73 0 219.18 -3.65 c
0 47.95 -34.67 0 p
-127.67 0 -131.31 18.19 -131.31 83.7 c
0 178.4 186.07 0 0 47.95 ^ h
4507.04 29497.2 0 -703.19 -439.98 0 H
f
5601.01 29022.2 m
0 111.36 -1.94 301.23 -78.65 447.27 c
-67.58 127.79 -175.34 173.46 -270.32 173.46 c
-87.67 0 -199.09 -40.2 -268.49 -171.64 c
-73.06 -136.92 -80.36 -306.7 -80.36 -449.1 c
0 -104.05 1.82 -262.89 58.45 -401.62 c
78.54 -188.04 219.18 -213.59 290.41 -213.59 c
84.02 0 211.87 34.68 286.76 208.11 c
54.79 125.97 62.21 273.84 62.21 407.11 c
h
5252.06 28436 m
-116.93 0 -186.34 100.43 -211.92 239.2 c
-20.09 107.74 -20.09 264.78 -20.09 367.04 c
0 140.6 0 257.47 23.75 368.86 c
34.72 155.21 137.02 202.93 208.27 202.93 c
74.91 0 171.73 -49.54 206.45 -199.27 c
23.74 -104.08 25.63 -226.43 25.63 -372.51 c
0 -118.7 0 -264.78 -21.98 -372.51 c
-38.37 -199.04 -146.16 -233.73 -210.1 -233.73 c
h
f
3639.84 32977.8 m
0 38.33 -1.83 40.2 -27.4 40.2 c
-71.23 -85.93 -178.99 -113.36 -281.28 -117.01 c
-5.48 0 -14.61 0 -16.44 -3.63 c
-1.83 -3.62 -1.83 -7.25 -1.83 -45.31 c
56.71 0 151.86 10.97 225.06 54.88 c
0 -962.14 p
0 -63.9 -3.7 -85.8 -161.04 -85.8 c
-54.89 0 0 -47.95 p
87.67 1.83 179 3.65 266.67 3.65 c
87.67 0 179 -1.82 266.66 -3.65 c
0 47.95 -54.79 0 p
-157.08 0 -160.73 20.07 -160.73 85.78 c
h
f
4187.38 32441.1 m
0 436.31 204.57 534.91 323.29 534.91 c
38.36 0 131.51 -7.28 168.04 -78.14 c
-29.23 0 -84.02 0 -84.02 -64.02 c
0 -49.38 40.18 -65.83 65.75 -65.83 c
16.44 0 65.75 7.29 65.75 69.32 c
0 114.93 -91.32 180.62 -217.35 180.62 c
-217.35 0 -445.66 -226.41 -445.66 -629.86 c
0 -496.56 206.39 -606.09 352.51 -606.09 c
177.17 0 345.32 158.82 345.32 403.45 c
0 228.2 -148.06 394.49 -334.36 394.49 c
-111.42 0 -193.61 -73.06 -239.27 -200.91 c
h
4415.9 31826 m
-224.87 0 -224.87 335.99 -224.87 403.55 c
0 131.47 62.16 321.47 232.18 321.47 c
31.09 0 120.67 0 181 -126.09 c
32.93 -71.22 32.93 -146.08 32.93 -237.39 c
0 -98.6 0 -171.64 -38.42 -244.68 c
-40.22 -74.87 -98.72 -116.87 -182.83 -116.87 c
h
f
5601.01 32397.2 m
0 111.36 -1.94 301.23 -78.65 447.27 c
-67.58 127.79 -175.34 173.46 -270.32 173.46 c
-87.67 0 -199.09 -40.2 -268.49 -171.64 c
-73.06 -136.92 -80.36 -306.7 -80.36 -449.1 c
0 -104.05 1.82 -262.89 58.45 -401.62 c
78.54 -188.04 219.18 -213.59 290.41 -213.59 c
84.02 0 211.87 34.68 286.76 208.11 c
54.79 125.97 62.21 273.84 62.21 407.11 c
h
5252.06 31811 m
-116.93 0 -186.34 100.43 -211.92 239.2 c
-20.09 107.74 -20.09 264.78 -20.09 367.04 c
0 140.6 0 257.47 23.75 368.86 c
34.72 155.21 137.02 202.93 208.27 202.93 c
74.91 0 171.73 -49.54 206.45 -199.27 c
23.74 -104.08 25.63 -226.43 25.63 -372.51 c
0 -118.7 0 -264.78 -21.98 -372.51 c
-38.37 -199.04 -146.16 -233.73 -210.1 -233.73 c
h
f
1390.04 15361.5 0 -158.7 -150.1 0 P
-64.06 0 -97.07 36.47 -97.07 105.78 c
0 12.77 0 18.24 0 52.93 c
-123.84 0 p
-7.19 -34.73 -9.01 -54.82 -9.01 -85.87 c
0 -140.64 80.41 -224.66 217.43 -224.66 c
162.59 0 0 -127.96 123.86 0 ^ 833.1 0 0 151.83 ^ 0 158.7 h
f
1390.4 15526 956.6 0 0 153.82 -496.44 0 P
-136.88 0 -226.31 34.64 -279.25 107.6 c
-34.67 47.43 -45.62 93.02 -47.52 198.85 c
-155.32 0 p
-3.65 -25.59 -5.5 -38.36 -5.5 -58.44 c
0 -98.56 58.45 -173.39 200.84 -260.99 c
-173.43 0 h
f
1919.95 16947 m
-146.08 0 -233.73 -11.04 -304.94 -38.44 c
-157.04 -62.1 -252.02 -208.22 -252.02 -387.21 c
0 -266.66 204.52 -438.36 518.52 -438.36 c
314 0 507.51 166.21 507.51 434.7 c
0 219.18 -124.2 370.78 -332.42 409.22 c
0 -153.43 p
125.91 -42.01 191.58 -127.85 191.58 -250.23 c
0 -96.8 -43.76 -179 -123.99 -230.14 c
-54.7 -36.53 -109.4 -49.32 -204.24 -51.14 c
h
1796.09 16245.6 m
-177.17 12.79 -292.27 120.55 -292.27 273.97 c
0 149.77 124.23 264.84 281.3 264.84 c
3.65 0 7.31 0 10.96 -1.83 c
h
f
2745.06 17934 -1355.02 0 0 -134.84 127.74 0 P
-100.14 -71.37 -154.8 -179.19 -154.8 -305.28 c
0 -252.17 206.34 -416.64 523.99 -416.64 c
310.35 0 502.03 157.04 502.03 409.03 c
0 133.3 -47.49 224.6 -151.6 295.91 c
507.65 0 h
1505.82 17515.5 m
0 162.56 145.94 266.67 375.68 266.67 c
218.8 0 364.67 -105.94 364.67 -266.67 c
0 -168.04 -147.69 -279.45 -370.14 -279.45 c
-220.62 0 -370.21 111.41 -370.21 279.45 c
h
f
2347.02 18930 -956.98 0 0 -151.82 542.76 0 P
195.48 0 323.36 -102.12 323.36 -260.64 c
0 -120.25 -73.07 -196.77 -188.17 -196.77 c
-677.95 0 0 -151.83 737.85 0 p
158.87 0 261.12 118.63 261.12 304.79 c
0 140.54 -49.3 229.97 -175.3 319.44 c
133.3 0 h
f
1919.95 20007 m
-146.08 0 -233.73 -11.04 -304.94 -38.44 c
-157.04 -62.1 -252.02 -208.22 -252.02 -387.21 c
0 -266.66 204.52 -438.36 518.52 -438.36 c
314 0 507.51 166.21 507.51 434.7 c
0 219.18 -124.2 370.78 -332.42 409.22 c
0 -153.43 p
125.91 -42.01 191.58 -127.85 191.58 -250.23 c
0 -96.8 -43.76 -179 -123.99 -230.14 c
-54.7 -36.53 -109.4 -49.32 -204.24 -51.14 c
h
1796.09 19305.6 m
-177.17 12.79 -292.27 120.55 -292.27 273.97 c
0 149.77 124.23 264.84 281.3 264.84 c
3.65 0 7.31 0 10.96 -1.83 c
h
f
1390.4 20218 956.6 0 0 153.82 -527.85 0 P
-195.43 0 -323.32 102.18 -323.32 259.1 c
0 120.43 73.09 197.12 188.16 197.12 c
663.01 0 0 151.83 -722.93 0 p
-158.82 0 -261.09 -118.75 -261.09 -303.23 c
0 -142.46 54.8 -233.79 188.06 -317.8 c
-160.65 0 h
f
1711.39 21970.3 m
-93.67 -7.36 -154.28 -27.44 -207.56 -63.95 c
-88.47 -65.73 -140.84 -180.73 -140.84 -314 c
0 -257.41 204.52 -425.36 522.17 -425.36 c
308.52 0 503.86 164.3 503.86 423.54 c
0 228.2 -136.98 372.42 -370.77 390.73 c
0 -153.42 p
153.3 -25.55 229.94 -104.06 229.94 -233.67 c
0 -167.95 -136.82 -268.36 -363.02 -268.36 c
-238.98 0 -381.33 98.58 -381.33 264.7 c
0 127.8 74.66 208.12 207.56 226.38 c
h
f
1390.04 22728.7 745.09 -264.84 -745.09 -244.75 0 -162.55 960.51 323.29 151.56 -58.45 P
67.56 -23.75 93.12 -58.45 93.12 -122.37 c
0 -21.92 -3.6 -47.49 -10.79 -80.37 c
136.89 0 p
16.42 31.05 23.72 62.1 23.72 102.29 c
0 49.31 -16.43 102.28 -45.65 142.46 c
-34.7 47.49 -74.86 74.89 -151.56 104.11 c
-1157.81 425.57 h
f
19219.1 33693 0 -625.99 99.94 0 0 325.1 P
0 89.64 22.7 148.21 70.48 182.87 c
31.06 22.71 60.93 29.88 130.25 31.11 c
0 101.34 p
-16.72 2.39 -25.07 3.59 -38.19 3.59 c
-64.4 0 -113.29 -38.33 -170.54 -131.51 c
0 113.49 h
f
20149.6 33347 m
0 95.45 -7.2 152.73 -25.14 199.26 c
-40.66 102.61 -136.32 164.73 -253.51 164.73 c
-174.59 0 -287 -133.79 -287 -339.12 c
0 -205.33 108.74 -331.86 284.39 -331.86 c
143.39 0 242.57 81.09 267.79 217.06 c
-100.44 0 p
-27.48 -82.23 -83.66 -125.12 -163.74 -125.12 c
-63.35 0 -117.13 28.67 -150.6 81.23 c
-23.91 35.84 -32.27 71.68 -33.46 133.82 c
h
19690.2 33428 m
8.37 115.85 78.9 191.09 179.33 191.09 c
98.03 0 173.35 -81.21 173.35 -183.93 c
0 -2.39 0 -4.78 -1.2 -7.16 c
h
f
20719.6 33518.9 m
-1.23 122.89 -82.55 192.11 -227.24 192.11 c
-145.89 0 -240.36 -75.28 -240.36 -191.07 c
0 -97.89 50.26 -144.45 198.65 -180.26 c
93.34 -22.68 p
69.41 -16.71 97 -41.78 97 -87.14 c
0 -58.5 -58.62 -97.89 -145.96 -97.89 c
-53.84 0 -99.3 15.48 -124.42 41.7 c
-15.55 17.87 -22.73 35.74 -28.71 79.83 c
-105.28 0 p
4.78 -144.32 86.09 -213.47 249.92 -213.47 c
157.85 0 258.4 77.59 258.4 198.16 c
0 93.12 -52.73 144.45 -177.18 174.29 c
-95.74 22.68 p
-81.37 19.1 -116.07 45.36 -116.07 89.53 c
0 57.3 51.43 94.38 132.76 94.38 c
80.14 0 123.2 -34.59 125.59 -100.16 c
h
f
20975 33693 -99.94 0 0 -626 ^ H
20975 33939 -99.94 0 0 -125.98 ^ H
f
21658 33939 -98.94 0 0 -324.43 P
-41.95 63.12 -108.96 96.46 -192.73 96.46 c
-162.75 0 -269.25 -130.21 -269.25 -329.57 c
0 -211.3 103.93 -341.41 272.38 -341.41 c
86.01 0 145.75 32.12 199.6 109.46 c
0 -82.49 88.94 0 h
21383 33618.1 m
107.75 0 176.06 -95.65 176.06 -244.98 c
0 -144.55 -69.51 -240.12 -174.87 -240.12 c
-110.15 0 -183.18 96.76 -183.18 242.51 c
0 145.75 73.03 242.59 181.98 242.59 c
h
f
22302 33067.5 0 625.53 -98.94 0 0 -354.69 P
0 -127.76 -67.02 -211.34 -171.02 -211.34 c
-78.91 0 -129.12 47.76 -129.12 122.98 c
0 443.05 -98.94 0 0 -482.31 p
0 -103.83 77.55 -170.66 199.26 -170.66 c
91.88 0 150.34 32.22 208.81 114.57 c
0 -87.13 h
f
23025.6 33125.6 m
-10.82 -1.61 -15.62 -1.61 -21.61 -1.61 c
-34.79 0 -53.99 17.89 -53.99 48.91 c
0 367.41 p
0 110.94 -81.3 170.72 -235.41 170.72 c
-90.8 0 -166.06 -26.27 -207.87 -72.81 c
-28.68 -32.21 -40.62 -68.01 -43.01 -130.05 c
100.43 0 p
8.37 76.33 53.8 110.92 147.05 110.92 c
89.66 0 139.88 -33.49 139.88 -93.18 c
0 -26.26 p
0 -41.79 -25.16 -59.69 -104.09 -69.24 c
-141.11 -17.91 -162.63 -22.68 -200.9 -38.2 c
-72.95 -29.85 -110.01 -85.95 -110.01 -167.13 c
0 -113.41 78.92 -185.03 205.68 -185.03 c
78.92 0 142.3 27.33 212.86 91.53 c
7.18 -63.01 38.27 -91.53 102.84 -91.53 c
20.33 0 35.88 2.37 68.17 10.69 c
h
22851.1 33264.3 m
0 -33.44 -9.64 -53.75 -39.55 -81.21 c
-40.67 -37.02 -89.71 -56.13 -148.32 -56.13 c
-77.75 0 -123.2 37.02 -123.2 100.32 c
0 65.69 44.25 99.13 150.71 114.66 c
105.26 14.33 126.79 19.11 160.36 34.68 c
h
f
23128.1 33067 99.9414 871.98 re
f
23839.6 33518.9 m
-1.23 122.89 -82.55 192.11 -227.24 192.11 c
-145.89 0 -240.36 -75.28 -240.36 -191.07 c
0 -97.89 50.26 -144.45 198.65 -180.26 c
93.34 -22.68 p
69.41 -16.71 97 -41.78 97 -87.14 c
0 -58.5 -58.62 -97.89 -145.96 -97.89 c
-53.84 0 -99.3 15.48 -124.42 41.7 c
-15.55 17.87 -22.73 35.74 -28.71 79.83 c
-105.28 0 p
4.78 -144.32 86.09 -213.47 249.92 -213.47 c
157.85 0 258.4 77.59 258.4 198.16 c
0 93.12 -52.73 144.45 -177.18 174.29 c
-95.74 22.68 p
-81.37 19.1 -116.07 45.36 -116.07 89.53 c
0 57.3 51.43 94.38 132.76 94.38 c
80.14 0 123.2 -34.59 125.59 -100.16 c
h
f
24895.6 33125.6 m
-10.82 -1.61 -15.62 -1.61 -21.61 -1.61 c
-34.79 0 -53.99 17.89 -53.99 48.91 c
0 367.41 p
0 110.94 -81.3 170.72 -235.41 170.72 c
-90.8 0 -166.06 -26.27 -207.87 -72.81 c
-28.68 -32.21 -40.62 -68.01 -43.01 -130.05 c
100.43 0 p
8.37 76.33 53.8 110.92 147.05 110.92 c
89.66 0 139.88 -33.49 139.88 -93.18 c
0 -26.26 p
0 -41.79 -25.16 -59.69 -104.09 -69.24 c
-141.11 -17.91 -162.63 -22.68 -200.9 -38.2 c
-72.95 -29.85 -110.01 -85.95 -110.01 -167.13 c
0 -113.41 78.92 -185.03 205.68 -185.03 c
78.92 0 142.3 27.33 212.86 91.53 c
7.18 -63.01 38.27 -91.53 102.84 -91.53 c
20.33 0 35.88 2.37 68.17 10.69 c
h
24721.1 33264.3 m
0 -33.44 -9.64 -53.75 -39.55 -81.21 c
-40.67 -37.02 -89.71 -56.13 -148.32 -56.13 c
-77.75 0 -123.2 37.02 -123.2 100.32 c
0 65.69 44.25 99.13 150.71 114.66 c
105.26 14.33 126.79 19.11 160.36 34.68 c
h
f
25219.8 33693 -102.89 0 0 172.6 -98.94 0 ^ -85 0 0 -80.95 ^ 
0 -472.92 P
0 -63.29 42.98 -99.11 120.6 -99.11 c
23.88 0 47.76 2.38 81.23 8.32 c
0 83.21 p
-13.18 -3.44 -28.73 -4.59 -47.87 -4.59 c
-43.05 0 -55.02 11.95 -55.02 56.15 c
0 428.93 102.89 0 h
f
25977 33270 0 -202.97 104.94 0 ^ 125.68 0 0 94.94 ^ 0 550.09 
-77.75 0 -384.77 -533.74 0 -111.29 H
25977 33364.9 -265.52 0 265.52 370.38 H
f
26350.1 33067 123.922 123.922 re
f
27197.7 33915 -566.64 0 0 -103.93 457.77 0 P
-202 -288.35 -284.47 -465.37 -347.81 -744.06 c
112.35 0 p
46.61 271.45 152.99 504.63 344.34 759.34 c
h
f
28168 33939 -98.94 0 0 -324.43 P
-41.95 63.12 -108.96 96.46 -192.73 96.46 c
-162.75 0 -269.25 -130.21 -269.25 -329.57 c
0 -211.3 103.93 -341.41 272.38 -341.41 c
86.01 0 145.75 32.12 199.6 109.46 c
0 -82.49 88.94 0 h
27893 33618.1 m
107.75 0 176.06 -95.65 176.06 -244.98 c
0 -144.55 -69.51 -240.12 -174.87 -240.12 c
-110.15 0 -183.18 96.76 -183.18 242.51 c
0 145.75 73.03 242.59 181.98 242.59 c
h
f
28875.6 33125.6 m
-10.82 -1.61 -15.62 -1.61 -21.61 -1.61 c
-34.79 0 -53.99 17.89 -53.99 48.91 c
0 367.41 p
0 110.94 -81.3 170.72 -235.41 170.72 c
-90.8 0 -166.06 -26.27 -207.87 -72.81 c
-28.68 -32.21 -40.62 -68.01 -43.01 -130.05 c
100.43 0 p
8.37 76.33 53.8 110.92 147.05 110.92 c
89.66 0 139.88 -33.49 139.88 -93.18 c
0 -26.26 p
0 -41.79 -25.16 -59.69 -104.09 -69.24 c
-141.11 -17.91 -162.63 -22.68 -200.9 -38.2 c
-72.95 -29.85 -110.01 -85.95 -110.01 -167.13 c
0 -113.41 78.92 -185.03 205.68 -185.03 c
78.92 0 142.3 27.33 212.86 91.53 c
7.18 -63.01 38.27 -91.53 102.84 -91.53 c
20.33 0 35.88 2.37 68.17 10.69 c
h
28701.1 33264.3 m
0 -33.44 -9.64 -53.75 -39.55 -81.21 c
-40.67 -37.02 -89.71 -56.13 -148.32 -56.13 c
-77.75 0 -123.2 37.02 -123.2 100.32 c
0 65.69 44.25 99.13 150.71 114.66 c
105.26 14.33 126.79 19.11 160.36 34.68 c
h
f
29319.9 33693 -173.35 -487.32 -160.2 487.32 -106.4 0 211.61 -628.83 -38.25 -99.21 P
-15.54 -44.22 -38.26 -60.95 -80.1 -60.95 c
-14.34 0 -31.08 2.52 -52.6 7.57 c
0 -89.93 p
20.32 -10.79 40.65 -15.58 66.95 -15.58 c
32.28 0 66.95 10.75 93.25 29.88 c
31.08 22.71 49.02 49 68.14 99.2 c
278.55 757.84 h
f
29979.6 33518.9 m
-1.23 122.89 -82.55 192.11 -227.24 192.11 c
-145.89 0 -240.36 -75.28 -240.36 -191.07 c
0 -97.89 50.26 -144.45 198.65 -180.26 c
93.34 -22.68 p
69.41 -16.71 97 -41.78 97 -87.14 c
0 -58.5 -58.62 -97.89 -145.96 -97.89 c
-53.84 0 -99.3 15.48 -124.42 41.7 c
-15.55 17.87 -22.73 35.74 -28.71 79.83 c
-105.28 0 p
4.78 -144.32 86.09 -213.47 249.92 -213.47 c
157.85 0 258.4 77.59 258.4 198.16 c
0 93.12 -52.73 144.45 -177.18 174.29 c
-95.74 22.68 p
-81.37 19.1 -116.07 45.36 -116.07 89.53 c
0 57.3 51.43 94.38 132.76 94.38 c
80.14 0 123.2 -34.59 125.59 -100.16 c
h
f
0.996264 i
38993 31518 -83.02 0 0 -269.74 P
-34.87 52.8 -90.58 80.7 -160.22 80.7 c
-135.29 0 -223.83 -108.65 -223.83 -275.03 c
0 -176.34 86.57 -284.93 226.87 -284.93 c
71.64 0 121.4 26.91 166.18 91.72 c
0 -68.74 74.01 0 h
38764 31251 m
89.4 0 146.04 -79.63 146.04 -203.98 c
0 -120.37 -57.64 -199.95 -145.05 -199.95 c
-91.39 0 -151.98 80.58 -151.98 201.94 c
0 121.37 60.59 202 150.99 202 c
h
f
39321 31329 m
-146.38 0 -235 -104.67 -235 -280.01 c
0 -175.34 87.63 -279.95 236 -279.95 c
146.38 0 236.04 104.61 236.04 275.96 c
0 180.32 -86.68 284 -237.04 284 c
h
39322 31252 m
93.38 0 149.02 -76.66 149.02 -205.98 c
0 -122.36 -57.63 -199.95 -149.02 -199.95 c
-92.38 0 -149 76.6 -149 202.94 c
0 125.35 56.62 203 149 203 c
h
f
40080 30791.9 0 522.04 -83.01 0 0 -295.74 P
0 -106.52 -55.57 -176.21 -141.86 -176.21 c
-65.46 0 -107.12 39.82 -107.12 102.54 c
0 369.41 -83.01 0 0 -402.49 p
0 -86.68 64.61 -142.46 166.01 -142.46 c
76.54 0 125.25 26.9 173.98 95.64 c
0 -72.73 h
f
40204 31518 0 -726.03 75.01 0 0 66.75 P
39.79 -60.82 92.52 -89.73 165.14 -89.73 c
137.29 0 226.85 112.58 226.85 285.93 c
0 169.36 -85.62 274.03 -222.87 274.03 c
-71.61 0 -122.34 -26.9 -161.12 -85.68 c
0 274.72 h
40432 31251 m
92.36 0 151.98 -80.62 151.98 -204.98 c
0 -118.38 -61.61 -198.96 -151.98 -198.96 c
-87.39 0 -144.99 79.59 -144.99 201.94 c
0 122.36 57.6 202 144.99 202 c
h
f
40748 30792 84.0117 726.027 re
f
41411 31025 m
0 79.72 -6.05 127.55 -20.98 166.42 c
-33.86 85.7 -113.52 137.58 -211.11 137.58 c
-145.38 0 -238.98 -111.64 -238.98 -283 c
0 -171.36 90.64 -276.96 237.05 -276.96 c
119.52 0 202.19 67.76 223.13 181.38 c
-83.62 0 p
-22.88 -68.59 -69.63 -104.37 -136.29 -104.37 c
-52.72 0 -97.49 23.86 -125.35 67.59 c
-19.89 29.82 -26.86 59.65 -27.85 111.36 c
h
41028.5 31093 m
6.97 96.38 65.75 158.98 149.44 158.98 c
81.7 0 144.46 -67.57 144.46 -153.02 c
0 -1.98 0 -3.97 -1 -5.96 c
h
f
38570 29892 0 -522.04 84.01 0 0 327.53 P
0 75.66 54.48 136.45 121.85 136.45 c
61.42 0 96.11 -37.89 96.11 -104.59 c
0 -359.39 84.01 0 0 327.53 p
0 75.66 54.75 136.45 122.45 136.45 c
60.73 0 96.59 -38.89 96.59 -104.59 c
0 -359.39 84.01 0 0 391.53 p
0 93.65 -53.81 145.45 -151.32 145.45 c
-69.66 0 -111.45 -20.92 -160.21 -79.7 c
-30.84 55.79 -72.64 79.7 -140.3 79.7 c
-69.65 0 -115.43 -25.9 -160.2 -88.66 c
0 73.72 h
f
39800 29369.9 0 522.04 -83.01 0 0 -295.74 P
0 -106.52 -55.57 -176.21 -141.86 -176.21 c
-65.46 0 -107.12 39.82 -107.12 102.54 c
0 369.41 -83.01 0 0 -402.49 p
0 -86.68 64.61 -142.46 166.01 -142.46 c
76.54 0 125.25 26.9 173.98 95.64 c
0 -72.73 h
f
39938 29370 84.0117 726.027 re
f
40343 29892 -84.98 0 0 143.52 -83.02 0 ^ -71.04 0 0 -68.01 ^ 
0 -394.32 P
0 -52.77 35.78 -82.63 100.38 -82.63 c
19.88 0 39.75 1.99 67.62 6.98 c
0 69.8 p
-10.88 -2.82 -23.72 -3.76 -39.53 -3.76 c
-35.57 0 -45.45 9.95 -45.45 46.75 c
0 357.18 84.98 0 h
f
40520 29892 -84.01 0 0 -521.98 ^ H
40520 30096 -84.01 0 0 -104.36 ^ H
f
40659 29892 0 -522.04 84.01 0 0 270.72 P
0 74.64 18.86 123.42 58.56 152.28 c
25.81 18.91 50.62 24.88 108.23 25.98 c
0 85.01 p
-13.91 2 -20.86 3 -31.79 3 c
-53.62 0 -94.34 -31.88 -142.01 -109.59 c
0 94.64 h
f
41443 29418.8 m
-9 -1.78 -13 -1.78 -18 -1.78 c
-29.01 0 -45.01 14.94 -45.01 40.82 c
0 306.7 p
0 92.61 -67.75 142.43 -196.17 142.43 c
-75.66 0 -138.38 -21.92 -173.22 -60.77 c
-23.89 -26.9 -33.85 -56.79 -35.84 -108.59 c
83.52 0 p
6.96 63.54 44.74 92.35 122.3 92.35 c
74.58 0 116.39 -27.99 116.39 -77.77 c
0 -21.9 p
0 -34.84 -20.94 -49.77 -86.55 -57.74 c
-117.3 -14.93 -135.2 -18.91 -167 -31.86 c
-60.64 -24.89 -91.45 -71.68 -91.45 -139.37 c
0 -94.57 65.72 -154.3 171.27 -154.3 c
65.72 0 118.5 22.93 177.25 76.77 c
5.97 -52.85 31.86 -76.77 85.64 -76.77 c
16.93 0 29.87 1.99 56.88 8.97 c
h
41297 29534.5 m
0 -27.86 -7.98 -44.78 -32.78 -67.66 c
-33.73 -30.84 -74.41 -46.77 -123.02 -46.77 c
-64.49 0 -102.19 30.84 -102.19 83.58 c
0 54.73 36.71 82.59 125.01 95.52 c
87.3 11.95 105.16 15.92 132.98 28.89 c
h
f
41713 29892 -84.98 0 0 143.52 -83.02 0 ^ -71.04 0 0 -68.01 ^ 
0 -394.32 P
0 -52.77 35.78 -82.63 100.38 -82.63 c
19.88 0 39.75 1.99 67.62 6.98 c
0 69.8 p
-10.88 -2.82 -23.72 -3.76 -39.53 -3.76 c
-35.57 0 -45.45 9.95 -45.45 46.75 c
0 357.18 84.98 0 h
f
42251 29603 m
0 79.72 -6.05 127.55 -20.98 166.42 c
-33.86 85.7 -113.52 137.58 -211.11 137.58 c
-145.38 0 -238.98 -111.64 -238.98 -283 c
0 -171.36 90.64 -276.96 237.05 -276.96 c
119.52 0 202.19 67.76 223.13 181.38 c
-83.62 0 p
-22.88 -68.59 -69.63 -104.37 -136.29 -104.37 c
-52.72 0 -97.49 23.86 -125.35 67.59 c
-19.89 29.82 -26.86 59.65 -27.85 111.36 c
h
41868.5 29671 m
6.97 96.38 65.75 158.98 149.44 158.98 c
81.7 0 144.46 -67.57 144.46 -153.02 c
0 -1.98 0 -3.97 -1 -5.96 c
h
f
38936.4 28330.6 m
-1 102.62 -68.71 160.4 -189.2 160.4 c
-121.48 0 -200.15 -62.84 -200.15 -159.4 c
0 -81.63 41.73 -120.46 164.93 -150.32 c
77.5 -18.92 p
57.63 -13.94 80.52 -34.84 80.52 -72.67 c
0 -48.78 -48.73 -81.63 -121.32 -81.63 c
-44.75 0 -82.53 12.92 -103.41 34.79 c
-12.93 14.9 -18.89 29.81 -23.87 66.6 c
-87.5 0 p
3.98 -120.6 71.66 -178.39 208.02 -178.39 c
131.38 0 215.09 64.71 215.09 165.25 c
0 77.66 -43.75 120.46 -147.09 145.35 c
-79.48 18.91 p
-67.56 15.93 -96.38 37.83 -96.38 74.66 c
0 47.79 42.75 78.77 110.37 78.77 c
66.62 0 102.42 -28.79 104.41 -83.39 c
h
f
39150 28476 -84.01 0 0 -521.98 ^ H
39150 28680 -84.01 0 0 -104.36 ^ H
f
39290 28476 0 -522.04 84.01 0 0 287.71 P
0 106.52 55.55 176.27 140.85 176.27 c
65.46 0 107.13 -39.88 107.13 -102.6 c
0 -361.37 83.01 0 0 394.52 p
0 86.68 -64.62 142.46 -165.02 142.46 c
-77.54 0 -127.24 -29.89 -172.97 -102.61 c
0 87.67 h
f
40180 28476 0 -75.66 P
-41.79 61.77 -92.53 90.66 -159.18 90.66 c
-132.31 0 -221.84 -115.63 -221.84 -284.99 c
0 -85.68 22.87 -155.42 65.64 -205.23 c
38.79 -43.84 94.48 -69.74 149.18 -69.74 c
65.64 0 111.39 27.91 158.21 93.71 c
0 -26.86 p
0 -70.58 -8.98 -113.32 -29.87 -142.16 c
-21.89 -30.82 -64.66 -48.71 -115.4 -48.71 c
-37.8 0 -71.63 9.91 -94.51 27.74 c
-18.9 14.86 -26.86 28.74 -31.83 59.47 c
-84.56 0 p
8.94 -98.52 85.45 -157.22 207.66 -157.22 c
77.5 0 144.07 24.89 177.85 66.71 c
39.74 47.8 54.66 113.52 54.66 236 c
0 436.26 h
40030 28414 m
89.38 0 142.03 -75.66 142.03 -205.98 c
0 -124.35 -53.64 -199.95 -141.04 -199.95 c
-90.37 0 -144.99 76.6 -144.99 202.94 c
0 125.35 55.61 203 144 203 c
h
f
40388 27954 84.0117 726.027 re
f
41051 28187 m
0 79.72 -6.05 127.55 -20.98 166.42 c
-33.86 85.7 -113.52 137.58 -211.11 137.58 c
-145.38 0 -238.98 -111.64 -238.98 -283 c
0 -171.36 90.64 -276.96 237.05 -276.96 c
119.52 0 202.19 67.76 223.13 181.38 c
-83.62 0 p
-22.88 -68.59 -69.63 -104.37 -136.29 -104.37 c
-52.72 0 -97.49 23.86 -125.35 67.59 c
-19.89 29.82 -26.86 59.65 -27.85 111.36 c
h
40668.5 28255 m
6.97 96.38 65.75 158.98 149.44 158.98 c
81.7 0 144.46 -67.57 144.46 -153.02 c
0 -1.98 0 -3.97 -1 -5.96 c
h
f
cleartomark end end pagesave restore
 showpage
%%PageTrailer
%%Trailer
%%Pages: 1
%%EOF
