%!PS-Adobe-2.0 EPSF-2.0
%%Title: reducedB8.eps
%%Creator: gnuplot 4.4 patchlevel 4
%%CreationDate: Tue Jan 29 10:36:08 2013
%%DocumentFonts: (atend)
%%BoundingBox: 50 50 410 352
%%EndComments
%%BeginProlog
/gnudict 256 dict def
gnudict begin
%
% The following true/false flags may be edited by hand if desired.
% The unit line width and grayscale image gamma correction may also be changed.
%
/Color true def
/Blacktext false def
/Solid true def
/Dashlength 1 def
/Landscape false def
/Level1 false def
/Rounded false def
/ClipToBoundingBox false def
/TransparentPatterns false def
/gnulinewidth 5.000 def
/userlinewidth gnulinewidth def
/Gamma 1.0 def
%
/vshift -80 def
/dl1 {
  10.0 Dashlength mul mul
  Rounded { currentlinewidth 0.75 mul sub dup 0 le { pop 0.01 } if } if
} def
/dl2 {
  10.0 Dashlength mul mul
  Rounded { currentlinewidth 0.75 mul add } if
} def
/hpt_ 31.5 def
/vpt_ 31.5 def
/hpt hpt_ def
/vpt vpt_ def
Level1 {} {
/SDict 10 dict def
systemdict /pdfmark known not {
  userdict /pdfmark systemdict /cleartomark get put
} if
SDict begin [
  /Title (reducedB8.eps)
  /Subject (gnuplot plot)
  /Creator (gnuplot 4.4 patchlevel 4)
  /Author (bmalama)
%  /Producer (gnuplot)
%  /Keywords ()
  /CreationDate (Tue Jan 29 10:36:08 2013)
  /DOCINFO pdfmark
end
} ifelse
/doclip {
  ClipToBoundingBox {
    newpath 50 50 moveto 410 50 lineto 410 352 lineto 50 352 lineto closepath
    clip
  } if
} def
%
% Gnuplot Prolog Version 4.4 (August 2010)
%
%/SuppressPDFMark true def
%
/M {moveto} bind def
/L {lineto} bind def
/R {rmoveto} bind def
/V {rlineto} bind def
/N {newpath moveto} bind def
/Z {closepath} bind def
/C {setrgbcolor} bind def
/f {rlineto fill} bind def
/g {setgray} bind def
/Gshow {show} def   % May be redefined later in the file to support UTF-8
/vpt2 vpt 2 mul def
/hpt2 hpt 2 mul def
/Lshow {currentpoint stroke M 0 vshift R 
	Blacktext {gsave 0 setgray show grestore} {show} ifelse} def
/Rshow {currentpoint stroke M dup stringwidth pop neg vshift R
	Blacktext {gsave 0 setgray show grestore} {show} ifelse} def
/Cshow {currentpoint stroke M dup stringwidth pop -2 div vshift R 
	Blacktext {gsave 0 setgray show grestore} {show} ifelse} def
/UP {dup vpt_ mul /vpt exch def hpt_ mul /hpt exch def
  /hpt2 hpt 2 mul def /vpt2 vpt 2 mul def} def
/DL {Color {setrgbcolor Solid {pop []} if 0 setdash}
 {pop pop pop 0 setgray Solid {pop []} if 0 setdash} ifelse} def
/BL {stroke userlinewidth 2 mul setlinewidth
	Rounded {1 setlinejoin 1 setlinecap} if} def
/AL {stroke userlinewidth 2 div setlinewidth
	Rounded {1 setlinejoin 1 setlinecap} if} def
/UL {dup gnulinewidth mul /userlinewidth exch def
	dup 1 lt {pop 1} if 10 mul /udl exch def} def
/PL {stroke userlinewidth setlinewidth
	Rounded {1 setlinejoin 1 setlinecap} if} def
3.8 setmiterlimit
% Default Line colors
/LCw {1 1 1} def
/LCb {0 0 0} def
/LCa {0 0 0} def
/LC0 {1 0 0} def
/LC1 {0 1 0} def
/LC2 {0 0 1} def
/LC3 {1 0 1} def
/LC4 {0 1 1} def
/LC5 {1 1 0} def
/LC6 {0 0 0} def
/LC7 {1 0.3 0} def
/LC8 {0.5 0.5 0.5} def
% Default Line Types
/LTw {PL [] 1 setgray} def
/LTb {BL [] LCb DL} def
/LTa {AL [1 udl mul 2 udl mul] 0 setdash LCa setrgbcolor} def
/LT0 {PL [] LC0 DL} def
/LT1 {PL [4 dl1 2 dl2] LC1 DL} def
/LT2 {PL [2 dl1 3 dl2] LC2 DL} def
/LT3 {PL [1 dl1 1.5 dl2] LC3 DL} def
/LT4 {PL [6 dl1 2 dl2 1 dl1 2 dl2] LC4 DL} def
/LT5 {PL [3 dl1 3 dl2 1 dl1 3 dl2] LC5 DL} def
/LT6 {PL [2 dl1 2 dl2 2 dl1 6 dl2] LC6 DL} def
/LT7 {PL [1 dl1 2 dl2 6 dl1 2 dl2 1 dl1 2 dl2] LC7 DL} def
/LT8 {PL [2 dl1 2 dl2 2 dl1 2 dl2 2 dl1 2 dl2 2 dl1 4 dl2] LC8 DL} def
/Pnt {stroke [] 0 setdash gsave 1 setlinecap M 0 0 V stroke grestore} def
/Dia {stroke [] 0 setdash 2 copy vpt add M
  hpt neg vpt neg V hpt vpt neg V
  hpt vpt V hpt neg vpt V closepath stroke
  Pnt} def
/Pls {stroke [] 0 setdash vpt sub M 0 vpt2 V
  currentpoint stroke M
  hpt neg vpt neg R hpt2 0 V stroke
 } def
/Box {stroke [] 0 setdash 2 copy exch hpt sub exch vpt add M
  0 vpt2 neg V hpt2 0 V 0 vpt2 V
  hpt2 neg 0 V closepath stroke
  Pnt} def
/Crs {stroke [] 0 setdash exch hpt sub exch vpt add M
  hpt2 vpt2 neg V currentpoint stroke M
  hpt2 neg 0 R hpt2 vpt2 V stroke} def
/TriU {stroke [] 0 setdash 2 copy vpt 1.12 mul add M
  hpt neg vpt -1.62 mul V
  hpt 2 mul 0 V
  hpt neg vpt 1.62 mul V closepath stroke
  Pnt} def
/Star {2 copy Pls Crs} def
/BoxF {stroke [] 0 setdash exch hpt sub exch vpt add M
  0 vpt2 neg V hpt2 0 V 0 vpt2 V
  hpt2 neg 0 V closepath fill} def
/TriUF {stroke [] 0 setdash vpt 1.12 mul add M
  hpt neg vpt -1.62 mul V
  hpt 2 mul 0 V
  hpt neg vpt 1.62 mul V closepath fill} def
/TriD {stroke [] 0 setdash 2 copy vpt 1.12 mul sub M
  hpt neg vpt 1.62 mul V
  hpt 2 mul 0 V
  hpt neg vpt -1.62 mul V closepath stroke
  Pnt} def
/TriDF {stroke [] 0 setdash vpt 1.12 mul sub M
  hpt neg vpt 1.62 mul V
  hpt 2 mul 0 V
  hpt neg vpt -1.62 mul V closepath fill} def
/DiaF {stroke [] 0 setdash vpt add M
  hpt neg vpt neg V hpt vpt neg V
  hpt vpt V hpt neg vpt V closepath fill} def
/Pent {stroke [] 0 setdash 2 copy gsave
  translate 0 hpt M 4 {72 rotate 0 hpt L} repeat
  closepath stroke grestore Pnt} def
/PentF {stroke [] 0 setdash gsave
  translate 0 hpt M 4 {72 rotate 0 hpt L} repeat
  closepath fill grestore} def
/Circle {stroke [] 0 setdash 2 copy
  hpt 0 360 arc stroke Pnt} def
/CircleF {stroke [] 0 setdash hpt 0 360 arc fill} def
/C0 {BL [] 0 setdash 2 copy moveto vpt 90 450 arc} bind def
/C1 {BL [] 0 setdash 2 copy moveto
	2 copy vpt 0 90 arc closepath fill
	vpt 0 360 arc closepath} bind def
/C2 {BL [] 0 setdash 2 copy moveto
	2 copy vpt 90 180 arc closepath fill
	vpt 0 360 arc closepath} bind def
/C3 {BL [] 0 setdash 2 copy moveto
	2 copy vpt 0 180 arc closepath fill
	vpt 0 360 arc closepath} bind def
/C4 {BL [] 0 setdash 2 copy moveto
	2 copy vpt 180 270 arc closepath fill
	vpt 0 360 arc closepath} bind def
/C5 {BL [] 0 setdash 2 copy moveto
	2 copy vpt 0 90 arc
	2 copy moveto
	2 copy vpt 180 270 arc closepath fill
	vpt 0 360 arc} bind def
/C6 {BL [] 0 setdash 2 copy moveto
	2 copy vpt 90 270 arc closepath fill
	vpt 0 360 arc closepath} bind def
/C7 {BL [] 0 setdash 2 copy moveto
	2 copy vpt 0 270 arc closepath fill
	vpt 0 360 arc closepath} bind def
/C8 {BL [] 0 setdash 2 copy moveto
	2 copy vpt 270 360 arc closepath fill
	vpt 0 360 arc closepath} bind def
/C9 {BL [] 0 setdash 2 copy moveto
	2 copy vpt 270 450 arc closepath fill
	vpt 0 360 arc closepath} bind def
/C10 {BL [] 0 setdash 2 copy 2 copy moveto vpt 270 360 arc closepath fill
	2 copy moveto
	2 copy vpt 90 180 arc closepath fill
	vpt 0 360 arc closepath} bind def
/C11 {BL [] 0 setdash 2 copy moveto
	2 copy vpt 0 180 arc closepath fill
	2 copy moveto
	2 copy vpt 270 360 arc closepath fill
	vpt 0 360 arc closepath} bind def
/C12 {BL [] 0 setdash 2 copy moveto
	2 copy vpt 180 360 arc closepath fill
	vpt 0 360 arc closepath} bind def
/C13 {BL [] 0 setdash 2 copy moveto
	2 copy vpt 0 90 arc closepath fill
	2 copy moveto
	2 copy vpt 180 360 arc closepath fill
	vpt 0 360 arc closepath} bind def
/C14 {BL [] 0 setdash 2 copy moveto
	2 copy vpt 90 360 arc closepath fill
	vpt 0 360 arc} bind def
/C15 {BL [] 0 setdash 2 copy vpt 0 360 arc closepath fill
	vpt 0 360 arc closepath} bind def
/Rec {newpath 4 2 roll moveto 1 index 0 rlineto 0 exch rlineto
	neg 0 rlineto closepath} bind def
/Square {dup Rec} bind def
/Bsquare {vpt sub exch vpt sub exch vpt2 Square} bind def
/S0 {BL [] 0 setdash 2 copy moveto 0 vpt rlineto BL Bsquare} bind def
/S1 {BL [] 0 setdash 2 copy vpt Square fill Bsquare} bind def
/S2 {BL [] 0 setdash 2 copy exch vpt sub exch vpt Square fill Bsquare} bind def
/S3 {BL [] 0 setdash 2 copy exch vpt sub exch vpt2 vpt Rec fill Bsquare} bind def
/S4 {BL [] 0 setdash 2 copy exch vpt sub exch vpt sub vpt Square fill Bsquare} bind def
/S5 {BL [] 0 setdash 2 copy 2 copy vpt Square fill
	exch vpt sub exch vpt sub vpt Square fill Bsquare} bind def
/S6 {BL [] 0 setdash 2 copy exch vpt sub exch vpt sub vpt vpt2 Rec fill Bsquare} bind def
/S7 {BL [] 0 setdash 2 copy exch vpt sub exch vpt sub vpt vpt2 Rec fill
	2 copy vpt Square fill Bsquare} bind def
/S8 {BL [] 0 setdash 2 copy vpt sub vpt Square fill Bsquare} bind def
/S9 {BL [] 0 setdash 2 copy vpt sub vpt vpt2 Rec fill Bsquare} bind def
/S10 {BL [] 0 setdash 2 copy vpt sub vpt Square fill 2 copy exch vpt sub exch vpt Square fill
	Bsquare} bind def
/S11 {BL [] 0 setdash 2 copy vpt sub vpt Square fill 2 copy exch vpt sub exch vpt2 vpt Rec fill
	Bsquare} bind def
/S12 {BL [] 0 setdash 2 copy exch vpt sub exch vpt sub vpt2 vpt Rec fill Bsquare} bind def
/S13 {BL [] 0 setdash 2 copy exch vpt sub exch vpt sub vpt2 vpt Rec fill
	2 copy vpt Square fill Bsquare} bind def
/S14 {BL [] 0 setdash 2 copy exch vpt sub exch vpt sub vpt2 vpt Rec fill
	2 copy exch vpt sub exch vpt Square fill Bsquare} bind def
/S15 {BL [] 0 setdash 2 copy Bsquare fill Bsquare} bind def
/D0 {gsave translate 45 rotate 0 0 S0 stroke grestore} bind def
/D1 {gsave translate 45 rotate 0 0 S1 stroke grestore} bind def
/D2 {gsave translate 45 rotate 0 0 S2 stroke grestore} bind def
/D3 {gsave translate 45 rotate 0 0 S3 stroke grestore} bind def
/D4 {gsave translate 45 rotate 0 0 S4 stroke grestore} bind def
/D5 {gsave translate 45 rotate 0 0 S5 stroke grestore} bind def
/D6 {gsave translate 45 rotate 0 0 S6 stroke grestore} bind def
/D7 {gsave translate 45 rotate 0 0 S7 stroke grestore} bind def
/D8 {gsave translate 45 rotate 0 0 S8 stroke grestore} bind def
/D9 {gsave translate 45 rotate 0 0 S9 stroke grestore} bind def
/D10 {gsave translate 45 rotate 0 0 S10 stroke grestore} bind def
/D11 {gsave translate 45 rotate 0 0 S11 stroke grestore} bind def
/D12 {gsave translate 45 rotate 0 0 S12 stroke grestore} bind def
/D13 {gsave translate 45 rotate 0 0 S13 stroke grestore} bind def
/D14 {gsave translate 45 rotate 0 0 S14 stroke grestore} bind def
/D15 {gsave translate 45 rotate 0 0 S15 stroke grestore} bind def
/DiaE {stroke [] 0 setdash vpt add M
  hpt neg vpt neg V hpt vpt neg V
  hpt vpt V hpt neg vpt V closepath stroke} def
/BoxE {stroke [] 0 setdash exch hpt sub exch vpt add M
  0 vpt2 neg V hpt2 0 V 0 vpt2 V
  hpt2 neg 0 V closepath stroke} def
/TriUE {stroke [] 0 setdash vpt 1.12 mul add M
  hpt neg vpt -1.62 mul V
  hpt 2 mul 0 V
  hpt neg vpt 1.62 mul V closepath stroke} def
/TriDE {stroke [] 0 setdash vpt 1.12 mul sub M
  hpt neg vpt 1.62 mul V
  hpt 2 mul 0 V
  hpt neg vpt -1.62 mul V closepath stroke} def
/PentE {stroke [] 0 setdash gsave
  translate 0 hpt M 4 {72 rotate 0 hpt L} repeat
  closepath stroke grestore} def
/CircE {stroke [] 0 setdash 
  hpt 0 360 arc stroke} def
/Opaque {gsave closepath 1 setgray fill grestore 0 setgray closepath} def
/DiaW {stroke [] 0 setdash vpt add M
  hpt neg vpt neg V hpt vpt neg V
  hpt vpt V hpt neg vpt V Opaque stroke} def
/BoxW {stroke [] 0 setdash exch hpt sub exch vpt add M
  0 vpt2 neg V hpt2 0 V 0 vpt2 V
  hpt2 neg 0 V Opaque stroke} def
/TriUW {stroke [] 0 setdash vpt 1.12 mul add M
  hpt neg vpt -1.62 mul V
  hpt 2 mul 0 V
  hpt neg vpt 1.62 mul V Opaque stroke} def
/TriDW {stroke [] 0 setdash vpt 1.12 mul sub M
  hpt neg vpt 1.62 mul V
  hpt 2 mul 0 V
  hpt neg vpt -1.62 mul V Opaque stroke} def
/PentW {stroke [] 0 setdash gsave
  translate 0 hpt M 4 {72 rotate 0 hpt L} repeat
  Opaque stroke grestore} def
/CircW {stroke [] 0 setdash 
  hpt 0 360 arc Opaque stroke} def
/BoxFill {gsave Rec 1 setgray fill grestore} def
/Density {
  /Fillden exch def
  currentrgbcolor
  /ColB exch def /ColG exch def /ColR exch def
  /ColR ColR Fillden mul Fillden sub 1 add def
  /ColG ColG Fillden mul Fillden sub 1 add def
  /ColB ColB Fillden mul Fillden sub 1 add def
  ColR ColG ColB setrgbcolor} def
/BoxColFill {gsave Rec PolyFill} def
/PolyFill {gsave Density fill grestore grestore} def
/h {rlineto rlineto rlineto gsave closepath fill grestore} bind def
%
% PostScript Level 1 Pattern Fill routine for rectangles
% Usage: x y w h s a XX PatternFill
%	x,y = lower left corner of box to be filled
%	w,h = width and height of box
%	  a = angle in degrees between lines and x-axis
%	 XX = 0/1 for no/yes cross-hatch
%
/PatternFill {gsave /PFa [ 9 2 roll ] def
  PFa 0 get PFa 2 get 2 div add PFa 1 get PFa 3 get 2 div add translate
  PFa 2 get -2 div PFa 3 get -2 div PFa 2 get PFa 3 get Rec
  gsave 1 setgray fill grestore clip
  currentlinewidth 0.5 mul setlinewidth
  /PFs PFa 2 get dup mul PFa 3 get dup mul add sqrt def
  0 0 M PFa 5 get rotate PFs -2 div dup translate
  0 1 PFs PFa 4 get div 1 add floor cvi
	{PFa 4 get mul 0 M 0 PFs V} for
  0 PFa 6 get ne {
	0 1 PFs PFa 4 get div 1 add floor cvi
	{PFa 4 get mul 0 2 1 roll M PFs 0 V} for
 } if
  stroke grestore} def
%
/languagelevel where
 {pop languagelevel} {1} ifelse
 2 lt
	{/InterpretLevel1 true def}
	{/InterpretLevel1 Level1 def}
 ifelse
%
% PostScript level 2 pattern fill definitions
%
/Level2PatternFill {
/Tile8x8 {/PaintType 2 /PatternType 1 /TilingType 1 /BBox [0 0 8 8] /XStep 8 /YStep 8}
	bind def
/KeepColor {currentrgbcolor [/Pattern /DeviceRGB] setcolorspace} bind def
<< Tile8x8
 /PaintProc {0.5 setlinewidth pop 0 0 M 8 8 L 0 8 M 8 0 L stroke} 
>> matrix makepattern
/Pat1 exch def
<< Tile8x8
 /PaintProc {0.5 setlinewidth pop 0 0 M 8 8 L 0 8 M 8 0 L stroke
	0 4 M 4 8 L 8 4 L 4 0 L 0 4 L stroke}
>> matrix makepattern
/Pat2 exch def
<< Tile8x8
 /PaintProc {0.5 setlinewidth pop 0 0 M 0 8 L
	8 8 L 8 0 L 0 0 L fill}
>> matrix makepattern
/Pat3 exch def
<< Tile8x8
 /PaintProc {0.5 setlinewidth pop -4 8 M 8 -4 L
	0 12 M 12 0 L stroke}
>> matrix makepattern
/Pat4 exch def
<< Tile8x8
 /PaintProc {0.5 setlinewidth pop -4 0 M 8 12 L
	0 -4 M 12 8 L stroke}
>> matrix makepattern
/Pat5 exch def
<< Tile8x8
 /PaintProc {0.5 setlinewidth pop -2 8 M 4 -4 L
	0 12 M 8 -4 L 4 12 M 10 0 L stroke}
>> matrix makepattern
/Pat6 exch def
<< Tile8x8
 /PaintProc {0.5 setlinewidth pop -2 0 M 4 12 L
	0 -4 M 8 12 L 4 -4 M 10 8 L stroke}
>> matrix makepattern
/Pat7 exch def
<< Tile8x8
 /PaintProc {0.5 setlinewidth pop 8 -2 M -4 4 L
	12 0 M -4 8 L 12 4 M 0 10 L stroke}
>> matrix makepattern
/Pat8 exch def
<< Tile8x8
 /PaintProc {0.5 setlinewidth pop 0 -2 M 12 4 L
	-4 0 M 12 8 L -4 4 M 8 10 L stroke}
>> matrix makepattern
/Pat9 exch def
/Pattern1 {PatternBgnd KeepColor Pat1 setpattern} bind def
/Pattern2 {PatternBgnd KeepColor Pat2 setpattern} bind def
/Pattern3 {PatternBgnd KeepColor Pat3 setpattern} bind def
/Pattern4 {PatternBgnd KeepColor Landscape {Pat5} {Pat4} ifelse setpattern} bind def
/Pattern5 {PatternBgnd KeepColor Landscape {Pat4} {Pat5} ifelse setpattern} bind def
/Pattern6 {PatternBgnd KeepColor Landscape {Pat9} {Pat6} ifelse setpattern} bind def
/Pattern7 {PatternBgnd KeepColor Landscape {Pat8} {Pat7} ifelse setpattern} bind def
} def
%
%
%End of PostScript Level 2 code
%
/PatternBgnd {
  TransparentPatterns {} {gsave 1 setgray fill grestore} ifelse
} def
%
% Substitute for Level 2 pattern fill codes with
% grayscale if Level 2 support is not selected.
%
/Level1PatternFill {
/Pattern1 {0.250 Density} bind def
/Pattern2 {0.500 Density} bind def
/Pattern3 {0.750 Density} bind def
/Pattern4 {0.125 Density} bind def
/Pattern5 {0.375 Density} bind def
/Pattern6 {0.625 Density} bind def
/Pattern7 {0.875 Density} bind def
} def
%
% Now test for support of Level 2 code
%
Level1 {Level1PatternFill} {Level2PatternFill} ifelse
%
/Symbol-Oblique /Symbol findfont [1 0 .167 1 0 0] makefont
dup length dict begin {1 index /FID eq {pop pop} {def} ifelse} forall
currentdict end definefont pop
/MFshow {
   { dup 5 get 3 ge
     { 5 get 3 eq {gsave} {grestore} ifelse }
     {dup dup 0 get findfont exch 1 get scalefont setfont
     [ currentpoint ] exch dup 2 get 0 exch R dup 5 get 2 ne {dup dup 6
     get exch 4 get {Gshow} {stringwidth pop 0 R} ifelse }if dup 5 get 0 eq
     {dup 3 get {2 get neg 0 exch R pop} {pop aload pop M} ifelse} {dup 5
     get 1 eq {dup 2 get exch dup 3 get exch 6 get stringwidth pop -2 div
     dup 0 R} {dup 6 get stringwidth pop -2 div 0 R 6 get
     show 2 index {aload pop M neg 3 -1 roll neg R pop pop} {pop pop pop
     pop aload pop M} ifelse }ifelse }ifelse }
     ifelse }
   forall} def
/Gswidth {dup type /stringtype eq {stringwidth} {pop (n) stringwidth} ifelse} def
/MFwidth {0 exch { dup 5 get 3 ge { 5 get 3 eq { 0 } { pop } ifelse }
 {dup 3 get{dup dup 0 get findfont exch 1 get scalefont setfont
     6 get Gswidth pop add} {pop} ifelse} ifelse} forall} def
/MLshow { currentpoint stroke M
  0 exch R
  Blacktext {gsave 0 setgray MFshow grestore} {MFshow} ifelse } bind def
/MRshow { currentpoint stroke M
  exch dup MFwidth neg 3 -1 roll R
  Blacktext {gsave 0 setgray MFshow grestore} {MFshow} ifelse } bind def
/MCshow { currentpoint stroke M
  exch dup MFwidth -2 div 3 -1 roll R
  Blacktext {gsave 0 setgray MFshow grestore} {MFshow} ifelse } bind def
/XYsave    { [( ) 1 2 true false 3 ()] } bind def
/XYrestore { [( ) 1 2 true false 4 ()] } bind def
end
%%EndProlog
gnudict begin
gsave
doclip
50 50 translate
0.050 0.050 scale
0 setgray
newpath
(Helvetica) findfont 240 scalefont setfont
1.000 UL
LTb
1032 768 M
63 0 V
5672 0 R
-63 0 V
stroke
888 768 M
[ [(Helvetica) 240.0 0.0 true true 0 (10)]
[(Helvetica) 192.0 120.0 true true 0 (-4)]
] -104.0 MRshow
1.000 UL
LTb
1032 1223 M
31 0 V
5704 0 R
-31 0 V
1032 1489 M
31 0 V
5704 0 R
-31 0 V
1032 1678 M
31 0 V
5704 0 R
-31 0 V
1032 1825 M
31 0 V
5704 0 R
-31 0 V
1032 1945 M
31 0 V
5704 0 R
-31 0 V
1032 2046 M
31 0 V
5704 0 R
-31 0 V
-5704 87 R
31 0 V
5704 0 R
-31 0 V
-5704 78 R
31 0 V
5704 0 R
-31 0 V
-5704 69 R
63 0 V
5672 0 R
-63 0 V
stroke
888 2280 M
[ [(Helvetica) 240.0 0.0 true true 0 (10)]
[(Helvetica) 192.0 120.0 true true 0 (-3)]
] -104.0 MRshow
1.000 UL
LTb
1032 2735 M
31 0 V
5704 0 R
-31 0 V
1032 3001 M
31 0 V
5704 0 R
-31 0 V
1032 3190 M
31 0 V
5704 0 R
-31 0 V
1032 3337 M
31 0 V
5704 0 R
-31 0 V
1032 3456 M
31 0 V
5704 0 R
-31 0 V
1032 3558 M
31 0 V
5704 0 R
-31 0 V
-5704 87 R
31 0 V
5704 0 R
-31 0 V
-5704 78 R
31 0 V
5704 0 R
-31 0 V
-5704 69 R
63 0 V
5672 0 R
-63 0 V
stroke
888 3792 M
[ [(Helvetica) 240.0 0.0 true true 0 (10)]
[(Helvetica) 192.0 120.0 true true 0 (-2)]
] -104.0 MRshow
1.000 UL
LTb
1032 4247 M
31 0 V
5704 0 R
-31 0 V
1032 4513 M
31 0 V
5704 0 R
-31 0 V
1032 4702 M
31 0 V
5704 0 R
-31 0 V
1032 4849 M
31 0 V
5704 0 R
-31 0 V
1032 4968 M
31 0 V
5704 0 R
-31 0 V
1032 5070 M
31 0 V
5704 0 R
-31 0 V
-5704 87 R
31 0 V
5704 0 R
-31 0 V
-5704 78 R
31 0 V
5704 0 R
-31 0 V
-5704 69 R
63 0 V
5672 0 R
-63 0 V
stroke
888 5304 M
[ [(Helvetica) 240.0 0.0 true true 0 (10)]
[(Helvetica) 192.0 120.0 true true 0 (-1)]
] -104.0 MRshow
1.000 UL
LTb
1032 5759 M
31 0 V
5704 0 R
-31 0 V
1032 768 M
0 63 V
0 4928 R
0 -63 V
stroke
1032 528 M
[ [(Helvetica) 240.0 0.0 true true 0 (10)]
[(Helvetica) 192.0 120.0 true true 0 (3)]
] -104.0 MCshow
1.000 UL
LTb
1607 768 M
0 31 V
0 4960 R
0 -31 V
1944 768 M
0 31 V
0 4960 R
0 -31 V
2183 768 M
0 31 V
0 4960 R
0 -31 V
2368 768 M
0 31 V
0 4960 R
0 -31 V
2520 768 M
0 31 V
0 4960 R
0 -31 V
2648 768 M
0 31 V
0 4960 R
0 -31 V
2758 768 M
0 31 V
0 4960 R
0 -31 V
2856 768 M
0 31 V
0 4960 R
0 -31 V
2944 768 M
0 63 V
0 4928 R
0 -63 V
stroke
2944 528 M
[ [(Helvetica) 240.0 0.0 true true 0 (10)]
[(Helvetica) 192.0 120.0 true true 0 (4)]
] -104.0 MCshow
1.000 UL
LTb
3519 768 M
0 31 V
0 4960 R
0 -31 V
3856 768 M
0 31 V
0 4960 R
0 -31 V
4095 768 M
0 31 V
0 4960 R
0 -31 V
4280 768 M
0 31 V
0 4960 R
0 -31 V
4431 768 M
0 31 V
0 4960 R
0 -31 V
4559 768 M
0 31 V
0 4960 R
0 -31 V
4670 768 M
0 31 V
0 4960 R
0 -31 V
4768 768 M
0 31 V
0 4960 R
0 -31 V
4855 768 M
0 63 V
0 4928 R
0 -63 V
stroke
4855 528 M
[ [(Helvetica) 240.0 0.0 true true 0 (10)]
[(Helvetica) 192.0 120.0 true true 0 (5)]
] -104.0 MCshow
1.000 UL
LTb
5431 768 M
0 31 V
0 4960 R
0 -31 V
5767 768 M
0 31 V
0 4960 R
0 -31 V
6006 768 M
0 31 V
0 4960 R
0 -31 V
6192 768 M
0 31 V
0 4960 R
0 -31 V
6343 768 M
0 31 V
0 4960 R
0 -31 V
6471 768 M
0 31 V
0 4960 R
0 -31 V
6582 768 M
0 31 V
0 4960 R
0 -31 V
6680 768 M
0 31 V
0 4960 R
0 -31 V
6767 768 M
0 63 V
0 4928 R
0 -63 V
stroke
6767 528 M
[ [(Helvetica) 240.0 0.0 true true 0 (10)]
[(Helvetica) 192.0 120.0 true true 0 (6)]
] -104.0 MCshow
1.000 UL
LTb
1.000 UL
LTb
1032 5759 N
0 -4991 V
5735 0 V
0 4991 V
-5735 0 V
Z stroke
LCb setrgbcolor
192 3263 M
currentpoint gsave translate -270 rotate 0 0 moveto
[ [(Helvetica) 240.0 0.0 true true 0 (c \()]
[(Symbol) 240.0 0.0 true true 0 (m)]
[(Helvetica) 240.0 0.0 true true 0 (Ci/mL\))]
] -80.0 MCshow
grestore
LTb
LCb setrgbcolor
3899 168 M
[ [(Helvetica) 240.0 0.0 true true 0 (t \(s\))]
] -80.0 MCshow
LTb
1.000 UP
1.000 UL
LTb
% Begin plot #1
1.500 UP
1.000 UL
LT0
LCb setrgbcolor
2761 5280 M
[ [(Helvetica) 240.0 0.0 true true 0 (data)]
] -80.0 MRshow
LT0
2951 1822 CircleF
3113 1824 CircleF
3221 1865 CircleF
3346 1882 CircleF
3428 1952 CircleF
3527 2090 CircleF
3655 2506 CircleF
3694 2636 CircleF
3783 3019 CircleF
3864 3331 CircleF
3909 3517 CircleF
3965 3719 CircleF
4018 3880 CircleF
4056 3958 CircleF
4103 4124 CircleF
4201 4352 CircleF
4289 4539 CircleF
4393 4739 CircleF
4665 5023 CircleF
4883 5170 CircleF
5009 5236 CircleF
5250 5303 CircleF
5437 5336 CircleF
5582 5368 CircleF
5650 5343 CircleF
5707 5217 CircleF
5793 4867 CircleF
5871 4573 CircleF
5942 4323 CircleF
6012 4099 CircleF
3080 5280 CircleF
% End plot #1
% Begin plot #2
4.000 UL
LT1
LCb setrgbcolor
2761 4992 M
[ [(Helvetica) 240.0 0.0 true true 0 (single \(-346\))]
] -80.0 MRshow
LT1
2905 4992 M
351 0 V
1032 1825 M
79 0 V
72 0 V
67 0 V
61 0 V
58 0 V
53 0 V
51 0 V
47 0 V
45 0 V
42 0 V
41 0 V
39 0 V
37 0 V
35 0 V
34 0 V
32 0 V
32 0 V
30 0 V
29 0 V
28 0 V
27 0 V
27 0 V
25 0 V
25 0 V
24 0 V
23 0 V
23 0 V
22 0 V
22 0 V
21 0 V
20 0 V
20 0 V
20 0 V
19 0 V
19 0 V
18 0 V
18 0 V
17 0 V
17 0 V
17 0 V
17 0 V
16 0 V
16 0 V
15 0 V
15 0 V
15 0 V
15 0 V
14 0 V
15 0 V
14 0 V
13 0 V
14 0 V
13 0 V
13 0 V
13 0 V
13 0 V
12 0 V
12 0 V
13 0 V
12 0 V
11 0 V
12 0 V
11 0 V
12 0 V
11 0 V
11 0 V
11 0 V
10 1 V
11 0 V
10 0 V
11 0 V
10 0 V
10 1 V
10 0 V
10 0 V
9 0 V
10 1 V
10 0 V
9 1 V
9 0 V
9 1 V
9 0 V
9 1 V
9 1 V
9 0 V
9 1 V
8 1 V
9 1 V
8 1 V
9 1 V
79 17 V
72 30 V
66 47 V
62 66 V
57 84 V
54 101 V
50 111 V
48 119 V
45 121 V
42 120 V
41 118 V
38 114 V
stroke 3598 2885 M
37 108 V
36 104 V
33 98 V
33 92 V
31 88 V
30 82 V
30 78 V
28 73 V
27 70 V
26 65 V
26 62 V
25 59 V
24 56 V
23 53 V
23 50 V
22 47 V
22 46 V
21 43 V
20 41 V
20 39 V
20 38 V
19 36 V
18 34 V
19 33 V
17 31 V
18 30 V
17 29 V
17 27 V
16 27 V
16 25 V
16 25 V
16 23 V
15 23 V
15 22 V
15 21 V
14 20 V
14 20 V
14 19 V
14 18 V
13 17 V
14 17 V
13 16 V
13 16 V
12 16 V
13 14 V
12 15 V
12 13 V
12 14 V
12 13 V
12 12 V
11 12 V
11 12 V
11 12 V
11 11 V
11 11 V
11 10 V
11 10 V
10 10 V
10 9 V
11 10 V
10 9 V
10 8 V
9 9 V
10 8 V
10 8 V
9 8 V
10 8 V
9 7 V
9 7 V
9 7 V
9 7 V
9 6 V
9 7 V
8 6 V
9 6 V
9 6 V
8 6 V
8 6 V
79 49 V
73 38 V
66 30 V
62 23 V
57 19 V
54 16 V
50 12 V
47 10 V
45 8 V
43 6 V
40 5 V
39 4 V
37 5 V
35 4 V
34 -3 V
33 -21 V
31 -48 V
30 -54 V
29 -118 V
28 -104 V
28 -113 V
26 -119 V
26 -122 V
24 -125 V
24 -127 V
24 -128 V
stroke 5919 4286 M
23 -129 V
22 -129 V
21 -129 V
21 -129 V
21 -129 V
20 -128 V
19 -129 V
19 -127 V
19 -128 V
18 -127 V
18 -127 V
18 -126 V
17 -126 V
17 -126 V
16 -125 V
16 -125 V
16 -125 V
15 -124 V
16 -124 V
15 -124 V
14 -123 V
15 -124 V
14 -123 V
14 -123 V
14 -122 V
13 -123 V
13 -123 V
13 -121 V
% End plot #2
% Begin plot #3
stroke
LT2
LCb setrgbcolor
2761 4704 M
[ [(Helvetica) 240.0 0.0 true true 0 (double \(-408\))]
] -80.0 MRshow
LT2
2905 4704 M
351 0 V
1032 1825 M
79 0 V
72 0 V
67 0 V
61 0 V
58 0 V
53 0 V
51 0 V
47 0 V
45 0 V
42 0 V
41 0 V
39 0 V
37 0 V
35 0 V
34 0 V
32 0 V
32 0 V
30 0 V
29 0 V
28 0 V
27 0 V
27 0 V
25 0 V
25 0 V
24 0 V
23 0 V
23 0 V
22 0 V
22 0 V
21 0 V
20 0 V
20 0 V
20 0 V
19 0 V
19 0 V
18 0 V
18 0 V
17 0 V
17 0 V
17 0 V
17 0 V
16 0 V
16 0 V
15 0 V
15 0 V
15 0 V
15 0 V
14 0 V
15 0 V
14 0 V
13 0 V
14 0 V
13 0 V
13 0 V
13 0 V
13 0 V
12 0 V
12 0 V
13 0 V
12 0 V
11 0 V
12 0 V
11 0 V
12 0 V
11 0 V
11 0 V
11 0 V
10 0 V
11 0 V
10 0 V
11 0 V
10 0 V
10 0 V
10 0 V
10 0 V
9 0 V
10 0 V
10 0 V
9 0 V
9 0 V
9 0 V
9 0 V
9 0 V
9 0 V
9 0 V
9 0 V
8 0 V
9 0 V
8 0 V
9 1 V
79 2 V
72 4 V
66 11 V
62 19 V
57 32 V
54 48 V
50 67 V
48 84 V
45 100 V
42 112 V
41 119 V
38 122 V
stroke 3598 2546 M
37 123 V
36 121 V
33 118 V
33 113 V
31 108 V
30 102 V
30 97 V
28 92 V
27 87 V
26 82 V
26 78 V
25 73 V
24 69 V
23 66 V
23 62 V
22 58 V
22 56 V
21 52 V
20 50 V
20 47 V
20 45 V
19 43 V
18 40 V
19 39 V
17 37 V
18 35 V
17 33 V
17 32 V
16 31 V
16 29 V
16 28 V
16 26 V
15 26 V
15 24 V
15 23 V
14 22 V
14 22 V
14 20 V
14 20 V
13 19 V
14 18 V
13 17 V
13 17 V
12 16 V
13 15 V
12 15 V
12 14 V
12 14 V
12 13 V
12 13 V
11 12 V
11 11 V
11 12 V
11 11 V
11 10 V
11 10 V
11 10 V
10 9 V
10 9 V
11 9 V
10 9 V
10 8 V
9 8 V
10 7 V
10 8 V
9 7 V
10 7 V
9 6 V
9 7 V
9 6 V
9 6 V
9 6 V
9 5 V
8 6 V
9 5 V
9 5 V
8 5 V
8 5 V
79 40 V
73 31 V
66 23 V
62 18 V
57 14 V
54 12 V
50 11 V
47 8 V
45 8 V
43 7 V
40 6 V
39 7 V
37 6 V
35 6 V
34 0 V
33 -18 V
31 -49 V
30 -83 V
29 -109 V
28 -122 V
28 -125 V
26 -118 V
26 -102 V
24 -94 V
24 -84 V
24 -71 V
stroke 5919 4387 M
23 -61 V
22 -53 V
21 -46 V
21 -41 V
21 -35 V
20 -32 V
19 -30 V
19 -27 V
19 -25 V
18 -25 V
18 -24 V
18 -23 V
17 -23 V
17 -23 V
16 -22 V
16 -22 V
16 -23 V
15 -22 V
16 -22 V
15 -22 V
14 -22 V
15 -22 V
14 -22 V
14 -22 V
14 -22 V
13 -22 V
13 -22 V
13 -22 V
13 -22 V
13 -22 V
13 -22 V
12 -22 V
12 -23 V
12 -22 V
12 -22 V
11 -22 V
12 -22 V
11 -22 V
11 -22 V
11 -22 V
11 -22 V
11 -22 V
10 -22 V
11 -23 V
10 -22 V
10 -22 V
10 -22 V
10 -22 V
10 -22 V
10 -23 V
9 -22 V
10 -22 V
9 -22 V
10 -22 V
9 -23 V
9 -22 V
9 -22 V
9 -22 V
8 -23 V
9 -22 V
9 -22 V
8 -22 V
9 -23 V
8 -22 V
% End plot #3
% Begin plot #4
stroke
LT3
LCb setrgbcolor
2761 4416 M
[ [(Helvetica) 240.0 0.0 true true 0 (multirate \(-436\))]
] -80.0 MRshow
LT3
2905 4416 M
351 0 V
1032 1825 M
79 0 V
72 0 V
67 0 V
61 0 V
58 0 V
53 0 V
51 0 V
47 0 V
45 0 V
42 0 V
41 0 V
39 0 V
37 0 V
35 0 V
34 0 V
32 0 V
32 0 V
30 0 V
29 0 V
28 0 V
27 0 V
27 0 V
25 0 V
25 0 V
24 0 V
23 0 V
23 0 V
22 0 V
22 0 V
21 0 V
20 0 V
20 0 V
20 0 V
19 0 V
19 0 V
18 0 V
18 0 V
17 0 V
17 0 V
17 0 V
17 0 V
16 0 V
16 0 V
15 0 V
15 0 V
15 0 V
15 0 V
14 0 V
15 0 V
14 0 V
13 0 V
14 0 V
13 0 V
13 0 V
13 0 V
13 0 V
12 0 V
12 0 V
13 0 V
12 0 V
11 0 V
12 0 V
11 0 V
12 0 V
11 0 V
11 0 V
11 0 V
10 0 V
11 0 V
10 0 V
11 0 V
10 0 V
10 0 V
10 0 V
10 0 V
9 0 V
10 0 V
10 0 V
9 0 V
9 0 V
9 0 V
9 0 V
9 0 V
9 0 V
9 0 V
9 0 V
8 0 V
9 0 V
8 0 V
9 0 V
79 0 V
72 1 V
66 1 V
62 5 V
57 10 V
54 19 V
50 32 V
48 50 V
45 69 V
42 90 V
41 108 V
38 121 V
stroke 3598 2331 M
37 129 V
36 133 V
33 133 V
33 130 V
31 126 V
30 120 V
30 114 V
28 108 V
27 101 V
26 96 V
26 89 V
25 84 V
24 79 V
23 74 V
23 70 V
22 65 V
22 62 V
21 58 V
20 54 V
20 51 V
20 48 V
19 46 V
18 43 V
19 41 V
17 38 V
18 36 V
17 35 V
17 32 V
16 31 V
16 30 V
16 27 V
16 27 V
15 25 V
15 24 V
15 23 V
14 21 V
14 21 V
14 20 V
14 18 V
13 18 V
14 18 V
13 16 V
13 16 V
12 15 V
13 14 V
12 14 V
12 13 V
12 13 V
12 12 V
12 12 V
11 11 V
11 11 V
11 10 V
11 10 V
11 10 V
11 9 V
11 9 V
10 8 V
10 9 V
11 8 V
10 7 V
10 8 V
9 7 V
10 7 V
10 7 V
9 6 V
10 6 V
9 7 V
9 6 V
9 5 V
9 6 V
9 5 V
9 5 V
8 6 V
9 4 V
9 5 V
8 5 V
8 4 V
79 40 V
73 30 V
66 25 V
62 20 V
57 16 V
54 14 V
50 12 V
47 11 V
45 9 V
43 8 V
40 7 V
39 7 V
37 6 V
35 7 V
34 1 V
33 -17 V
31 -53 V
30 -91 V
29 -115 V
28 -121 V
28 -116 V
26 -108 V
26 -105 V
24 -84 V
24 -84 V
24 -79 V
stroke 5919 4395 M
23 -73 V
22 -69 V
21 -65 V
21 -62 V
21 -59 V
20 -56 V
19 -54 V
19 -52 V
19 -50 V
18 -48 V
18 -47 V
18 -45 V
17 -44 V
17 -42 V
16 -41 V
16 -41 V
16 -39 V
15 -38 V
16 -37 V
15 -36 V
14 -36 V
15 -35 V
14 -34 V
14 -33 V
14 -33 V
13 -32 V
13 -31 V
13 -31 V
13 -30 V
13 -30 V
13 -29 V
12 -28 V
12 -29 V
12 -27 V
12 -28 V
11 -27 V
12 -26 V
11 -26 V
11 -26 V
11 -25 V
11 -25 V
11 -25 V
10 -24 V
11 -24 V
10 -23 V
10 -24 V
10 -23 V
10 -22 V
10 -23 V
10 -22 V
9 -22 V
10 -22 V
9 -21 V
10 -21 V
9 -21 V
9 -21 V
9 -20 V
9 -21 V
8 -20 V
9 -19 V
9 -20 V
8 -19 V
9 -19 V
8 -19 V
% End plot #4
stroke
1.000 UL
LTb
1032 5759 N
0 -4991 V
5735 0 V
0 4991 V
-5735 0 V
Z stroke
1.000 UP
1.000 UL
LTb
stroke
grestore
end
showpage
%%Trailer
%%DocumentFonts: Symbol Helvetica
