%!PS-Adobe-2.0 EPSF-2.0
%%Title: residuals-B8.eps
%%Creator: gnuplot 4.4 patchlevel 4
%%CreationDate: Tue Jan 29 08:56:05 2013
%%DocumentFonts: (atend)
%%BoundingBox: 80 50 400 352
%%EndComments
%%BeginProlog
/gnudict 256 dict def
gnudict begin
%
% The following true/false flags may be edited by hand if desired.
% The unit line width and grayscale image gamma correction may also be changed.
%
/Color true def
/Blacktext false def
/Solid true def
/Dashlength 1 def
/Landscape false def
/Level1 false def
/Rounded false def
/ClipToBoundingBox false def
/TransparentPatterns false def
/gnulinewidth 5.000 def
/userlinewidth gnulinewidth def
/Gamma 1.0 def
%
/vshift -80 def
/dl1 {
  10.0 Dashlength mul mul
  Rounded { currentlinewidth 0.75 mul sub dup 0 le { pop 0.01 } if } if
} def
/dl2 {
  10.0 Dashlength mul mul
  Rounded { currentlinewidth 0.75 mul add } if
} def
/hpt_ 31.5 def
/vpt_ 31.5 def
/hpt hpt_ def
/vpt vpt_ def
Level1 {} {
/SDict 10 dict def
systemdict /pdfmark known not {
  userdict /pdfmark systemdict /cleartomark get put
} if
SDict begin [
  /Title (residuals-B8.eps)
  /Subject (gnuplot plot)
  /Creator (gnuplot 4.4 patchlevel 4)
  /Author (bmalama)
%  /Producer (gnuplot)
%  /Keywords ()
  /CreationDate (Tue Jan 29 08:56:05 2013)
  /DOCINFO pdfmark
end
} ifelse
/doclip {
  ClipToBoundingBox {
    newpath 50 50 moveto 410 50 lineto 410 352 lineto 50 352 lineto closepath
    clip
  } if
} def
%
% Gnuplot Prolog Version 4.4 (August 2010)
%
%/SuppressPDFMark true def
%
/M {moveto} bind def
/L {lineto} bind def
/R {rmoveto} bind def
/V {rlineto} bind def
/N {newpath moveto} bind def
/Z {closepath} bind def
/C {setrgbcolor} bind def
/f {rlineto fill} bind def
/g {setgray} bind def
/Gshow {show} def   % May be redefined later in the file to support UTF-8
/vpt2 vpt 2 mul def
/hpt2 hpt 2 mul def
/Lshow {currentpoint stroke M 0 vshift R 
	Blacktext {gsave 0 setgray show grestore} {show} ifelse} def
/Rshow {currentpoint stroke M dup stringwidth pop neg vshift R
	Blacktext {gsave 0 setgray show grestore} {show} ifelse} def
/Cshow {currentpoint stroke M dup stringwidth pop -2 div vshift R 
	Blacktext {gsave 0 setgray show grestore} {show} ifelse} def
/UP {dup vpt_ mul /vpt exch def hpt_ mul /hpt exch def
  /hpt2 hpt 2 mul def /vpt2 vpt 2 mul def} def
/DL {Color {setrgbcolor Solid {pop []} if 0 setdash}
 {pop pop pop 0 setgray Solid {pop []} if 0 setdash} ifelse} def
/BL {stroke userlinewidth 2 mul setlinewidth
	Rounded {1 setlinejoin 1 setlinecap} if} def
/AL {stroke userlinewidth 2 div setlinewidth
	Rounded {1 setlinejoin 1 setlinecap} if} def
/UL {dup gnulinewidth mul /userlinewidth exch def
	dup 1 lt {pop 1} if 10 mul /udl exch def} def
/PL {stroke userlinewidth setlinewidth
	Rounded {1 setlinejoin 1 setlinecap} if} def
3.8 setmiterlimit
% Default Line colors
/LCw {1 1 1} def
/LCb {0 0 0} def
/LCa {0 0 0} def
/LC0 {1 0 0} def
/LC1 {0 1 0} def
/LC2 {0 0 1} def
/LC3 {1 0 1} def
/LC4 {0 1 1} def
/LC5 {1 1 0} def
/LC6 {0 0 0} def
/LC7 {1 0.3 0} def
/LC8 {0.5 0.5 0.5} def
% Default Line Types
/LTw {PL [] 1 setgray} def
/LTb {BL [] LCb DL} def
/LTa {AL [1 udl mul 2 udl mul] 0 setdash LCa setrgbcolor} def
/LT0 {PL [] LC0 DL} def
/LT1 {PL [4 dl1 2 dl2] LC1 DL} def
/LT2 {PL [2 dl1 3 dl2] LC2 DL} def
/LT3 {PL [1 dl1 1.5 dl2] LC3 DL} def
/LT4 {PL [6 dl1 2 dl2 1 dl1 2 dl2] LC4 DL} def
/LT5 {PL [3 dl1 3 dl2 1 dl1 3 dl2] LC5 DL} def
/LT6 {PL [2 dl1 2 dl2 2 dl1 6 dl2] LC6 DL} def
/LT7 {PL [1 dl1 2 dl2 6 dl1 2 dl2 1 dl1 2 dl2] LC7 DL} def
/LT8 {PL [2 dl1 2 dl2 2 dl1 2 dl2 2 dl1 2 dl2 2 dl1 4 dl2] LC8 DL} def
/Pnt {stroke [] 0 setdash gsave 1 setlinecap M 0 0 V stroke grestore} def
/Dia {stroke [] 0 setdash 2 copy vpt add M
  hpt neg vpt neg V hpt vpt neg V
  hpt vpt V hpt neg vpt V closepath stroke
  Pnt} def
/Pls {stroke [] 0 setdash vpt sub M 0 vpt2 V
  currentpoint stroke M
  hpt neg vpt neg R hpt2 0 V stroke
 } def
/Box {stroke [] 0 setdash 2 copy exch hpt sub exch vpt add M
  0 vpt2 neg V hpt2 0 V 0 vpt2 V
  hpt2 neg 0 V closepath stroke
  Pnt} def
/Crs {stroke [] 0 setdash exch hpt sub exch vpt add M
  hpt2 vpt2 neg V currentpoint stroke M
  hpt2 neg 0 R hpt2 vpt2 V stroke} def
/TriU {stroke [] 0 setdash 2 copy vpt 1.12 mul add M
  hpt neg vpt -1.62 mul V
  hpt 2 mul 0 V
  hpt neg vpt 1.62 mul V closepath stroke
  Pnt} def
/Star {2 copy Pls Crs} def
/BoxF {stroke [] 0 setdash exch hpt sub exch vpt add M
  0 vpt2 neg V hpt2 0 V 0 vpt2 V
  hpt2 neg 0 V closepath fill} def
/TriUF {stroke [] 0 setdash vpt 1.12 mul add M
  hpt neg vpt -1.62 mul V
  hpt 2 mul 0 V
  hpt neg vpt 1.62 mul V closepath fill} def
/TriD {stroke [] 0 setdash 2 copy vpt 1.12 mul sub M
  hpt neg vpt 1.62 mul V
  hpt 2 mul 0 V
  hpt neg vpt -1.62 mul V closepath stroke
  Pnt} def
/TriDF {stroke [] 0 setdash vpt 1.12 mul sub M
  hpt neg vpt 1.62 mul V
  hpt 2 mul 0 V
  hpt neg vpt -1.62 mul V closepath fill} def
/DiaF {stroke [] 0 setdash vpt add M
  hpt neg vpt neg V hpt vpt neg V
  hpt vpt V hpt neg vpt V closepath fill} def
/Pent {stroke [] 0 setdash 2 copy gsave
  translate 0 hpt M 4 {72 rotate 0 hpt L} repeat
  closepath stroke grestore Pnt} def
/PentF {stroke [] 0 setdash gsave
  translate 0 hpt M 4 {72 rotate 0 hpt L} repeat
  closepath fill grestore} def
/Circle {stroke [] 0 setdash 2 copy
  hpt 0 360 arc stroke Pnt} def
/CircleF {stroke [] 0 setdash hpt 0 360 arc fill} def
/C0 {BL [] 0 setdash 2 copy moveto vpt 90 450 arc} bind def
/C1 {BL [] 0 setdash 2 copy moveto
	2 copy vpt 0 90 arc closepath fill
	vpt 0 360 arc closepath} bind def
/C2 {BL [] 0 setdash 2 copy moveto
	2 copy vpt 90 180 arc closepath fill
	vpt 0 360 arc closepath} bind def
/C3 {BL [] 0 setdash 2 copy moveto
	2 copy vpt 0 180 arc closepath fill
	vpt 0 360 arc closepath} bind def
/C4 {BL [] 0 setdash 2 copy moveto
	2 copy vpt 180 270 arc closepath fill
	vpt 0 360 arc closepath} bind def
/C5 {BL [] 0 setdash 2 copy moveto
	2 copy vpt 0 90 arc
	2 copy moveto
	2 copy vpt 180 270 arc closepath fill
	vpt 0 360 arc} bind def
/C6 {BL [] 0 setdash 2 copy moveto
	2 copy vpt 90 270 arc closepath fill
	vpt 0 360 arc closepath} bind def
/C7 {BL [] 0 setdash 2 copy moveto
	2 copy vpt 0 270 arc closepath fill
	vpt 0 360 arc closepath} bind def
/C8 {BL [] 0 setdash 2 copy moveto
	2 copy vpt 270 360 arc closepath fill
	vpt 0 360 arc closepath} bind def
/C9 {BL [] 0 setdash 2 copy moveto
	2 copy vpt 270 450 arc closepath fill
	vpt 0 360 arc closepath} bind def
/C10 {BL [] 0 setdash 2 copy 2 copy moveto vpt 270 360 arc closepath fill
	2 copy moveto
	2 copy vpt 90 180 arc closepath fill
	vpt 0 360 arc closepath} bind def
/C11 {BL [] 0 setdash 2 copy moveto
	2 copy vpt 0 180 arc closepath fill
	2 copy moveto
	2 copy vpt 270 360 arc closepath fill
	vpt 0 360 arc closepath} bind def
/C12 {BL [] 0 setdash 2 copy moveto
	2 copy vpt 180 360 arc closepath fill
	vpt 0 360 arc closepath} bind def
/C13 {BL [] 0 setdash 2 copy moveto
	2 copy vpt 0 90 arc closepath fill
	2 copy moveto
	2 copy vpt 180 360 arc closepath fill
	vpt 0 360 arc closepath} bind def
/C14 {BL [] 0 setdash 2 copy moveto
	2 copy vpt 90 360 arc closepath fill
	vpt 0 360 arc} bind def
/C15 {BL [] 0 setdash 2 copy vpt 0 360 arc closepath fill
	vpt 0 360 arc closepath} bind def
/Rec {newpath 4 2 roll moveto 1 index 0 rlineto 0 exch rlineto
	neg 0 rlineto closepath} bind def
/Square {dup Rec} bind def
/Bsquare {vpt sub exch vpt sub exch vpt2 Square} bind def
/S0 {BL [] 0 setdash 2 copy moveto 0 vpt rlineto BL Bsquare} bind def
/S1 {BL [] 0 setdash 2 copy vpt Square fill Bsquare} bind def
/S2 {BL [] 0 setdash 2 copy exch vpt sub exch vpt Square fill Bsquare} bind def
/S3 {BL [] 0 setdash 2 copy exch vpt sub exch vpt2 vpt Rec fill Bsquare} bind def
/S4 {BL [] 0 setdash 2 copy exch vpt sub exch vpt sub vpt Square fill Bsquare} bind def
/S5 {BL [] 0 setdash 2 copy 2 copy vpt Square fill
	exch vpt sub exch vpt sub vpt Square fill Bsquare} bind def
/S6 {BL [] 0 setdash 2 copy exch vpt sub exch vpt sub vpt vpt2 Rec fill Bsquare} bind def
/S7 {BL [] 0 setdash 2 copy exch vpt sub exch vpt sub vpt vpt2 Rec fill
	2 copy vpt Square fill Bsquare} bind def
/S8 {BL [] 0 setdash 2 copy vpt sub vpt Square fill Bsquare} bind def
/S9 {BL [] 0 setdash 2 copy vpt sub vpt vpt2 Rec fill Bsquare} bind def
/S10 {BL [] 0 setdash 2 copy vpt sub vpt Square fill 2 copy exch vpt sub exch vpt Square fill
	Bsquare} bind def
/S11 {BL [] 0 setdash 2 copy vpt sub vpt Square fill 2 copy exch vpt sub exch vpt2 vpt Rec fill
	Bsquare} bind def
/S12 {BL [] 0 setdash 2 copy exch vpt sub exch vpt sub vpt2 vpt Rec fill Bsquare} bind def
/S13 {BL [] 0 setdash 2 copy exch vpt sub exch vpt sub vpt2 vpt Rec fill
	2 copy vpt Square fill Bsquare} bind def
/S14 {BL [] 0 setdash 2 copy exch vpt sub exch vpt sub vpt2 vpt Rec fill
	2 copy exch vpt sub exch vpt Square fill Bsquare} bind def
/S15 {BL [] 0 setdash 2 copy Bsquare fill Bsquare} bind def
/D0 {gsave translate 45 rotate 0 0 S0 stroke grestore} bind def
/D1 {gsave translate 45 rotate 0 0 S1 stroke grestore} bind def
/D2 {gsave translate 45 rotate 0 0 S2 stroke grestore} bind def
/D3 {gsave translate 45 rotate 0 0 S3 stroke grestore} bind def
/D4 {gsave translate 45 rotate 0 0 S4 stroke grestore} bind def
/D5 {gsave translate 45 rotate 0 0 S5 stroke grestore} bind def
/D6 {gsave translate 45 rotate 0 0 S6 stroke grestore} bind def
/D7 {gsave translate 45 rotate 0 0 S7 stroke grestore} bind def
/D8 {gsave translate 45 rotate 0 0 S8 stroke grestore} bind def
/D9 {gsave translate 45 rotate 0 0 S9 stroke grestore} bind def
/D10 {gsave translate 45 rotate 0 0 S10 stroke grestore} bind def
/D11 {gsave translate 45 rotate 0 0 S11 stroke grestore} bind def
/D12 {gsave translate 45 rotate 0 0 S12 stroke grestore} bind def
/D13 {gsave translate 45 rotate 0 0 S13 stroke grestore} bind def
/D14 {gsave translate 45 rotate 0 0 S14 stroke grestore} bind def
/D15 {gsave translate 45 rotate 0 0 S15 stroke grestore} bind def
/DiaE {stroke [] 0 setdash vpt add M
  hpt neg vpt neg V hpt vpt neg V
  hpt vpt V hpt neg vpt V closepath stroke} def
/BoxE {stroke [] 0 setdash exch hpt sub exch vpt add M
  0 vpt2 neg V hpt2 0 V 0 vpt2 V
  hpt2 neg 0 V closepath stroke} def
/TriUE {stroke [] 0 setdash vpt 1.12 mul add M
  hpt neg vpt -1.62 mul V
  hpt 2 mul 0 V
  hpt neg vpt 1.62 mul V closepath stroke} def
/TriDE {stroke [] 0 setdash vpt 1.12 mul sub M
  hpt neg vpt 1.62 mul V
  hpt 2 mul 0 V
  hpt neg vpt -1.62 mul V closepath stroke} def
/PentE {stroke [] 0 setdash gsave
  translate 0 hpt M 4 {72 rotate 0 hpt L} repeat
  closepath stroke grestore} def
/CircE {stroke [] 0 setdash 
  hpt 0 360 arc stroke} def
/Opaque {gsave closepath 1 setgray fill grestore 0 setgray closepath} def
/DiaW {stroke [] 0 setdash vpt add M
  hpt neg vpt neg V hpt vpt neg V
  hpt vpt V hpt neg vpt V Opaque stroke} def
/BoxW {stroke [] 0 setdash exch hpt sub exch vpt add M
  0 vpt2 neg V hpt2 0 V 0 vpt2 V
  hpt2 neg 0 V Opaque stroke} def
/TriUW {stroke [] 0 setdash vpt 1.12 mul add M
  hpt neg vpt -1.62 mul V
  hpt 2 mul 0 V
  hpt neg vpt 1.62 mul V Opaque stroke} def
/TriDW {stroke [] 0 setdash vpt 1.12 mul sub M
  hpt neg vpt 1.62 mul V
  hpt 2 mul 0 V
  hpt neg vpt -1.62 mul V Opaque stroke} def
/PentW {stroke [] 0 setdash gsave
  translate 0 hpt M 4 {72 rotate 0 hpt L} repeat
  Opaque stroke grestore} def
/CircW {stroke [] 0 setdash 
  hpt 0 360 arc Opaque stroke} def
/BoxFill {gsave Rec 1 setgray fill grestore} def
/Density {
  /Fillden exch def
  currentrgbcolor
  /ColB exch def /ColG exch def /ColR exch def
  /ColR ColR Fillden mul Fillden sub 1 add def
  /ColG ColG Fillden mul Fillden sub 1 add def
  /ColB ColB Fillden mul Fillden sub 1 add def
  ColR ColG ColB setrgbcolor} def
/BoxColFill {gsave Rec PolyFill} def
/PolyFill {gsave Density fill grestore grestore} def
/h {rlineto rlineto rlineto gsave closepath fill grestore} bind def
%
% PostScript Level 1 Pattern Fill routine for rectangles
% Usage: x y w h s a XX PatternFill
%	x,y = lower left corner of box to be filled
%	w,h = width and height of box
%	  a = angle in degrees between lines and x-axis
%	 XX = 0/1 for no/yes cross-hatch
%
/PatternFill {gsave /PFa [ 9 2 roll ] def
  PFa 0 get PFa 2 get 2 div add PFa 1 get PFa 3 get 2 div add translate
  PFa 2 get -2 div PFa 3 get -2 div PFa 2 get PFa 3 get Rec
  gsave 1 setgray fill grestore clip
  currentlinewidth 0.5 mul setlinewidth
  /PFs PFa 2 get dup mul PFa 3 get dup mul add sqrt def
  0 0 M PFa 5 get rotate PFs -2 div dup translate
  0 1 PFs PFa 4 get div 1 add floor cvi
	{PFa 4 get mul 0 M 0 PFs V} for
  0 PFa 6 get ne {
	0 1 PFs PFa 4 get div 1 add floor cvi
	{PFa 4 get mul 0 2 1 roll M PFs 0 V} for
 } if
  stroke grestore} def
%
/languagelevel where
 {pop languagelevel} {1} ifelse
 2 lt
	{/InterpretLevel1 true def}
	{/InterpretLevel1 Level1 def}
 ifelse
%
% PostScript level 2 pattern fill definitions
%
/Level2PatternFill {
/Tile8x8 {/PaintType 2 /PatternType 1 /TilingType 1 /BBox [0 0 8 8] /XStep 8 /YStep 8}
	bind def
/KeepColor {currentrgbcolor [/Pattern /DeviceRGB] setcolorspace} bind def
<< Tile8x8
 /PaintProc {0.5 setlinewidth pop 0 0 M 8 8 L 0 8 M 8 0 L stroke} 
>> matrix makepattern
/Pat1 exch def
<< Tile8x8
 /PaintProc {0.5 setlinewidth pop 0 0 M 8 8 L 0 8 M 8 0 L stroke
	0 4 M 4 8 L 8 4 L 4 0 L 0 4 L stroke}
>> matrix makepattern
/Pat2 exch def
<< Tile8x8
 /PaintProc {0.5 setlinewidth pop 0 0 M 0 8 L
	8 8 L 8 0 L 0 0 L fill}
>> matrix makepattern
/Pat3 exch def
<< Tile8x8
 /PaintProc {0.5 setlinewidth pop -4 8 M 8 -4 L
	0 12 M 12 0 L stroke}
>> matrix makepattern
/Pat4 exch def
<< Tile8x8
 /PaintProc {0.5 setlinewidth pop -4 0 M 8 12 L
	0 -4 M 12 8 L stroke}
>> matrix makepattern
/Pat5 exch def
<< Tile8x8
 /PaintProc {0.5 setlinewidth pop -2 8 M 4 -4 L
	0 12 M 8 -4 L 4 12 M 10 0 L stroke}
>> matrix makepattern
/Pat6 exch def
<< Tile8x8
 /PaintProc {0.5 setlinewidth pop -2 0 M 4 12 L
	0 -4 M 8 12 L 4 -4 M 10 8 L stroke}
>> matrix makepattern
/Pat7 exch def
<< Tile8x8
 /PaintProc {0.5 setlinewidth pop 8 -2 M -4 4 L
	12 0 M -4 8 L 12 4 M 0 10 L stroke}
>> matrix makepattern
/Pat8 exch def
<< Tile8x8
 /PaintProc {0.5 setlinewidth pop 0 -2 M 12 4 L
	-4 0 M 12 8 L -4 4 M 8 10 L stroke}
>> matrix makepattern
/Pat9 exch def
/Pattern1 {PatternBgnd KeepColor Pat1 setpattern} bind def
/Pattern2 {PatternBgnd KeepColor Pat2 setpattern} bind def
/Pattern3 {PatternBgnd KeepColor Pat3 setpattern} bind def
/Pattern4 {PatternBgnd KeepColor Landscape {Pat5} {Pat4} ifelse setpattern} bind def
/Pattern5 {PatternBgnd KeepColor Landscape {Pat4} {Pat5} ifelse setpattern} bind def
/Pattern6 {PatternBgnd KeepColor Landscape {Pat9} {Pat6} ifelse setpattern} bind def
/Pattern7 {PatternBgnd KeepColor Landscape {Pat8} {Pat7} ifelse setpattern} bind def
} def
%
%
%End of PostScript Level 2 code
%
/PatternBgnd {
  TransparentPatterns {} {gsave 1 setgray fill grestore} ifelse
} def
%
% Substitute for Level 2 pattern fill codes with
% grayscale if Level 2 support is not selected.
%
/Level1PatternFill {
/Pattern1 {0.250 Density} bind def
/Pattern2 {0.500 Density} bind def
/Pattern3 {0.750 Density} bind def
/Pattern4 {0.125 Density} bind def
/Pattern5 {0.375 Density} bind def
/Pattern6 {0.625 Density} bind def
/Pattern7 {0.875 Density} bind def
} def
%
% Now test for support of Level 2 code
%
Level1 {Level1PatternFill} {Level2PatternFill} ifelse
%
/Symbol-Oblique /Symbol findfont [1 0 .167 1 0 0] makefont
dup length dict begin {1 index /FID eq {pop pop} {def} ifelse} forall
currentdict end definefont pop
/MFshow {
   { dup 5 get 3 ge
     { 5 get 3 eq {gsave} {grestore} ifelse }
     {dup dup 0 get findfont exch 1 get scalefont setfont
     [ currentpoint ] exch dup 2 get 0 exch R dup 5 get 2 ne {dup dup 6
     get exch 4 get {Gshow} {stringwidth pop 0 R} ifelse }if dup 5 get 0 eq
     {dup 3 get {2 get neg 0 exch R pop} {pop aload pop M} ifelse} {dup 5
     get 1 eq {dup 2 get exch dup 3 get exch 6 get stringwidth pop -2 div
     dup 0 R} {dup 6 get stringwidth pop -2 div 0 R 6 get
     show 2 index {aload pop M neg 3 -1 roll neg R pop pop} {pop pop pop
     pop aload pop M} ifelse }ifelse }ifelse }
     ifelse }
   forall} def
/Gswidth {dup type /stringtype eq {stringwidth} {pop (n) stringwidth} ifelse} def
/MFwidth {0 exch { dup 5 get 3 ge { 5 get 3 eq { 0 } { pop } ifelse }
 {dup 3 get{dup dup 0 get findfont exch 1 get scalefont setfont
     6 get Gswidth pop add} {pop} ifelse} ifelse} forall} def
/MLshow { currentpoint stroke M
  0 exch R
  Blacktext {gsave 0 setgray MFshow grestore} {MFshow} ifelse } bind def
/MRshow { currentpoint stroke M
  exch dup MFwidth neg 3 -1 roll R
  Blacktext {gsave 0 setgray MFshow grestore} {MFshow} ifelse } bind def
/MCshow { currentpoint stroke M
  exch dup MFwidth -2 div 3 -1 roll R
  Blacktext {gsave 0 setgray MFshow grestore} {MFshow} ifelse } bind def
/XYsave    { [( ) 1 2 true false 3 ()] } bind def
/XYrestore { [( ) 1 2 true false 4 ()] } bind def
end
%%EndProlog
gnudict begin
gsave
doclip
50 50 translate
0.050 0.050 scale
0 setgray
newpath
(Helvetica) findfont 240 scalefont setfont
1.000 UL
LTb
1464 768 M
63 0 V
5240 0 R
-63 0 V
stroke
1320 768 M
[ [(Helvetica) 240.0 0.0 true true 0 (-0.01)]
] -80.0 MRshow
1.000 UL
LTb
1464 2016 M
63 0 V
5240 0 R
-63 0 V
stroke
1320 2016 M
[ [(Helvetica) 240.0 0.0 true true 0 (-0.005)]
] -80.0 MRshow
1.000 UL
LTb
1464 3264 M
63 0 V
5240 0 R
-63 0 V
stroke
1320 3264 M
[ [(Helvetica) 240.0 0.0 true true 0 ( 0)]
] -80.0 MRshow
1.000 UL
LTb
1464 4511 M
63 0 V
5240 0 R
-63 0 V
stroke
1320 4511 M
[ [(Helvetica) 240.0 0.0 true true 0 ( 0.005)]
] -80.0 MRshow
1.000 UL
LTb
1464 5759 M
63 0 V
5240 0 R
-63 0 V
stroke
1320 5759 M
[ [(Helvetica) 240.0 0.0 true true 0 ( 0.01)]
] -80.0 MRshow
1.000 UL
LTb
1464 768 M
0 63 V
0 4928 R
0 -63 V
stroke
1464 528 M
[ [(Helvetica) 240.0 0.0 true true 0 ( 0)]
] -80.0 MCshow
1.000 UL
LTb
2348 768 M
0 63 V
0 4928 R
0 -63 V
stroke
2348 528 M
[ [(Helvetica) 240.0 0.0 true true 0 ( 1)]
] -80.0 MCshow
1.000 UL
LTb
3232 768 M
0 63 V
0 4928 R
0 -63 V
stroke
3232 528 M
[ [(Helvetica) 240.0 0.0 true true 0 ( 2)]
] -80.0 MCshow
1.000 UL
LTb
4116 768 M
0 63 V
0 4928 R
0 -63 V
stroke
4116 528 M
[ [(Helvetica) 240.0 0.0 true true 0 ( 3)]
] -80.0 MCshow
1.000 UL
LTb
4999 768 M
0 63 V
0 4928 R
0 -63 V
stroke
4999 528 M
[ [(Helvetica) 240.0 0.0 true true 0 ( 4)]
] -80.0 MCshow
1.000 UL
LTb
5883 768 M
0 63 V
0 4928 R
0 -63 V
stroke
5883 528 M
[ [(Helvetica) 240.0 0.0 true true 0 ( 5)]
] -80.0 MCshow
1.000 UL
LTb
6767 768 M
0 63 V
0 4928 R
0 -63 V
stroke
6767 528 M
[ [(Helvetica) 240.0 0.0 true true 0 ( 6)]
] -80.0 MCshow
1.000 UL
LTb
1.000 UL
LTb
1464 5759 N
0 -4991 V
5303 0 V
0 4991 V
-5303 0 V
Z stroke
LCb setrgbcolor
192 3263 M
currentpoint gsave translate -270 rotate 0 0 moveto
%%[ [(Helvetica) 240.0 0.0 true true 0 (Residuals \()]
%%[(Symbol) 240.0 0.0 true true 0 (m)]
%%[(Helvetica) 240.0 0.0 true true 0 (Ci/mL\))]
%%] -80.0 MCshow
grestore
LTb
LCb setrgbcolor
4115 168 M
[ [(Helvetica) 240.0 0.0 true true 0 (t \(hrs\))]
] -80.0 MCshow
LTb
1.000 UP
1570 5509 M
[ [(Helvetica) 240.0 0.0 true true 0 (\(c\) B8)]
] -80.0 MLshow
1.000 UL
LTb
% Begin plot #1
1.000 UP
1.000 UL
LT0
LCb setrgbcolor
5984 5552 M
[ [(Helvetica) 240.0 0.0 true true 0 (single)]
] -80.0 MRshow
LT0
1567 3240 CircleF
1578 3240 CircleF
1584 3207 CircleF
1589 3185 CircleF
1595 3168 CircleF
1601 3117 CircleF
1607 3113 CircleF
1613 3083 CircleF
1618 3041 CircleF
1624 2999 CircleF
1630 2951 CircleF
1636 2913 CircleF
1642 2852 CircleF
1647 2793 CircleF
1653 2725 CircleF
1659 2670 CircleF
1665 2601 CircleF
1671 2528 CircleF
1676 2474 CircleF
1682 2386 CircleF
1688 2322 CircleF
1693 2236 CircleF
1699 2178 CircleF
1705 2122 CircleF
1711 2054 CircleF
1717 1978 CircleF
1722 1914 CircleF
1728 1877 CircleF
1734 1815 CircleF
1740 1776 CircleF
1745 1709 CircleF
1751 1686 CircleF
1757 1608 CircleF
1763 1599 CircleF
1768 1586 CircleF
1774 1504 CircleF
1780 1508 CircleF
1786 1432 CircleF
1791 1475 CircleF
1797 1502 CircleF
1803 1399 CircleF
1808 1459 CircleF
1814 1472 CircleF
1820 1342 CircleF
1826 1334 CircleF
1831 1425 CircleF
1837 1476 CircleF
1843 1527 CircleF
1849 1496 CircleF
1854 1365 CircleF
1860 1539 CircleF
1877 1653 CircleF
1912 1875 CircleF
1929 1929 CircleF
1946 2404 CircleF
1964 2639 CircleF
1981 2421 CircleF
1998 2519 CircleF
2015 2717 CircleF
2033 3286 CircleF
2050 3350 CircleF
2067 3182 CircleF
2102 3730 CircleF
2139 3756 CircleF
2156 3834 CircleF
2174 3509 CircleF
2191 4131 CircleF
2208 4394 CircleF
2225 4066 CircleF
2243 4604 CircleF
2260 4170 CircleF
2277 3818 CircleF
2295 4789 CircleF
2312 4175 CircleF
2329 4522 CircleF
2347 4103 CircleF
2364 4563 CircleF
2381 4081 CircleF
2399 4044 CircleF
2416 4379 CircleF
2433 3790 CircleF
2452 4780 CircleF
2469 4466 CircleF
2486 4496 CircleF
2504 4141 CircleF
2521 3818 CircleF
2539 3835 CircleF
2556 4194 CircleF
2574 4224 CircleF
2591 2611 CircleF
2608 3840 CircleF
2626 3864 CircleF
2643 4097 CircleF
2660 4312 CircleF
2678 3735 CircleF
2695 3858 CircleF
2712 3573 CircleF
2730 3780 CircleF
2747 3967 CircleF
2764 3545 CircleF
2781 3715 CircleF
2799 3711 CircleF
2834 3739 CircleF
2851 3233 CircleF
2868 3294 CircleF
2886 2562 CircleF
2903 3768 CircleF
2920 3020 CircleF
2937 3586 CircleF
2955 3176 CircleF
2972 3338 CircleF
2990 3940 CircleF
3005 3200 CircleF
3022 3446 CircleF
3039 3208 CircleF
3057 4001 CircleF
3074 3255 CircleF
3091 3309 CircleF
3109 3031 CircleF
3126 3091 CircleF
3143 3561 CircleF
3161 3498 CircleF
3178 2560 CircleF
3195 3606 CircleF
3213 2956 CircleF
3230 2541 CircleF
3248 1996 CircleF
3265 2693 CircleF
3282 3210 CircleF
3299 2879 CircleF
3317 2808 CircleF
3334 2995 CircleF
3351 2671 CircleF
3369 3377 CircleF
3386 3055 CircleF
3404 3764 CircleF
3421 3448 CircleF
3438 2875 CircleF
3456 3076 CircleF
3473 2763 CircleF
3490 3224 CircleF
3508 2065 CircleF
3525 2609 CircleF
3542 3073 CircleF
3559 3283 CircleF
3576 2465 CircleF
3594 3190 CircleF
3611 2630 CircleF
3629 3613 CircleF
3646 2540 CircleF
3663 2238 CircleF
3681 2450 CircleF
3699 3176 CircleF
3716 2873 CircleF
3733 2570 CircleF
3750 3293 CircleF
3768 2730 CircleF
3785 3452 CircleF
3814 3112 CircleF
3869 3225 CircleF
3886 2420 CircleF
3903 3422 CircleF
3920 2893 CircleF
3937 2378 CircleF
3954 2137 CircleF
3972 2945 CircleF
3989 2750 CircleF
4007 2840 CircleF
4024 2963 CircleF
4042 3377 CircleF
4093 3277 CircleF
4111 3833 CircleF
4128 3647 CircleF
4145 4261 CircleF
4180 4537 CircleF
4198 4043 CircleF
4215 5398 CircleF
4232 4486 CircleF
4249 4539 CircleF
4266 4357 CircleF
4284 3707 CircleF
4301 3853 CircleF
4319 3834 CircleF
4353 3568 CircleF
4370 3575 CircleF
4387 3567 CircleF
4405 3433 CircleF
4422 3449 CircleF
4439 2632 CircleF
4456 3223 CircleF
4474 3091 CircleF
4491 2820 CircleF
4508 2797 CircleF
4526 2488 CircleF
4543 2503 CircleF
4560 2428 CircleF
4578 2397 CircleF
4595 2236 CircleF
4612 2450 CircleF
4630 2423 CircleF
4647 2258 CircleF
4664 2424 CircleF
4682 2580 CircleF
4699 2393 CircleF
4716 2607 CircleF
4734 2128 CircleF
4752 2461 CircleF
4769 2500 CircleF
4786 2732 CircleF
4803 2755 CircleF
4821 2210 CircleF
4838 2680 CircleF
4855 2941 CircleF
4872 2446 CircleF
4890 2900 CircleF
4907 3165 CircleF
4924 2735 CircleF
4942 2963 CircleF
4959 2959 CircleF
4977 2738 CircleF
4994 2952 CircleF
5011 3159 CircleF
5029 3031 CircleF
5046 3141 CircleF
5063 3176 CircleF
5081 3081 CircleF
5098 3310 CircleF
5115 3383 CircleF
5132 3423 CircleF
5150 3410 CircleF
5167 3445 CircleF
5185 3423 CircleF
5202 3293 CircleF
5219 3438 CircleF
5236 3480 CircleF
5253 3592 CircleF
5270 3780 CircleF
5287 3681 CircleF
5305 3657 CircleF
5322 3784 CircleF
5339 3804 CircleF
5356 3768 CircleF
5374 3909 CircleF
5391 3922 CircleF
5408 3800 CircleF
5425 3959 CircleF
5443 3936 CircleF
5460 3933 CircleF
5477 3956 CircleF
5495 4053 CircleF
5512 3918 CircleF
5530 3907 CircleF
5547 4046 CircleF
5564 4007 CircleF
5582 4040 CircleF
6303 5552 CircleF
% End plot #1
% Begin plot #2
1.000 UP
1.000 UL
LT1
LCb setrgbcolor
5984 5264 M
[ [(Helvetica) 240.0 0.0 true true 0 (double)]
] -80.0 MRshow
LT1
1567 3262 CircleF
1578 3279 CircleF
1584 3259 CircleF
1589 3253 CircleF
1595 3253 CircleF
1601 3222 CircleF
1607 3241 CircleF
1613 3235 CircleF
1618 3219 CircleF
1624 3206 CircleF
1630 3188 CircleF
1636 3180 CircleF
1642 3152 CircleF
1647 3126 CircleF
1653 3092 CircleF
1659 3072 CircleF
1665 3037 CircleF
1671 3000 CircleF
1676 2979 CircleF
1682 2924 CircleF
1688 2893 CircleF
1693 2839 CircleF
1699 2812 CircleF
1705 2787 CircleF
1711 2746 CircleF
1717 2698 CircleF
1722 2660 CircleF
1728 2646 CircleF
1734 2607 CircleF
1740 2588 CircleF
1745 2540 CircleF
1751 2535 CircleF
1757 2471 CircleF
1763 2475 CircleF
1768 2474 CircleF
1774 2401 CircleF
1780 2413 CircleF
1786 2343 CircleF
1791 2391 CircleF
1797 2420 CircleF
1803 2318 CircleF
1808 2376 CircleF
1814 2387 CircleF
1820 2253 CircleF
1826 2238 CircleF
1831 2321 CircleF
1837 2364 CircleF
1843 2404 CircleF
1849 2362 CircleF
1854 2218 CircleF
1860 2378 CircleF
1877 2441 CircleF
1912 2540 CircleF
1929 2521 CircleF
1946 2919 CircleF
1964 3074 CircleF
1981 2773 CircleF
1998 2788 CircleF
2015 2903 CircleF
2033 3390 CircleF
2050 3372 CircleF
2067 3124 CircleF
2102 3522 CircleF
2139 3402 CircleF
2156 3418 CircleF
2174 3033 CircleF
2191 3603 CircleF
2208 3818 CircleF
2225 3444 CircleF
2243 3940 CircleF
2260 3470 CircleF
2277 3085 CircleF
2295 4028 CircleF
2312 3389 CircleF
2329 3715 CircleF
2347 3278 CircleF
2364 3725 CircleF
2381 3233 CircleF
2399 3189 CircleF
2416 3521 CircleF
2433 2930 CircleF
2452 3923 CircleF
2469 3613 CircleF
2486 3650 CircleF
2504 3305 CircleF
2521 2993 CircleF
2539 3024 CircleF
2556 3398 CircleF
2574 3444 CircleF
2591 1851 CircleF
2608 3099 CircleF
2626 3144 CircleF
2643 3400 CircleF
2660 3639 CircleF
2678 3085 CircleF
2695 3233 CircleF
2712 2974 CircleF
2730 3207 CircleF
2747 3422 CircleF
2764 3026 CircleF
2781 3224 CircleF
2799 3248 CircleF
2834 3333 CircleF
2851 2855 CircleF
2868 2945 CircleF
2886 2241 CircleF
2903 3475 CircleF
2920 2754 CircleF
2937 3348 CircleF
2955 2966 CircleF
2972 3155 CircleF
2990 3783 CircleF
3005 3065 CircleF
3022 3338 CircleF
3039 3125 CircleF
3057 3945 CircleF
3074 3222 CircleF
3091 3301 CircleF
3109 3046 CircleF
3126 3129 CircleF
3143 3622 CircleF
3161 3582 CircleF
3178 2665 CircleF
3195 3732 CircleF
3213 3102 CircleF
3230 2707 CircleF
3248 2181 CircleF
3265 2896 CircleF
3282 3430 CircleF
3299 3117 CircleF
3317 3062 CircleF
3334 3265 CircleF
3351 2956 CircleF
3369 3676 CircleF
3386 3368 CircleF
3404 4091 CircleF
3421 3786 CircleF
3438 3225 CircleF
3456 3437 CircleF
3473 3135 CircleF
3490 3606 CircleF
3508 2457 CircleF
3525 3009 CircleF
3542 3482 CircleF
3559 3700 CircleF
3576 2889 CircleF
3594 3621 CircleF
3611 3069 CircleF
3629 4059 CircleF
3646 2992 CircleF
3663 2697 CircleF
3681 2916 CircleF
3699 3648 CircleF
3716 3353 CircleF
3733 3056 CircleF
3750 3787 CircleF
3768 3232 CircleF
3785 3961 CircleF
3814 3633 CircleF
3869 3754 CircleF
3886 2944 CircleF
3903 3937 CircleF
3920 3392 CircleF
3937 2853 CircleF
3954 2581 CircleF
3972 3350 CircleF
3989 3106 CircleF
4007 3136 CircleF
4024 3190 CircleF
4042 3525 CircleF
4093 3157 CircleF
4111 3616 CircleF
4128 3337 CircleF
4145 3864 CircleF
4180 3990 CircleF
4198 3437 CircleF
4215 4749 CircleF
4232 3805 CircleF
4249 3840 CircleF
4266 3655 CircleF
4284 3017 CircleF
4301 3192 CircleF
4319 3220 CircleF
4353 3137 CircleF
4370 3284 CircleF
4387 3412 CircleF
4405 3370 CircleF
4422 3434 CircleF
4439 2650 CircleF
4456 3274 CircleF
4474 3181 CircleF
4491 2954 CircleF
4508 2978 CircleF
4526 2716 CircleF
4543 2780 CircleF
4560 2751 CircleF
4578 2765 CircleF
4595 2647 CircleF
4612 2900 CircleF
4630 2909 CircleF
4647 2778 CircleF
4664 2972 CircleF
4682 3154 CircleF
4699 2989 CircleF
4716 3220 CircleF
4734 2755 CircleF
4752 3098 CircleF
4769 3143 CircleF
4786 3378 CircleF
4803 3400 CircleF
4821 2851 CircleF
4838 3313 CircleF
4855 3565 CircleF
4872 3057 CircleF
4890 3495 CircleF
4907 3742 CircleF
4924 3291 CircleF
4942 3496 CircleF
4959 3466 CircleF
4977 3219 CircleF
4994 3403 CircleF
5011 3580 CircleF
5029 3420 CircleF
5046 3497 CircleF
5063 3498 CircleF
5081 3366 CircleF
5098 3559 CircleF
5115 3594 CircleF
5132 3597 CircleF
5150 3544 CircleF
5167 3540 CircleF
5185 3477 CircleF
5202 3307 CircleF
5219 3412 CircleF
5236 3413 CircleF
5253 3485 CircleF
5270 3633 CircleF
5287 3493 CircleF
5305 3427 CircleF
5322 3513 CircleF
5339 3493 CircleF
5356 3416 CircleF
5374 3518 CircleF
5391 3490 CircleF
5408 3328 CircleF
5425 3448 CircleF
5443 3387 CircleF
5460 3346 CircleF
5477 3330 CircleF
5495 3390 CircleF
5512 3218 CircleF
5530 3171 CircleF
5547 3275 CircleF
5564 3201 CircleF
5582 3199 CircleF
6303 5264 CircleF
% End plot #2
% Begin plot #3
1.000 UP
1.000 UL
LT2
LCb setrgbcolor
5984 4976 M
[ [(Helvetica) 240.0 0.0 true true 0 (multirate)]
] -80.0 MRshow
LT2
1567 3264 CircleF
1578 3283 CircleF
1584 3266 CircleF
1589 3263 CircleF
1595 3267 CircleF
1601 3242 CircleF
1607 3268 CircleF
1613 3271 CircleF
1618 3266 CircleF
1624 3264 CircleF
1630 3260 CircleF
1636 3268 CircleF
1642 3257 CircleF
1647 3248 CircleF
1653 3234 CircleF
1659 3234 CircleF
1665 3221 CircleF
1671 3206 CircleF
1676 3207 CircleF
1682 3174 CircleF
1688 3165 CircleF
1693 3132 CircleF
1699 3127 CircleF
1705 3122 CircleF
1711 3101 CircleF
1717 3070 CircleF
1722 3049 CircleF
1728 3050 CircleF
1734 3024 CircleF
1740 3017 CircleF
1745 2978 CircleF
1751 2980 CircleF
1757 2923 CircleF
1763 2931 CircleF
1768 2931 CircleF
1774 2858 CircleF
1780 2867 CircleF
1786 2794 CircleF
1791 2835 CircleF
1797 2856 CircleF
1803 2745 CircleF
1808 2793 CircleF
1814 2792 CircleF
1820 2643 CircleF
1826 2614 CircleF
1831 2681 CircleF
1837 2707 CircleF
1843 2729 CircleF
1849 2668 CircleF
1854 2504 CircleF
1860 2643 CircleF
1877 2644 CircleF
1912 2611 CircleF
1929 2529 CircleF
1946 2867 CircleF
1964 2967 CircleF
1981 2616 CircleF
1998 2589 CircleF
2015 2667 CircleF
2033 3125 CircleF
2050 3084 CircleF
2067 2820 CircleF
2102 3203 CircleF
2139 3090 CircleF
2156 3116 CircleF
2174 2746 CircleF
2191 3332 CircleF
2208 3566 CircleF
2225 3215 CircleF
2243 3735 CircleF
2260 3289 CircleF
2277 2931 CircleF
2295 3900 CircleF
2312 3288 CircleF
2329 3642 CircleF
2347 3232 CircleF
2364 3705 CircleF
2381 3239 CircleF
2399 3221 CircleF
2416 3576 CircleF
2433 3009 CircleF
2452 4026 CircleF
2469 3737 CircleF
2486 3794 CircleF
2504 3467 CircleF
2521 3173 CircleF
2539 3220 CircleF
2556 3608 CircleF
2574 3669 CircleF
2591 2087 CircleF
2608 3346 CircleF
2626 3400 CircleF
2643 3664 CircleF
2660 3909 CircleF
2678 3362 CircleF
2695 3514 CircleF
2712 3258 CircleF
2730 3494 CircleF
2747 3710 CircleF
2764 3314 CircleF
2781 3512 CircleF
2799 3535 CircleF
2834 3614 CircleF
2851 3132 CircleF
2868 3218 CircleF
2886 2508 CircleF
2903 3736 CircleF
2920 3010 CircleF
2937 3597 CircleF
2955 3207 CircleF
2972 3388 CircleF
2990 4008 CircleF
3005 3283 CircleF
3022 3547 CircleF
3039 3325 CircleF
3057 4135 CircleF
3074 3403 CircleF
3091 3471 CircleF
3109 3207 CircleF
3126 3279 CircleF
3143 3762 CircleF
3161 3711 CircleF
3178 2784 CircleF
3195 3840 CircleF
3213 3199 CircleF
3230 2794 CircleF
3248 2257 CircleF
3265 2962 CircleF
3282 3485 CircleF
3299 3161 CircleF
3317 3096 CircleF
3334 3288 CircleF
3351 2968 CircleF
3369 3678 CircleF
3386 3360 CircleF
3404 4072 CircleF
3421 3758 CircleF
3438 3187 CircleF
3456 3389 CircleF
3473 3078 CircleF
3490 3540 CircleF
3508 2381 CircleF
3525 2924 CircleF
3542 3388 CircleF
3559 3598 CircleF
3576 2780 CircleF
3594 3504 CircleF
3611 2943 CircleF
3629 3926 CircleF
3646 2853 CircleF
3663 2551 CircleF
3681 2763 CircleF
3699 3489 CircleF
3716 3188 CircleF
3733 2886 CircleF
3750 3612 CircleF
3768 3052 CircleF
3785 3776 CircleF
3814 3440 CircleF
3869 3544 CircleF
3886 2728 CircleF
3903 3711 CircleF
3920 3156 CircleF
3937 2606 CircleF
3954 2320 CircleF
3972 3071 CircleF
3989 2808 CircleF
4007 2818 CircleF
4024 2848 CircleF
4042 3160 CircleF
4093 2733 CircleF
4111 3182 CircleF
4128 2900 CircleF
4145 3433 CircleF
4180 3601 CircleF
4198 3086 CircleF
4215 4442 CircleF
4232 3554 CircleF
4249 3651 CircleF
4266 3531 CircleF
4284 2961 CircleF
4301 3200 CircleF
4319 3280 CircleF
4353 3232 CircleF
4370 3350 CircleF
4387 3450 CircleF
4405 3422 CircleF
4422 3540 CircleF
4439 2817 CircleF
4456 3495 CircleF
4474 3443 CircleF
4491 3242 CircleF
4508 3281 CircleF
4526 3025 CircleF
4543 3084 CircleF
4560 3043 CircleF
4578 3039 CircleF
4595 2895 CircleF
4612 3118 CircleF
4630 3093 CircleF
4647 2924 CircleF
4664 3082 CircleF
4682 3235 CircleF
4699 3051 CircleF
4716 3272 CircleF
4734 2797 CircleF
4752 3127 CircleF
4769 3154 CircleF
4786 3367 CircleF
4803 3365 CircleF
4821 2791 CircleF
4838 3230 CircleF
4855 3457 CircleF
4872 2927 CircleF
4890 3343 CircleF
4907 3570 CircleF
4924 3100 CircleF
4942 3288 CircleF
4959 3243 CircleF
4977 2981 CircleF
4994 3154 CircleF
5011 3320 CircleF
5029 3151 CircleF
5046 3222 CircleF
5063 3216 CircleF
5081 3081 CircleF
5098 3271 CircleF
5115 3305 CircleF
5132 3307 CircleF
5150 3256 CircleF
5167 3253 CircleF
5185 3195 CircleF
5202 3029 CircleF
5219 3140 CircleF
5236 3147 CircleF
5253 3227 CircleF
5270 3383 CircleF
5287 3252 CircleF
5305 3196 CircleF
5322 3293 CircleF
5339 3283 CircleF
5356 3219 CircleF
5374 3332 CircleF
5391 3317 CircleF
5408 3169 CircleF
5425 3303 CircleF
5443 3255 CircleF
5460 3229 CircleF
5477 3228 CircleF
5495 3302 CircleF
5512 3145 CircleF
5530 3114 CircleF
5547 3233 CircleF
5564 3173 CircleF
5582 3187 CircleF
6303 4976 CircleF
% End plot #3
1.000 UL
LTb
1464 5759 N
0 -4991 V
5303 0 V
0 4991 V
-5303 0 V
Z stroke
1.000 UP
1.000 UL
LTb
stroke
grestore
end
showpage
%%Trailer
%%DocumentFonts: Symbol Helvetica
