%!PS-Adobe-2.0 EPSF-2.0
%%Title: residuals-B5.eps
%%Creator: gnuplot 4.4 patchlevel 4
%%CreationDate: Tue Jan 29 08:56:23 2013
%%DocumentFonts: (atend)
%%BoundingBox: 80 50 400 352
%%EndComments
%%BeginProlog
/gnudict 256 dict def
gnudict begin
%
% The following true/false flags may be edited by hand if desired.
% The unit line width and grayscale image gamma correction may also be changed.
%
/Color true def
/Blacktext false def
/Solid true def
/Dashlength 1 def
/Landscape false def
/Level1 false def
/Rounded false def
/ClipToBoundingBox false def
/TransparentPatterns false def
/gnulinewidth 5.000 def
/userlinewidth gnulinewidth def
/Gamma 1.0 def
%
/vshift -80 def
/dl1 {
  10.0 Dashlength mul mul
  Rounded { currentlinewidth 0.75 mul sub dup 0 le { pop 0.01 } if } if
} def
/dl2 {
  10.0 Dashlength mul mul
  Rounded { currentlinewidth 0.75 mul add } if
} def
/hpt_ 31.5 def
/vpt_ 31.5 def
/hpt hpt_ def
/vpt vpt_ def
Level1 {} {
/SDict 10 dict def
systemdict /pdfmark known not {
  userdict /pdfmark systemdict /cleartomark get put
} if
SDict begin [
  /Title (residuals-B5.eps)
  /Subject (gnuplot plot)
  /Creator (gnuplot 4.4 patchlevel 4)
  /Author (bmalama)
%  /Producer (gnuplot)
%  /Keywords ()
  /CreationDate (Tue Jan 29 08:56:23 2013)
  /DOCINFO pdfmark
end
} ifelse
/doclip {
  ClipToBoundingBox {
    newpath 50 50 moveto 410 50 lineto 410 352 lineto 50 352 lineto closepath
    clip
  } if
} def
%
% Gnuplot Prolog Version 4.4 (August 2010)
%
%/SuppressPDFMark true def
%
/M {moveto} bind def
/L {lineto} bind def
/R {rmoveto} bind def
/V {rlineto} bind def
/N {newpath moveto} bind def
/Z {closepath} bind def
/C {setrgbcolor} bind def
/f {rlineto fill} bind def
/g {setgray} bind def
/Gshow {show} def   % May be redefined later in the file to support UTF-8
/vpt2 vpt 2 mul def
/hpt2 hpt 2 mul def
/Lshow {currentpoint stroke M 0 vshift R 
	Blacktext {gsave 0 setgray show grestore} {show} ifelse} def
/Rshow {currentpoint stroke M dup stringwidth pop neg vshift R
	Blacktext {gsave 0 setgray show grestore} {show} ifelse} def
/Cshow {currentpoint stroke M dup stringwidth pop -2 div vshift R 
	Blacktext {gsave 0 setgray show grestore} {show} ifelse} def
/UP {dup vpt_ mul /vpt exch def hpt_ mul /hpt exch def
  /hpt2 hpt 2 mul def /vpt2 vpt 2 mul def} def
/DL {Color {setrgbcolor Solid {pop []} if 0 setdash}
 {pop pop pop 0 setgray Solid {pop []} if 0 setdash} ifelse} def
/BL {stroke userlinewidth 2 mul setlinewidth
	Rounded {1 setlinejoin 1 setlinecap} if} def
/AL {stroke userlinewidth 2 div setlinewidth
	Rounded {1 setlinejoin 1 setlinecap} if} def
/UL {dup gnulinewidth mul /userlinewidth exch def
	dup 1 lt {pop 1} if 10 mul /udl exch def} def
/PL {stroke userlinewidth setlinewidth
	Rounded {1 setlinejoin 1 setlinecap} if} def
3.8 setmiterlimit
% Default Line colors
/LCw {1 1 1} def
/LCb {0 0 0} def
/LCa {0 0 0} def
/LC0 {1 0 0} def
/LC1 {0 1 0} def
/LC2 {0 0 1} def
/LC3 {1 0 1} def
/LC4 {0 1 1} def
/LC5 {1 1 0} def
/LC6 {0 0 0} def
/LC7 {1 0.3 0} def
/LC8 {0.5 0.5 0.5} def
% Default Line Types
/LTw {PL [] 1 setgray} def
/LTb {BL [] LCb DL} def
/LTa {AL [1 udl mul 2 udl mul] 0 setdash LCa setrgbcolor} def
/LT0 {PL [] LC0 DL} def
/LT1 {PL [4 dl1 2 dl2] LC1 DL} def
/LT2 {PL [2 dl1 3 dl2] LC2 DL} def
/LT3 {PL [1 dl1 1.5 dl2] LC3 DL} def
/LT4 {PL [6 dl1 2 dl2 1 dl1 2 dl2] LC4 DL} def
/LT5 {PL [3 dl1 3 dl2 1 dl1 3 dl2] LC5 DL} def
/LT6 {PL [2 dl1 2 dl2 2 dl1 6 dl2] LC6 DL} def
/LT7 {PL [1 dl1 2 dl2 6 dl1 2 dl2 1 dl1 2 dl2] LC7 DL} def
/LT8 {PL [2 dl1 2 dl2 2 dl1 2 dl2 2 dl1 2 dl2 2 dl1 4 dl2] LC8 DL} def
/Pnt {stroke [] 0 setdash gsave 1 setlinecap M 0 0 V stroke grestore} def
/Dia {stroke [] 0 setdash 2 copy vpt add M
  hpt neg vpt neg V hpt vpt neg V
  hpt vpt V hpt neg vpt V closepath stroke
  Pnt} def
/Pls {stroke [] 0 setdash vpt sub M 0 vpt2 V
  currentpoint stroke M
  hpt neg vpt neg R hpt2 0 V stroke
 } def
/Box {stroke [] 0 setdash 2 copy exch hpt sub exch vpt add M
  0 vpt2 neg V hpt2 0 V 0 vpt2 V
  hpt2 neg 0 V closepath stroke
  Pnt} def
/Crs {stroke [] 0 setdash exch hpt sub exch vpt add M
  hpt2 vpt2 neg V currentpoint stroke M
  hpt2 neg 0 R hpt2 vpt2 V stroke} def
/TriU {stroke [] 0 setdash 2 copy vpt 1.12 mul add M
  hpt neg vpt -1.62 mul V
  hpt 2 mul 0 V
  hpt neg vpt 1.62 mul V closepath stroke
  Pnt} def
/Star {2 copy Pls Crs} def
/BoxF {stroke [] 0 setdash exch hpt sub exch vpt add M
  0 vpt2 neg V hpt2 0 V 0 vpt2 V
  hpt2 neg 0 V closepath fill} def
/TriUF {stroke [] 0 setdash vpt 1.12 mul add M
  hpt neg vpt -1.62 mul V
  hpt 2 mul 0 V
  hpt neg vpt 1.62 mul V closepath fill} def
/TriD {stroke [] 0 setdash 2 copy vpt 1.12 mul sub M
  hpt neg vpt 1.62 mul V
  hpt 2 mul 0 V
  hpt neg vpt -1.62 mul V closepath stroke
  Pnt} def
/TriDF {stroke [] 0 setdash vpt 1.12 mul sub M
  hpt neg vpt 1.62 mul V
  hpt 2 mul 0 V
  hpt neg vpt -1.62 mul V closepath fill} def
/DiaF {stroke [] 0 setdash vpt add M
  hpt neg vpt neg V hpt vpt neg V
  hpt vpt V hpt neg vpt V closepath fill} def
/Pent {stroke [] 0 setdash 2 copy gsave
  translate 0 hpt M 4 {72 rotate 0 hpt L} repeat
  closepath stroke grestore Pnt} def
/PentF {stroke [] 0 setdash gsave
  translate 0 hpt M 4 {72 rotate 0 hpt L} repeat
  closepath fill grestore} def
/Circle {stroke [] 0 setdash 2 copy
  hpt 0 360 arc stroke Pnt} def
/CircleF {stroke [] 0 setdash hpt 0 360 arc fill} def
/C0 {BL [] 0 setdash 2 copy moveto vpt 90 450 arc} bind def
/C1 {BL [] 0 setdash 2 copy moveto
	2 copy vpt 0 90 arc closepath fill
	vpt 0 360 arc closepath} bind def
/C2 {BL [] 0 setdash 2 copy moveto
	2 copy vpt 90 180 arc closepath fill
	vpt 0 360 arc closepath} bind def
/C3 {BL [] 0 setdash 2 copy moveto
	2 copy vpt 0 180 arc closepath fill
	vpt 0 360 arc closepath} bind def
/C4 {BL [] 0 setdash 2 copy moveto
	2 copy vpt 180 270 arc closepath fill
	vpt 0 360 arc closepath} bind def
/C5 {BL [] 0 setdash 2 copy moveto
	2 copy vpt 0 90 arc
	2 copy moveto
	2 copy vpt 180 270 arc closepath fill
	vpt 0 360 arc} bind def
/C6 {BL [] 0 setdash 2 copy moveto
	2 copy vpt 90 270 arc closepath fill
	vpt 0 360 arc closepath} bind def
/C7 {BL [] 0 setdash 2 copy moveto
	2 copy vpt 0 270 arc closepath fill
	vpt 0 360 arc closepath} bind def
/C8 {BL [] 0 setdash 2 copy moveto
	2 copy vpt 270 360 arc closepath fill
	vpt 0 360 arc closepath} bind def
/C9 {BL [] 0 setdash 2 copy moveto
	2 copy vpt 270 450 arc closepath fill
	vpt 0 360 arc closepath} bind def
/C10 {BL [] 0 setdash 2 copy 2 copy moveto vpt 270 360 arc closepath fill
	2 copy moveto
	2 copy vpt 90 180 arc closepath fill
	vpt 0 360 arc closepath} bind def
/C11 {BL [] 0 setdash 2 copy moveto
	2 copy vpt 0 180 arc closepath fill
	2 copy moveto
	2 copy vpt 270 360 arc closepath fill
	vpt 0 360 arc closepath} bind def
/C12 {BL [] 0 setdash 2 copy moveto
	2 copy vpt 180 360 arc closepath fill
	vpt 0 360 arc closepath} bind def
/C13 {BL [] 0 setdash 2 copy moveto
	2 copy vpt 0 90 arc closepath fill
	2 copy moveto
	2 copy vpt 180 360 arc closepath fill
	vpt 0 360 arc closepath} bind def
/C14 {BL [] 0 setdash 2 copy moveto
	2 copy vpt 90 360 arc closepath fill
	vpt 0 360 arc} bind def
/C15 {BL [] 0 setdash 2 copy vpt 0 360 arc closepath fill
	vpt 0 360 arc closepath} bind def
/Rec {newpath 4 2 roll moveto 1 index 0 rlineto 0 exch rlineto
	neg 0 rlineto closepath} bind def
/Square {dup Rec} bind def
/Bsquare {vpt sub exch vpt sub exch vpt2 Square} bind def
/S0 {BL [] 0 setdash 2 copy moveto 0 vpt rlineto BL Bsquare} bind def
/S1 {BL [] 0 setdash 2 copy vpt Square fill Bsquare} bind def
/S2 {BL [] 0 setdash 2 copy exch vpt sub exch vpt Square fill Bsquare} bind def
/S3 {BL [] 0 setdash 2 copy exch vpt sub exch vpt2 vpt Rec fill Bsquare} bind def
/S4 {BL [] 0 setdash 2 copy exch vpt sub exch vpt sub vpt Square fill Bsquare} bind def
/S5 {BL [] 0 setdash 2 copy 2 copy vpt Square fill
	exch vpt sub exch vpt sub vpt Square fill Bsquare} bind def
/S6 {BL [] 0 setdash 2 copy exch vpt sub exch vpt sub vpt vpt2 Rec fill Bsquare} bind def
/S7 {BL [] 0 setdash 2 copy exch vpt sub exch vpt sub vpt vpt2 Rec fill
	2 copy vpt Square fill Bsquare} bind def
/S8 {BL [] 0 setdash 2 copy vpt sub vpt Square fill Bsquare} bind def
/S9 {BL [] 0 setdash 2 copy vpt sub vpt vpt2 Rec fill Bsquare} bind def
/S10 {BL [] 0 setdash 2 copy vpt sub vpt Square fill 2 copy exch vpt sub exch vpt Square fill
	Bsquare} bind def
/S11 {BL [] 0 setdash 2 copy vpt sub vpt Square fill 2 copy exch vpt sub exch vpt2 vpt Rec fill
	Bsquare} bind def
/S12 {BL [] 0 setdash 2 copy exch vpt sub exch vpt sub vpt2 vpt Rec fill Bsquare} bind def
/S13 {BL [] 0 setdash 2 copy exch vpt sub exch vpt sub vpt2 vpt Rec fill
	2 copy vpt Square fill Bsquare} bind def
/S14 {BL [] 0 setdash 2 copy exch vpt sub exch vpt sub vpt2 vpt Rec fill
	2 copy exch vpt sub exch vpt Square fill Bsquare} bind def
/S15 {BL [] 0 setdash 2 copy Bsquare fill Bsquare} bind def
/D0 {gsave translate 45 rotate 0 0 S0 stroke grestore} bind def
/D1 {gsave translate 45 rotate 0 0 S1 stroke grestore} bind def
/D2 {gsave translate 45 rotate 0 0 S2 stroke grestore} bind def
/D3 {gsave translate 45 rotate 0 0 S3 stroke grestore} bind def
/D4 {gsave translate 45 rotate 0 0 S4 stroke grestore} bind def
/D5 {gsave translate 45 rotate 0 0 S5 stroke grestore} bind def
/D6 {gsave translate 45 rotate 0 0 S6 stroke grestore} bind def
/D7 {gsave translate 45 rotate 0 0 S7 stroke grestore} bind def
/D8 {gsave translate 45 rotate 0 0 S8 stroke grestore} bind def
/D9 {gsave translate 45 rotate 0 0 S9 stroke grestore} bind def
/D10 {gsave translate 45 rotate 0 0 S10 stroke grestore} bind def
/D11 {gsave translate 45 rotate 0 0 S11 stroke grestore} bind def
/D12 {gsave translate 45 rotate 0 0 S12 stroke grestore} bind def
/D13 {gsave translate 45 rotate 0 0 S13 stroke grestore} bind def
/D14 {gsave translate 45 rotate 0 0 S14 stroke grestore} bind def
/D15 {gsave translate 45 rotate 0 0 S15 stroke grestore} bind def
/DiaE {stroke [] 0 setdash vpt add M
  hpt neg vpt neg V hpt vpt neg V
  hpt vpt V hpt neg vpt V closepath stroke} def
/BoxE {stroke [] 0 setdash exch hpt sub exch vpt add M
  0 vpt2 neg V hpt2 0 V 0 vpt2 V
  hpt2 neg 0 V closepath stroke} def
/TriUE {stroke [] 0 setdash vpt 1.12 mul add M
  hpt neg vpt -1.62 mul V
  hpt 2 mul 0 V
  hpt neg vpt 1.62 mul V closepath stroke} def
/TriDE {stroke [] 0 setdash vpt 1.12 mul sub M
  hpt neg vpt 1.62 mul V
  hpt 2 mul 0 V
  hpt neg vpt -1.62 mul V closepath stroke} def
/PentE {stroke [] 0 setdash gsave
  translate 0 hpt M 4 {72 rotate 0 hpt L} repeat
  closepath stroke grestore} def
/CircE {stroke [] 0 setdash 
  hpt 0 360 arc stroke} def
/Opaque {gsave closepath 1 setgray fill grestore 0 setgray closepath} def
/DiaW {stroke [] 0 setdash vpt add M
  hpt neg vpt neg V hpt vpt neg V
  hpt vpt V hpt neg vpt V Opaque stroke} def
/BoxW {stroke [] 0 setdash exch hpt sub exch vpt add M
  0 vpt2 neg V hpt2 0 V 0 vpt2 V
  hpt2 neg 0 V Opaque stroke} def
/TriUW {stroke [] 0 setdash vpt 1.12 mul add M
  hpt neg vpt -1.62 mul V
  hpt 2 mul 0 V
  hpt neg vpt 1.62 mul V Opaque stroke} def
/TriDW {stroke [] 0 setdash vpt 1.12 mul sub M
  hpt neg vpt 1.62 mul V
  hpt 2 mul 0 V
  hpt neg vpt -1.62 mul V Opaque stroke} def
/PentW {stroke [] 0 setdash gsave
  translate 0 hpt M 4 {72 rotate 0 hpt L} repeat
  Opaque stroke grestore} def
/CircW {stroke [] 0 setdash 
  hpt 0 360 arc Opaque stroke} def
/BoxFill {gsave Rec 1 setgray fill grestore} def
/Density {
  /Fillden exch def
  currentrgbcolor
  /ColB exch def /ColG exch def /ColR exch def
  /ColR ColR Fillden mul Fillden sub 1 add def
  /ColG ColG Fillden mul Fillden sub 1 add def
  /ColB ColB Fillden mul Fillden sub 1 add def
  ColR ColG ColB setrgbcolor} def
/BoxColFill {gsave Rec PolyFill} def
/PolyFill {gsave Density fill grestore grestore} def
/h {rlineto rlineto rlineto gsave closepath fill grestore} bind def
%
% PostScript Level 1 Pattern Fill routine for rectangles
% Usage: x y w h s a XX PatternFill
%	x,y = lower left corner of box to be filled
%	w,h = width and height of box
%	  a = angle in degrees between lines and x-axis
%	 XX = 0/1 for no/yes cross-hatch
%
/PatternFill {gsave /PFa [ 9 2 roll ] def
  PFa 0 get PFa 2 get 2 div add PFa 1 get PFa 3 get 2 div add translate
  PFa 2 get -2 div PFa 3 get -2 div PFa 2 get PFa 3 get Rec
  gsave 1 setgray fill grestore clip
  currentlinewidth 0.5 mul setlinewidth
  /PFs PFa 2 get dup mul PFa 3 get dup mul add sqrt def
  0 0 M PFa 5 get rotate PFs -2 div dup translate
  0 1 PFs PFa 4 get div 1 add floor cvi
	{PFa 4 get mul 0 M 0 PFs V} for
  0 PFa 6 get ne {
	0 1 PFs PFa 4 get div 1 add floor cvi
	{PFa 4 get mul 0 2 1 roll M PFs 0 V} for
 } if
  stroke grestore} def
%
/languagelevel where
 {pop languagelevel} {1} ifelse
 2 lt
	{/InterpretLevel1 true def}
	{/InterpretLevel1 Level1 def}
 ifelse
%
% PostScript level 2 pattern fill definitions
%
/Level2PatternFill {
/Tile8x8 {/PaintType 2 /PatternType 1 /TilingType 1 /BBox [0 0 8 8] /XStep 8 /YStep 8}
	bind def
/KeepColor {currentrgbcolor [/Pattern /DeviceRGB] setcolorspace} bind def
<< Tile8x8
 /PaintProc {0.5 setlinewidth pop 0 0 M 8 8 L 0 8 M 8 0 L stroke} 
>> matrix makepattern
/Pat1 exch def
<< Tile8x8
 /PaintProc {0.5 setlinewidth pop 0 0 M 8 8 L 0 8 M 8 0 L stroke
	0 4 M 4 8 L 8 4 L 4 0 L 0 4 L stroke}
>> matrix makepattern
/Pat2 exch def
<< Tile8x8
 /PaintProc {0.5 setlinewidth pop 0 0 M 0 8 L
	8 8 L 8 0 L 0 0 L fill}
>> matrix makepattern
/Pat3 exch def
<< Tile8x8
 /PaintProc {0.5 setlinewidth pop -4 8 M 8 -4 L
	0 12 M 12 0 L stroke}
>> matrix makepattern
/Pat4 exch def
<< Tile8x8
 /PaintProc {0.5 setlinewidth pop -4 0 M 8 12 L
	0 -4 M 12 8 L stroke}
>> matrix makepattern
/Pat5 exch def
<< Tile8x8
 /PaintProc {0.5 setlinewidth pop -2 8 M 4 -4 L
	0 12 M 8 -4 L 4 12 M 10 0 L stroke}
>> matrix makepattern
/Pat6 exch def
<< Tile8x8
 /PaintProc {0.5 setlinewidth pop -2 0 M 4 12 L
	0 -4 M 8 12 L 4 -4 M 10 8 L stroke}
>> matrix makepattern
/Pat7 exch def
<< Tile8x8
 /PaintProc {0.5 setlinewidth pop 8 -2 M -4 4 L
	12 0 M -4 8 L 12 4 M 0 10 L stroke}
>> matrix makepattern
/Pat8 exch def
<< Tile8x8
 /PaintProc {0.5 setlinewidth pop 0 -2 M 12 4 L
	-4 0 M 12 8 L -4 4 M 8 10 L stroke}
>> matrix makepattern
/Pat9 exch def
/Pattern1 {PatternBgnd KeepColor Pat1 setpattern} bind def
/Pattern2 {PatternBgnd KeepColor Pat2 setpattern} bind def
/Pattern3 {PatternBgnd KeepColor Pat3 setpattern} bind def
/Pattern4 {PatternBgnd KeepColor Landscape {Pat5} {Pat4} ifelse setpattern} bind def
/Pattern5 {PatternBgnd KeepColor Landscape {Pat4} {Pat5} ifelse setpattern} bind def
/Pattern6 {PatternBgnd KeepColor Landscape {Pat9} {Pat6} ifelse setpattern} bind def
/Pattern7 {PatternBgnd KeepColor Landscape {Pat8} {Pat7} ifelse setpattern} bind def
} def
%
%
%End of PostScript Level 2 code
%
/PatternBgnd {
  TransparentPatterns {} {gsave 1 setgray fill grestore} ifelse
} def
%
% Substitute for Level 2 pattern fill codes with
% grayscale if Level 2 support is not selected.
%
/Level1PatternFill {
/Pattern1 {0.250 Density} bind def
/Pattern2 {0.500 Density} bind def
/Pattern3 {0.750 Density} bind def
/Pattern4 {0.125 Density} bind def
/Pattern5 {0.375 Density} bind def
/Pattern6 {0.625 Density} bind def
/Pattern7 {0.875 Density} bind def
} def
%
% Now test for support of Level 2 code
%
Level1 {Level1PatternFill} {Level2PatternFill} ifelse
%
/Symbol-Oblique /Symbol findfont [1 0 .167 1 0 0] makefont
dup length dict begin {1 index /FID eq {pop pop} {def} ifelse} forall
currentdict end definefont pop
/MFshow {
   { dup 5 get 3 ge
     { 5 get 3 eq {gsave} {grestore} ifelse }
     {dup dup 0 get findfont exch 1 get scalefont setfont
     [ currentpoint ] exch dup 2 get 0 exch R dup 5 get 2 ne {dup dup 6
     get exch 4 get {Gshow} {stringwidth pop 0 R} ifelse }if dup 5 get 0 eq
     {dup 3 get {2 get neg 0 exch R pop} {pop aload pop M} ifelse} {dup 5
     get 1 eq {dup 2 get exch dup 3 get exch 6 get stringwidth pop -2 div
     dup 0 R} {dup 6 get stringwidth pop -2 div 0 R 6 get
     show 2 index {aload pop M neg 3 -1 roll neg R pop pop} {pop pop pop
     pop aload pop M} ifelse }ifelse }ifelse }
     ifelse }
   forall} def
/Gswidth {dup type /stringtype eq {stringwidth} {pop (n) stringwidth} ifelse} def
/MFwidth {0 exch { dup 5 get 3 ge { 5 get 3 eq { 0 } { pop } ifelse }
 {dup 3 get{dup dup 0 get findfont exch 1 get scalefont setfont
     6 get Gswidth pop add} {pop} ifelse} ifelse} forall} def
/MLshow { currentpoint stroke M
  0 exch R
  Blacktext {gsave 0 setgray MFshow grestore} {MFshow} ifelse } bind def
/MRshow { currentpoint stroke M
  exch dup MFwidth neg 3 -1 roll R
  Blacktext {gsave 0 setgray MFshow grestore} {MFshow} ifelse } bind def
/MCshow { currentpoint stroke M
  exch dup MFwidth -2 div 3 -1 roll R
  Blacktext {gsave 0 setgray MFshow grestore} {MFshow} ifelse } bind def
/XYsave    { [( ) 1 2 true false 3 ()] } bind def
/XYrestore { [( ) 1 2 true false 4 ()] } bind def
end
%%EndProlog
gnudict begin
gsave
doclip
50 50 translate
0.050 0.050 scale
0 setgray
newpath
(Helvetica) findfont 240 scalefont setfont
1.000 UL
LTb
1464 768 M
63 0 V
5240 0 R
-63 0 V
stroke
1320 768 M
[ [(Helvetica) 240.0 0.0 true true 0 (-0.015)]
] -80.0 MRshow
1.000 UL
LTb
1464 1600 M
63 0 V
5240 0 R
-63 0 V
stroke
1320 1600 M
[ [(Helvetica) 240.0 0.0 true true 0 (-0.01)]
] -80.0 MRshow
1.000 UL
LTb
1464 2432 M
63 0 V
5240 0 R
-63 0 V
stroke
1320 2432 M
[ [(Helvetica) 240.0 0.0 true true 0 (-0.005)]
] -80.0 MRshow
1.000 UL
LTb
1464 3264 M
63 0 V
5240 0 R
-63 0 V
stroke
1320 3264 M
[ [(Helvetica) 240.0 0.0 true true 0 ( 0)]
] -80.0 MRshow
1.000 UL
LTb
1464 4095 M
63 0 V
5240 0 R
-63 0 V
stroke
1320 4095 M
[ [(Helvetica) 240.0 0.0 true true 0 ( 0.005)]
] -80.0 MRshow
1.000 UL
LTb
1464 4927 M
63 0 V
5240 0 R
-63 0 V
stroke
1320 4927 M
[ [(Helvetica) 240.0 0.0 true true 0 ( 0.01)]
] -80.0 MRshow
1.000 UL
LTb
1464 5759 M
63 0 V
5240 0 R
-63 0 V
stroke
1320 5759 M
[ [(Helvetica) 240.0 0.0 true true 0 ( 0.015)]
] -80.0 MRshow
1.000 UL
LTb
1464 768 M
0 63 V
0 4928 R
0 -63 V
stroke
1464 528 M
[ [(Helvetica) 240.0 0.0 true true 0 ( 0)]
] -80.0 MCshow
1.000 UL
LTb
2348 768 M
0 63 V
0 4928 R
0 -63 V
stroke
2348 528 M
[ [(Helvetica) 240.0 0.0 true true 0 ( 10)]
] -80.0 MCshow
1.000 UL
LTb
3232 768 M
0 63 V
0 4928 R
0 -63 V
stroke
3232 528 M
[ [(Helvetica) 240.0 0.0 true true 0 ( 20)]
] -80.0 MCshow
1.000 UL
LTb
4116 768 M
0 63 V
0 4928 R
0 -63 V
stroke
4116 528 M
[ [(Helvetica) 240.0 0.0 true true 0 ( 30)]
] -80.0 MCshow
1.000 UL
LTb
4999 768 M
0 63 V
0 4928 R
0 -63 V
stroke
4999 528 M
[ [(Helvetica) 240.0 0.0 true true 0 ( 40)]
] -80.0 MCshow
1.000 UL
LTb
5883 768 M
0 63 V
0 4928 R
0 -63 V
stroke
5883 528 M
[ [(Helvetica) 240.0 0.0 true true 0 ( 50)]
] -80.0 MCshow
1.000 UL
LTb
6767 768 M
0 63 V
0 4928 R
0 -63 V
stroke
6767 528 M
[ [(Helvetica) 240.0 0.0 true true 0 ( 60)]
] -80.0 MCshow
1.000 UL
LTb
1.000 UL
LTb
1464 5759 N
0 -4991 V
5303 0 V
0 4991 V
-5303 0 V
Z stroke
LCb setrgbcolor
192 3263 M
currentpoint gsave translate -270 rotate 0 0 moveto
%%[ [(Helvetica) 240.0 0.0 true true 0 (Residuals \()]
%%[(Symbol) 240.0 0.0 true true 0 (m)]
%%[(Helvetica) 240.0 0.0 true true 0 (Ci/mL\))]
%%] -80.0 MCshow
grestore
LTb
LCb setrgbcolor
4115 168 M
[ [(Helvetica) 240.0 0.0 true true 0 (t \(hrs\))]
] -80.0 MCshow
LTb
1.000 UP
1570 5509 M
[ [(Helvetica) 240.0 0.0 true true 0 (\(b\) B5)]
] -80.0 MLshow
1.000 UL
LTb
% Begin plot #1
1.000 UP
1.000 UL
LT0
LCb setrgbcolor
5984 5552 M
[ [(Helvetica) 240.0 0.0 true true 0 (single)]
] -80.0 MRshow
LT0
1489 3434 CircleF
1494 3347 CircleF
1500 3451 CircleF
1505 3396 CircleF
1510 3419 CircleF
1516 3412 CircleF
1521 3314 CircleF
1527 3372 CircleF
1533 3360 CircleF
1539 3349 CircleF
1544 3308 CircleF
1550 3215 CircleF
1556 3356 CircleF
1561 3314 CircleF
1567 3274 CircleF
1572 3209 CircleF
1577 3247 CircleF
1583 3232 CircleF
1589 3162 CircleF
1594 3132 CircleF
1600 3158 CircleF
1606 3064 CircleF
1612 3096 CircleF
1618 3016 CircleF
1624 2916 CircleF
1630 2973 CircleF
1635 3022 CircleF
1641 2876 CircleF
1647 2851 CircleF
1653 2785 CircleF
1659 2722 CircleF
1664 2692 CircleF
1670 2595 CircleF
1676 2571 CircleF
1682 2422 CircleF
1688 2430 CircleF
1694 2361 CircleF
1700 2336 CircleF
1706 2228 CircleF
1718 2257 CircleF
1736 2115 CircleF
1753 2271 CircleF
1770 2169 CircleF
1788 2088 CircleF
1805 2224 CircleF
1823 2421 CircleF
1839 2403 CircleF
1850 2874 CircleF
1874 2540 CircleF
1892 2551 CircleF
1915 2461 CircleF
1927 2742 CircleF
1945 2956 CircleF
1963 2443 CircleF
1982 3059 CircleF
1999 3365 CircleF
2016 3411 CircleF
2034 3117 CircleF
2051 3065 CircleF
2086 3435 CircleF
2118 3445 CircleF
2137 3540 CircleF
2172 3559 CircleF
2189 3181 CircleF
2208 4328 CircleF
2225 3756 CircleF
2244 3574 CircleF
2259 3767 CircleF
2276 3303 CircleF
2311 3308 CircleF
2329 3321 CircleF
2346 3995 CircleF
2363 3526 CircleF
2381 2799 CircleF
2399 3162 CircleF
2416 3549 CircleF
2450 3945 CircleF
2467 2913 CircleF
2485 2500 CircleF
2502 2622 CircleF
2519 3476 CircleF
2537 3632 CircleF
2572 3776 CircleF
2589 2921 CircleF
2606 2926 CircleF
2676 3999 CircleF
2708 3550 CircleF
2726 3579 CircleF
2777 3355 CircleF
2795 4258 CircleF
2829 3165 CircleF
2845 4426 CircleF
2862 4146 CircleF
2914 3139 CircleF
2931 4407 CircleF
3037 3849 CircleF
3054 3939 CircleF
3089 4292 CircleF
3217 3949 CircleF
3234 3717 CircleF
3246 4530 CircleF
3279 4250 CircleF
3290 4556 CircleF
3301 4349 CircleF
3335 4587 CircleF
3358 2979 CircleF
3380 3774 CircleF
3392 2714 CircleF
3405 4566 CircleF
3416 3509 CircleF
3427 3824 CircleF
3438 2081 CircleF
3461 3569 CircleF
3473 2684 CircleF
3485 2827 CircleF
3531 3580 CircleF
3542 3041 CircleF
3554 1815 CircleF
3567 1445 CircleF
3578 2448 CircleF
3590 2081 CircleF
3602 2570 CircleF
3614 2029 CircleF
3625 3548 CircleF
3633 2846 CircleF
3639 1462 CircleF
3651 3665 CircleF
3662 2270 CircleF
3674 2589 CircleF
3686 2222 CircleF
3698 2540 CircleF
3721 3184 CircleF
3733 2648 CircleF
3762 3633 CircleF
3770 3452 CircleF
3795 3090 CircleF
3806 2915 CircleF
3849 3292 CircleF
3867 3677 CircleF
3883 3733 CircleF
3899 3296 CircleF
3916 3054 CircleF
3933 2843 CircleF
3951 3514 CircleF
3968 3182 CircleF
3985 3906 CircleF
4001 2600 CircleF
4019 2534 CircleF
4037 3351 CircleF
4055 3327 CircleF
4089 3152 CircleF
4125 3424 CircleF
4142 3460 CircleF
4159 2660 CircleF
4176 3038 CircleF
4194 3117 CircleF
4211 2565 CircleF
4244 2966 CircleF
4262 2760 CircleF
4298 3600 CircleF
4314 3198 CircleF
4331 3689 CircleF
4384 2866 CircleF
4401 3483 CircleF
4418 3791 CircleF
4453 2657 CircleF
4471 3369 CircleF
4503 2528 CircleF
4573 2964 CircleF
4589 2734 CircleF
4625 2578 CircleF
4642 2631 CircleF
4711 2790 CircleF
4728 3132 CircleF
4745 3090 CircleF
4762 2953 CircleF
4781 3069 CircleF
4816 3198 CircleF
4833 3317 CircleF
4862 3537 CircleF
4879 3575 CircleF
4930 3147 CircleF
4948 3362 CircleF
5046 3695 CircleF
5063 3772 CircleF
5114 3323 CircleF
5132 3363 CircleF
5148 3677 CircleF
5201 3567 CircleF
5219 3623 CircleF
5272 3976 CircleF
5289 3656 CircleF
5306 3900 CircleF
5324 3872 CircleF
5341 4057 CircleF
5358 3918 CircleF
5393 4115 CircleF
5410 4021 CircleF
5442 4021 CircleF
5460 4007 CircleF
5492 4068 CircleF
5509 4200 CircleF
5544 4210 CircleF
5578 4242 CircleF
5647 4290 CircleF
5665 4311 CircleF
5681 4546 CircleF
5698 4389 CircleF
5716 4439 CircleF
5733 4418 CircleF
5750 4357 CircleF
5767 4213 CircleF
5784 4462 CircleF
5802 4078 CircleF
5837 4414 CircleF
5853 4349 CircleF
5869 4418 CircleF
5887 4405 CircleF
5920 4386 CircleF
6303 5552 CircleF
% End plot #1
% Begin plot #2
1.000 UP
1.000 UL
LT1
LCb setrgbcolor
5984 5264 M
[ [(Helvetica) 240.0 0.0 true true 0 (double)]
] -80.0 MRshow
LT1
1489 3434 CircleF
1494 3347 CircleF
1500 3451 CircleF
1505 3396 CircleF
1510 3419 CircleF
1516 3412 CircleF
1521 3314 CircleF
1527 3372 CircleF
1533 3361 CircleF
1539 3350 CircleF
1544 3311 CircleF
1550 3220 CircleF
1556 3364 CircleF
1561 3326 CircleF
1567 3291 CircleF
1572 3232 CircleF
1577 3279 CircleF
1583 3273 CircleF
1589 3214 CircleF
1594 3199 CircleF
1600 3240 CircleF
1606 3163 CircleF
1612 3215 CircleF
1618 3157 CircleF
1624 3080 CircleF
1630 3163 CircleF
1635 3236 CircleF
1641 3117 CircleF
1647 3118 CircleF
1653 3080 CircleF
1659 3044 CircleF
1664 3043 CircleF
1670 2973 CircleF
1676 2976 CircleF
1682 2855 CircleF
1688 2891 CircleF
1694 2850 CircleF
1700 2851 CircleF
1706 2769 CircleF
1718 2845 CircleF
1736 2760 CircleF
1753 2960 CircleF
1770 2888 CircleF
1788 2824 CircleF
1805 2964 CircleF
1823 3152 CircleF
1839 3115 CircleF
1850 3567 CircleF
1874 3183 CircleF
1892 3146 CircleF
1915 2984 CircleF
1927 3226 CircleF
1945 3376 CircleF
1963 2794 CircleF
1982 3338 CircleF
1999 3577 CircleF
2016 3556 CircleF
2034 3194 CircleF
2051 3074 CircleF
2086 3318 CircleF
2118 3219 CircleF
2137 3258 CircleF
2172 3177 CircleF
2189 2755 CircleF
2208 3859 CircleF
2225 3251 CircleF
2244 3033 CircleF
2259 3199 CircleF
2276 2709 CircleF
2311 2671 CircleF
2329 2667 CircleF
2346 3327 CircleF
2363 2847 CircleF
2381 2112 CircleF
2399 2469 CircleF
2416 2853 CircleF
2450 3250 CircleF
2467 2222 CircleF
2485 1813 CircleF
2502 1943 CircleF
2519 2806 CircleF
2537 2972 CircleF
2572 3142 CircleF
2589 2302 CircleF
2606 2322 CircleF
2676 3468 CircleF
2708 3058 CircleF
2726 3108 CircleF
2777 2949 CircleF
2795 3874 CircleF
2829 2825 CircleF
2845 4107 CircleF
2862 3849 CircleF
2914 2910 CircleF
2931 4201 CircleF
3037 3773 CircleF
3054 3883 CircleF
3089 4275 CircleF
3217 4061 CircleF
3234 3844 CircleF
3246 4668 CircleF
3279 4414 CircleF
3290 4730 CircleF
3301 4531 CircleF
3335 4794 CircleF
3358 3201 CircleF
3380 4011 CircleF
3392 2958 CircleF
3405 4817 CircleF
3416 3767 CircleF
3427 4088 CircleF
3438 2352 CircleF
3461 3851 CircleF
3473 2972 CircleF
3485 3121 CircleF
3531 3896 CircleF
3542 3361 CircleF
3554 2140 CircleF
3567 1776 CircleF
3578 2783 CircleF
3590 2420 CircleF
3602 2913 CircleF
3614 2377 CircleF
3625 3900 CircleF
3633 3200 CircleF
3639 1818 CircleF
3651 4025 CircleF
3662 2632 CircleF
3674 2954 CircleF
3686 2589 CircleF
3698 2909 CircleF
3721 3553 CircleF
3733 3017 CircleF
3762 3995 CircleF
3770 3810 CircleF
3795 3432 CircleF
3806 3248 CircleF
3849 3565 CircleF
3867 3914 CircleF
3883 3932 CircleF
3899 3450 CircleF
3916 3158 CircleF
3933 2889 CircleF
3951 3498 CircleF
3968 3105 CircleF
3985 3767 CircleF
4001 2401 CircleF
4019 2277 CircleF
4037 3042 CircleF
4055 2977 CircleF
4089 2750 CircleF
4125 3015 CircleF
4142 3065 CircleF
4159 2288 CircleF
4176 2697 CircleF
4194 2819 CircleF
4211 2313 CircleF
4244 2819 CircleF
4262 2672 CircleF
4298 3642 CircleF
4314 3296 CircleF
4331 3847 CircleF
4384 3197 CircleF
4401 3863 CircleF
4418 4216 CircleF
4453 3166 CircleF
4471 3915 CircleF
4503 3130 CircleF
4573 3642 CircleF
4589 3421 CircleF
4625 3274 CircleF
4642 3327 CircleF
4711 3454 CircleF
4728 3782 CircleF
4745 3724 CircleF
4762 3569 CircleF
4781 3663 CircleF
4816 3744 CircleF
4833 3838 CircleF
4862 4011 CircleF
4879 4021 CircleF
4930 3499 CircleF
4948 3681 CircleF
5046 3815 CircleF
5063 3857 CircleF
5114 3300 CircleF
5132 3302 CircleF
5148 3582 CircleF
5201 3362 CircleF
5219 3382 CircleF
5272 3628 CircleF
5289 3275 CircleF
5306 3486 CircleF
5324 3423 CircleF
5341 3577 CircleF
5358 3406 CircleF
5393 3539 CircleF
5410 3414 CircleF
5442 3358 CircleF
5460 3315 CircleF
5492 3323 CircleF
5509 3428 CircleF
5544 3383 CircleF
5578 3365 CircleF
5647 3319 CircleF
5665 3316 CircleF
5681 3531 CircleF
5698 3353 CircleF
5716 3382 CircleF
5733 3340 CircleF
5750 3261 CircleF
5767 3097 CircleF
5784 3328 CircleF
5802 2924 CircleF
5837 3226 CircleF
5853 3145 CircleF
5869 3199 CircleF
5887 3169 CircleF
5920 3121 CircleF
6303 5264 CircleF
% End plot #2
% Begin plot #3
1.000 UP
1.000 UL
LT2
LCb setrgbcolor
5984 4976 M
[ [(Helvetica) 240.0 0.0 true true 0 (multirate)]
] -80.0 MRshow
LT2
1489 3434 CircleF
1494 3347 CircleF
1500 3451 CircleF
1505 3396 CircleF
1510 3419 CircleF
1516 3412 CircleF
1521 3314 CircleF
1527 3372 CircleF
1533 3361 CircleF
1539 3350 CircleF
1544 3311 CircleF
1550 3220 CircleF
1556 3364 CircleF
1561 3327 CircleF
1567 3292 CircleF
1572 3234 CircleF
1577 3282 CircleF
1583 3279 CircleF
1589 3222 CircleF
1594 3210 CircleF
1600 3256 CircleF
1606 3184 CircleF
1612 3243 CircleF
1618 3193 CircleF
1624 3127 CircleF
1630 3220 CircleF
1635 3306 CircleF
1641 3199 CircleF
1647 3216 CircleF
1653 3193 CircleF
1659 3174 CircleF
1664 3190 CircleF
1670 3138 CircleF
1676 3159 CircleF
1682 3056 CircleF
1688 3111 CircleF
1694 3088 CircleF
1700 3107 CircleF
1706 3042 CircleF
1718 3150 CircleF
1736 3101 CircleF
1753 3321 CircleF
1770 3257 CircleF
1788 3187 CircleF
1805 3306 CircleF
1823 3463 CircleF
1839 3388 CircleF
1850 3811 CircleF
1874 3358 CircleF
1892 3267 CircleF
1915 3035 CircleF
1927 3241 CircleF
1945 3341 CircleF
1963 2711 CircleF
1982 3213 CircleF
1999 3418 CircleF
2016 3369 CircleF
2034 2983 CircleF
2051 2844 CircleF
2086 3068 CircleF
2118 2967 CircleF
2137 3011 CircleF
2172 2949 CircleF
2189 2541 CircleF
2208 3662 CircleF
2225 3072 CircleF
2244 2874 CircleF
2259 3059 CircleF
2276 2589 CircleF
2311 2595 CircleF
2329 2613 CircleF
2346 3295 CircleF
2363 2836 CircleF
2381 2123 CircleF
2399 2500 CircleF
2416 2904 CircleF
2450 3337 CircleF
2467 2326 CircleF
2485 1934 CircleF
2502 2079 CircleF
2519 2956 CircleF
2537 3135 CircleF
2572 3328 CircleF
2589 2497 CircleF
2606 2525 CircleF
2676 3697 CircleF
2708 3293 CircleF
2726 3345 CircleF
2777 3188 CircleF
2795 4112 CircleF
2829 3059 CircleF
2845 4339 CircleF
2862 4077 CircleF
2914 3124 CircleF
2931 4412 CircleF
3037 3942 CircleF
3054 4044 CircleF
3089 4420 CircleF
3217 4144 CircleF
3234 3919 CircleF
3246 4736 CircleF
3279 4467 CircleF
3290 4777 CircleF
3301 4573 CircleF
3335 4819 CircleF
3358 3216 CircleF
3380 4015 CircleF
3392 2956 CircleF
3405 4810 CircleF
3416 3755 CircleF
3427 4071 CircleF
3438 2329 CircleF
3461 3818 CircleF
3473 2935 CircleF
3485 3079 CircleF
3531 3835 CircleF
3542 3296 CircleF
3554 2071 CircleF
3567 1702 CircleF
3578 2705 CircleF
3590 2338 CircleF
3602 2827 CircleF
3614 2287 CircleF
3625 3806 CircleF
3633 3103 CircleF
3639 1719 CircleF
3651 3923 CircleF
3662 2526 CircleF
3674 2844 CircleF
3686 2476 CircleF
3698 2791 CircleF
3721 3427 CircleF
3733 2886 CircleF
3762 3852 CircleF
3770 3663 CircleF
3795 3273 CircleF
3806 3082 CircleF
3849 3368 CircleF
3867 3704 CircleF
3883 3708 CircleF
3899 3211 CircleF
3916 2904 CircleF
3933 2621 CircleF
3951 3219 CircleF
3968 2816 CircleF
3985 3474 CircleF
4001 2110 CircleF
4019 1994 CircleF
4037 2776 CircleF
4055 2735 CircleF
4089 2580 CircleF
4125 2950 CircleF
4142 3055 CircleF
4159 2338 CircleF
4176 2802 CircleF
4194 2984 CircleF
4211 2529 CircleF
4244 3127 CircleF
4262 3017 CircleF
4298 4045 CircleF
4314 3716 CircleF
4331 4278 CircleF
4384 3626 CircleF
4401 4281 CircleF
4418 4620 CircleF
4453 3530 CircleF
4471 4255 CircleF
4503 3421 CircleF
4573 3816 CircleF
4589 3568 CircleF
4625 3362 CircleF
4642 3388 CircleF
4711 3419 CircleF
4728 3725 CircleF
4745 3647 CircleF
4762 3475 CircleF
4781 3551 CircleF
4816 3602 CircleF
4833 3683 CircleF
4862 3839 CircleF
4879 3840 CircleF
4930 3300 CircleF
4948 3477 CircleF
5046 3610 CircleF
5063 3655 CircleF
5114 3112 CircleF
5132 3120 CircleF
5148 3407 CircleF
5201 3210 CircleF
5219 3239 CircleF
5272 3515 CircleF
5289 3172 CircleF
5306 3393 CircleF
5324 3342 CircleF
5341 3507 CircleF
5358 3347 CircleF
5393 3504 CircleF
5410 3391 CircleF
5442 3358 CircleF
5460 3327 CircleF
5492 3358 CircleF
5509 3475 CircleF
5544 3456 CircleF
5578 3463 CircleF
5647 3465 CircleF
5665 3475 CircleF
5681 3701 CircleF
5698 3534 CircleF
5716 3575 CircleF
5733 3545 CircleF
5750 3477 CircleF
5767 3325 CircleF
5784 3567 CircleF
5802 3176 CircleF
5837 3500 CircleF
5853 3429 CircleF
5869 3494 CircleF
5887 3475 CircleF
5920 3448 CircleF
6303 4976 CircleF
% End plot #3
1.000 UL
LTb
1464 5759 N
0 -4991 V
5303 0 V
0 4991 V
-5303 0 V
Z stroke
1.000 UP
1.000 UL
LTb
stroke
grestore
end
showpage
%%Trailer
%%DocumentFonts: Symbol Helvetica
