%!PS-Adobe-3.0 EPSF-3.0
%%Title: residuals-B8-histogram.eps
%%Creator: matplotlib version 0.99.1.1, http://matplotlib.sourceforge.net/
%%CreationDate: Mon Jan 28 17:38:39 2013
%%Orientation: portrait
%%BoundingBox: 40 180 570 585
%%EndComments
%%BeginProlog
/mpldict 8 dict def
mpldict begin
/m { moveto } bind def
/l { lineto } bind def
/r { rlineto } bind def
/c { curveto } bind def
/cl { closepath } bind def
/box {
m
1 index 0 r
0 exch r
neg 0 r
cl
} bind def
/clipbox {
box
clip
newpath
} bind def
%!PS-Adobe-3.0 Resource-Font
%%Title: DejaVu Sans
%%Copyright: Copyright (c) 2003 by Bitstream, Inc. All Rights Reserved. Copyright (c) 2006 by Tavmjong Bah. All Rights Reserved. DejaVu changes are in public domain 
%%Creator: Converted from TrueType by PPR
25 dict begin
/_d{bind def}bind def
/_m{moveto}_d
/_l{lineto}_d
/_cl{closepath eofill}_d
/_c{curveto}_d
/_sc{7 -1 roll{setcachedevice}{pop pop pop pop pop pop}ifelse}_d
/_e{exec}_d
/FontName /DejaVuSans def
/PaintType 0 def
/FontMatrix[.001 0 0 .001 0 0]def
/FontBBox[-1020 -349 1681 1167]def
/FontType 3 def
/Encoding StandardEncoding def
/FontInfo 10 dict dup begin
/FamilyName (DejaVu Sans) def
/FullName (DejaVu Sans) def
/Notice (Copyright (c) 2003 by Bitstream, Inc. All Rights Reserved. Copyright (c) 2006 by Tavmjong Bah. All Rights Reserved. DejaVu changes are in public domain ) def
/Weight (Book) def
/Version (Version 2.30) def
/ItalicAngle 0.0 def
/isFixedPitch false def
/UnderlinePosition -130 def
/UnderlineThickness 90 def
end readonly def
/CharStrings 28 dict dup begin
/period{318 0 107 0 210 124 _sc
107 124 _m
210 124 _l
210 0 _l
107 0 _l
107 124 _l
_cl}_d
/zero{636 0 66 -13 570 742 _sc
318 664 _m
267 664 229 639 203 589 _c
177 539 165 464 165 364 _c
165 264 177 189 203 139 _c
229 89 267 64 318 64 _c
369 64 407 89 433 139 _c
458 189 471 264 471 364 _c
471 464 458 539 433 589 _c
407 639 369 664 318 664 _c
318 742 _m
399 742 461 709 505 645 _c
548 580 570 486 570 364 _c
570 241 548 147 505 83 _c
461 19 399 -13 318 -13 _c
236 -13 173 19 130 83 _c
87 147 66 241 66 364 _c
66 486 87 580 130 645 _c
173 709 236 742 318 742 _c
_cl}_d
/one{636 0 110 0 544 729 _sc
124 83 _m
285 83 _l
285 639 _l
110 604 _l
110 694 _l
284 729 _l
383 729 _l
383 83 _l
544 83 _l
544 0 _l
124 0 _l
124 83 _l
_cl}_d
/two{{636 0 73 0 536 742 _sc
192 83 _m
536 83 _l
536 0 _l
73 0 _l
73 83 _l
110 121 161 173 226 239 _c
290 304 331 346 348 365 _c
380 400 402 430 414 455 _c
426 479 433 504 433 528 _c
433 566 419 598 392 622 _c
365 646 330 659 286 659 _c
255 659 222 653 188 643 _c
154 632 117 616 78 594 _c
78 694 _l
118 710 155 722 189 730 _c
223 738 255 742 284 742 _c
359 742 419 723 464 685 _c
509 647 532 597 532 534 _c
532 504 526 475 515 449 _c
504 422 484 390 454 354 _c
446 344 420 317 376 272 _c
332 227 271 164 192 83 _c
_cl}_e}_d
/three{{636 0 76 -13 556 742 _sc
406 393 _m
453 383 490 362 516 330 _c
542 298 556 258 556 212 _c
556 140 531 84 482 45 _c
432 6 362 -13 271 -13 _c
240 -13 208 -10 176 -4 _c
144 1 110 10 76 22 _c
76 117 _l
103 101 133 89 166 81 _c
198 73 232 69 268 69 _c
330 69 377 81 409 105 _c
441 129 458 165 458 212 _c
458 254 443 288 413 312 _c
383 336 341 349 287 349 _c
202 349 _l
202 430 _l
291 430 _l
339 430 376 439 402 459 _c
428 478 441 506 441 543 _c
441 580 427 609 401 629 _c
374 649 336 659 287 659 _c
260 659 231 656 200 650 _c
169 644 135 635 98 623 _c
98 711 _l
135 721 170 729 203 734 _c
235 739 266 742 296 742 _c
}_e{370 742 429 725 473 691 _c
517 657 539 611 539 553 _c
539 513 527 479 504 451 _c
481 423 448 403 406 393 _c
_cl}_e}_d
/four{636 0 49 0 580 729 _sc
378 643 _m
129 254 _l
378 254 _l
378 643 _l
352 729 _m
476 729 _l
476 254 _l
580 254 _l
580 172 _l
476 172 _l
476 0 _l
378 0 _l
378 172 _l
49 172 _l
49 267 _l
352 729 _l
_cl}_d
/five{{636 0 77 -13 549 729 _sc
108 729 _m
495 729 _l
495 646 _l
198 646 _l
198 467 _l
212 472 227 476 241 478 _c
255 480 270 482 284 482 _c
365 482 429 459 477 415 _c
525 370 549 310 549 234 _c
549 155 524 94 475 51 _c
426 8 357 -13 269 -13 _c
238 -13 207 -10 175 -6 _c
143 -1 111 6 77 17 _c
77 116 _l
106 100 136 88 168 80 _c
199 72 232 69 267 69 _c
323 69 368 83 401 113 _c
433 143 450 183 450 234 _c
450 284 433 324 401 354 _c
368 384 323 399 267 399 _c
241 399 214 396 188 390 _c
162 384 135 375 108 363 _c
108 729 _l
_cl}_e}_d
/six{{636 0 70 -13 573 742 _sc
330 404 _m
286 404 251 388 225 358 _c
199 328 186 286 186 234 _c
186 181 199 139 225 109 _c
251 79 286 64 330 64 _c
374 64 409 79 435 109 _c
461 139 474 181 474 234 _c
474 286 461 328 435 358 _c
409 388 374 404 330 404 _c
526 713 _m
526 623 _l
501 635 476 644 451 650 _c
425 656 400 659 376 659 _c
310 659 260 637 226 593 _c
192 549 172 482 168 394 _c
187 422 211 444 240 459 _c
269 474 301 482 336 482 _c
409 482 467 459 509 415 _c
551 371 573 310 573 234 _c
573 159 550 99 506 54 _c
462 9 403 -13 330 -13 _c
246 -13 181 19 137 83 _c
92 147 70 241 70 364 _c
70 479 97 571 152 639 _c
206 707 280 742 372 742 _c
}_e{396 742 421 739 447 735 _c
472 730 498 723 526 713 _c
_cl}_e}_d
/eight{{636 0 68 -13 568 742 _sc
318 346 _m
271 346 234 333 207 308 _c
180 283 167 249 167 205 _c
167 161 180 126 207 101 _c
234 76 271 64 318 64 _c
364 64 401 76 428 102 _c
455 127 469 161 469 205 _c
469 249 455 283 429 308 _c
402 333 365 346 318 346 _c
219 388 _m
177 398 144 418 120 447 _c
96 476 85 511 85 553 _c
85 611 105 657 147 691 _c
188 725 245 742 318 742 _c
390 742 447 725 489 691 _c
530 657 551 611 551 553 _c
551 511 539 476 515 447 _c
491 418 459 398 417 388 _c
464 377 501 355 528 323 _c
554 291 568 251 568 205 _c
568 134 546 80 503 43 _c
459 5 398 -13 318 -13 _c
237 -13 175 5 132 43 _c
89 80 68 134 68 205 _c
68 251 81 291 108 323 _c
134 355 171 377 219 388 _c
}_e{183 544 _m
183 506 194 476 218 455 _c
242 434 275 424 318 424 _c
360 424 393 434 417 455 _c
441 476 453 506 453 544 _c
453 582 441 611 417 632 _c
393 653 360 664 318 664 _c
275 664 242 653 218 632 _c
194 611 183 582 183 544 _c
_cl}_e}_d
/a{{613 0 60 -13 522 560 _sc
343 275 _m
270 275 220 266 192 250 _c
164 233 150 205 150 165 _c
150 133 160 107 181 89 _c
202 70 231 61 267 61 _c
317 61 357 78 387 114 _c
417 149 432 196 432 255 _c
432 275 _l
343 275 _l
522 312 _m
522 0 _l
432 0 _l
432 83 _l
411 49 385 25 355 10 _c
325 -5 287 -13 243 -13 _c
187 -13 142 2 109 33 _c
76 64 60 106 60 159 _c
60 220 80 266 122 298 _c
163 329 224 345 306 345 _c
432 345 _l
432 354 _l
432 395 418 427 391 450 _c
364 472 326 484 277 484 _c
245 484 215 480 185 472 _c
155 464 127 453 100 439 _c
100 522 _l
}_e{132 534 164 544 195 550 _c
226 556 256 560 286 560 _c
365 560 424 539 463 498 _c
502 457 522 395 522 312 _c
_cl}_e}_d
/b{{635 0 91 -13 580 760 _sc
487 273 _m
487 339 473 390 446 428 _c
418 466 381 485 334 485 _c
286 485 249 466 222 428 _c
194 390 181 339 181 273 _c
181 207 194 155 222 117 _c
249 79 286 61 334 61 _c
381 61 418 79 446 117 _c
473 155 487 207 487 273 _c
181 464 _m
199 496 223 520 252 536 _c
281 552 316 560 356 560 _c
422 560 476 533 518 481 _c
559 428 580 359 580 273 _c
580 187 559 117 518 65 _c
476 13 422 -13 356 -13 _c
316 -13 281 -5 252 10 _c
223 25 199 49 181 82 _c
181 0 _l
91 0 _l
91 760 _l
181 760 _l
181 464 _l
_cl}_e}_d
/c{{550 0 55 -13 488 560 _sc
488 526 _m
488 442 _l
462 456 437 466 411 473 _c
385 480 360 484 334 484 _c
276 484 230 465 198 428 _c
166 391 150 339 150 273 _c
150 206 166 154 198 117 _c
230 80 276 62 334 62 _c
360 62 385 65 411 72 _c
437 79 462 90 488 104 _c
488 21 _l
462 9 436 0 410 -5 _c
383 -10 354 -13 324 -13 _c
242 -13 176 12 128 64 _c
79 115 55 185 55 273 _c
55 362 79 432 128 483 _c
177 534 244 560 330 560 _c
358 560 385 557 411 551 _c
437 545 463 537 488 526 _c
_cl}_e}_d
/d{{635 0 55 -13 544 760 _sc
454 464 _m
454 760 _l
544 760 _l
544 0 _l
454 0 _l
454 82 _l
435 49 411 25 382 10 _c
353 -5 319 -13 279 -13 _c
213 -13 159 13 117 65 _c
75 117 55 187 55 273 _c
55 359 75 428 117 481 _c
159 533 213 560 279 560 _c
319 560 353 552 382 536 _c
411 520 435 496 454 464 _c
148 273 _m
148 207 161 155 188 117 _c
215 79 253 61 301 61 _c
348 61 385 79 413 117 _c
440 155 454 207 454 273 _c
454 339 440 390 413 428 _c
385 466 348 485 301 485 _c
253 485 215 466 188 428 _c
161 390 148 339 148 273 _c
_cl}_e}_d
/e{{615 0 55 -13 562 560 _sc
562 296 _m
562 252 _l
149 252 _l
153 190 171 142 205 110 _c
238 78 284 62 344 62 _c
378 62 412 66 444 74 _c
476 82 509 95 541 113 _c
541 28 _l
509 14 476 3 442 -3 _c
408 -9 373 -13 339 -13 _c
251 -13 182 12 131 62 _c
80 112 55 181 55 268 _c
55 357 79 428 127 481 _c
175 533 241 560 323 560 _c
397 560 455 536 498 489 _c
540 441 562 377 562 296 _c
472 322 _m
471 371 457 410 431 440 _c
404 469 368 484 324 484 _c
274 484 234 469 204 441 _c
174 413 156 373 152 322 _c
472 322 _l
_cl}_e}_d
/f{352 0 23 0 371 760 _sc
371 760 _m
371 685 _l
285 685 _l
253 685 230 678 218 665 _c
205 652 199 629 199 595 _c
199 547 _l
347 547 _l
347 477 _l
199 477 _l
199 0 _l
109 0 _l
109 477 _l
23 477 _l
23 547 _l
109 547 _l
109 585 _l
109 645 123 690 151 718 _c
179 746 224 760 286 760 _c
371 760 _l
_cl}_d
/g{{635 0 55 -207 544 560 _sc
454 280 _m
454 344 440 395 414 431 _c
387 467 349 485 301 485 _c
253 485 215 467 188 431 _c
161 395 148 344 148 280 _c
148 215 161 165 188 129 _c
215 93 253 75 301 75 _c
349 75 387 93 414 129 _c
440 165 454 215 454 280 _c
544 68 _m
544 -24 523 -93 482 -139 _c
440 -184 377 -207 292 -207 _c
260 -207 231 -204 203 -200 _c
175 -195 147 -188 121 -178 _c
121 -91 _l
147 -105 173 -115 199 -122 _c
225 -129 251 -133 278 -133 _c
336 -133 380 -117 410 -87 _c
439 -56 454 -10 454 52 _c
454 96 _l
435 64 411 40 382 24 _c
353 8 319 0 279 0 _c
211 0 157 25 116 76 _c
75 127 55 195 55 280 _c
55 364 75 432 116 483 _c
157 534 211 560 279 560 _c
}_e{319 560 353 552 382 536 _c
411 520 435 496 454 464 _c
454 547 _l
544 547 _l
544 68 _l
_cl}_e}_d
/i{278 0 94 0 184 760 _sc
94 547 _m
184 547 _l
184 0 _l
94 0 _l
94 547 _l
94 760 _m
184 760 _l
184 646 _l
94 646 _l
94 760 _l
_cl}_d
/l{278 0 94 0 184 760 _sc
94 760 _m
184 760 _l
184 0 _l
94 0 _l
94 760 _l
_cl}_d
/m{{974 0 91 0 889 560 _sc
520 442 _m
542 482 569 511 600 531 _c
631 550 668 560 711 560 _c
767 560 811 540 842 500 _c
873 460 889 403 889 330 _c
889 0 _l
799 0 _l
799 327 _l
799 379 789 418 771 444 _c
752 469 724 482 686 482 _c
639 482 602 466 575 435 _c
548 404 535 362 535 309 _c
535 0 _l
445 0 _l
445 327 _l
445 379 435 418 417 444 _c
398 469 369 482 331 482 _c
285 482 248 466 221 435 _c
194 404 181 362 181 309 _c
181 0 _l
91 0 _l
91 547 _l
181 547 _l
181 462 _l
201 495 226 520 255 536 _c
283 552 317 560 357 560 _c
397 560 430 550 458 530 _c
486 510 506 480 520 442 _c
}_e{_cl}_e}_d
/n{634 0 91 0 549 560 _sc
549 330 _m
549 0 _l
459 0 _l
459 327 _l
459 379 448 417 428 443 _c
408 469 378 482 338 482 _c
289 482 251 466 223 435 _c
195 404 181 362 181 309 _c
181 0 _l
91 0 _l
91 547 _l
181 547 _l
181 462 _l
202 494 227 519 257 535 _c
286 551 320 560 358 560 _c
420 560 468 540 500 501 _c
532 462 549 405 549 330 _c
_cl}_d
/o{612 0 55 -13 557 560 _sc
306 484 _m
258 484 220 465 192 427 _c
164 389 150 338 150 273 _c
150 207 163 156 191 118 _c
219 80 257 62 306 62 _c
354 62 392 80 420 118 _c
448 156 462 207 462 273 _c
462 337 448 389 420 427 _c
392 465 354 484 306 484 _c
306 560 _m
384 560 445 534 490 484 _c
534 433 557 363 557 273 _c
557 183 534 113 490 63 _c
445 12 384 -13 306 -13 _c
227 -13 165 12 121 63 _c
77 113 55 183 55 273 _c
55 363 77 433 121 484 _c
165 534 227 560 306 560 _c
_cl}_d
/q{{635 0 55 -207 544 560 _sc
148 273 _m
148 207 161 155 188 117 _c
215 79 253 61 301 61 _c
348 61 385 79 413 117 _c
440 155 454 207 454 273 _c
454 339 440 390 413 428 _c
385 466 348 485 301 485 _c
253 485 215 466 188 428 _c
161 390 148 339 148 273 _c
454 82 _m
435 49 411 25 382 10 _c
353 -5 319 -13 279 -13 _c
213 -13 159 13 117 65 _c
75 117 55 187 55 273 _c
55 359 75 428 117 481 _c
159 533 213 560 279 560 _c
319 560 353 552 382 536 _c
411 520 435 496 454 464 _c
454 547 _l
544 547 _l
544 -207 _l
454 -207 _l
454 82 _l
_cl}_e}_d
/r{411 0 91 0 411 560 _sc
411 463 _m
401 469 390 473 378 476 _c
366 478 353 480 339 480 _c
288 480 249 463 222 430 _c
194 397 181 350 181 288 _c
181 0 _l
91 0 _l
91 547 _l
181 547 _l
181 462 _l
199 495 224 520 254 536 _c
284 552 321 560 365 560 _c
371 560 378 559 386 559 _c
393 558 401 557 411 555 _c
411 463 _l
_cl}_d
/s{{521 0 54 -13 472 560 _sc
443 531 _m
443 446 _l
417 458 391 468 364 475 _c
336 481 308 485 279 485 _c
234 485 200 478 178 464 _c
156 450 145 430 145 403 _c
145 382 153 366 169 354 _c
185 342 217 330 265 320 _c
296 313 _l
360 299 405 279 432 255 _c
458 230 472 195 472 151 _c
472 100 452 60 412 31 _c
372 1 316 -13 246 -13 _c
216 -13 186 -10 154 -5 _c
122 0 89 8 54 20 _c
54 113 _l
87 95 120 82 152 74 _c
184 65 216 61 248 61 _c
290 61 323 68 346 82 _c
368 96 380 117 380 144 _c
380 168 371 187 355 200 _c
339 213 303 226 247 238 _c
216 245 _l
160 257 119 275 95 299 _c
70 323 58 356 58 399 _c
58 450 76 490 112 518 _c
148 546 200 560 268 560 _c
}_e{301 560 332 557 362 552 _c
391 547 418 540 443 531 _c
_cl}_e}_d
/t{392 0 27 0 368 702 _sc
183 702 _m
183 547 _l
368 547 _l
368 477 _l
183 477 _l
183 180 _l
183 135 189 106 201 94 _c
213 81 238 75 276 75 _c
368 75 _l
368 0 _l
276 0 _l
206 0 158 13 132 39 _c
106 65 93 112 93 180 _c
93 477 _l
27 477 _l
27 547 _l
93 547 _l
93 702 _l
183 702 _l
_cl}_d
/u{634 0 85 -13 543 560 _sc
85 216 _m
85 547 _l
175 547 _l
175 219 _l
175 167 185 129 205 103 _c
225 77 255 64 296 64 _c
344 64 383 79 411 110 _c
439 141 453 183 453 237 _c
453 547 _l
543 547 _l
543 0 _l
453 0 _l
453 84 _l
431 50 405 26 377 10 _c
348 -5 315 -13 277 -13 _c
214 -13 166 6 134 45 _c
101 83 85 140 85 216 _c
_cl}_d
/y{592 0 30 -207 562 547 _sc
322 -50 _m
296 -114 271 -157 247 -177 _c
223 -197 191 -207 151 -207 _c
79 -207 _l
79 -132 _l
132 -132 _l
156 -132 175 -126 189 -114 _c
203 -102 218 -75 235 -31 _c
251 9 _l
30 547 _l
125 547 _l
296 119 _l
467 547 _l
562 547 _l
322 -50 _l
_cl}_d
/minus{838 0 106 272 732 355 _sc
106 355 _m
732 355 _l
732 272 _l
106 272 _l
106 355 _l
_cl}_d
end readonly def

/BuildGlyph
 {exch begin
 CharStrings exch
 2 copy known not{pop /.notdef}if
 true 3 1 roll get exec
 end}_d

/BuildChar {
 1 index /Encoding get exch get
 1 index /BuildGlyph get exec
}_d

FontName currentdict end definefont pop
end
%%EndProlog
mpldict begin
13.5 175.5 translate
585 441 0 0 clipbox
1.000 setlinewidth
1 setlinejoin
2 setlinecap
[] 0 setdash
1.000 setgray
gsave
0 0 m
585 0 l
585 441 l
0 441 l
0 0 l
gsave
fill
grestore
stroke
grestore
gsave
73.125 44.1 m
526.5 44.1 l
526.5 396.9 l
73.125 396.9 l
73.125 44.1 l
fill
grestore
1.000 0.000 0.000 setrgbcolor
gsave
453.4 352.8 73.12 44.1 clipbox
79.9256 44.1 m
93.5974 44.1 l
93.5974 98.98 l
79.9256 98.98 l
79.9256 44.1 l
gsave
fill
grestore
stroke
grestore
gsave
453.4 352.8 73.12 44.1 clipbox
93.5974 44.1 m
107.269 44.1 l
107.269 130.34 l
93.5974 130.34 l
93.5974 44.1 l
gsave
fill
grestore
stroke
grestore
gsave
453.4 352.8 73.12 44.1 clipbox
107.269 44.1 m
120.941 44.1 l
120.941 75.46 l
107.269 75.46 l
107.269 44.1 l
gsave
fill
grestore
stroke
grestore
gsave
453.4 352.8 73.12 44.1 clipbox
120.941 44.1 m
134.613 44.1 l
134.613 67.62 l
120.941 67.62 l
120.941 44.1 l
gsave
fill
grestore
stroke
grestore
gsave
453.4 352.8 73.12 44.1 clipbox
134.613 44.1 m
148.285 44.1 l
148.285 83.3 l
134.613 83.3 l
134.613 44.1 l
gsave
fill
grestore
stroke
grestore
gsave
453.4 352.8 73.12 44.1 clipbox
148.285 44.1 m
161.956 44.1 l
161.956 83.3 l
148.285 83.3 l
148.285 44.1 l
gsave
fill
grestore
stroke
grestore
gsave
453.4 352.8 73.12 44.1 clipbox
161.956 44.1 m
175.628 44.1 l
175.628 91.14 l
161.956 91.14 l
161.956 44.1 l
gsave
fill
grestore
stroke
grestore
gsave
453.4 352.8 73.12 44.1 clipbox
175.628 44.1 m
189.3 44.1 l
189.3 91.14 l
175.628 91.14 l
175.628 44.1 l
gsave
fill
grestore
stroke
grestore
gsave
453.4 352.8 73.12 44.1 clipbox
189.3 44.1 m
202.972 44.1 l
202.972 185.22 l
189.3 185.22 l
189.3 44.1 l
gsave
fill
grestore
stroke
grestore
gsave
453.4 352.8 73.12 44.1 clipbox
202.972 44.1 m
216.643 44.1 l
216.643 153.86 l
202.972 153.86 l
202.972 44.1 l
gsave
fill
grestore
stroke
grestore
gsave
453.4 352.8 73.12 44.1 clipbox
216.643 44.1 m
230.315 44.1 l
230.315 153.86 l
216.643 153.86 l
216.643 44.1 l
gsave
fill
grestore
stroke
grestore
gsave
453.4 352.8 73.12 44.1 clipbox
230.315 44.1 m
243.987 44.1 l
243.987 153.86 l
230.315 153.86 l
230.315 44.1 l
gsave
fill
grestore
stroke
grestore
gsave
453.4 352.8 73.12 44.1 clipbox
243.987 44.1 m
257.659 44.1 l
257.659 161.7 l
243.987 161.7 l
243.987 44.1 l
gsave
fill
grestore
stroke
grestore
gsave
453.4 352.8 73.12 44.1 clipbox
257.659 44.1 m
271.33 44.1 l
271.33 200.9 l
257.659 200.9 l
257.659 44.1 l
gsave
fill
grestore
stroke
grestore
gsave
453.4 352.8 73.12 44.1 clipbox
271.33 44.1 m
285.002 44.1 l
285.002 153.86 l
271.33 153.86 l
271.33 44.1 l
gsave
fill
grestore
stroke
grestore
gsave
453.4 352.8 73.12 44.1 clipbox
285.002 44.1 m
298.674 44.1 l
298.674 169.54 l
285.002 169.54 l
285.002 44.1 l
gsave
fill
grestore
stroke
grestore
gsave
453.4 352.8 73.12 44.1 clipbox
298.674 44.1 m
312.346 44.1 l
312.346 130.34 l
298.674 130.34 l
298.674 44.1 l
gsave
fill
grestore
stroke
grestore
gsave
453.4 352.8 73.12 44.1 clipbox
312.346 44.1 m
326.018 44.1 l
326.018 146.02 l
312.346 146.02 l
312.346 44.1 l
gsave
fill
grestore
stroke
grestore
gsave
453.4 352.8 73.12 44.1 clipbox
326.018 44.1 m
339.689 44.1 l
339.689 177.38 l
326.018 177.38 l
326.018 44.1 l
gsave
fill
grestore
stroke
grestore
gsave
453.4 352.8 73.12 44.1 clipbox
339.689 44.1 m
353.361 44.1 l
353.361 146.02 l
339.689 146.02 l
339.689 44.1 l
gsave
fill
grestore
stroke
grestore
gsave
453.4 352.8 73.12 44.1 clipbox
353.361 44.1 m
367.033 44.1 l
367.033 130.34 l
353.361 130.34 l
353.361 44.1 l
gsave
fill
grestore
stroke
grestore
gsave
453.4 352.8 73.12 44.1 clipbox
367.033 44.1 m
380.705 44.1 l
380.705 75.46 l
367.033 75.46 l
367.033 44.1 l
gsave
fill
grestore
stroke
grestore
gsave
453.4 352.8 73.12 44.1 clipbox
380.705 44.1 m
394.376 44.1 l
394.376 67.62 l
380.705 67.62 l
380.705 44.1 l
gsave
fill
grestore
stroke
grestore
gsave
453.4 352.8 73.12 44.1 clipbox
394.376 44.1 m
408.048 44.1 l
408.048 98.98 l
394.376 98.98 l
394.376 44.1 l
gsave
fill
grestore
stroke
grestore
gsave
453.4 352.8 73.12 44.1 clipbox
408.048 44.1 m
421.72 44.1 l
421.72 51.94 l
408.048 51.94 l
408.048 44.1 l
gsave
fill
grestore
stroke
grestore
gsave
453.4 352.8 73.12 44.1 clipbox
421.72 44.1 m
435.392 44.1 l
435.392 59.78 l
421.72 59.78 l
421.72 44.1 l
gsave
fill
grestore
stroke
grestore
gsave
453.4 352.8 73.12 44.1 clipbox
435.392 44.1 m
449.064 44.1 l
449.064 44.1 l
435.392 44.1 l
435.392 44.1 l
gsave
fill
grestore
stroke
grestore
gsave
453.4 352.8 73.12 44.1 clipbox
449.064 44.1 m
462.735 44.1 l
462.735 44.1 l
449.064 44.1 l
449.064 44.1 l
gsave
fill
grestore
stroke
grestore
gsave
453.4 352.8 73.12 44.1 clipbox
462.735 44.1 m
476.407 44.1 l
476.407 44.1 l
462.735 44.1 l
462.735 44.1 l
gsave
fill
grestore
stroke
grestore
gsave
453.4 352.8 73.12 44.1 clipbox
476.407 44.1 m
490.079 44.1 l
490.079 51.94 l
476.407 51.94 l
476.407 44.1 l
gsave
fill
grestore
stroke
grestore
0.000 0.500 0.000 setrgbcolor
gsave
453.4 352.8 73.12 44.1 clipbox
132.013 44.1 m
141.763 44.1 l
141.763 51.94 l
132.013 51.94 l
132.013 44.1 l
gsave
fill
grestore
stroke
grestore
gsave
453.4 352.8 73.12 44.1 clipbox
141.763 44.1 m
151.514 44.1 l
151.514 44.1 l
141.763 44.1 l
141.763 44.1 l
gsave
fill
grestore
stroke
grestore
gsave
453.4 352.8 73.12 44.1 clipbox
151.514 44.1 m
161.264 44.1 l
161.264 44.1 l
151.514 44.1 l
151.514 44.1 l
gsave
fill
grestore
stroke
grestore
gsave
453.4 352.8 73.12 44.1 clipbox
161.264 44.1 m
171.014 44.1 l
171.014 59.78 l
161.264 59.78 l
161.264 44.1 l
gsave
fill
grestore
stroke
grestore
gsave
453.4 352.8 73.12 44.1 clipbox
171.014 44.1 m
180.764 44.1 l
180.764 83.3 l
171.014 83.3 l
171.014 44.1 l
gsave
fill
grestore
stroke
grestore
gsave
453.4 352.8 73.12 44.1 clipbox
180.764 44.1 m
190.514 44.1 l
190.514 130.34 l
180.764 130.34 l
180.764 44.1 l
gsave
fill
grestore
stroke
grestore
gsave
453.4 352.8 73.12 44.1 clipbox
190.514 44.1 m
200.264 44.1 l
200.264 91.14 l
190.514 91.14 l
190.514 44.1 l
gsave
fill
grestore
stroke
grestore
gsave
453.4 352.8 73.12 44.1 clipbox
200.264 44.1 m
210.014 44.1 l
210.014 91.14 l
200.264 91.14 l
200.264 44.1 l
gsave
fill
grestore
stroke
grestore
gsave
453.4 352.8 73.12 44.1 clipbox
210.014 44.1 m
219.764 44.1 l
219.764 114.66 l
210.014 114.66 l
210.014 44.1 l
gsave
fill
grestore
stroke
grestore
gsave
453.4 352.8 73.12 44.1 clipbox
219.764 44.1 m
229.514 44.1 l
229.514 130.34 l
219.764 130.34 l
219.764 44.1 l
gsave
fill
grestore
stroke
grestore
gsave
453.4 352.8 73.12 44.1 clipbox
229.514 44.1 m
239.264 44.1 l
239.264 122.5 l
229.514 122.5 l
229.514 44.1 l
gsave
fill
grestore
stroke
grestore
gsave
453.4 352.8 73.12 44.1 clipbox
239.264 44.1 m
249.014 44.1 l
249.014 185.22 l
239.264 185.22 l
239.264 44.1 l
gsave
fill
grestore
stroke
grestore
gsave
453.4 352.8 73.12 44.1 clipbox
249.014 44.1 m
258.764 44.1 l
258.764 200.9 l
249.014 200.9 l
249.014 44.1 l
gsave
fill
grestore
stroke
grestore
gsave
453.4 352.8 73.12 44.1 clipbox
258.764 44.1 m
268.515 44.1 l
268.515 224.42 l
258.764 224.42 l
258.764 44.1 l
gsave
fill
grestore
stroke
grestore
gsave
453.4 352.8 73.12 44.1 clipbox
268.515 44.1 m
278.265 44.1 l
278.265 263.62 l
268.515 263.62 l
268.515 44.1 l
gsave
fill
grestore
stroke
grestore
gsave
453.4 352.8 73.12 44.1 clipbox
278.265 44.1 m
288.015 44.1 l
288.015 224.42 l
278.265 224.42 l
278.265 44.1 l
gsave
fill
grestore
stroke
grestore
gsave
453.4 352.8 73.12 44.1 clipbox
288.015 44.1 m
297.765 44.1 l
297.765 271.46 l
288.015 271.46 l
288.015 44.1 l
gsave
fill
grestore
stroke
grestore
gsave
453.4 352.8 73.12 44.1 clipbox
297.765 44.1 m
307.515 44.1 l
307.515 161.7 l
297.765 161.7 l
297.765 44.1 l
gsave
fill
grestore
stroke
grestore
gsave
453.4 352.8 73.12 44.1 clipbox
307.515 44.1 m
317.265 44.1 l
317.265 161.7 l
307.515 161.7 l
307.515 44.1 l
gsave
fill
grestore
stroke
grestore
gsave
453.4 352.8 73.12 44.1 clipbox
317.265 44.1 m
327.015 44.1 l
327.015 91.14 l
317.265 91.14 l
317.265 44.1 l
gsave
fill
grestore
stroke
grestore
gsave
453.4 352.8 73.12 44.1 clipbox
327.015 44.1 m
336.765 44.1 l
336.765 98.98 l
327.015 98.98 l
327.015 44.1 l
gsave
fill
grestore
stroke
grestore
gsave
453.4 352.8 73.12 44.1 clipbox
336.765 44.1 m
346.515 44.1 l
346.515 83.3 l
336.765 83.3 l
336.765 44.1 l
gsave
fill
grestore
stroke
grestore
gsave
453.4 352.8 73.12 44.1 clipbox
346.515 44.1 m
356.265 44.1 l
356.265 67.62 l
346.515 67.62 l
346.515 44.1 l
gsave
fill
grestore
stroke
grestore
gsave
453.4 352.8 73.12 44.1 clipbox
356.265 44.1 m
366.015 44.1 l
366.015 51.94 l
356.265 51.94 l
356.265 44.1 l
gsave
fill
grestore
stroke
grestore
gsave
453.4 352.8 73.12 44.1 clipbox
366.015 44.1 m
375.765 44.1 l
375.765 44.1 l
366.015 44.1 l
366.015 44.1 l
gsave
fill
grestore
stroke
grestore
gsave
453.4 352.8 73.12 44.1 clipbox
375.765 44.1 m
385.515 44.1 l
385.515 44.1 l
375.765 44.1 l
375.765 44.1 l
gsave
fill
grestore
stroke
grestore
gsave
453.4 352.8 73.12 44.1 clipbox
385.515 44.1 m
395.266 44.1 l
395.266 44.1 l
385.515 44.1 l
385.515 44.1 l
gsave
fill
grestore
stroke
grestore
gsave
453.4 352.8 73.12 44.1 clipbox
395.266 44.1 m
405.016 44.1 l
405.016 44.1 l
395.266 44.1 l
395.266 44.1 l
gsave
fill
grestore
stroke
grestore
gsave
453.4 352.8 73.12 44.1 clipbox
405.016 44.1 m
414.766 44.1 l
414.766 44.1 l
405.016 44.1 l
405.016 44.1 l
gsave
fill
grestore
stroke
grestore
gsave
453.4 352.8 73.12 44.1 clipbox
414.766 44.1 m
424.516 44.1 l
424.516 51.94 l
414.766 51.94 l
414.766 44.1 l
gsave
fill
grestore
stroke
grestore
0.000 0.000 1.000 setrgbcolor
gsave
453.4 352.8 73.12 44.1 clipbox
155.841 44.1 m
163.766 44.1 l
163.766 51.94 l
155.841 51.94 l
155.841 44.1 l
gsave
fill
grestore
stroke
grestore
gsave
453.4 352.8 73.12 44.1 clipbox
163.766 44.1 m
171.692 44.1 l
171.692 44.1 l
163.766 44.1 l
163.766 44.1 l
gsave
fill
grestore
stroke
grestore
gsave
453.4 352.8 73.12 44.1 clipbox
171.692 44.1 m
179.618 44.1 l
179.618 59.78 l
171.692 59.78 l
171.692 44.1 l
gsave
fill
grestore
stroke
grestore
gsave
453.4 352.8 73.12 44.1 clipbox
179.618 44.1 m
187.543 44.1 l
187.543 51.94 l
179.618 51.94 l
179.618 44.1 l
gsave
fill
grestore
stroke
grestore
gsave
453.4 352.8 73.12 44.1 clipbox
187.543 44.1 m
195.469 44.1 l
195.469 44.1 l
187.543 44.1 l
187.543 44.1 l
gsave
fill
grestore
stroke
grestore
gsave
453.4 352.8 73.12 44.1 clipbox
195.469 44.1 m
203.395 44.1 l
203.395 75.46 l
195.469 75.46 l
195.469 44.1 l
gsave
fill
grestore
stroke
grestore
gsave
453.4 352.8 73.12 44.1 clipbox
203.395 44.1 m
211.32 44.1 l
211.32 83.3 l
203.395 83.3 l
203.395 44.1 l
gsave
fill
grestore
stroke
grestore
gsave
453.4 352.8 73.12 44.1 clipbox
211.32 44.1 m
219.246 44.1 l
219.246 98.98 l
211.32 98.98 l
211.32 44.1 l
gsave
fill
grestore
stroke
grestore
gsave
453.4 352.8 73.12 44.1 clipbox
219.246 44.1 m
227.172 44.1 l
227.172 130.34 l
219.246 130.34 l
219.246 44.1 l
gsave
fill
grestore
stroke
grestore
gsave
453.4 352.8 73.12 44.1 clipbox
227.172 44.1 m
235.097 44.1 l
235.097 153.86 l
227.172 153.86 l
227.172 44.1 l
gsave
fill
grestore
stroke
grestore
gsave
453.4 352.8 73.12 44.1 clipbox
235.097 44.1 m
243.023 44.1 l
243.023 130.34 l
235.097 130.34 l
235.097 44.1 l
gsave
fill
grestore
stroke
grestore
gsave
453.4 352.8 73.12 44.1 clipbox
243.023 44.1 m
250.949 44.1 l
250.949 146.02 l
243.023 146.02 l
243.023 44.1 l
gsave
fill
grestore
stroke
grestore
gsave
453.4 352.8 73.12 44.1 clipbox
250.949 44.1 m
258.874 44.1 l
258.874 193.06 l
250.949 193.06 l
250.949 44.1 l
gsave
fill
grestore
stroke
grestore
gsave
453.4 352.8 73.12 44.1 clipbox
258.874 44.1 m
266.8 44.1 l
266.8 232.26 l
258.874 232.26 l
258.874 44.1 l
gsave
fill
grestore
stroke
grestore
gsave
453.4 352.8 73.12 44.1 clipbox
266.8 44.1 m
274.726 44.1 l
274.726 396.9 l
266.8 396.9 l
266.8 44.1 l
gsave
fill
grestore
stroke
grestore
gsave
453.4 352.8 73.12 44.1 clipbox
274.726 44.1 m
282.651 44.1 l
282.651 279.3 l
274.726 279.3 l
274.726 44.1 l
gsave
fill
grestore
stroke
grestore
gsave
453.4 352.8 73.12 44.1 clipbox
282.651 44.1 m
290.577 44.1 l
290.577 138.18 l
282.651 138.18 l
282.651 44.1 l
gsave
fill
grestore
stroke
grestore
gsave
453.4 352.8 73.12 44.1 clipbox
290.577 44.1 m
298.503 44.1 l
298.503 138.18 l
290.577 138.18 l
290.577 44.1 l
gsave
fill
grestore
stroke
grestore
gsave
453.4 352.8 73.12 44.1 clipbox
298.503 44.1 m
306.428 44.1 l
306.428 146.02 l
298.503 146.02 l
298.503 44.1 l
gsave
fill
grestore
stroke
grestore
gsave
453.4 352.8 73.12 44.1 clipbox
306.428 44.1 m
314.354 44.1 l
314.354 106.82 l
306.428 106.82 l
306.428 44.1 l
gsave
fill
grestore
stroke
grestore
gsave
453.4 352.8 73.12 44.1 clipbox
314.354 44.1 m
322.28 44.1 l
322.28 106.82 l
314.354 106.82 l
314.354 44.1 l
gsave
fill
grestore
stroke
grestore
gsave
453.4 352.8 73.12 44.1 clipbox
322.28 44.1 m
330.205 44.1 l
330.205 91.14 l
322.28 91.14 l
322.28 44.1 l
gsave
fill
grestore
stroke
grestore
gsave
453.4 352.8 73.12 44.1 clipbox
330.205 44.1 m
338.131 44.1 l
338.131 51.94 l
330.205 51.94 l
330.205 44.1 l
gsave
fill
grestore
stroke
grestore
gsave
453.4 352.8 73.12 44.1 clipbox
338.131 44.1 m
346.057 44.1 l
346.057 67.62 l
338.131 67.62 l
338.131 44.1 l
gsave
fill
grestore
stroke
grestore
gsave
453.4 352.8 73.12 44.1 clipbox
346.057 44.1 m
353.982 44.1 l
353.982 59.78 l
346.057 59.78 l
346.057 44.1 l
gsave
fill
grestore
stroke
grestore
gsave
453.4 352.8 73.12 44.1 clipbox
353.982 44.1 m
361.908 44.1 l
361.908 51.94 l
353.982 51.94 l
353.982 44.1 l
gsave
fill
grestore
stroke
grestore
gsave
453.4 352.8 73.12 44.1 clipbox
361.908 44.1 m
369.834 44.1 l
369.834 51.94 l
361.908 51.94 l
361.908 44.1 l
gsave
fill
grestore
stroke
grestore
gsave
453.4 352.8 73.12 44.1 clipbox
369.834 44.1 m
377.759 44.1 l
377.759 44.1 l
369.834 44.1 l
369.834 44.1 l
gsave
fill
grestore
stroke
grestore
gsave
453.4 352.8 73.12 44.1 clipbox
377.759 44.1 m
385.685 44.1 l
385.685 44.1 l
377.759 44.1 l
377.759 44.1 l
gsave
fill
grestore
stroke
grestore
gsave
453.4 352.8 73.12 44.1 clipbox
385.685 44.1 m
393.611 44.1 l
393.611 51.94 l
385.685 51.94 l
385.685 44.1 l
gsave
fill
grestore
stroke
grestore
0.500 setlinewidth
0 setlinecap
0.000 setgray
gsave
/o {
gsave
newpath
translate
0 0 m
0 4 l
stroke
grestore
} bind def
73.125 44.1 o
grestore
gsave
/o {
gsave
newpath
translate
0 0 m
0 -4 l
stroke
grestore
} bind def
73.125 396.9 o
grestore
/DejaVuSans findfont
12.000 scalefont
setfont
gsave
51.953125 31.021875 translate
0.000000 rotate
0.000000 0.171875 m /minus glyphshow
10.054688 0.171875 m /zero glyphshow
17.689453 0.171875 m /period glyphshow
21.503906 0.171875 m /zero glyphshow
29.138672 0.171875 m /zero glyphshow
36.773438 0.171875 m /eight glyphshow
grestore
gsave
/o {
gsave
newpath
translate
0 0 m
0 4 l
stroke
grestore
} bind def
123.5 44.1 o
grestore
gsave
/o {
gsave
newpath
translate
0 0 m
0 -4 l
stroke
grestore
} bind def
123.5 396.9 o
grestore
gsave
102.296875 31.021875 translate
0.000000 rotate
0.000000 0.171875 m /minus glyphshow
10.054688 0.171875 m /zero glyphshow
17.689453 0.171875 m /period glyphshow
21.503906 0.171875 m /zero glyphshow
29.138672 0.171875 m /zero glyphshow
36.773438 0.171875 m /six glyphshow
grestore
gsave
/o {
gsave
newpath
translate
0 0 m
0 4 l
stroke
grestore
} bind def
173.875 44.1 o
grestore
gsave
/o {
gsave
newpath
translate
0 0 m
0 -4 l
stroke
grestore
} bind def
173.875 396.9 o
grestore
gsave
152.625000 31.021875 translate
0.000000 rotate
0.000000 0.171875 m /minus glyphshow
10.054688 0.171875 m /zero glyphshow
17.689453 0.171875 m /period glyphshow
21.503906 0.171875 m /zero glyphshow
29.138672 0.171875 m /zero glyphshow
36.773438 0.171875 m /four glyphshow
grestore
gsave
/o {
gsave
newpath
translate
0 0 m
0 4 l
stroke
grestore
} bind def
224.25 44.1 o
grestore
gsave
/o {
gsave
newpath
translate
0 0 m
0 -4 l
stroke
grestore
} bind def
224.25 396.9 o
grestore
gsave
203.265625 31.021875 translate
0.000000 rotate
0.000000 0.171875 m /minus glyphshow
10.054688 0.171875 m /zero glyphshow
17.689453 0.171875 m /period glyphshow
21.503906 0.171875 m /zero glyphshow
29.138672 0.171875 m /zero glyphshow
36.773438 0.171875 m /two glyphshow
grestore
gsave
/o {
gsave
newpath
translate
0 0 m
0 4 l
stroke
grestore
} bind def
274.625 44.1 o
grestore
gsave
/o {
gsave
newpath
translate
0 0 m
0 -4 l
stroke
grestore
} bind def
274.625 396.9 o
grestore
gsave
258.234375 31.021875 translate
0.000000 rotate
0.000000 0.171875 m /zero glyphshow
7.634766 0.171875 m /period glyphshow
11.449219 0.171875 m /zero glyphshow
19.083984 0.171875 m /zero glyphshow
26.718750 0.171875 m /zero glyphshow
grestore
gsave
/o {
gsave
newpath
translate
0 0 m
0 4 l
stroke
grestore
} bind def
325 44.1 o
grestore
gsave
/o {
gsave
newpath
translate
0 0 m
0 -4 l
stroke
grestore
} bind def
325 396.9 o
grestore
gsave
308.812500 31.021875 translate
0.000000 rotate
0.000000 0.171875 m /zero glyphshow
7.634766 0.171875 m /period glyphshow
11.449219 0.171875 m /zero glyphshow
19.083984 0.171875 m /zero glyphshow
26.718750 0.171875 m /two glyphshow
grestore
gsave
/o {
gsave
newpath
translate
0 0 m
0 4 l
stroke
grestore
} bind def
375.375 44.1 o
grestore
gsave
/o {
gsave
newpath
translate
0 0 m
0 -4 l
stroke
grestore
} bind def
375.375 396.9 o
grestore
gsave
358.921875 31.021875 translate
0.000000 rotate
0.000000 0.171875 m /zero glyphshow
7.634766 0.171875 m /period glyphshow
11.449219 0.171875 m /zero glyphshow
19.083984 0.171875 m /zero glyphshow
26.718750 0.171875 m /four glyphshow
grestore
gsave
/o {
gsave
newpath
translate
0 0 m
0 4 l
stroke
grestore
} bind def
425.75 44.1 o
grestore
gsave
/o {
gsave
newpath
translate
0 0 m
0 -4 l
stroke
grestore
} bind def
425.75 396.9 o
grestore
gsave
409.343750 31.021875 translate
0.000000 rotate
0.000000 0.171875 m /zero glyphshow
7.634766 0.171875 m /period glyphshow
11.449219 0.171875 m /zero glyphshow
19.083984 0.171875 m /zero glyphshow
26.718750 0.171875 m /six glyphshow
grestore
gsave
/o {
gsave
newpath
translate
0 0 m
0 4 l
stroke
grestore
} bind def
476.125 44.1 o
grestore
gsave
/o {
gsave
newpath
translate
0 0 m
0 -4 l
stroke
grestore
} bind def
476.125 396.9 o
grestore
gsave
459.750000 31.021875 translate
0.000000 rotate
0.000000 0.171875 m /zero glyphshow
7.634766 0.171875 m /period glyphshow
11.449219 0.171875 m /zero glyphshow
19.083984 0.171875 m /zero glyphshow
26.718750 0.171875 m /eight glyphshow
grestore
gsave
/o {
gsave
newpath
translate
0 0 m
0 4 l
stroke
grestore
} bind def
526.5 44.1 o
grestore
gsave
/o {
gsave
newpath
translate
0 0 m
0 -4 l
stroke
grestore
} bind def
526.5 396.9 o
grestore
gsave
510.109375 31.021875 translate
0.000000 rotate
0.000000 0.171875 m /zero glyphshow
7.634766 0.171875 m /period glyphshow
11.449219 0.171875 m /zero glyphshow
19.083984 0.171875 m /one glyphshow
26.718750 0.171875 m /zero glyphshow
grestore
277.133 16.725 m
0 0.172 rmoveto
(residual) show
gsave
/o {
gsave
newpath
translate
0 0 m
4 0 l
stroke
grestore
} bind def
73.125 44.1 o
grestore
gsave
/o {
gsave
newpath
translate
0 0 m
-4 0 l
stroke
grestore
} bind def
526.5 44.1 o
grestore
gsave
63.078125 39.560937 translate
0.000000 rotate
0.000000 0.171875 m /zero glyphshow
grestore
gsave
/o {
gsave
newpath
translate
0 0 m
4 0 l
stroke
grestore
} bind def
73.125 83.3 o
grestore
gsave
/o {
gsave
newpath
translate
0 0 m
-4 0 l
stroke
grestore
} bind def
526.5 83.3 o
grestore
gsave
63.453125 78.839062 translate
0.000000 rotate
0.000000 0.171875 m /five glyphshow
grestore
gsave
/o {
gsave
newpath
translate
0 0 m
4 0 l
stroke
grestore
} bind def
73.125 122.5 o
grestore
gsave
/o {
gsave
newpath
translate
0 0 m
-4 0 l
stroke
grestore
} bind def
526.5 122.5 o
grestore
gsave
55.953125 117.960938 translate
0.000000 rotate
0.000000 0.171875 m /one glyphshow
7.634766 0.171875 m /zero glyphshow
grestore
gsave
/o {
gsave
newpath
translate
0 0 m
4 0 l
stroke
grestore
} bind def
73.125 161.7 o
grestore
gsave
/o {
gsave
newpath
translate
0 0 m
-4 0 l
stroke
grestore
} bind def
526.5 161.7 o
grestore
gsave
56.203125 157.239063 translate
0.000000 rotate
0.000000 0.171875 m /one glyphshow
7.634766 0.171875 m /five glyphshow
grestore
gsave
/o {
gsave
newpath
translate
0 0 m
4 0 l
stroke
grestore
} bind def
73.125 200.9 o
grestore
gsave
/o {
gsave
newpath
translate
0 0 m
-4 0 l
stroke
grestore
} bind def
526.5 200.9 o
grestore
gsave
55.515625 196.360938 translate
0.000000 rotate
0.000000 0.171875 m /two glyphshow
7.634766 0.171875 m /zero glyphshow
grestore
gsave
/o {
gsave
newpath
translate
0 0 m
4 0 l
stroke
grestore
} bind def
73.125 240.1 o
grestore
gsave
/o {
gsave
newpath
translate
0 0 m
-4 0 l
stroke
grestore
} bind def
526.5 240.1 o
grestore
gsave
55.765625 235.560938 translate
0.000000 rotate
0.000000 0.171875 m /two glyphshow
7.634766 0.171875 m /five glyphshow
grestore
gsave
/o {
gsave
newpath
translate
0 0 m
4 0 l
stroke
grestore
} bind def
73.125 279.3 o
grestore
gsave
/o {
gsave
newpath
translate
0 0 m
-4 0 l
stroke
grestore
} bind def
526.5 279.3 o
grestore
gsave
55.562500 274.760938 translate
0.000000 rotate
0.000000 0.171875 m /three glyphshow
7.634766 0.171875 m /zero glyphshow
grestore
gsave
/o {
gsave
newpath
translate
0 0 m
4 0 l
stroke
grestore
} bind def
73.125 318.5 o
grestore
gsave
/o {
gsave
newpath
translate
0 0 m
-4 0 l
stroke
grestore
} bind def
526.5 318.5 o
grestore
gsave
55.812500 313.960938 translate
0.000000 rotate
0.000000 0.171875 m /three glyphshow
7.634766 0.171875 m /five glyphshow
grestore
gsave
/o {
gsave
newpath
translate
0 0 m
4 0 l
stroke
grestore
} bind def
73.125 357.7 o
grestore
gsave
/o {
gsave
newpath
translate
0 0 m
-4 0 l
stroke
grestore
} bind def
526.5 357.7 o
grestore
gsave
55.234375 353.160938 translate
0.000000 rotate
0.000000 0.171875 m /four glyphshow
7.634766 0.171875 m /zero glyphshow
grestore
gsave
/o {
gsave
newpath
translate
0 0 m
4 0 l
stroke
grestore
} bind def
73.125 396.9 o
grestore
gsave
/o {
gsave
newpath
translate
0 0 m
-4 0 l
stroke
grestore
} bind def
526.5 396.9 o
grestore
gsave
55.484375 392.439063 translate
0.000000 rotate
0.000000 0.171875 m /four glyphshow
7.634766 0.171875 m /five glyphshow
grestore
50.234 190.703 m
gsave
90 rotate
0 2.5 rmoveto
(frequency) show
grestore
1.000 setlinewidth
2 setlinecap
gsave
73.125 396.9 m
526.5 396.9 l
stroke
grestore
gsave
526.5 44.1 m
526.5 396.9 l
stroke
grestore
gsave
73.125 44.1 m
526.5 44.1 l
stroke
grestore
gsave
73.125 44.1 m
73.125 396.9 l
stroke
grestore
gsave
403.585 325.843 m
519.3 325.843 l
519.3 389.7 l
403.585 389.7 l
403.585 325.843 l
cl
gsave
1.000 setgray
fill
grestore
stroke
grestore
1.000 0.000 0.000 setrgbcolor
gsave
409.345 373.299 m
438.145 373.299 l
438.145 383.379 l
409.345 383.379 l
409.345 373.299 l
gsave
fill
grestore
stroke
grestore
0.000 setgray
/DejaVuSans findfont
14.400 scalefont
setfont
449.665 370.393 m
0 2.906 rmoveto
(single) show
0.000 0.500 0.000 setrgbcolor
gsave
409.345 352.553 m
438.145 352.553 l
438.145 362.633 l
409.345 362.633 l
409.345 352.553 l
gsave
fill
grestore
stroke
grestore
0.000 setgray
449.665 352.349 m
0 0.203 rmoveto
(double) show
0.000 0.000 1.000 setrgbcolor
gsave
409.345 331.806 m
438.145 331.806 l
438.145 341.886 l
409.345 341.886 l
409.345 331.806 l
gsave
fill
grestore
stroke
grestore
0.000 setgray
449.665 331.603 m
0 0.203 rmoveto
(multirate) show

end
showpage
