%!PS-Adobe-2.0 EPSF-2.0
%%Title: residuals-B4.eps
%%Creator: gnuplot 4.4 patchlevel 4
%%CreationDate: Tue Jan 29 08:53:34 2013
%%DocumentFonts: (atend)
%%BoundingBox: 50 50 410 352
%%EndComments
%%BeginProlog
/gnudict 256 dict def
gnudict begin
%
% The following true/false flags may be edited by hand if desired.
% The unit line width and grayscale image gamma correction may also be changed.
%
/Color true def
/Blacktext false def
/Solid true def
/Dashlength 1 def
/Landscape false def
/Level1 false def
/Rounded false def
/ClipToBoundingBox false def
/TransparentPatterns false def
/gnulinewidth 5.000 def
/userlinewidth gnulinewidth def
/Gamma 1.0 def
%
/vshift -80 def
/dl1 {
  10.0 Dashlength mul mul
  Rounded { currentlinewidth 0.75 mul sub dup 0 le { pop 0.01 } if } if
} def
/dl2 {
  10.0 Dashlength mul mul
  Rounded { currentlinewidth 0.75 mul add } if
} def
/hpt_ 31.5 def
/vpt_ 31.5 def
/hpt hpt_ def
/vpt vpt_ def
Level1 {} {
/SDict 10 dict def
systemdict /pdfmark known not {
  userdict /pdfmark systemdict /cleartomark get put
} if
SDict begin [
  /Title (residuals-B4.eps)
  /Subject (gnuplot plot)
  /Creator (gnuplot 4.4 patchlevel 4)
  /Author (bmalama)
%  /Producer (gnuplot)
%  /Keywords ()
  /CreationDate (Tue Jan 29 08:53:34 2013)
  /DOCINFO pdfmark
end
} ifelse
/doclip {
  ClipToBoundingBox {
    newpath 50 50 moveto 410 50 lineto 410 352 lineto 50 352 lineto closepath
    clip
  } if
} def
%
% Gnuplot Prolog Version 4.4 (August 2010)
%
%/SuppressPDFMark true def
%
/M {moveto} bind def
/L {lineto} bind def
/R {rmoveto} bind def
/V {rlineto} bind def
/N {newpath moveto} bind def
/Z {closepath} bind def
/C {setrgbcolor} bind def
/f {rlineto fill} bind def
/g {setgray} bind def
/Gshow {show} def   % May be redefined later in the file to support UTF-8
/vpt2 vpt 2 mul def
/hpt2 hpt 2 mul def
/Lshow {currentpoint stroke M 0 vshift R 
	Blacktext {gsave 0 setgray show grestore} {show} ifelse} def
/Rshow {currentpoint stroke M dup stringwidth pop neg vshift R
	Blacktext {gsave 0 setgray show grestore} {show} ifelse} def
/Cshow {currentpoint stroke M dup stringwidth pop -2 div vshift R 
	Blacktext {gsave 0 setgray show grestore} {show} ifelse} def
/UP {dup vpt_ mul /vpt exch def hpt_ mul /hpt exch def
  /hpt2 hpt 2 mul def /vpt2 vpt 2 mul def} def
/DL {Color {setrgbcolor Solid {pop []} if 0 setdash}
 {pop pop pop 0 setgray Solid {pop []} if 0 setdash} ifelse} def
/BL {stroke userlinewidth 2 mul setlinewidth
	Rounded {1 setlinejoin 1 setlinecap} if} def
/AL {stroke userlinewidth 2 div setlinewidth
	Rounded {1 setlinejoin 1 setlinecap} if} def
/UL {dup gnulinewidth mul /userlinewidth exch def
	dup 1 lt {pop 1} if 10 mul /udl exch def} def
/PL {stroke userlinewidth setlinewidth
	Rounded {1 setlinejoin 1 setlinecap} if} def
3.8 setmiterlimit
% Default Line colors
/LCw {1 1 1} def
/LCb {0 0 0} def
/LCa {0 0 0} def
/LC0 {1 0 0} def
/LC1 {0 1 0} def
/LC2 {0 0 1} def
/LC3 {1 0 1} def
/LC4 {0 1 1} def
/LC5 {1 1 0} def
/LC6 {0 0 0} def
/LC7 {1 0.3 0} def
/LC8 {0.5 0.5 0.5} def
% Default Line Types
/LTw {PL [] 1 setgray} def
/LTb {BL [] LCb DL} def
/LTa {AL [1 udl mul 2 udl mul] 0 setdash LCa setrgbcolor} def
/LT0 {PL [] LC0 DL} def
/LT1 {PL [4 dl1 2 dl2] LC1 DL} def
/LT2 {PL [2 dl1 3 dl2] LC2 DL} def
/LT3 {PL [1 dl1 1.5 dl2] LC3 DL} def
/LT4 {PL [6 dl1 2 dl2 1 dl1 2 dl2] LC4 DL} def
/LT5 {PL [3 dl1 3 dl2 1 dl1 3 dl2] LC5 DL} def
/LT6 {PL [2 dl1 2 dl2 2 dl1 6 dl2] LC6 DL} def
/LT7 {PL [1 dl1 2 dl2 6 dl1 2 dl2 1 dl1 2 dl2] LC7 DL} def
/LT8 {PL [2 dl1 2 dl2 2 dl1 2 dl2 2 dl1 2 dl2 2 dl1 4 dl2] LC8 DL} def
/Pnt {stroke [] 0 setdash gsave 1 setlinecap M 0 0 V stroke grestore} def
/Dia {stroke [] 0 setdash 2 copy vpt add M
  hpt neg vpt neg V hpt vpt neg V
  hpt vpt V hpt neg vpt V closepath stroke
  Pnt} def
/Pls {stroke [] 0 setdash vpt sub M 0 vpt2 V
  currentpoint stroke M
  hpt neg vpt neg R hpt2 0 V stroke
 } def
/Box {stroke [] 0 setdash 2 copy exch hpt sub exch vpt add M
  0 vpt2 neg V hpt2 0 V 0 vpt2 V
  hpt2 neg 0 V closepath stroke
  Pnt} def
/Crs {stroke [] 0 setdash exch hpt sub exch vpt add M
  hpt2 vpt2 neg V currentpoint stroke M
  hpt2 neg 0 R hpt2 vpt2 V stroke} def
/TriU {stroke [] 0 setdash 2 copy vpt 1.12 mul add M
  hpt neg vpt -1.62 mul V
  hpt 2 mul 0 V
  hpt neg vpt 1.62 mul V closepath stroke
  Pnt} def
/Star {2 copy Pls Crs} def
/BoxF {stroke [] 0 setdash exch hpt sub exch vpt add M
  0 vpt2 neg V hpt2 0 V 0 vpt2 V
  hpt2 neg 0 V closepath fill} def
/TriUF {stroke [] 0 setdash vpt 1.12 mul add M
  hpt neg vpt -1.62 mul V
  hpt 2 mul 0 V
  hpt neg vpt 1.62 mul V closepath fill} def
/TriD {stroke [] 0 setdash 2 copy vpt 1.12 mul sub M
  hpt neg vpt 1.62 mul V
  hpt 2 mul 0 V
  hpt neg vpt -1.62 mul V closepath stroke
  Pnt} def
/TriDF {stroke [] 0 setdash vpt 1.12 mul sub M
  hpt neg vpt 1.62 mul V
  hpt 2 mul 0 V
  hpt neg vpt -1.62 mul V closepath fill} def
/DiaF {stroke [] 0 setdash vpt add M
  hpt neg vpt neg V hpt vpt neg V
  hpt vpt V hpt neg vpt V closepath fill} def
/Pent {stroke [] 0 setdash 2 copy gsave
  translate 0 hpt M 4 {72 rotate 0 hpt L} repeat
  closepath stroke grestore Pnt} def
/PentF {stroke [] 0 setdash gsave
  translate 0 hpt M 4 {72 rotate 0 hpt L} repeat
  closepath fill grestore} def
/Circle {stroke [] 0 setdash 2 copy
  hpt 0 360 arc stroke Pnt} def
/CircleF {stroke [] 0 setdash hpt 0 360 arc fill} def
/C0 {BL [] 0 setdash 2 copy moveto vpt 90 450 arc} bind def
/C1 {BL [] 0 setdash 2 copy moveto
	2 copy vpt 0 90 arc closepath fill
	vpt 0 360 arc closepath} bind def
/C2 {BL [] 0 setdash 2 copy moveto
	2 copy vpt 90 180 arc closepath fill
	vpt 0 360 arc closepath} bind def
/C3 {BL [] 0 setdash 2 copy moveto
	2 copy vpt 0 180 arc closepath fill
	vpt 0 360 arc closepath} bind def
/C4 {BL [] 0 setdash 2 copy moveto
	2 copy vpt 180 270 arc closepath fill
	vpt 0 360 arc closepath} bind def
/C5 {BL [] 0 setdash 2 copy moveto
	2 copy vpt 0 90 arc
	2 copy moveto
	2 copy vpt 180 270 arc closepath fill
	vpt 0 360 arc} bind def
/C6 {BL [] 0 setdash 2 copy moveto
	2 copy vpt 90 270 arc closepath fill
	vpt 0 360 arc closepath} bind def
/C7 {BL [] 0 setdash 2 copy moveto
	2 copy vpt 0 270 arc closepath fill
	vpt 0 360 arc closepath} bind def
/C8 {BL [] 0 setdash 2 copy moveto
	2 copy vpt 270 360 arc closepath fill
	vpt 0 360 arc closepath} bind def
/C9 {BL [] 0 setdash 2 copy moveto
	2 copy vpt 270 450 arc closepath fill
	vpt 0 360 arc closepath} bind def
/C10 {BL [] 0 setdash 2 copy 2 copy moveto vpt 270 360 arc closepath fill
	2 copy moveto
	2 copy vpt 90 180 arc closepath fill
	vpt 0 360 arc closepath} bind def
/C11 {BL [] 0 setdash 2 copy moveto
	2 copy vpt 0 180 arc closepath fill
	2 copy moveto
	2 copy vpt 270 360 arc closepath fill
	vpt 0 360 arc closepath} bind def
/C12 {BL [] 0 setdash 2 copy moveto
	2 copy vpt 180 360 arc closepath fill
	vpt 0 360 arc closepath} bind def
/C13 {BL [] 0 setdash 2 copy moveto
	2 copy vpt 0 90 arc closepath fill
	2 copy moveto
	2 copy vpt 180 360 arc closepath fill
	vpt 0 360 arc closepath} bind def
/C14 {BL [] 0 setdash 2 copy moveto
	2 copy vpt 90 360 arc closepath fill
	vpt 0 360 arc} bind def
/C15 {BL [] 0 setdash 2 copy vpt 0 360 arc closepath fill
	vpt 0 360 arc closepath} bind def
/Rec {newpath 4 2 roll moveto 1 index 0 rlineto 0 exch rlineto
	neg 0 rlineto closepath} bind def
/Square {dup Rec} bind def
/Bsquare {vpt sub exch vpt sub exch vpt2 Square} bind def
/S0 {BL [] 0 setdash 2 copy moveto 0 vpt rlineto BL Bsquare} bind def
/S1 {BL [] 0 setdash 2 copy vpt Square fill Bsquare} bind def
/S2 {BL [] 0 setdash 2 copy exch vpt sub exch vpt Square fill Bsquare} bind def
/S3 {BL [] 0 setdash 2 copy exch vpt sub exch vpt2 vpt Rec fill Bsquare} bind def
/S4 {BL [] 0 setdash 2 copy exch vpt sub exch vpt sub vpt Square fill Bsquare} bind def
/S5 {BL [] 0 setdash 2 copy 2 copy vpt Square fill
	exch vpt sub exch vpt sub vpt Square fill Bsquare} bind def
/S6 {BL [] 0 setdash 2 copy exch vpt sub exch vpt sub vpt vpt2 Rec fill Bsquare} bind def
/S7 {BL [] 0 setdash 2 copy exch vpt sub exch vpt sub vpt vpt2 Rec fill
	2 copy vpt Square fill Bsquare} bind def
/S8 {BL [] 0 setdash 2 copy vpt sub vpt Square fill Bsquare} bind def
/S9 {BL [] 0 setdash 2 copy vpt sub vpt vpt2 Rec fill Bsquare} bind def
/S10 {BL [] 0 setdash 2 copy vpt sub vpt Square fill 2 copy exch vpt sub exch vpt Square fill
	Bsquare} bind def
/S11 {BL [] 0 setdash 2 copy vpt sub vpt Square fill 2 copy exch vpt sub exch vpt2 vpt Rec fill
	Bsquare} bind def
/S12 {BL [] 0 setdash 2 copy exch vpt sub exch vpt sub vpt2 vpt Rec fill Bsquare} bind def
/S13 {BL [] 0 setdash 2 copy exch vpt sub exch vpt sub vpt2 vpt Rec fill
	2 copy vpt Square fill Bsquare} bind def
/S14 {BL [] 0 setdash 2 copy exch vpt sub exch vpt sub vpt2 vpt Rec fill
	2 copy exch vpt sub exch vpt Square fill Bsquare} bind def
/S15 {BL [] 0 setdash 2 copy Bsquare fill Bsquare} bind def
/D0 {gsave translate 45 rotate 0 0 S0 stroke grestore} bind def
/D1 {gsave translate 45 rotate 0 0 S1 stroke grestore} bind def
/D2 {gsave translate 45 rotate 0 0 S2 stroke grestore} bind def
/D3 {gsave translate 45 rotate 0 0 S3 stroke grestore} bind def
/D4 {gsave translate 45 rotate 0 0 S4 stroke grestore} bind def
/D5 {gsave translate 45 rotate 0 0 S5 stroke grestore} bind def
/D6 {gsave translate 45 rotate 0 0 S6 stroke grestore} bind def
/D7 {gsave translate 45 rotate 0 0 S7 stroke grestore} bind def
/D8 {gsave translate 45 rotate 0 0 S8 stroke grestore} bind def
/D9 {gsave translate 45 rotate 0 0 S9 stroke grestore} bind def
/D10 {gsave translate 45 rotate 0 0 S10 stroke grestore} bind def
/D11 {gsave translate 45 rotate 0 0 S11 stroke grestore} bind def
/D12 {gsave translate 45 rotate 0 0 S12 stroke grestore} bind def
/D13 {gsave translate 45 rotate 0 0 S13 stroke grestore} bind def
/D14 {gsave translate 45 rotate 0 0 S14 stroke grestore} bind def
/D15 {gsave translate 45 rotate 0 0 S15 stroke grestore} bind def
/DiaE {stroke [] 0 setdash vpt add M
  hpt neg vpt neg V hpt vpt neg V
  hpt vpt V hpt neg vpt V closepath stroke} def
/BoxE {stroke [] 0 setdash exch hpt sub exch vpt add M
  0 vpt2 neg V hpt2 0 V 0 vpt2 V
  hpt2 neg 0 V closepath stroke} def
/TriUE {stroke [] 0 setdash vpt 1.12 mul add M
  hpt neg vpt -1.62 mul V
  hpt 2 mul 0 V
  hpt neg vpt 1.62 mul V closepath stroke} def
/TriDE {stroke [] 0 setdash vpt 1.12 mul sub M
  hpt neg vpt 1.62 mul V
  hpt 2 mul 0 V
  hpt neg vpt -1.62 mul V closepath stroke} def
/PentE {stroke [] 0 setdash gsave
  translate 0 hpt M 4 {72 rotate 0 hpt L} repeat
  closepath stroke grestore} def
/CircE {stroke [] 0 setdash 
  hpt 0 360 arc stroke} def
/Opaque {gsave closepath 1 setgray fill grestore 0 setgray closepath} def
/DiaW {stroke [] 0 setdash vpt add M
  hpt neg vpt neg V hpt vpt neg V
  hpt vpt V hpt neg vpt V Opaque stroke} def
/BoxW {stroke [] 0 setdash exch hpt sub exch vpt add M
  0 vpt2 neg V hpt2 0 V 0 vpt2 V
  hpt2 neg 0 V Opaque stroke} def
/TriUW {stroke [] 0 setdash vpt 1.12 mul add M
  hpt neg vpt -1.62 mul V
  hpt 2 mul 0 V
  hpt neg vpt 1.62 mul V Opaque stroke} def
/TriDW {stroke [] 0 setdash vpt 1.12 mul sub M
  hpt neg vpt 1.62 mul V
  hpt 2 mul 0 V
  hpt neg vpt -1.62 mul V Opaque stroke} def
/PentW {stroke [] 0 setdash gsave
  translate 0 hpt M 4 {72 rotate 0 hpt L} repeat
  Opaque stroke grestore} def
/CircW {stroke [] 0 setdash 
  hpt 0 360 arc Opaque stroke} def
/BoxFill {gsave Rec 1 setgray fill grestore} def
/Density {
  /Fillden exch def
  currentrgbcolor
  /ColB exch def /ColG exch def /ColR exch def
  /ColR ColR Fillden mul Fillden sub 1 add def
  /ColG ColG Fillden mul Fillden sub 1 add def
  /ColB ColB Fillden mul Fillden sub 1 add def
  ColR ColG ColB setrgbcolor} def
/BoxColFill {gsave Rec PolyFill} def
/PolyFill {gsave Density fill grestore grestore} def
/h {rlineto rlineto rlineto gsave closepath fill grestore} bind def
%
% PostScript Level 1 Pattern Fill routine for rectangles
% Usage: x y w h s a XX PatternFill
%	x,y = lower left corner of box to be filled
%	w,h = width and height of box
%	  a = angle in degrees between lines and x-axis
%	 XX = 0/1 for no/yes cross-hatch
%
/PatternFill {gsave /PFa [ 9 2 roll ] def
  PFa 0 get PFa 2 get 2 div add PFa 1 get PFa 3 get 2 div add translate
  PFa 2 get -2 div PFa 3 get -2 div PFa 2 get PFa 3 get Rec
  gsave 1 setgray fill grestore clip
  currentlinewidth 0.5 mul setlinewidth
  /PFs PFa 2 get dup mul PFa 3 get dup mul add sqrt def
  0 0 M PFa 5 get rotate PFs -2 div dup translate
  0 1 PFs PFa 4 get div 1 add floor cvi
	{PFa 4 get mul 0 M 0 PFs V} for
  0 PFa 6 get ne {
	0 1 PFs PFa 4 get div 1 add floor cvi
	{PFa 4 get mul 0 2 1 roll M PFs 0 V} for
 } if
  stroke grestore} def
%
/languagelevel where
 {pop languagelevel} {1} ifelse
 2 lt
	{/InterpretLevel1 true def}
	{/InterpretLevel1 Level1 def}
 ifelse
%
% PostScript level 2 pattern fill definitions
%
/Level2PatternFill {
/Tile8x8 {/PaintType 2 /PatternType 1 /TilingType 1 /BBox [0 0 8 8] /XStep 8 /YStep 8}
	bind def
/KeepColor {currentrgbcolor [/Pattern /DeviceRGB] setcolorspace} bind def
<< Tile8x8
 /PaintProc {0.5 setlinewidth pop 0 0 M 8 8 L 0 8 M 8 0 L stroke} 
>> matrix makepattern
/Pat1 exch def
<< Tile8x8
 /PaintProc {0.5 setlinewidth pop 0 0 M 8 8 L 0 8 M 8 0 L stroke
	0 4 M 4 8 L 8 4 L 4 0 L 0 4 L stroke}
>> matrix makepattern
/Pat2 exch def
<< Tile8x8
 /PaintProc {0.5 setlinewidth pop 0 0 M 0 8 L
	8 8 L 8 0 L 0 0 L fill}
>> matrix makepattern
/Pat3 exch def
<< Tile8x8
 /PaintProc {0.5 setlinewidth pop -4 8 M 8 -4 L
	0 12 M 12 0 L stroke}
>> matrix makepattern
/Pat4 exch def
<< Tile8x8
 /PaintProc {0.5 setlinewidth pop -4 0 M 8 12 L
	0 -4 M 12 8 L stroke}
>> matrix makepattern
/Pat5 exch def
<< Tile8x8
 /PaintProc {0.5 setlinewidth pop -2 8 M 4 -4 L
	0 12 M 8 -4 L 4 12 M 10 0 L stroke}
>> matrix makepattern
/Pat6 exch def
<< Tile8x8
 /PaintProc {0.5 setlinewidth pop -2 0 M 4 12 L
	0 -4 M 8 12 L 4 -4 M 10 8 L stroke}
>> matrix makepattern
/Pat7 exch def
<< Tile8x8
 /PaintProc {0.5 setlinewidth pop 8 -2 M -4 4 L
	12 0 M -4 8 L 12 4 M 0 10 L stroke}
>> matrix makepattern
/Pat8 exch def
<< Tile8x8
 /PaintProc {0.5 setlinewidth pop 0 -2 M 12 4 L
	-4 0 M 12 8 L -4 4 M 8 10 L stroke}
>> matrix makepattern
/Pat9 exch def
/Pattern1 {PatternBgnd KeepColor Pat1 setpattern} bind def
/Pattern2 {PatternBgnd KeepColor Pat2 setpattern} bind def
/Pattern3 {PatternBgnd KeepColor Pat3 setpattern} bind def
/Pattern4 {PatternBgnd KeepColor Landscape {Pat5} {Pat4} ifelse setpattern} bind def
/Pattern5 {PatternBgnd KeepColor Landscape {Pat4} {Pat5} ifelse setpattern} bind def
/Pattern6 {PatternBgnd KeepColor Landscape {Pat9} {Pat6} ifelse setpattern} bind def
/Pattern7 {PatternBgnd KeepColor Landscape {Pat8} {Pat7} ifelse setpattern} bind def
} def
%
%
%End of PostScript Level 2 code
%
/PatternBgnd {
  TransparentPatterns {} {gsave 1 setgray fill grestore} ifelse
} def
%
% Substitute for Level 2 pattern fill codes with
% grayscale if Level 2 support is not selected.
%
/Level1PatternFill {
/Pattern1 {0.250 Density} bind def
/Pattern2 {0.500 Density} bind def
/Pattern3 {0.750 Density} bind def
/Pattern4 {0.125 Density} bind def
/Pattern5 {0.375 Density} bind def
/Pattern6 {0.625 Density} bind def
/Pattern7 {0.875 Density} bind def
} def
%
% Now test for support of Level 2 code
%
Level1 {Level1PatternFill} {Level2PatternFill} ifelse
%
/Symbol-Oblique /Symbol findfont [1 0 .167 1 0 0] makefont
dup length dict begin {1 index /FID eq {pop pop} {def} ifelse} forall
currentdict end definefont pop
/MFshow {
   { dup 5 get 3 ge
     { 5 get 3 eq {gsave} {grestore} ifelse }
     {dup dup 0 get findfont exch 1 get scalefont setfont
     [ currentpoint ] exch dup 2 get 0 exch R dup 5 get 2 ne {dup dup 6
     get exch 4 get {Gshow} {stringwidth pop 0 R} ifelse }if dup 5 get 0 eq
     {dup 3 get {2 get neg 0 exch R pop} {pop aload pop M} ifelse} {dup 5
     get 1 eq {dup 2 get exch dup 3 get exch 6 get stringwidth pop -2 div
     dup 0 R} {dup 6 get stringwidth pop -2 div 0 R 6 get
     show 2 index {aload pop M neg 3 -1 roll neg R pop pop} {pop pop pop
     pop aload pop M} ifelse }ifelse }ifelse }
     ifelse }
   forall} def
/Gswidth {dup type /stringtype eq {stringwidth} {pop (n) stringwidth} ifelse} def
/MFwidth {0 exch { dup 5 get 3 ge { 5 get 3 eq { 0 } { pop } ifelse }
 {dup 3 get{dup dup 0 get findfont exch 1 get scalefont setfont
     6 get Gswidth pop add} {pop} ifelse} ifelse} forall} def
/MLshow { currentpoint stroke M
  0 exch R
  Blacktext {gsave 0 setgray MFshow grestore} {MFshow} ifelse } bind def
/MRshow { currentpoint stroke M
  exch dup MFwidth neg 3 -1 roll R
  Blacktext {gsave 0 setgray MFshow grestore} {MFshow} ifelse } bind def
/MCshow { currentpoint stroke M
  exch dup MFwidth -2 div 3 -1 roll R
  Blacktext {gsave 0 setgray MFshow grestore} {MFshow} ifelse } bind def
/XYsave    { [( ) 1 2 true false 3 ()] } bind def
/XYrestore { [( ) 1 2 true false 4 ()] } bind def
end
%%EndProlog
gnudict begin
gsave
doclip
50 50 translate
0.050 0.050 scale
0 setgray
newpath
(Helvetica) findfont 240 scalefont setfont
1.000 UL
LTb
1464 768 M
63 0 V
5240 0 R
-63 0 V
stroke
1320 768 M
[ [(Helvetica) 240.0 0.0 true true 0 (-0.02)]
] -80.0 MRshow
1.000 UL
LTb
1464 1392 M
63 0 V
5240 0 R
-63 0 V
stroke
1320 1392 M
[ [(Helvetica) 240.0 0.0 true true 0 (-0.015)]
] -80.0 MRshow
1.000 UL
LTb
1464 2016 M
63 0 V
5240 0 R
-63 0 V
stroke
1320 2016 M
[ [(Helvetica) 240.0 0.0 true true 0 (-0.01)]
] -80.0 MRshow
1.000 UL
LTb
1464 2640 M
63 0 V
5240 0 R
-63 0 V
stroke
1320 2640 M
[ [(Helvetica) 240.0 0.0 true true 0 (-0.005)]
] -80.0 MRshow
1.000 UL
LTb
1464 3264 M
63 0 V
5240 0 R
-63 0 V
stroke
1320 3264 M
[ [(Helvetica) 240.0 0.0 true true 0 ( 0)]
] -80.0 MRshow
1.000 UL
LTb
1464 3887 M
63 0 V
5240 0 R
-63 0 V
stroke
1320 3887 M
[ [(Helvetica) 240.0 0.0 true true 0 ( 0.005)]
] -80.0 MRshow
1.000 UL
LTb
1464 4511 M
63 0 V
5240 0 R
-63 0 V
stroke
1320 4511 M
[ [(Helvetica) 240.0 0.0 true true 0 ( 0.01)]
] -80.0 MRshow
1.000 UL
LTb
1464 5135 M
63 0 V
5240 0 R
-63 0 V
stroke
1320 5135 M
[ [(Helvetica) 240.0 0.0 true true 0 ( 0.015)]
] -80.0 MRshow
1.000 UL
LTb
1464 5759 M
63 0 V
5240 0 R
-63 0 V
stroke
1320 5759 M
[ [(Helvetica) 240.0 0.0 true true 0 ( 0.02)]
] -80.0 MRshow
1.000 UL
LTb
1464 768 M
0 63 V
0 4928 R
0 -63 V
stroke
1464 528 M
[ [(Helvetica) 240.0 0.0 true true 0 ( 0)]
] -80.0 MCshow
1.000 UL
LTb
2293 768 M
0 63 V
0 4928 R
0 -63 V
stroke
2293 528 M
[ [(Helvetica) 240.0 0.0 true true 0 ( 5)]
] -80.0 MCshow
1.000 UL
LTb
3121 768 M
0 63 V
0 4928 R
0 -63 V
stroke
3121 528 M
[ [(Helvetica) 240.0 0.0 true true 0 ( 10)]
] -80.0 MCshow
1.000 UL
LTb
3950 768 M
0 63 V
0 4928 R
0 -63 V
stroke
3950 528 M
[ [(Helvetica) 240.0 0.0 true true 0 ( 15)]
] -80.0 MCshow
1.000 UL
LTb
4778 768 M
0 63 V
0 4928 R
0 -63 V
stroke
4778 528 M
[ [(Helvetica) 240.0 0.0 true true 0 ( 20)]
] -80.0 MCshow
1.000 UL
LTb
5607 768 M
0 63 V
0 4928 R
0 -63 V
stroke
5607 528 M
[ [(Helvetica) 240.0 0.0 true true 0 ( 25)]
] -80.0 MCshow
1.000 UL
LTb
6436 768 M
0 63 V
0 4928 R
0 -63 V
stroke
6436 528 M
[ [(Helvetica) 240.0 0.0 true true 0 ( 30)]
] -80.0 MCshow
1.000 UL
LTb
1.000 UL
LTb
1464 5759 N
0 -4991 V
5303 0 V
0 4991 V
-5303 0 V
Z stroke
LCb setrgbcolor
192 3263 M
currentpoint gsave translate -270 rotate 0 0 moveto
[ [(Helvetica) 240.0 0.0 true true 0 (Residuals \()]
[(Symbol) 240.0 0.0 true true 0 (m)]
[(Helvetica) 240.0 0.0 true true 0 (Ci/mL\))]
] -80.0 MCshow
grestore
LTb
LCb setrgbcolor
4115 168 M
[ [(Helvetica) 240.0 0.0 true true 0 (t \(hrs\))]
] -80.0 MCshow
LTb
1.000 UP
1570 5509 M
[ [(Helvetica) 240.0 0.0 true true 0 (\(a\) B4)]
] -80.0 MLshow
1.000 UL
LTb
% Begin plot #1
1.000 UP
1.000 UL
LT0
LCb setrgbcolor
5984 5552 M
[ [(Helvetica) 240.0 0.0 true true 0 (single)]
] -80.0 MRshow
LT0
1658 2719 CircleF
1663 2664 CircleF
1668 2614 CircleF
1673 2565 CircleF
1679 2524 CircleF
1684 2472 CircleF
1689 2413 CircleF
1694 2372 CircleF
1699 2349 CircleF
1709 2284 CircleF
1722 2217 CircleF
1732 2172 CircleF
1742 2134 CircleF
1748 2132 CircleF
1759 2120 CircleF
1770 2147 CircleF
1781 2138 CircleF
1792 2178 CircleF
1803 2111 CircleF
1814 2271 CircleF
1819 2467 CircleF
1830 2548 CircleF
1841 3092 CircleF
1846 2669 CircleF
1861 2905 CircleF
1877 2891 CircleF
1893 3065 CircleF
1910 2974 CircleF
1926 3601 CircleF
1937 3633 CircleF
1953 3878 CircleF
1968 4017 CircleF
1984 4042 CircleF
2000 3843 CircleF
2016 4071 CircleF
2031 4810 CircleF
2046 4694 CircleF
2062 4474 CircleF
2078 4600 CircleF
2094 4501 CircleF
2110 4784 CircleF
2126 5137 CircleF
2141 4321 CircleF
2156 5105 CircleF
2172 4914 CircleF
2188 4508 CircleF
2203 4424 CircleF
2220 4613 CircleF
2251 4153 CircleF
2267 4647 CircleF
2283 4553 CircleF
2315 4127 CircleF
2330 4306 CircleF
2346 3977 CircleF
2363 4289 CircleF
2379 3836 CircleF
2395 3773 CircleF
2427 4828 CircleF
2443 4659 CircleF
2458 4753 CircleF
2474 4720 CircleF
2489 4694 CircleF
2505 4413 CircleF
2520 4134 CircleF
2536 3215 CircleF
2552 3587 CircleF
2568 3573 CircleF
2584 3562 CircleF
2600 3941 CircleF
2616 2913 CircleF
2679 2694 CircleF
2695 2960 CircleF
2712 3232 CircleF
2728 3767 CircleF
2743 3149 CircleF
2759 3562 CircleF
2775 3079 CircleF
2806 3664 CircleF
2822 2672 CircleF
2838 3480 CircleF
2855 2234 CircleF
2871 2145 CircleF
2888 3089 CircleF
2904 2750 CircleF
2920 3441 CircleF
2936 2722 CircleF
2953 2261 CircleF
2969 2445 CircleF
2985 3915 CircleF
3016 3528 CircleF
3032 2948 CircleF
3065 3337 CircleF
3080 3664 CircleF
3096 3608 CircleF
3111 3682 CircleF
3127 2857 CircleF
3142 3448 CircleF
3158 3010 CircleF
3174 2573 CircleF
3191 2264 CircleF
3208 2600 CircleF
3224 3067 CircleF
3241 2893 CircleF
3257 2463 CircleF
3273 3321 CircleF
3289 3151 CircleF
3320 3332 CircleF
3336 2779 CircleF
3352 2099 CircleF
3384 3054 CircleF
3400 3019 CircleF
3478 2978 CircleF
3495 2686 CircleF
3511 1878 CircleF
3517 2381 CircleF
3528 2357 CircleF
3545 2193 CircleF
3556 2428 CircleF
3616 3229 CircleF
3626 1805 CircleF
3638 1927 CircleF
3649 2182 CircleF
3659 2057 CircleF
3670 2580 CircleF
3681 2851 CircleF
3691 2874 CircleF
3702 2518 CircleF
3743 3361 CircleF
3754 2922 CircleF
3776 2727 CircleF
3787 2326 CircleF
3798 3223 CircleF
3809 3226 CircleF
3819 3498 CircleF
3830 3135 CircleF
3841 3165 CircleF
3851 3849 CircleF
3862 4023 CircleF
3873 4333 CircleF
3883 3874 CircleF
3894 3553 CircleF
3904 4010 CircleF
3915 4085 CircleF
3926 3910 CircleF
3937 3615 CircleF
3948 3326 CircleF
3959 3425 CircleF
3970 3521 CircleF
3981 3619 CircleF
3992 3458 CircleF
4003 3795 CircleF
4043 3727 CircleF
4054 3937 CircleF
4064 3629 CircleF
4075 3071 CircleF
4085 3154 CircleF
4096 2652 CircleF
4108 2471 CircleF
4119 2492 CircleF
4130 2971 CircleF
4141 2550 CircleF
4151 3107 CircleF
4162 2969 CircleF
4172 2826 CircleF
4183 3064 CircleF
4199 3359 CircleF
4214 3342 CircleF
4230 2814 CircleF
4246 2683 CircleF
4262 2834 CircleF
4279 2168 CircleF
4295 2844 CircleF
4311 2778 CircleF
4327 2935 CircleF
4343 2076 CircleF
4373 2815 CircleF
4389 2543 CircleF
4406 2312 CircleF
4439 2643 CircleF
4455 2728 CircleF
4470 2966 CircleF
4486 2994 CircleF
4501 2849 CircleF
4517 3087 CircleF
4533 2780 CircleF
4548 2937 CircleF
4565 3209 CircleF
4581 2743 CircleF
4598 2737 CircleF
4614 2828 CircleF
4630 3054 CircleF
4646 3197 CircleF
4661 3099 CircleF
4676 3139 CircleF
4707 3228 CircleF
4723 3010 CircleF
4739 3162 CircleF
4756 3105 CircleF
4772 2992 CircleF
4788 3070 CircleF
4804 3171 CircleF
4820 3189 CircleF
4836 3321 CircleF
4849 3156 CircleF
4864 3253 CircleF
4880 3480 CircleF
4897 3243 CircleF
4913 3414 CircleF
4929 3222 CircleF
4946 3095 CircleF
4956 3523 CircleF
4967 3592 CircleF
4977 3326 CircleF
4988 3611 CircleF
4998 3677 CircleF
5009 3394 CircleF
5019 3548 CircleF
5040 3464 CircleF
5050 3577 CircleF
5072 3483 CircleF
5084 3582 CircleF
5094 3538 CircleF
5115 3715 CircleF
5126 3541 CircleF
5137 3672 CircleF
5147 3713 CircleF
5158 3945 CircleF
5170 3274 CircleF
5188 3853 CircleF
5199 3738 CircleF
5210 3610 CircleF
5221 3712 CircleF
5232 3685 CircleF
5244 3594 CircleF
5255 3772 CircleF
5265 3806 CircleF
5276 3750 CircleF
5287 3757 CircleF
5308 3898 CircleF
5319 3801 CircleF
5330 3794 CircleF
5340 3876 CircleF
5370 4074 CircleF
5381 4024 CircleF
5391 4000 CircleF
5402 3950 CircleF
5412 4078 CircleF
5422 4078 CircleF
5432 4153 CircleF
5442 4087 CircleF
5452 3995 CircleF
5462 4057 CircleF
5472 3888 CircleF
5483 4027 CircleF
5493 3921 CircleF
5504 3944 CircleF
5515 3902 CircleF
5526 3939 CircleF
5538 3706 CircleF
5549 3755 CircleF
5560 3854 CircleF
5571 3978 CircleF
5587 4033 CircleF
5603 4050 CircleF
5618 4052 CircleF
5634 4028 CircleF
5649 3965 CircleF
5665 4030 CircleF
5682 3762 CircleF
5698 3980 CircleF
5715 3954 CircleF
5731 4043 CircleF
5746 4053 CircleF
5762 4063 CircleF
5779 3674 CircleF
5794 4042 CircleF
5810 3987 CircleF
5826 4188 CircleF
5843 4003 CircleF
5860 4036 CircleF
5877 4018 CircleF
5893 4088 CircleF
5909 4016 CircleF
5925 4021 CircleF
5940 4063 CircleF
5956 4054 CircleF
6002 4138 CircleF
6018 4089 CircleF
6033 4039 CircleF
6049 4092 CircleF
6065 3949 CircleF
6080 4107 CircleF
6116 4033 CircleF
6131 3925 CircleF
6148 4028 CircleF
6164 4015 CircleF
6180 3988 CircleF
6196 4133 CircleF
6212 4064 CircleF
6228 4026 CircleF
6244 4139 CircleF
6259 4096 CircleF
6275 4084 CircleF
6292 3989 CircleF
6303 5552 CircleF
% End plot #1
% Begin plot #2
1.000 UP
1.000 UL
LT1
LCb setrgbcolor
5984 5264 M
[ [(Helvetica) 240.0 0.0 true true 0 (double)]
] -80.0 MRshow
LT1
1658 3056 CircleF
1663 3025 CircleF
1668 2999 CircleF
1673 2972 CircleF
1679 2954 CircleF
1684 2923 CircleF
1689 2885 CircleF
1694 2864 CircleF
1699 2860 CircleF
1709 2829 CircleF
1722 2798 CircleF
1732 2778 CircleF
1742 2761 CircleF
1748 2769 CircleF
1759 2770 CircleF
1770 2806 CircleF
1781 2801 CircleF
1792 2839 CircleF
1803 2765 CircleF
1814 2915 CircleF
1819 3103 CircleF
1830 3167 CircleF
1841 3691 CircleF
1846 3257 CircleF
1861 3457 CircleF
1877 3401 CircleF
1893 3527 CircleF
1910 3384 CircleF
1926 3954 CircleF
1937 3949 CircleF
1953 4138 CircleF
1968 4220 CircleF
1984 4188 CircleF
2000 3935 CircleF
2016 4109 CircleF
2031 4795 CircleF
2046 4629 CircleF
2062 4359 CircleF
2078 4438 CircleF
2094 4294 CircleF
2110 4534 CircleF
2126 4848 CircleF
2141 3996 CircleF
2156 4747 CircleF
2172 4526 CircleF
2188 4091 CircleF
2203 3982 CircleF
2220 4147 CircleF
2251 3650 CircleF
2267 4129 CircleF
2283 4023 CircleF
2315 3580 CircleF
2330 3754 CircleF
2346 3421 CircleF
2363 3733 CircleF
2379 3280 CircleF
2395 3220 CircleF
2427 4286 CircleF
2443 4125 CircleF
2458 4227 CircleF
2474 4204 CircleF
2489 4189 CircleF
2505 3920 CircleF
2520 3655 CircleF
2536 2750 CircleF
2552 3137 CircleF
2568 3139 CircleF
2584 3145 CircleF
2600 3541 CircleF
2616 2532 CircleF
2679 2386 CircleF
2695 2673 CircleF
2712 2965 CircleF
2728 3520 CircleF
2743 2922 CircleF
2759 3355 CircleF
2775 2891 CircleF
2806 3515 CircleF
2822 2543 CircleF
2838 3372 CircleF
2855 2145 CircleF
2871 2077 CircleF
2888 3040 CircleF
2904 2720 CircleF
2920 3430 CircleF
2936 2729 CircleF
2953 2287 CircleF
2969 2488 CircleF
2985 3977 CircleF
3016 3622 CircleF
3032 3058 CircleF
3065 3478 CircleF
3080 3820 CircleF
3096 3777 CircleF
3111 3865 CircleF
3127 3054 CircleF
3142 3657 CircleF
3158 3232 CircleF
3174 2807 CircleF
3191 2511 CircleF
3208 2858 CircleF
3224 3336 CircleF
3241 3172 CircleF
3257 2753 CircleF
3273 3620 CircleF
3289 3460 CircleF
3320 3657 CircleF
3336 3112 CircleF
3352 2439 CircleF
3384 3410 CircleF
3400 3381 CircleF
3478 3371 CircleF
3495 3084 CircleF
3511 2282 CircleF
3517 2785 CircleF
3528 2764 CircleF
3545 2603 CircleF
3556 2838 CircleF
3616 3625 CircleF
3626 2193 CircleF
3638 2304 CircleF
3649 2546 CircleF
3659 2406 CircleF
3670 2911 CircleF
3681 3163 CircleF
3691 3161 CircleF
3702 2779 CircleF
3743 3496 CircleF
3754 3020 CircleF
3776 2742 CircleF
3787 2298 CircleF
3798 3152 CircleF
3809 3116 CircleF
3819 3348 CircleF
3830 2949 CircleF
3841 2946 CircleF
3851 3599 CircleF
3862 3747 CircleF
3873 4033 CircleF
3883 3556 CircleF
3894 3221 CircleF
3904 3666 CircleF
3915 3735 CircleF
3926 3559 CircleF
3937 3266 CircleF
3948 2985 CircleF
3959 3095 CircleF
3970 3206 CircleF
3981 3323 CircleF
3992 3183 CircleF
4003 3541 CircleF
4043 3583 CircleF
4054 3823 CircleF
4064 3547 CircleF
4075 3022 CircleF
4085 3139 CircleF
4096 2673 CircleF
4108 2528 CircleF
4119 2584 CircleF
4130 3098 CircleF
4141 2712 CircleF
4151 3301 CircleF
4162 3196 CircleF
4172 3083 CircleF
4183 3350 CircleF
4199 3689 CircleF
4214 3711 CircleF
4230 3221 CircleF
4246 3126 CircleF
4262 3309 CircleF
4279 2675 CircleF
4295 3377 CircleF
4311 3334 CircleF
4327 3511 CircleF
4343 2670 CircleF
4373 3433 CircleF
4389 3169 CircleF
4406 2945 CircleF
4439 3280 CircleF
4455 3362 CircleF
4470 3596 CircleF
4486 3617 CircleF
4501 3465 CircleF
4517 3692 CircleF
4533 3374 CircleF
4548 3516 CircleF
4565 3772 CircleF
4581 3289 CircleF
4598 3263 CircleF
4614 3334 CircleF
4630 3538 CircleF
4646 3660 CircleF
4661 3540 CircleF
4676 3556 CircleF
4707 3596 CircleF
4723 3351 CircleF
4739 3475 CircleF
4756 3390 CircleF
4772 3249 CircleF
4788 3297 CircleF
4804 3369 CircleF
4820 3358 CircleF
4836 3460 CircleF
4849 3272 CircleF
4864 3341 CircleF
4880 3538 CircleF
4897 3271 CircleF
4913 3412 CircleF
4929 3190 CircleF
4946 3032 CircleF
4956 3441 CircleF
4967 3491 CircleF
4977 3205 CircleF
4988 3471 CircleF
4998 3518 CircleF
5009 3216 CircleF
5019 3351 CircleF
5040 3232 CircleF
5050 3326 CircleF
5072 3194 CircleF
5084 3275 CircleF
5094 3213 CircleF
5115 3356 CircleF
5126 3164 CircleF
5137 3279 CircleF
5147 3303 CircleF
5158 3519 CircleF
5170 2829 CircleF
5188 3381 CircleF
5199 3250 CircleF
5210 3106 CircleF
5221 3193 CircleF
5232 3151 CircleF
5244 3045 CircleF
5255 3207 CircleF
5265 3227 CircleF
5276 3157 CircleF
5287 3150 CircleF
5308 3265 CircleF
5319 3154 CircleF
5330 3134 CircleF
5340 3202 CircleF
5370 3365 CircleF
5381 3303 CircleF
5391 3267 CircleF
5402 3205 CircleF
5412 3322 CircleF
5422 3310 CircleF
5432 3375 CircleF
5442 3298 CircleF
5452 3195 CircleF
5462 3247 CircleF
5472 3067 CircleF
5483 3195 CircleF
5493 3079 CircleF
5504 3091 CircleF
5515 3040 CircleF
5526 3065 CircleF
5538 2821 CircleF
5549 2860 CircleF
5560 2949 CircleF
5571 3063 CircleF
5587 3105 CircleF
5603 3108 CircleF
5618 3097 CircleF
5634 3061 CircleF
5649 2986 CircleF
5665 3039 CircleF
5682 2759 CircleF
5698 2966 CircleF
5715 2928 CircleF
5731 3006 CircleF
5746 3006 CircleF
5762 3006 CircleF
5779 2608 CircleF
5794 2967 CircleF
5810 2903 CircleF
5826 3095 CircleF
5843 2902 CircleF
5860 2927 CircleF
5877 2901 CircleF
5893 2964 CircleF
5909 2885 CircleF
5925 2883 CircleF
5940 2919 CircleF
5956 2904 CircleF
6002 2972 CircleF
6018 2918 CircleF
6033 2863 CircleF
6049 2912 CircleF
6065 2764 CircleF
6080 2918 CircleF
6116 2836 CircleF
6131 2724 CircleF
6148 2823 CircleF
6164 2808 CircleF
6180 2778 CircleF
6196 2920 CircleF
6212 2849 CircleF
6228 2809 CircleF
6244 2920 CircleF
6259 2874 CircleF
6275 2861 CircleF
6292 2764 CircleF
6303 5264 CircleF
% End plot #2
% Begin plot #3
1.000 UP
1.000 UL
LT2
LCb setrgbcolor
5984 4976 M
[ [(Helvetica) 240.0 0.0 true true 0 (multirate)]
] -80.0 MRshow
LT2
1658 3201 CircleF
1663 3186 CircleF
1668 3176 CircleF
1673 3165 CircleF
1679 3161 CircleF
1684 3145 CircleF
1689 3121 CircleF
1694 3113 CircleF
1699 3121 CircleF
1709 3112 CircleF
1722 3101 CircleF
1732 3093 CircleF
1742 3083 CircleF
1748 3093 CircleF
1759 3093 CircleF
1770 3122 CircleF
1781 3105 CircleF
1792 3126 CircleF
1803 3032 CircleF
1814 3157 CircleF
1819 3333 CircleF
1830 3369 CircleF
1841 3864 CircleF
1846 3416 CircleF
1861 3572 CircleF
1877 3470 CircleF
1893 3550 CircleF
1910 3363 CircleF
1926 3891 CircleF
1937 3861 CircleF
1953 4017 CircleF
1968 4071 CircleF
1984 4015 CircleF
2000 3742 CircleF
2016 3901 CircleF
2031 4576 CircleF
2046 4404 CircleF
2062 4131 CircleF
2078 4210 CircleF
2094 4069 CircleF
2110 4316 CircleF
2126 4639 CircleF
2141 3798 CircleF
2156 4561 CircleF
2172 4355 CircleF
2188 3936 CircleF
2203 3843 CircleF
2220 4027 CircleF
2251 3567 CircleF
2267 4064 CircleF
2283 3977 CircleF
2315 3570 CircleF
2330 3762 CircleF
2346 3447 CircleF
2363 3775 CircleF
2379 3339 CircleF
2395 3294 CircleF
2427 4388 CircleF
2443 4239 CircleF
2458 4353 CircleF
2474 4341 CircleF
2489 4335 CircleF
2505 4075 CircleF
2520 3818 CircleF
2536 2920 CircleF
2552 3313 CircleF
2568 3321 CircleF
2584 3333 CircleF
2600 3733 CircleF
2616 2726 CircleF
2679 2586 CircleF
2695 2873 CircleF
2712 3164 CircleF
2728 3717 CircleF
2743 3118 CircleF
2759 3548 CircleF
2775 3081 CircleF
2806 3698 CircleF
2822 2722 CircleF
2838 3545 CircleF
2855 2314 CircleF
2871 2240 CircleF
2888 3197 CircleF
2904 2871 CircleF
2920 3575 CircleF
2936 2868 CircleF
2953 2419 CircleF
2969 2614 CircleF
2985 4095 CircleF
3016 3726 CircleF
3032 3155 CircleF
3065 3561 CircleF
3080 3895 CircleF
3096 3845 CircleF
3111 3926 CircleF
3127 3107 CircleF
3142 3703 CircleF
3158 3271 CircleF
3174 2838 CircleF
3191 2534 CircleF
3208 2874 CircleF
3224 3344 CircleF
3241 3173 CircleF
3257 2746 CircleF
3273 3606 CircleF
3289 3439 CircleF
3320 3623 CircleF
3336 3072 CircleF
3352 2392 CircleF
3384 3351 CircleF
3400 3316 CircleF
3478 3280 CircleF
3495 2988 CircleF
3511 2181 CircleF
3517 2683 CircleF
3528 2659 CircleF
3545 2493 CircleF
3556 2725 CircleF
3616 3490 CircleF
3626 2053 CircleF
3638 2159 CircleF
3649 2395 CircleF
3659 2247 CircleF
3670 2745 CircleF
3681 2989 CircleF
3691 2979 CircleF
3702 2588 CircleF
3743 3263 CircleF
3754 2775 CircleF
3776 2476 CircleF
3787 2023 CircleF
3798 2868 CircleF
3809 2825 CircleF
3819 3053 CircleF
3830 2652 CircleF
3841 2650 CircleF
3851 3308 CircleF
3862 3462 CircleF
3873 3758 CircleF
3883 3294 CircleF
3894 2974 CircleF
3904 3439 CircleF
3915 3529 CircleF
3926 3378 CircleF
3937 3112 CircleF
3948 2860 CircleF
3959 3001 CircleF
3970 3142 CircleF
3981 3290 CircleF
3992 3181 CircleF
4003 3568 CircleF
4043 3711 CircleF
4054 3973 CircleF
4064 3717 CircleF
4075 3211 CircleF
4085 3344 CircleF
4096 2893 CircleF
4108 2760 CircleF
4119 2826 CircleF
4130 3347 CircleF
4141 2965 CircleF
4151 3557 CircleF
4162 3452 CircleF
4172 3338 CircleF
4183 3603 CircleF
4199 3934 CircleF
4214 3946 CircleF
4230 3443 CircleF
4246 3331 CircleF
4262 3496 CircleF
4279 2841 CircleF
4295 3521 CircleF
4311 3456 CircleF
4327 3610 CircleF
4343 2745 CircleF
4373 3464 CircleF
4389 3177 CircleF
4406 2929 CircleF
4439 3219 CircleF
4455 3281 CircleF
4470 3495 CircleF
4486 3499 CircleF
4501 3330 CircleF
4517 3541 CircleF
4533 3208 CircleF
4548 3336 CircleF
4565 3579 CircleF
4581 3083 CircleF
4598 3047 CircleF
4614 3108 CircleF
4630 3305 CircleF
4646 3419 CircleF
4661 3293 CircleF
4676 3305 CircleF
4707 3338 CircleF
4723 3091 CircleF
4739 3215 CircleF
4756 3129 CircleF
4772 2988 CircleF
4788 3039 CircleF
4804 3114 CircleF
4820 3105 CircleF
4836 3211 CircleF
4849 3027 CircleF
4864 3101 CircleF
4880 3303 CircleF
4897 3043 CircleF
4913 3190 CircleF
4929 2976 CircleF
4946 2826 CircleF
4956 3240 CircleF
4967 3295 CircleF
4977 3016 CircleF
4988 3287 CircleF
4998 3340 CircleF
5009 3044 CircleF
5019 3186 CircleF
5040 3078 CircleF
5050 3179 CircleF
5072 3061 CircleF
5084 3149 CircleF
5094 3093 CircleF
5115 3250 CircleF
5126 3064 CircleF
5137 3186 CircleF
5147 3217 CircleF
5158 3440 CircleF
5170 2758 CircleF
5188 3322 CircleF
5199 3197 CircleF
5210 3060 CircleF
5221 3154 CircleF
5232 3119 CircleF
5244 3019 CircleF
5255 3189 CircleF
5265 3216 CircleF
5276 3152 CircleF
5287 3152 CircleF
5308 3280 CircleF
5319 3176 CircleF
5330 3162 CircleF
5340 3238 CircleF
5370 3419 CircleF
5381 3364 CircleF
5391 3335 CircleF
5402 3280 CircleF
5412 3403 CircleF
5422 3398 CircleF
5432 3469 CircleF
5442 3399 CircleF
5452 3303 CircleF
5462 3361 CircleF
5472 3187 CircleF
5483 3322 CircleF
5493 3213 CircleF
5504 3232 CircleF
5515 3187 CircleF
5526 3220 CircleF
5538 2983 CircleF
5549 3029 CircleF
5560 3125 CircleF
5571 3246 CircleF
5587 3297 CircleF
5603 3309 CircleF
5618 3308 CircleF
5634 3281 CircleF
5649 3215 CircleF
5665 3277 CircleF
5682 3006 CircleF
5698 3222 CircleF
5715 3194 CircleF
5731 3280 CircleF
5746 3289 CircleF
5762 3297 CircleF
5779 2907 CircleF
5794 3274 CircleF
5810 3217 CircleF
5826 3417 CircleF
5843 3232 CircleF
5860 3265 CircleF
5877 3246 CircleF
5893 3316 CircleF
5909 3244 CircleF
5925 3249 CircleF
5940 3292 CircleF
5956 3283 CircleF
6002 3369 CircleF
6018 3321 CircleF
6033 3272 CircleF
6049 3326 CircleF
6065 3184 CircleF
6080 3343 CircleF
6116 3273 CircleF
6131 3166 CircleF
6148 3270 CircleF
6164 3260 CircleF
6180 3234 CircleF
6196 3381 CircleF
6212 3315 CircleF
6228 3279 CircleF
6244 3394 CircleF
6259 3353 CircleF
6275 3343 CircleF
6292 3250 CircleF
6303 4976 CircleF
% End plot #3
1.000 UL
LTb
1464 5759 N
0 -4991 V
5303 0 V
0 4991 V
-5303 0 V
Z stroke
1.000 UP
1.000 UL
LTb
stroke
grestore
end
showpage
%%Trailer
%%DocumentFonts: Symbol Helvetica
