%!PS-Adobe-2.0 EPSF-2.0
%%Title: testB_all_a2.eps
%%Creator: gnuplot 4.4 patchlevel 4
%%CreationDate: Fri Jul  6 14:44:55 2012
%%DocumentFonts: (atend)
%%BoundingBox: 50 50 410 352
%%EndComments
%%BeginProlog
/gnudict 256 dict def
gnudict begin
%
% The following true/false flags may be edited by hand if desired.
% The unit line width and grayscale image gamma correction may also be changed.
%
/Color true def
/Blacktext false def
/Solid false def
/Dashlength 1 def
/Landscape false def
/Level1 false def
/Rounded false def
/ClipToBoundingBox false def
/TransparentPatterns false def
/gnulinewidth 5.000 def
/userlinewidth gnulinewidth def
/Gamma 1.0 def
%
/vshift -86 def
/dl1 {
  10.0 Dashlength mul mul
  Rounded { currentlinewidth 0.75 mul sub dup 0 le { pop 0.01 } if } if
} def
/dl2 {
  10.0 Dashlength mul mul
  Rounded { currentlinewidth 0.75 mul add } if
} def
/hpt_ 31.5 def
/vpt_ 31.5 def
/hpt hpt_ def
/vpt vpt_ def
Level1 {} {
/SDict 10 dict def
systemdict /pdfmark known not {
  userdict /pdfmark systemdict /cleartomark get put
} if
SDict begin [
  /Title (testB_all_a2.eps)
  /Subject (gnuplot plot)
  /Creator (gnuplot 4.4 patchlevel 4)
  /Author (bmalama)
%  /Producer (gnuplot)
%  /Keywords ()
  /CreationDate (Fri Jul  6 14:44:55 2012)
  /DOCINFO pdfmark
end
} ifelse
/doclip {
  ClipToBoundingBox {
    newpath 50 50 moveto 410 50 lineto 410 352 lineto 50 352 lineto closepath
    clip
  } if
} def
%
% Gnuplot Prolog Version 4.4 (August 2010)
%
%/SuppressPDFMark true def
%
/M {moveto} bind def
/L {lineto} bind def
/R {rmoveto} bind def
/V {rlineto} bind def
/N {newpath moveto} bind def
/Z {closepath} bind def
/C {setrgbcolor} bind def
/f {rlineto fill} bind def
/g {setgray} bind def
/Gshow {show} def   % May be redefined later in the file to support UTF-8
/vpt2 vpt 2 mul def
/hpt2 hpt 2 mul def
/Lshow {currentpoint stroke M 0 vshift R 
	Blacktext {gsave 0 setgray show grestore} {show} ifelse} def
/Rshow {currentpoint stroke M dup stringwidth pop neg vshift R
	Blacktext {gsave 0 setgray show grestore} {show} ifelse} def
/Cshow {currentpoint stroke M dup stringwidth pop -2 div vshift R 
	Blacktext {gsave 0 setgray show grestore} {show} ifelse} def
/UP {dup vpt_ mul /vpt exch def hpt_ mul /hpt exch def
  /hpt2 hpt 2 mul def /vpt2 vpt 2 mul def} def
/DL {Color {setrgbcolor Solid {pop []} if 0 setdash}
 {pop pop pop 0 setgray Solid {pop []} if 0 setdash} ifelse} def
/BL {stroke userlinewidth 2 mul setlinewidth
	Rounded {1 setlinejoin 1 setlinecap} if} def
/AL {stroke userlinewidth 2 div setlinewidth
	Rounded {1 setlinejoin 1 setlinecap} if} def
/UL {dup gnulinewidth mul /userlinewidth exch def
	dup 1 lt {pop 1} if 10 mul /udl exch def} def
/PL {stroke userlinewidth setlinewidth
	Rounded {1 setlinejoin 1 setlinecap} if} def
3.8 setmiterlimit
% Default Line colors
/LCw {1 1 1} def
/LCb {0 0 0} def
/LCa {0 0 0} def
/LC0 {1 0 0} def
/LC1 {0 1 0} def
/LC2 {0 0 1} def
/LC3 {1 0 1} def
/LC4 {0 1 1} def
/LC5 {1 1 0} def
/LC6 {0 0 0} def
/LC7 {1 0.3 0} def
/LC8 {0.5 0.5 0.5} def
% Default Line Types
/LTw {PL [] 1 setgray} def
/LTb {BL [] LCb DL} def
/LTa {AL [1 udl mul 2 udl mul] 0 setdash LCa setrgbcolor} def
/LT0 {PL [] LC0 DL} def
/LT1 {PL [4 dl1 2 dl2] LC1 DL} def
/LT2 {PL [2 dl1 3 dl2] LC2 DL} def
/LT3 {PL [1 dl1 1.5 dl2] LC3 DL} def
/LT4 {PL [6 dl1 2 dl2 1 dl1 2 dl2] LC4 DL} def
/LT5 {PL [3 dl1 3 dl2 1 dl1 3 dl2] LC5 DL} def
/LT6 {PL [2 dl1 2 dl2 2 dl1 6 dl2] LC6 DL} def
/LT7 {PL [1 dl1 2 dl2 6 dl1 2 dl2 1 dl1 2 dl2] LC7 DL} def
/LT8 {PL [2 dl1 2 dl2 2 dl1 2 dl2 2 dl1 2 dl2 2 dl1 4 dl2] LC8 DL} def
/Pnt {stroke [] 0 setdash gsave 1 setlinecap M 0 0 V stroke grestore} def
/Dia {stroke [] 0 setdash 2 copy vpt add M
  hpt neg vpt neg V hpt vpt neg V
  hpt vpt V hpt neg vpt V closepath stroke
  Pnt} def
/Pls {stroke [] 0 setdash vpt sub M 0 vpt2 V
  currentpoint stroke M
  hpt neg vpt neg R hpt2 0 V stroke
 } def
/Box {stroke [] 0 setdash 2 copy exch hpt sub exch vpt add M
  0 vpt2 neg V hpt2 0 V 0 vpt2 V
  hpt2 neg 0 V closepath stroke
  Pnt} def
/Crs {stroke [] 0 setdash exch hpt sub exch vpt add M
  hpt2 vpt2 neg V currentpoint stroke M
  hpt2 neg 0 R hpt2 vpt2 V stroke} def
/TriU {stroke [] 0 setdash 2 copy vpt 1.12 mul add M
  hpt neg vpt -1.62 mul V
  hpt 2 mul 0 V
  hpt neg vpt 1.62 mul V closepath stroke
  Pnt} def
/Star {2 copy Pls Crs} def
/BoxF {stroke [] 0 setdash exch hpt sub exch vpt add M
  0 vpt2 neg V hpt2 0 V 0 vpt2 V
  hpt2 neg 0 V closepath fill} def
/TriUF {stroke [] 0 setdash vpt 1.12 mul add M
  hpt neg vpt -1.62 mul V
  hpt 2 mul 0 V
  hpt neg vpt 1.62 mul V closepath fill} def
/TriD {stroke [] 0 setdash 2 copy vpt 1.12 mul sub M
  hpt neg vpt 1.62 mul V
  hpt 2 mul 0 V
  hpt neg vpt -1.62 mul V closepath stroke
  Pnt} def
/TriDF {stroke [] 0 setdash vpt 1.12 mul sub M
  hpt neg vpt 1.62 mul V
  hpt 2 mul 0 V
  hpt neg vpt -1.62 mul V closepath fill} def
/DiaF {stroke [] 0 setdash vpt add M
  hpt neg vpt neg V hpt vpt neg V
  hpt vpt V hpt neg vpt V closepath fill} def
/Pent {stroke [] 0 setdash 2 copy gsave
  translate 0 hpt M 4 {72 rotate 0 hpt L} repeat
  closepath stroke grestore Pnt} def
/PentF {stroke [] 0 setdash gsave
  translate 0 hpt M 4 {72 rotate 0 hpt L} repeat
  closepath fill grestore} def
/Circle {stroke [] 0 setdash 2 copy
  hpt 0 360 arc stroke Pnt} def
/CircleF {stroke [] 0 setdash hpt 0 360 arc fill} def
/C0 {BL [] 0 setdash 2 copy moveto vpt 90 450 arc} bind def
/C1 {BL [] 0 setdash 2 copy moveto
	2 copy vpt 0 90 arc closepath fill
	vpt 0 360 arc closepath} bind def
/C2 {BL [] 0 setdash 2 copy moveto
	2 copy vpt 90 180 arc closepath fill
	vpt 0 360 arc closepath} bind def
/C3 {BL [] 0 setdash 2 copy moveto
	2 copy vpt 0 180 arc closepath fill
	vpt 0 360 arc closepath} bind def
/C4 {BL [] 0 setdash 2 copy moveto
	2 copy vpt 180 270 arc closepath fill
	vpt 0 360 arc closepath} bind def
/C5 {BL [] 0 setdash 2 copy moveto
	2 copy vpt 0 90 arc
	2 copy moveto
	2 copy vpt 180 270 arc closepath fill
	vpt 0 360 arc} bind def
/C6 {BL [] 0 setdash 2 copy moveto
	2 copy vpt 90 270 arc closepath fill
	vpt 0 360 arc closepath} bind def
/C7 {BL [] 0 setdash 2 copy moveto
	2 copy vpt 0 270 arc closepath fill
	vpt 0 360 arc closepath} bind def
/C8 {BL [] 0 setdash 2 copy moveto
	2 copy vpt 270 360 arc closepath fill
	vpt 0 360 arc closepath} bind def
/C9 {BL [] 0 setdash 2 copy moveto
	2 copy vpt 270 450 arc closepath fill
	vpt 0 360 arc closepath} bind def
/C10 {BL [] 0 setdash 2 copy 2 copy moveto vpt 270 360 arc closepath fill
	2 copy moveto
	2 copy vpt 90 180 arc closepath fill
	vpt 0 360 arc closepath} bind def
/C11 {BL [] 0 setdash 2 copy moveto
	2 copy vpt 0 180 arc closepath fill
	2 copy moveto
	2 copy vpt 270 360 arc closepath fill
	vpt 0 360 arc closepath} bind def
/C12 {BL [] 0 setdash 2 copy moveto
	2 copy vpt 180 360 arc closepath fill
	vpt 0 360 arc closepath} bind def
/C13 {BL [] 0 setdash 2 copy moveto
	2 copy vpt 0 90 arc closepath fill
	2 copy moveto
	2 copy vpt 180 360 arc closepath fill
	vpt 0 360 arc closepath} bind def
/C14 {BL [] 0 setdash 2 copy moveto
	2 copy vpt 90 360 arc closepath fill
	vpt 0 360 arc} bind def
/C15 {BL [] 0 setdash 2 copy vpt 0 360 arc closepath fill
	vpt 0 360 arc closepath} bind def
/Rec {newpath 4 2 roll moveto 1 index 0 rlineto 0 exch rlineto
	neg 0 rlineto closepath} bind def
/Square {dup Rec} bind def
/Bsquare {vpt sub exch vpt sub exch vpt2 Square} bind def
/S0 {BL [] 0 setdash 2 copy moveto 0 vpt rlineto BL Bsquare} bind def
/S1 {BL [] 0 setdash 2 copy vpt Square fill Bsquare} bind def
/S2 {BL [] 0 setdash 2 copy exch vpt sub exch vpt Square fill Bsquare} bind def
/S3 {BL [] 0 setdash 2 copy exch vpt sub exch vpt2 vpt Rec fill Bsquare} bind def
/S4 {BL [] 0 setdash 2 copy exch vpt sub exch vpt sub vpt Square fill Bsquare} bind def
/S5 {BL [] 0 setdash 2 copy 2 copy vpt Square fill
	exch vpt sub exch vpt sub vpt Square fill Bsquare} bind def
/S6 {BL [] 0 setdash 2 copy exch vpt sub exch vpt sub vpt vpt2 Rec fill Bsquare} bind def
/S7 {BL [] 0 setdash 2 copy exch vpt sub exch vpt sub vpt vpt2 Rec fill
	2 copy vpt Square fill Bsquare} bind def
/S8 {BL [] 0 setdash 2 copy vpt sub vpt Square fill Bsquare} bind def
/S9 {BL [] 0 setdash 2 copy vpt sub vpt vpt2 Rec fill Bsquare} bind def
/S10 {BL [] 0 setdash 2 copy vpt sub vpt Square fill 2 copy exch vpt sub exch vpt Square fill
	Bsquare} bind def
/S11 {BL [] 0 setdash 2 copy vpt sub vpt Square fill 2 copy exch vpt sub exch vpt2 vpt Rec fill
	Bsquare} bind def
/S12 {BL [] 0 setdash 2 copy exch vpt sub exch vpt sub vpt2 vpt Rec fill Bsquare} bind def
/S13 {BL [] 0 setdash 2 copy exch vpt sub exch vpt sub vpt2 vpt Rec fill
	2 copy vpt Square fill Bsquare} bind def
/S14 {BL [] 0 setdash 2 copy exch vpt sub exch vpt sub vpt2 vpt Rec fill
	2 copy exch vpt sub exch vpt Square fill Bsquare} bind def
/S15 {BL [] 0 setdash 2 copy Bsquare fill Bsquare} bind def
/D0 {gsave translate 45 rotate 0 0 S0 stroke grestore} bind def
/D1 {gsave translate 45 rotate 0 0 S1 stroke grestore} bind def
/D2 {gsave translate 45 rotate 0 0 S2 stroke grestore} bind def
/D3 {gsave translate 45 rotate 0 0 S3 stroke grestore} bind def
/D4 {gsave translate 45 rotate 0 0 S4 stroke grestore} bind def
/D5 {gsave translate 45 rotate 0 0 S5 stroke grestore} bind def
/D6 {gsave translate 45 rotate 0 0 S6 stroke grestore} bind def
/D7 {gsave translate 45 rotate 0 0 S7 stroke grestore} bind def
/D8 {gsave translate 45 rotate 0 0 S8 stroke grestore} bind def
/D9 {gsave translate 45 rotate 0 0 S9 stroke grestore} bind def
/D10 {gsave translate 45 rotate 0 0 S10 stroke grestore} bind def
/D11 {gsave translate 45 rotate 0 0 S11 stroke grestore} bind def
/D12 {gsave translate 45 rotate 0 0 S12 stroke grestore} bind def
/D13 {gsave translate 45 rotate 0 0 S13 stroke grestore} bind def
/D14 {gsave translate 45 rotate 0 0 S14 stroke grestore} bind def
/D15 {gsave translate 45 rotate 0 0 S15 stroke grestore} bind def
/DiaE {stroke [] 0 setdash vpt add M
  hpt neg vpt neg V hpt vpt neg V
  hpt vpt V hpt neg vpt V closepath stroke} def
/BoxE {stroke [] 0 setdash exch hpt sub exch vpt add M
  0 vpt2 neg V hpt2 0 V 0 vpt2 V
  hpt2 neg 0 V closepath stroke} def
/TriUE {stroke [] 0 setdash vpt 1.12 mul add M
  hpt neg vpt -1.62 mul V
  hpt 2 mul 0 V
  hpt neg vpt 1.62 mul V closepath stroke} def
/TriDE {stroke [] 0 setdash vpt 1.12 mul sub M
  hpt neg vpt 1.62 mul V
  hpt 2 mul 0 V
  hpt neg vpt -1.62 mul V closepath stroke} def
/PentE {stroke [] 0 setdash gsave
  translate 0 hpt M 4 {72 rotate 0 hpt L} repeat
  closepath stroke grestore} def
/CircE {stroke [] 0 setdash 
  hpt 0 360 arc stroke} def
/Opaque {gsave closepath 1 setgray fill grestore 0 setgray closepath} def
/DiaW {stroke [] 0 setdash vpt add M
  hpt neg vpt neg V hpt vpt neg V
  hpt vpt V hpt neg vpt V Opaque stroke} def
/BoxW {stroke [] 0 setdash exch hpt sub exch vpt add M
  0 vpt2 neg V hpt2 0 V 0 vpt2 V
  hpt2 neg 0 V Opaque stroke} def
/TriUW {stroke [] 0 setdash vpt 1.12 mul add M
  hpt neg vpt -1.62 mul V
  hpt 2 mul 0 V
  hpt neg vpt 1.62 mul V Opaque stroke} def
/TriDW {stroke [] 0 setdash vpt 1.12 mul sub M
  hpt neg vpt 1.62 mul V
  hpt 2 mul 0 V
  hpt neg vpt -1.62 mul V Opaque stroke} def
/PentW {stroke [] 0 setdash gsave
  translate 0 hpt M 4 {72 rotate 0 hpt L} repeat
  Opaque stroke grestore} def
/CircW {stroke [] 0 setdash 
  hpt 0 360 arc Opaque stroke} def
/BoxFill {gsave Rec 1 setgray fill grestore} def
/Density {
  /Fillden exch def
  currentrgbcolor
  /ColB exch def /ColG exch def /ColR exch def
  /ColR ColR Fillden mul Fillden sub 1 add def
  /ColG ColG Fillden mul Fillden sub 1 add def
  /ColB ColB Fillden mul Fillden sub 1 add def
  ColR ColG ColB setrgbcolor} def
/BoxColFill {gsave Rec PolyFill} def
/PolyFill {gsave Density fill grestore grestore} def
/h {rlineto rlineto rlineto gsave closepath fill grestore} bind def
%
% PostScript Level 1 Pattern Fill routine for rectangles
% Usage: x y w h s a XX PatternFill
%	x,y = lower left corner of box to be filled
%	w,h = width and height of box
%	  a = angle in degrees between lines and x-axis
%	 XX = 0/1 for no/yes cross-hatch
%
/PatternFill {gsave /PFa [ 9 2 roll ] def
  PFa 0 get PFa 2 get 2 div add PFa 1 get PFa 3 get 2 div add translate
  PFa 2 get -2 div PFa 3 get -2 div PFa 2 get PFa 3 get Rec
  gsave 1 setgray fill grestore clip
  currentlinewidth 0.5 mul setlinewidth
  /PFs PFa 2 get dup mul PFa 3 get dup mul add sqrt def
  0 0 M PFa 5 get rotate PFs -2 div dup translate
  0 1 PFs PFa 4 get div 1 add floor cvi
	{PFa 4 get mul 0 M 0 PFs V} for
  0 PFa 6 get ne {
	0 1 PFs PFa 4 get div 1 add floor cvi
	{PFa 4 get mul 0 2 1 roll M PFs 0 V} for
 } if
  stroke grestore} def
%
/languagelevel where
 {pop languagelevel} {1} ifelse
 2 lt
	{/InterpretLevel1 true def}
	{/InterpretLevel1 Level1 def}
 ifelse
%
% PostScript level 2 pattern fill definitions
%
/Level2PatternFill {
/Tile8x8 {/PaintType 2 /PatternType 1 /TilingType 1 /BBox [0 0 8 8] /XStep 8 /YStep 8}
	bind def
/KeepColor {currentrgbcolor [/Pattern /DeviceRGB] setcolorspace} bind def
<< Tile8x8
 /PaintProc {0.5 setlinewidth pop 0 0 M 8 8 L 0 8 M 8 0 L stroke} 
>> matrix makepattern
/Pat1 exch def
<< Tile8x8
 /PaintProc {0.5 setlinewidth pop 0 0 M 8 8 L 0 8 M 8 0 L stroke
	0 4 M 4 8 L 8 4 L 4 0 L 0 4 L stroke}
>> matrix makepattern
/Pat2 exch def
<< Tile8x8
 /PaintProc {0.5 setlinewidth pop 0 0 M 0 8 L
	8 8 L 8 0 L 0 0 L fill}
>> matrix makepattern
/Pat3 exch def
<< Tile8x8
 /PaintProc {0.5 setlinewidth pop -4 8 M 8 -4 L
	0 12 M 12 0 L stroke}
>> matrix makepattern
/Pat4 exch def
<< Tile8x8
 /PaintProc {0.5 setlinewidth pop -4 0 M 8 12 L
	0 -4 M 12 8 L stroke}
>> matrix makepattern
/Pat5 exch def
<< Tile8x8
 /PaintProc {0.5 setlinewidth pop -2 8 M 4 -4 L
	0 12 M 8 -4 L 4 12 M 10 0 L stroke}
>> matrix makepattern
/Pat6 exch def
<< Tile8x8
 /PaintProc {0.5 setlinewidth pop -2 0 M 4 12 L
	0 -4 M 8 12 L 4 -4 M 10 8 L stroke}
>> matrix makepattern
/Pat7 exch def
<< Tile8x8
 /PaintProc {0.5 setlinewidth pop 8 -2 M -4 4 L
	12 0 M -4 8 L 12 4 M 0 10 L stroke}
>> matrix makepattern
/Pat8 exch def
<< Tile8x8
 /PaintProc {0.5 setlinewidth pop 0 -2 M 12 4 L
	-4 0 M 12 8 L -4 4 M 8 10 L stroke}
>> matrix makepattern
/Pat9 exch def
/Pattern1 {PatternBgnd KeepColor Pat1 setpattern} bind def
/Pattern2 {PatternBgnd KeepColor Pat2 setpattern} bind def
/Pattern3 {PatternBgnd KeepColor Pat3 setpattern} bind def
/Pattern4 {PatternBgnd KeepColor Landscape {Pat5} {Pat4} ifelse setpattern} bind def
/Pattern5 {PatternBgnd KeepColor Landscape {Pat4} {Pat5} ifelse setpattern} bind def
/Pattern6 {PatternBgnd KeepColor Landscape {Pat9} {Pat6} ifelse setpattern} bind def
/Pattern7 {PatternBgnd KeepColor Landscape {Pat8} {Pat7} ifelse setpattern} bind def
} def
%
%
%End of PostScript Level 2 code
%
/PatternBgnd {
  TransparentPatterns {} {gsave 1 setgray fill grestore} ifelse
} def
%
% Substitute for Level 2 pattern fill codes with
% grayscale if Level 2 support is not selected.
%
/Level1PatternFill {
/Pattern1 {0.250 Density} bind def
/Pattern2 {0.500 Density} bind def
/Pattern3 {0.750 Density} bind def
/Pattern4 {0.125 Density} bind def
/Pattern5 {0.375 Density} bind def
/Pattern6 {0.625 Density} bind def
/Pattern7 {0.875 Density} bind def
} def
%
% Now test for support of Level 2 code
%
Level1 {Level1PatternFill} {Level2PatternFill} ifelse
%
/Symbol-Oblique /Symbol findfont [1 0 .167 1 0 0] makefont
dup length dict begin {1 index /FID eq {pop pop} {def} ifelse} forall
currentdict end definefont pop
/MFshow {
   { dup 5 get 3 ge
     { 5 get 3 eq {gsave} {grestore} ifelse }
     {dup dup 0 get findfont exch 1 get scalefont setfont
     [ currentpoint ] exch dup 2 get 0 exch R dup 5 get 2 ne {dup dup 6
     get exch 4 get {Gshow} {stringwidth pop 0 R} ifelse }if dup 5 get 0 eq
     {dup 3 get {2 get neg 0 exch R pop} {pop aload pop M} ifelse} {dup 5
     get 1 eq {dup 2 get exch dup 3 get exch 6 get stringwidth pop -2 div
     dup 0 R} {dup 6 get stringwidth pop -2 div 0 R 6 get
     show 2 index {aload pop M neg 3 -1 roll neg R pop pop} {pop pop pop
     pop aload pop M} ifelse }ifelse }ifelse }
     ifelse }
   forall} def
/Gswidth {dup type /stringtype eq {stringwidth} {pop (n) stringwidth} ifelse} def
/MFwidth {0 exch { dup 5 get 3 ge { 5 get 3 eq { 0 } { pop } ifelse }
 {dup 3 get{dup dup 0 get findfont exch 1 get scalefont setfont
     6 get Gswidth pop add} {pop} ifelse} ifelse} forall} def
/MLshow { currentpoint stroke M
  0 exch R
  Blacktext {gsave 0 setgray MFshow grestore} {MFshow} ifelse } bind def
/MRshow { currentpoint stroke M
  exch dup MFwidth neg 3 -1 roll R
  Blacktext {gsave 0 setgray MFshow grestore} {MFshow} ifelse } bind def
/MCshow { currentpoint stroke M
  exch dup MFwidth -2 div 3 -1 roll R
  Blacktext {gsave 0 setgray MFshow grestore} {MFshow} ifelse } bind def
/XYsave    { [( ) 1 2 true false 3 ()] } bind def
/XYrestore { [( ) 1 2 true false 4 ()] } bind def
end
%%EndProlog
gnudict begin
gsave
doclip
50 50 translate
0.050 0.050 scale
0 setgray
newpath
(Helvetica) findfont 260 scalefont setfont
1.000 UL
LTb
1118 832 M
63 0 V
5550 0 R
-63 0 V
stroke
962 832 M
[ [(Helvetica) 260.0 0.0 true true 0 (10)]
[(Helvetica) 208.0 130.0 true true 0 (-4)]
] -112.7 MRshow
1.000 UL
LTb
1118 1324 M
31 0 V
5582 0 R
-31 0 V
1118 1612 M
31 0 V
5582 0 R
-31 0 V
1118 1816 M
31 0 V
5582 0 R
-31 0 V
1118 1974 M
31 0 V
5582 0 R
-31 0 V
1118 2104 M
31 0 V
5582 0 R
-31 0 V
1118 2213 M
31 0 V
5582 0 R
-31 0 V
-5582 95 R
31 0 V
5582 0 R
-31 0 V
-5582 84 R
31 0 V
5582 0 R
-31 0 V
-5582 74 R
63 0 V
5550 0 R
-63 0 V
stroke
962 2466 M
[ [(Helvetica) 260.0 0.0 true true 0 (10)]
[(Helvetica) 208.0 130.0 true true 0 (-3)]
] -112.7 MRshow
1.000 UL
LTb
1118 2958 M
31 0 V
5582 0 R
-31 0 V
1118 3246 M
31 0 V
5582 0 R
-31 0 V
1118 3450 M
31 0 V
5582 0 R
-31 0 V
1118 3609 M
31 0 V
5582 0 R
-31 0 V
1118 3738 M
31 0 V
5582 0 R
-31 0 V
1118 3848 M
31 0 V
5582 0 R
-31 0 V
-5582 94 R
31 0 V
5582 0 R
-31 0 V
-5582 84 R
31 0 V
5582 0 R
-31 0 V
-5582 75 R
63 0 V
5550 0 R
-63 0 V
stroke
962 4101 M
[ [(Helvetica) 260.0 0.0 true true 0 (10)]
[(Helvetica) 208.0 130.0 true true 0 (-2)]
] -112.7 MRshow
1.000 UL
LTb
1118 4593 M
31 0 V
5582 0 R
-31 0 V
1118 4880 M
31 0 V
5582 0 R
-31 0 V
1118 5085 M
31 0 V
5582 0 R
-31 0 V
1118 5243 M
31 0 V
5582 0 R
-31 0 V
1118 5372 M
31 0 V
5582 0 R
-31 0 V
1118 5482 M
31 0 V
5582 0 R
-31 0 V
-5582 95 R
31 0 V
5582 0 R
-31 0 V
-5582 83 R
31 0 V
5582 0 R
-31 0 V
-5582 75 R
63 0 V
5550 0 R
-63 0 V
stroke
962 5735 M
[ [(Helvetica) 260.0 0.0 true true 0 (10)]
[(Helvetica) 208.0 130.0 true true 0 (-1)]
] -112.7 MRshow
1.000 UL
LTb
1118 832 M
0 63 V
0 4840 R
0 -63 V
stroke
1118 572 M
[ [(Helvetica) 260.0 0.0 true true 0 (10)]
[(Helvetica) 208.0 130.0 true true 0 (-2)]
] -112.7 MCshow
1.000 UL
LTb
1681 832 M
0 31 V
0 4872 R
0 -31 V
2011 832 M
0 31 V
0 4872 R
0 -31 V
2244 832 M
0 31 V
0 4872 R
0 -31 V
2426 832 M
0 31 V
0 4872 R
0 -31 V
2574 832 M
0 31 V
0 4872 R
0 -31 V
2699 832 M
0 31 V
0 4872 R
0 -31 V
2808 832 M
0 31 V
0 4872 R
0 -31 V
2903 832 M
0 31 V
0 4872 R
0 -31 V
2989 832 M
0 63 V
0 4840 R
0 -63 V
stroke
2989 572 M
[ [(Helvetica) 260.0 0.0 true true 0 (10)]
[(Helvetica) 208.0 130.0 true true 0 (-1)]
] -112.7 MCshow
1.000 UL
LTb
3552 832 M
0 31 V
0 4872 R
0 -31 V
3882 832 M
0 31 V
0 4872 R
0 -31 V
4115 832 M
0 31 V
0 4872 R
0 -31 V
4297 832 M
0 31 V
0 4872 R
0 -31 V
4445 832 M
0 31 V
0 4872 R
0 -31 V
4570 832 M
0 31 V
0 4872 R
0 -31 V
4679 832 M
0 31 V
0 4872 R
0 -31 V
4774 832 M
0 31 V
0 4872 R
0 -31 V
4860 832 M
0 63 V
0 4840 R
0 -63 V
stroke
4860 572 M
[ [(Helvetica) 260.0 0.0 true true 0 (10)]
[(Helvetica) 208.0 130.0 true true 0 (0)]
] -112.7 MCshow
1.000 UL
LTb
5423 832 M
0 31 V
0 4872 R
0 -31 V
5753 832 M
0 31 V
0 4872 R
0 -31 V
5986 832 M
0 31 V
0 4872 R
0 -31 V
6168 832 M
0 31 V
0 4872 R
0 -31 V
6316 832 M
0 31 V
0 4872 R
0 -31 V
6441 832 M
0 31 V
0 4872 R
0 -31 V
6550 832 M
0 31 V
0 4872 R
0 -31 V
6645 832 M
0 31 V
0 4872 R
0 -31 V
6731 832 M
0 63 V
0 4840 R
0 -63 V
stroke
6731 572 M
[ [(Helvetica) 260.0 0.0 true true 0 (10)]
[(Helvetica) 208.0 130.0 true true 0 (1)]
] -112.7 MCshow
1.000 UL
LTb
1.000 UL
LTb
1118 5735 N
0 -4903 V
5613 0 V
0 4903 V
-5613 0 V
Z stroke
LCb setrgbcolor
208 3283 M
currentpoint gsave translate -270 rotate 0 0 moveto
[ [(Helvetica) 260.0 0.0 true true 0 (Normalized concentration \(c/c)]
[(Helvetica) 208.0 -78.0 true true 0 (inj)]
[(Helvetica) 260.0 0.0 true true 0 (\))]
] -60.7 MCshow
grestore
LTb
LCb setrgbcolor
3924 182 M
[ [(Helvetica) 260.0 0.0 true true 0 (Pore Volume)]
] -86.7 MCshow
LTb
1.000 UP
1230 5490 M
[ [(Helvetica) 260.0 0.0 true true 0 (\(a\))]
] -86.7 MLshow
2574 5372 M
[ [(Helvetica) 220.0 0.0 true true 0 (-5/2 slope)]
] -73.3 MLshow
3.000 UL
LTb
4860 832 M
0 4903 V
stroke
1.000 UL
LTb
3842 5341 M
117 31 V
-117 31 V
-290 -31 R
407 0 V
stroke
gsave [] 0 setdash
3842 5341 M
117 31 V
-117 31 V
stroke
grestore
1.000 UL
LTb
% Begin plot #1
1.000 UP
3.000 UL
LT0
LCb setrgbcolor
5888 5477 M
[ [(Helvetica) 240.0 0.0 true true 0 (B1-)]
[(Helvetica) 192.0 120.0 true true 0 (3)]
[(Helvetica) 240.0 0.0 true true 0 (H)]
] -104.0 MRshow
LT0
3257 1485 Box
3301 988 Box
3323 1067 Box
3344 930 Box
3365 1518 Box
3384 1936 Box
3404 1883 Box
3422 1938 Box
3441 2152 Box
3458 2199 Box
3475 2336 Box
3492 2341 Box
3509 2479 Box
3525 2650 Box
3541 2710 Box
3557 2773 Box
3572 2858 Box
3587 2973 Box
3601 2993 Box
3615 3019 Box
3629 3199 Box
3642 3234 Box
3653 3180 Box
3664 3248 Box
3678 3351 Box
3692 3396 Box
3706 3467 Box
3719 3470 Box
3732 3626 Box
3745 3564 Box
3757 3595 Box
3770 3717 Box
3782 3668 Box
3794 3710 Box
3806 3730 Box
3818 3743 Box
3893 3961 Box
3960 4016 Box
4022 4125 Box
4090 4121 Box
4145 4178 Box
4209 4136 Box
4269 4128 Box
4327 4070 Box
4380 3966 Box
4472 3933 Box
4557 3743 Box
4704 3562 Box
4832 3286 Box
4939 3194 Box
5034 2967 Box
5119 2901 Box
5209 2604 Box
6231 5477 Box
% End plot #1
% Begin plot #2
1.000 UP
3.000 UL
LT1
LCb setrgbcolor
5888 5087 M
[ [(Helvetica) 240.0 0.0 true true 0 (B2-)]
[(Helvetica) 192.0 120.0 true true 0 (22)]
[(Helvetica) 240.0 0.0 true true 0 (Na)]
] -104.0 MRshow
LT1
3249 2000 CircleF
3272 2271 CircleF
3293 2485 CircleF
3315 2593 CircleF
3335 2832 CircleF
3355 2970 CircleF
3375 3039 CircleF
3394 3222 CircleF
3413 3342 CircleF
3431 3445 CircleF
3449 3577 CircleF
3466 3623 CircleF
3484 3735 CircleF
3501 3784 CircleF
3518 3899 CircleF
3533 3955 CircleF
3579 4132 CircleF
3594 4161 CircleF
3610 4204 CircleF
3625 4237 CircleF
3640 4309 CircleF
3654 4331 CircleF
3669 4381 CircleF
3683 4400 CircleF
3696 4417 CircleF
3710 4482 CircleF
3723 4492 CircleF
3735 4522 CircleF
3748 4552 CircleF
3761 4582 CircleF
3773 4588 CircleF
3785 4609 CircleF
3797 4631 CircleF
3808 4646 CircleF
3819 4680 CircleF
3841 4687 CircleF
3852 4687 CircleF
3863 4706 CircleF
3874 4713 CircleF
3914 4732 CircleF
3925 4700 CircleF
3935 4738 CircleF
3944 4732 CircleF
3954 4756 CircleF
3964 4719 CircleF
3973 4725 CircleF
3983 4725 CircleF
3992 4725 CircleF
4001 4756 CircleF
4010 4762 CircleF
4019 4744 CircleF
4028 4756 CircleF
4036 4738 CircleF
4045 4725 CircleF
4053 4719 CircleF
4062 4725 CircleF
4070 4725 CircleF
4078 4706 CircleF
4086 4687 CircleF
4094 4713 CircleF
4102 4706 CircleF
4110 4693 CircleF
4118 4693 CircleF
4126 4673 CircleF
4134 4673 CircleF
4141 4673 CircleF
4149 4666 CircleF
4157 4646 CircleF
4164 4659 CircleF
4172 4646 CircleF
4179 4624 CircleF
4187 4646 CircleF
4194 4593 CircleF
4202 4599 CircleF
4209 4575 CircleF
4217 4568 CircleF
4224 4596 CircleF
4231 4575 CircleF
4237 4598 CircleF
4244 4569 CircleF
4251 4578 CircleF
4257 4569 CircleF
4263 4559 CircleF
4270 4557 CircleF
4294 4527 CircleF
4300 4521 CircleF
4306 4501 CircleF
4312 4483 CircleF
4319 4492 CircleF
4324 4477 CircleF
4330 4492 CircleF
4336 4447 CircleF
4342 4428 CircleF
4348 4421 CircleF
4354 4412 CircleF
4360 4413 CircleF
4366 4381 CircleF
4372 4399 CircleF
4378 4356 CircleF
4384 4365 CircleF
4390 4326 CircleF
4396 4347 CircleF
4402 4286 CircleF
4408 4331 CircleF
4414 4316 CircleF
4420 4293 CircleF
4426 4327 CircleF
4431 4285 CircleF
4437 4303 CircleF
4442 4291 CircleF
4447 4244 CircleF
4453 4298 CircleF
4458 4275 CircleF
4463 4243 CircleF
4468 4237 CircleF
4473 4232 CircleF
4479 4219 CircleF
4495 4168 CircleF
4500 4223 CircleF
4509 4201 CircleF
4514 4177 CircleF
4518 4183 CircleF
4523 4176 CircleF
4528 4155 CircleF
4533 4126 CircleF
4537 4145 CircleF
4542 4119 CircleF
4547 4106 CircleF
4551 4145 CircleF
4556 4084 CircleF
4561 4128 CircleF
4565 4089 CircleF
4569 4095 CircleF
4574 4084 CircleF
4578 4076 CircleF
4583 4081 CircleF
4587 4065 CircleF
4591 4038 CircleF
4596 4043 CircleF
4600 4056 CircleF
4604 4039 CircleF
4617 4033 CircleF
4621 4043 CircleF
4625 4023 CircleF
4629 3983 CircleF
4633 4043 CircleF
4637 4000 CircleF
4645 3988 CircleF
4648 3979 CircleF
4652 3957 CircleF
4656 3948 CircleF
4660 3976 CircleF
4664 3972 CircleF
4668 3925 CircleF
4672 3919 CircleF
4676 3913 CircleF
4680 3911 CircleF
4684 3903 CircleF
4687 3911 CircleF
4691 3921 CircleF
4695 3909 CircleF
4698 3907 CircleF
4702 3881 CircleF
4706 3843 CircleF
4709 3852 CircleF
4713 3839 CircleF
4717 3836 CircleF
4720 3854 CircleF
4724 3812 CircleF
4728 3823 CircleF
4731 3810 CircleF
4735 3825 CircleF
4738 3814 CircleF
4742 3757 CircleF
4745 3803 CircleF
4749 3791 CircleF
4752 3782 CircleF
4756 3757 CircleF
4759 3732 CircleF
4763 3745 CircleF
4766 3730 CircleF
4770 3748 CircleF
4773 3699 CircleF
4777 3735 CircleF
4780 3717 CircleF
4784 3701 CircleF
4787 3699 CircleF
4791 3666 CircleF
4794 3696 CircleF
4800 3637 CircleF
4803 3652 CircleF
4806 3637 CircleF
4810 3640 CircleF
4813 3617 CircleF
4817 3663 CircleF
4820 3634 CircleF
4823 3626 CircleF
4826 3634 CircleF
4830 3611 CircleF
4833 3614 CircleF
4836 3611 CircleF
4839 3524 CircleF
4843 3577 CircleF
4846 3538 CircleF
4849 3589 CircleF
4852 3577 CircleF
4855 3544 CircleF
4858 3524 CircleF
4862 3517 CircleF
4868 3547 CircleF
4880 3524 CircleF
4892 3463 CircleF
4904 3460 CircleF
4916 3463 CircleF
4928 3478 CircleF
4939 3405 CircleF
4950 3364 CircleF
4962 3351 CircleF
4973 3263 CircleF
4984 3268 CircleF
4995 3273 CircleF
5006 3278 CircleF
5016 3253 CircleF
5026 3201 CircleF
5037 3174 CircleF
5047 3168 CircleF
5057 3151 CircleF
5067 3151 CircleF
5077 3110 CircleF
5086 3039 CircleF
5096 3085 CircleF
6231 5087 CircleF
% End plot #2
% Begin plot #3
1.000 UP
3.000 UL
LT2
LCb setrgbcolor
5888 4697 M
[ [(Helvetica) 240.0 0.0 true true 0 (B3-)]
[(Helvetica) 192.0 120.0 true true 0 (22)]
[(Helvetica) 240.0 0.0 true true 0 (Na)]
] -104.0 MRshow
LT2
2946 2863 BoxF
2977 2847 BoxF
3007 2802 BoxF
3036 2870 BoxF
3064 2897 BoxF
3091 2848 BoxF
3118 2904 BoxF
3144 2942 BoxF
3169 2972 BoxF
3194 3030 BoxF
3218 3122 BoxF
3241 3200 BoxF
3264 3286 BoxF
3286 3297 BoxF
3308 3428 BoxF
3330 3458 BoxF
3350 3592 BoxF
3370 3600 BoxF
3389 3701 BoxF
3408 3776 BoxF
3426 3837 BoxF
3445 3866 BoxF
3462 3950 BoxF
3479 4016 BoxF
3496 4050 BoxF
3513 4050 BoxF
3528 4181 BoxF
3544 4197 BoxF
3559 4222 BoxF
3573 4234 BoxF
3588 4275 BoxF
3602 4344 BoxF
3616 4322 BoxF
3630 4345 BoxF
3644 4354 BoxF
3657 4376 BoxF
3671 4401 BoxF
3684 4403 BoxF
3697 4416 BoxF
3710 4444 BoxF
3722 4476 BoxF
3735 4465 BoxF
3747 4478 BoxF
3759 4511 BoxF
3771 4479 BoxF
3783 4531 BoxF
3794 4497 BoxF
3805 4497 BoxF
3816 4531 BoxF
3827 4511 BoxF
3837 4511 BoxF
3848 4511 BoxF
3858 4557 BoxF
3868 4551 BoxF
3878 4557 BoxF
3887 4564 BoxF
3897 4525 BoxF
3907 4518 BoxF
3917 4497 BoxF
3926 4525 BoxF
3935 4518 BoxF
3945 4497 BoxF
3954 4483 BoxF
3963 4473 BoxF
3973 4490 BoxF
3982 4474 BoxF
3991 4458 BoxF
4000 4473 BoxF
4009 4446 BoxF
4018 4473 BoxF
4027 4470 BoxF
4036 4455 BoxF
4044 4433 BoxF
4053 4449 BoxF
4061 4464 BoxF
4069 4406 BoxF
4077 4445 BoxF
4086 4408 BoxF
4094 4414 BoxF
4102 4399 BoxF
4125 4401 BoxF
4147 4355 BoxF
4169 4331 BoxF
4190 4326 BoxF
4211 4291 BoxF
4232 4257 BoxF
4252 4251 BoxF
4272 4213 BoxF
4292 4215 BoxF
4310 4187 BoxF
4328 4160 BoxF
4346 4137 BoxF
4364 4109 BoxF
4381 4073 BoxF
4398 4043 BoxF
4415 4029 BoxF
4431 4015 BoxF
4447 3974 BoxF
4462 4021 BoxF
4477 3970 BoxF
4492 3918 BoxF
4506 3899 BoxF
4521 3861 BoxF
4535 3831 BoxF
4549 3810 BoxF
4564 3856 BoxF
4577 3789 BoxF
4591 3766 BoxF
4604 3817 BoxF
4616 3724 BoxF
4629 3734 BoxF
4641 3686 BoxF
4653 3643 BoxF
4665 3624 BoxF
4677 3590 BoxF
4689 3602 BoxF
4701 3562 BoxF
4712 3562 BoxF
4724 3559 BoxF
4734 3535 BoxF
4745 3485 BoxF
4756 3499 BoxF
4767 3479 BoxF
4777 3455 BoxF
4787 3458 BoxF
4798 3405 BoxF
4808 3399 BoxF
4818 3389 BoxF
4828 3362 BoxF
4838 3352 BoxF
4847 3379 BoxF
4857 3312 BoxF
4866 3297 BoxF
4875 3274 BoxF
4884 3348 BoxF
4893 3293 BoxF
4902 3308 BoxF
4910 3282 BoxF
4919 3262 BoxF
4927 3213 BoxF
4935 3238 BoxF
4943 3254 BoxF
4951 3200 BoxF
4959 3169 BoxF
4968 3151 BoxF
4976 3151 BoxF
4984 3169 BoxF
4992 3103 BoxF
5000 3108 BoxF
5008 3169 BoxF
5015 3098 BoxF
5023 3093 BoxF
5033 3067 BoxF
5043 3007 BoxF
5053 2954 BoxF
5062 3019 BoxF
5072 2972 BoxF
5082 2990 BoxF
5091 2897 BoxF
5101 2954 BoxF
5110 2890 BoxF
5119 2863 BoxF
5129 2856 BoxF
5138 2845 BoxF
5147 2877 BoxF
5155 2845 BoxF
5164 2890 BoxF
5176 2806 BoxF
5184 2816 BoxF
5189 2677 BoxF
5198 2703 BoxF
5206 2634 BoxF
5214 2574 BoxF
5222 2616 BoxF
5229 2631 BoxF
5237 2542 BoxF
5245 2628 BoxF
5253 2568 BoxF
5261 2625 BoxF
5269 2526 BoxF
5276 2657 BoxF
5282 2553 BoxF
5290 2563 BoxF
5298 2492 BoxF
5305 2563 BoxF
5312 2602 BoxF
5320 2505 BoxF
5327 2459 BoxF
5334 2496 BoxF
5340 2510 BoxF
5347 2486 BoxF
5354 2440 BoxF
5360 2563 BoxF
5367 2555 BoxF
5374 2449 BoxF
5380 2471 BoxF
5386 2475 BoxF
5393 2401 BoxF
5399 2427 BoxF
5405 2494 BoxF
5412 2334 BoxF
5418 2370 BoxF
5424 2418 BoxF
5430 2511 BoxF
5436 2268 BoxF
5443 2328 BoxF
5449 2331 BoxF
5455 2276 BoxF
5460 2337 BoxF
5466 2197 BoxF
5472 2301 BoxF
5478 2223 BoxF
5483 2293 BoxF
5489 2240 BoxF
5495 2177 BoxF
5501 2282 BoxF
5507 2434 BoxF
5513 2242 BoxF
5518 2271 BoxF
5523 2232 BoxF
5529 2459 BoxF
5534 2202 BoxF
5540 2218 BoxF
5546 2344 BoxF
5551 2255 BoxF
5557 2192 BoxF
5562 2230 BoxF
5567 2268 BoxF
5572 2279 BoxF
5578 2233 BoxF
5583 2159 BoxF
5588 2141 BoxF
5593 2206 BoxF
5598 2284 BoxF
5603 2199 BoxF
5608 2207 BoxF
5613 2172 BoxF
5618 2168 BoxF
5623 2106 BoxF
5628 2110 BoxF
5632 2108 BoxF
5637 2098 BoxF
5642 2136 BoxF
5646 2218 BoxF
5651 2108 BoxF
5656 2173 BoxF
5660 2271 BoxF
5665 2151 BoxF
5669 2153 BoxF
5673 2149 BoxF
5678 2181 BoxF
5682 2094 BoxF
5687 2051 BoxF
5691 2047 BoxF
5695 2134 BoxF
5700 2042 BoxF
5704 2186 BoxF
5709 2092 BoxF
5713 2040 BoxF
5717 2077 BoxF
5722 2100 BoxF
5726 2114 BoxF
5730 2096 BoxF
5735 2079 BoxF
5740 2100 BoxF
5743 2126 BoxF
5754 2200 BoxF
5759 2013 BoxF
5763 2149 BoxF
5767 2029 BoxF
5771 2233 BoxF
5775 2145 BoxF
5780 2321 BoxF
5783 2018 BoxF
5786 2094 BoxF
5790 2094 BoxF
5793 2096 BoxF
5795 2073 BoxF
5798 2128 BoxF
5801 2051 BoxF
5805 2085 BoxF
5808 2122 BoxF
5811 2319 BoxF
5814 2147 BoxF
5817 2213 BoxF
5820 2160 BoxF
5822 2211 BoxF
5825 2207 BoxF
5828 2346 BoxF
5831 2096 BoxF
5834 2181 BoxF
5837 2100 BoxF
5839 2375 BoxF
5842 2045 BoxF
5845 2100 BoxF
5848 1975 BoxF
5851 2004 BoxF
5853 2141 BoxF
5856 2104 BoxF
5858 2090 BoxF
5861 2022 BoxF
5864 2118 BoxF
5866 2027 BoxF
5869 2009 BoxF
5872 2038 BoxF
5874 2031 BoxF
5877 1951 BoxF
5879 2051 BoxF
5882 2081 BoxF
5884 2045 BoxF
5887 1945 BoxF
5889 2006 BoxF
5892 2022 BoxF
5894 2051 BoxF
5897 2029 BoxF
5899 1990 BoxF
5901 2134 BoxF
5903 2124 BoxF
5905 2069 BoxF
5908 1940 BoxF
5910 1990 BoxF
5913 1961 BoxF
5917 1978 BoxF
5920 2051 BoxF
5922 1983 BoxF
5925 1925 BoxF
5928 1963 BoxF
5930 1925 BoxF
6231 4697 BoxF
% End plot #3
% Begin plot #4
1.000 UP
1.000 UL
LT3
LCb setrgbcolor
5888 4307 M
[ [(Helvetica) 240.0 0.0 true true 0 (B7-)]
[(Helvetica) 192.0 120.0 true true 0 (22)]
[(Helvetica) 240.0 0.0 true true 0 (Na)]
] -104.0 MRshow
LT3
2320 1905 Circle
2444 1762 Circle
2552 1633 Circle
2730 1722 Circle
2810 1679 Circle
2882 2254 Circle
2949 2364 Circle
3011 2605 Circle
3069 2812 Circle
3122 3085 Circle
3172 3308 Circle
3220 3457 Circle
3265 3652 Circle
3308 3794 Circle
3349 3896 Circle
3388 3965 Circle
3426 4078 Circle
3460 4140 Circle
3494 4191 Circle
3527 4245 Circle
3558 4296 Circle
3589 4324 Circle
3618 4397 Circle
3646 4387 Circle
3673 4447 Circle
3700 4450 Circle
3725 4482 Circle
3750 4482 Circle
3785 4466 Circle
3853 4516 Circle
3885 4532 Circle
3915 4547 Circle
3944 4547 Circle
3972 4547 Circle
3999 4532 Circle
4025 4532 Circle
4051 4524 Circle
4076 4516 Circle
4100 4499 Circle
4123 4479 Circle
4146 4462 Circle
4169 4430 Circle
4211 4409 Circle
4232 4389 Circle
4252 4346 Circle
4272 4338 Circle
4291 4327 Circle
4310 4314 Circle
4328 4275 Circle
4346 4246 Circle
4363 4243 Circle
4381 4220 Circle
4397 4197 Circle
4414 4182 Circle
4430 4154 Circle
4446 4149 Circle
4461 4116 Circle
4476 4090 Circle
4491 4076 Circle
4506 4069 Circle
4534 4000 Circle
4548 4010 Circle
4561 3991 Circle
4575 3972 Circle
4588 3929 Circle
4601 3931 Circle
4614 3912 Circle
4627 3879 Circle
4639 3862 Circle
4651 3837 Circle
4663 3848 Circle
4675 3835 Circle
4687 3800 Circle
4698 3785 Circle
4709 3787 Circle
4720 3737 Circle
4731 3715 Circle
4742 3733 Circle
4753 3702 Circle
4764 3718 Circle
4774 3695 Circle
4785 3658 Circle
4795 3649 Circle
4805 3649 Circle
4815 3612 Circle
4842 3570 Circle
4852 3592 Circle
4861 3529 Circle
4871 3539 Circle
4880 3552 Circle
4889 3516 Circle
4898 3516 Circle
4907 3482 Circle
4916 3492 Circle
4925 3457 Circle
4934 3439 Circle
4942 3450 Circle
4951 3450 Circle
4956 3431 Circle
4965 3439 Circle
4973 3424 Circle
4981 3427 Circle
4989 3412 Circle
5004 3404 Circle
5012 3352 Circle
5020 3360 Circle
5027 3339 Circle
5035 3348 Circle
5043 3339 Circle
5050 3322 Circle
5057 3286 Circle
5065 3286 Circle
5072 3258 Circle
5079 3272 Circle
5086 3248 Circle
5093 3233 Circle
5107 3213 Circle
5121 3213 Circle
5128 3192 Circle
5134 3171 Circle
5148 3171 Circle
5154 3171 Circle
5161 3171 Circle
5167 3138 Circle
5174 3155 Circle
5180 3120 Circle
5186 3120 Circle
5193 3109 Circle
5199 3072 Circle
5205 3078 Circle
5211 3085 Circle
5217 3060 Circle
5223 3060 Circle
5229 3078 Circle
5242 3085 Circle
5248 3021 Circle
5281 3021 Circle
5307 2972 Circle
5326 3000 Circle
5332 2965 Circle
5357 2986 Circle
5362 2979 Circle
5368 3021 Circle
5374 2986 Circle
5397 3000 Circle
5402 2950 Circle
5408 3007 Circle
5424 2928 Circle
5468 2838 Circle
5504 2766 Circle
5509 2785 Circle
5515 2716 Circle
5525 2706 Circle
5529 2695 Circle
5534 2628 Circle
5538 2651 Circle
5543 2651 Circle
5547 2640 Circle
5552 2605 Circle
5560 2628 Circle
5565 2617 Circle
5574 2542 Circle
5578 2593 Circle
5582 2593 Circle
5586 2542 Circle
5591 2580 Circle
5599 2542 Circle
5603 2542 Circle
5607 2529 Circle
5611 2529 Circle
5615 2487 Circle
5620 2473 Circle
5624 2473 Circle
5628 2473 Circle
5640 2487 Circle
5644 2428 Circle
5648 2413 Circle
5652 2428 Circle
5656 2397 Circle
5660 2413 Circle
5664 2380 Circle
5668 2346 Circle
5672 2397 Circle
5680 2397 Circle
5683 2274 Circle
5687 2234 Circle
5691 2311 Circle
5695 2254 Circle
5699 2254 Circle
5703 2234 Circle
5706 2254 Circle
5710 2148 Circle
5714 2171 Circle
5718 2254 Circle
5730 2076 Circle
5733 2076 Circle
5736 2050 Circle
5739 1837 Circle
5742 2050 Circle
5748 1936 Circle
5751 1936 Circle
5757 1995 Circle
5761 2023 Circle
5764 1905 Circle
5767 1762 Circle
5770 1762 Circle
5773 1995 Circle
5776 1995 Circle
5779 2050 Circle
5782 2050 Circle
5785 2101 Circle
5788 2171 Circle
5791 1936 Circle
5796 2125 Circle
5799 2192 Circle
5805 1995 Circle
5808 1872 Circle
5811 2023 Circle
5814 2148 Circle
5817 2050 Circle
5820 1966 Circle
5823 1801 Circle
5826 1679 Circle
5829 1905 Circle
5831 1801 Circle
5834 1679 Circle
5837 1837 Circle
5840 2293 Circle
5843 1722 Circle
5845 1474 Circle
5848 1584 Circle
5851 2050 Circle
5854 1584 Circle
5856 1679 Circle
5859 1187 Circle
5861 1187 Circle
5864 1584 Circle
5867 1187 Circle
5870 1187 Circle
5872 853 Circle
5875 1413 Circle
5880 1345 Circle
5883 1270 Circle
5888 853 Circle
5903 853 Circle
5909 982 Circle
5916 1092 Circle
5919 1187 Circle
5924 982 Circle
6231 4307 Circle
% End plot #4
% Begin plot #5
4.000 UL
LT1
3812 5735 M
27 -59 V
57 -124 V
57 -124 V
57 -124 V
56 -124 V
57 -123 V
57 -124 V
56 -124 V
57 -124 V
57 -124 V
56 -124 V
57 -123 V
57 -124 V
57 -124 V
56 -124 V
57 -124 V
57 -123 V
56 -124 V
57 -124 V
57 -124 V
56 -124 V
57 -124 V
57 -123 V
56 -124 V
57 -124 V
57 -124 V
57 -124 V
56 -123 V
57 -124 V
57 -124 V
56 -124 V
57 -124 V
57 -123 V
56 -124 V
57 -124 V
57 -124 V
57 -124 V
56 -124 V
57 -123 V
57 -124 V
6 -15 V
% End plot #5
stroke
1.000 UL
LTb
1118 5735 N
0 -4903 V
5613 0 V
0 4903 V
-5613 0 V
Z stroke
1.000 UP
1.000 UL
LTb
stroke
grestore
end
showpage
%%Trailer
%%DocumentFonts: Helvetica
