%!PS-Adobe-2.0 EPSF-2.0
%%Title: testB_a.eps
%%Creator: gnuplot 4.2 patchlevel 6 
%%CreationDate: Thu Aug  4 16:02:34 2011
%%DocumentFonts: (atend)
%%BoundingBox: 50 50 410 352
%%EndComments
%%BeginProlog
/gnudict 256 dict def
gnudict begin
%
% The following 6 true/false flags may be edited by hand if required
% The unit line width may also be changed
%
/Color true def
/Blacktext false def
/Solid false def
/Dashlength 1 def
/Landscape false def
/Level1 false def
/Rounded false def
/TransparentPatterns false def
/gnulinewidth 5.000 def
/userlinewidth gnulinewidth def
%
/vshift -80 def
/dl1 {
  10.0 Dashlength mul mul
  Rounded { currentlinewidth 0.75 mul sub dup 0 le { pop 0.01 } if } if
} def
/dl2 {
  10.0 Dashlength mul mul
  Rounded { currentlinewidth 0.75 mul add } if
} def
/hpt_ 31.5 def
/vpt_ 31.5 def
/hpt hpt_ def
/vpt vpt_ def
Level1 {} {
/SDict 10 dict def
systemdict /pdfmark known not {
  userdict /pdfmark systemdict /cleartomark get put
} if
SDict begin [
  /Title (testB_a.eps)
  /Subject (gnuplot plot)
  /Creator (gnuplot 4.2 patchlevel 6 )
  /Author (Bwalya Malama,,,)
%  /Producer (gnuplot)
%  /Keywords ()
  /CreationDate (Thu Aug  4 16:02:34 2011)
  /DOCINFO pdfmark
end
} ifelse
%
% Gnuplot Prolog Version 4.2 (August 2006)
%
/M {moveto} bind def
/L {lineto} bind def
/R {rmoveto} bind def
/V {rlineto} bind def
/N {newpath moveto} bind def
/Z {closepath} bind def
/C {setrgbcolor} bind def
/f {rlineto fill} bind def
/vpt2 vpt 2 mul def
/hpt2 hpt 2 mul def
/Lshow {currentpoint stroke M 0 vshift R 
	Blacktext {gsave 0 setgray show grestore} {show} ifelse} def
/Rshow {currentpoint stroke M dup stringwidth pop neg vshift R
	Blacktext {gsave 0 setgray show grestore} {show} ifelse} def
/Cshow {currentpoint stroke M dup stringwidth pop -2 div vshift R 
	Blacktext {gsave 0 setgray show grestore} {show} ifelse} def
/UP {dup vpt_ mul /vpt exch def hpt_ mul /hpt exch def
  /hpt2 hpt 2 mul def /vpt2 vpt 2 mul def} def
/DL {Color {setrgbcolor Solid {pop []} if 0 setdash}
 {pop pop pop 0 setgray Solid {pop []} if 0 setdash} ifelse} def
/BL {stroke userlinewidth 2 mul setlinewidth
	Rounded {1 setlinejoin 1 setlinecap} if} def
/AL {stroke userlinewidth 2 div setlinewidth
	Rounded {1 setlinejoin 1 setlinecap} if} def
/UL {dup gnulinewidth mul /userlinewidth exch def
	dup 1 lt {pop 1} if 10 mul /udl exch def} def
/PL {stroke userlinewidth setlinewidth
	Rounded {1 setlinejoin 1 setlinecap} if} def
% Default Line colors
/LCw {1 1 1} def
/LCb {0 0 0} def
/LCa {0 0 0} def
/LC0 {1 0 0} def
/LC1 {0 1 0} def
/LC2 {0 0 1} def
/LC3 {1 0 1} def
/LC4 {0 1 1} def
/LC5 {1 1 0} def
/LC6 {0 0 0} def
/LC7 {1 0.3 0} def
/LC8 {0.5 0.5 0.5} def
% Default Line Types
/LTw {PL [] 1 setgray} def
/LTb {BL [] LCb DL} def
/LTa {AL [1 udl mul 2 udl mul] 0 setdash LCa setrgbcolor} def
/LT0 {PL [] LC0 DL} def
/LT1 {PL [4 dl1 2 dl2] LC1 DL} def
/LT2 {PL [2 dl1 3 dl2] LC2 DL} def
/LT3 {PL [1 dl1 1.5 dl2] LC3 DL} def
/LT4 {PL [6 dl1 2 dl2 1 dl1 2 dl2] LC4 DL} def
/LT5 {PL [3 dl1 3 dl2 1 dl1 3 dl2] LC5 DL} def
/LT6 {PL [2 dl1 2 dl2 2 dl1 6 dl2] LC6 DL} def
/LT7 {PL [1 dl1 2 dl2 6 dl1 2 dl2 1 dl1 2 dl2] LC7 DL} def
/LT8 {PL [2 dl1 2 dl2 2 dl1 2 dl2 2 dl1 2 dl2 2 dl1 4 dl2] LC8 DL} def
/Pnt {stroke [] 0 setdash gsave 1 setlinecap M 0 0 V stroke grestore} def
/Dia {stroke [] 0 setdash 2 copy vpt add M
  hpt neg vpt neg V hpt vpt neg V
  hpt vpt V hpt neg vpt V closepath stroke
  Pnt} def
/Pls {stroke [] 0 setdash vpt sub M 0 vpt2 V
  currentpoint stroke M
  hpt neg vpt neg R hpt2 0 V stroke
 } def
/Box {stroke [] 0 setdash 2 copy exch hpt sub exch vpt add M
  0 vpt2 neg V hpt2 0 V 0 vpt2 V
  hpt2 neg 0 V closepath stroke
  Pnt} def
/Crs {stroke [] 0 setdash exch hpt sub exch vpt add M
  hpt2 vpt2 neg V currentpoint stroke M
  hpt2 neg 0 R hpt2 vpt2 V stroke} def
/TriU {stroke [] 0 setdash 2 copy vpt 1.12 mul add M
  hpt neg vpt -1.62 mul V
  hpt 2 mul 0 V
  hpt neg vpt 1.62 mul V closepath stroke
  Pnt} def
/Star {2 copy Pls Crs} def
/BoxF {stroke [] 0 setdash exch hpt sub exch vpt add M
  0 vpt2 neg V hpt2 0 V 0 vpt2 V
  hpt2 neg 0 V closepath fill} def
/TriUF {stroke [] 0 setdash vpt 1.12 mul add M
  hpt neg vpt -1.62 mul V
  hpt 2 mul 0 V
  hpt neg vpt 1.62 mul V closepath fill} def
/TriD {stroke [] 0 setdash 2 copy vpt 1.12 mul sub M
  hpt neg vpt 1.62 mul V
  hpt 2 mul 0 V
  hpt neg vpt -1.62 mul V closepath stroke
  Pnt} def
/TriDF {stroke [] 0 setdash vpt 1.12 mul sub M
  hpt neg vpt 1.62 mul V
  hpt 2 mul 0 V
  hpt neg vpt -1.62 mul V closepath fill} def
/DiaF {stroke [] 0 setdash vpt add M
  hpt neg vpt neg V hpt vpt neg V
  hpt vpt V hpt neg vpt V closepath fill} def
/Pent {stroke [] 0 setdash 2 copy gsave
  translate 0 hpt M 4 {72 rotate 0 hpt L} repeat
  closepath stroke grestore Pnt} def
/PentF {stroke [] 0 setdash gsave
  translate 0 hpt M 4 {72 rotate 0 hpt L} repeat
  closepath fill grestore} def
/Circle {stroke [] 0 setdash 2 copy
  hpt 0 360 arc stroke Pnt} def
/CircleF {stroke [] 0 setdash hpt 0 360 arc fill} def
/C0 {BL [] 0 setdash 2 copy moveto vpt 90 450 arc} bind def
/C1 {BL [] 0 setdash 2 copy moveto
	2 copy vpt 0 90 arc closepath fill
	vpt 0 360 arc closepath} bind def
/C2 {BL [] 0 setdash 2 copy moveto
	2 copy vpt 90 180 arc closepath fill
	vpt 0 360 arc closepath} bind def
/C3 {BL [] 0 setdash 2 copy moveto
	2 copy vpt 0 180 arc closepath fill
	vpt 0 360 arc closepath} bind def
/C4 {BL [] 0 setdash 2 copy moveto
	2 copy vpt 180 270 arc closepath fill
	vpt 0 360 arc closepath} bind def
/C5 {BL [] 0 setdash 2 copy moveto
	2 copy vpt 0 90 arc
	2 copy moveto
	2 copy vpt 180 270 arc closepath fill
	vpt 0 360 arc} bind def
/C6 {BL [] 0 setdash 2 copy moveto
	2 copy vpt 90 270 arc closepath fill
	vpt 0 360 arc closepath} bind def
/C7 {BL [] 0 setdash 2 copy moveto
	2 copy vpt 0 270 arc closepath fill
	vpt 0 360 arc closepath} bind def
/C8 {BL [] 0 setdash 2 copy moveto
	2 copy vpt 270 360 arc closepath fill
	vpt 0 360 arc closepath} bind def
/C9 {BL [] 0 setdash 2 copy moveto
	2 copy vpt 270 450 arc closepath fill
	vpt 0 360 arc closepath} bind def
/C10 {BL [] 0 setdash 2 copy 2 copy moveto vpt 270 360 arc closepath fill
	2 copy moveto
	2 copy vpt 90 180 arc closepath fill
	vpt 0 360 arc closepath} bind def
/C11 {BL [] 0 setdash 2 copy moveto
	2 copy vpt 0 180 arc closepath fill
	2 copy moveto
	2 copy vpt 270 360 arc closepath fill
	vpt 0 360 arc closepath} bind def
/C12 {BL [] 0 setdash 2 copy moveto
	2 copy vpt 180 360 arc closepath fill
	vpt 0 360 arc closepath} bind def
/C13 {BL [] 0 setdash 2 copy moveto
	2 copy vpt 0 90 arc closepath fill
	2 copy moveto
	2 copy vpt 180 360 arc closepath fill
	vpt 0 360 arc closepath} bind def
/C14 {BL [] 0 setdash 2 copy moveto
	2 copy vpt 90 360 arc closepath fill
	vpt 0 360 arc} bind def
/C15 {BL [] 0 setdash 2 copy vpt 0 360 arc closepath fill
	vpt 0 360 arc closepath} bind def
/Rec {newpath 4 2 roll moveto 1 index 0 rlineto 0 exch rlineto
	neg 0 rlineto closepath} bind def
/Square {dup Rec} bind def
/Bsquare {vpt sub exch vpt sub exch vpt2 Square} bind def
/S0 {BL [] 0 setdash 2 copy moveto 0 vpt rlineto BL Bsquare} bind def
/S1 {BL [] 0 setdash 2 copy vpt Square fill Bsquare} bind def
/S2 {BL [] 0 setdash 2 copy exch vpt sub exch vpt Square fill Bsquare} bind def
/S3 {BL [] 0 setdash 2 copy exch vpt sub exch vpt2 vpt Rec fill Bsquare} bind def
/S4 {BL [] 0 setdash 2 copy exch vpt sub exch vpt sub vpt Square fill Bsquare} bind def
/S5 {BL [] 0 setdash 2 copy 2 copy vpt Square fill
	exch vpt sub exch vpt sub vpt Square fill Bsquare} bind def
/S6 {BL [] 0 setdash 2 copy exch vpt sub exch vpt sub vpt vpt2 Rec fill Bsquare} bind def
/S7 {BL [] 0 setdash 2 copy exch vpt sub exch vpt sub vpt vpt2 Rec fill
	2 copy vpt Square fill Bsquare} bind def
/S8 {BL [] 0 setdash 2 copy vpt sub vpt Square fill Bsquare} bind def
/S9 {BL [] 0 setdash 2 copy vpt sub vpt vpt2 Rec fill Bsquare} bind def
/S10 {BL [] 0 setdash 2 copy vpt sub vpt Square fill 2 copy exch vpt sub exch vpt Square fill
	Bsquare} bind def
/S11 {BL [] 0 setdash 2 copy vpt sub vpt Square fill 2 copy exch vpt sub exch vpt2 vpt Rec fill
	Bsquare} bind def
/S12 {BL [] 0 setdash 2 copy exch vpt sub exch vpt sub vpt2 vpt Rec fill Bsquare} bind def
/S13 {BL [] 0 setdash 2 copy exch vpt sub exch vpt sub vpt2 vpt Rec fill
	2 copy vpt Square fill Bsquare} bind def
/S14 {BL [] 0 setdash 2 copy exch vpt sub exch vpt sub vpt2 vpt Rec fill
	2 copy exch vpt sub exch vpt Square fill Bsquare} bind def
/S15 {BL [] 0 setdash 2 copy Bsquare fill Bsquare} bind def
/D0 {gsave translate 45 rotate 0 0 S0 stroke grestore} bind def
/D1 {gsave translate 45 rotate 0 0 S1 stroke grestore} bind def
/D2 {gsave translate 45 rotate 0 0 S2 stroke grestore} bind def
/D3 {gsave translate 45 rotate 0 0 S3 stroke grestore} bind def
/D4 {gsave translate 45 rotate 0 0 S4 stroke grestore} bind def
/D5 {gsave translate 45 rotate 0 0 S5 stroke grestore} bind def
/D6 {gsave translate 45 rotate 0 0 S6 stroke grestore} bind def
/D7 {gsave translate 45 rotate 0 0 S7 stroke grestore} bind def
/D8 {gsave translate 45 rotate 0 0 S8 stroke grestore} bind def
/D9 {gsave translate 45 rotate 0 0 S9 stroke grestore} bind def
/D10 {gsave translate 45 rotate 0 0 S10 stroke grestore} bind def
/D11 {gsave translate 45 rotate 0 0 S11 stroke grestore} bind def
/D12 {gsave translate 45 rotate 0 0 S12 stroke grestore} bind def
/D13 {gsave translate 45 rotate 0 0 S13 stroke grestore} bind def
/D14 {gsave translate 45 rotate 0 0 S14 stroke grestore} bind def
/D15 {gsave translate 45 rotate 0 0 S15 stroke grestore} bind def
/DiaE {stroke [] 0 setdash vpt add M
  hpt neg vpt neg V hpt vpt neg V
  hpt vpt V hpt neg vpt V closepath stroke} def
/BoxE {stroke [] 0 setdash exch hpt sub exch vpt add M
  0 vpt2 neg V hpt2 0 V 0 vpt2 V
  hpt2 neg 0 V closepath stroke} def
/TriUE {stroke [] 0 setdash vpt 1.12 mul add M
  hpt neg vpt -1.62 mul V
  hpt 2 mul 0 V
  hpt neg vpt 1.62 mul V closepath stroke} def
/TriDE {stroke [] 0 setdash vpt 1.12 mul sub M
  hpt neg vpt 1.62 mul V
  hpt 2 mul 0 V
  hpt neg vpt -1.62 mul V closepath stroke} def
/PentE {stroke [] 0 setdash gsave
  translate 0 hpt M 4 {72 rotate 0 hpt L} repeat
  closepath stroke grestore} def
/CircE {stroke [] 0 setdash 
  hpt 0 360 arc stroke} def
/Opaque {gsave closepath 1 setgray fill grestore 0 setgray closepath} def
/DiaW {stroke [] 0 setdash vpt add M
  hpt neg vpt neg V hpt vpt neg V
  hpt vpt V hpt neg vpt V Opaque stroke} def
/BoxW {stroke [] 0 setdash exch hpt sub exch vpt add M
  0 vpt2 neg V hpt2 0 V 0 vpt2 V
  hpt2 neg 0 V Opaque stroke} def
/TriUW {stroke [] 0 setdash vpt 1.12 mul add M
  hpt neg vpt -1.62 mul V
  hpt 2 mul 0 V
  hpt neg vpt 1.62 mul V Opaque stroke} def
/TriDW {stroke [] 0 setdash vpt 1.12 mul sub M
  hpt neg vpt 1.62 mul V
  hpt 2 mul 0 V
  hpt neg vpt -1.62 mul V Opaque stroke} def
/PentW {stroke [] 0 setdash gsave
  translate 0 hpt M 4 {72 rotate 0 hpt L} repeat
  Opaque stroke grestore} def
/CircW {stroke [] 0 setdash 
  hpt 0 360 arc Opaque stroke} def
/BoxFill {gsave Rec 1 setgray fill grestore} def
/Density {
  /Fillden exch def
  currentrgbcolor
  /ColB exch def /ColG exch def /ColR exch def
  /ColR ColR Fillden mul Fillden sub 1 add def
  /ColG ColG Fillden mul Fillden sub 1 add def
  /ColB ColB Fillden mul Fillden sub 1 add def
  ColR ColG ColB setrgbcolor} def
/BoxColFill {gsave Rec PolyFill} def
/PolyFill {gsave Density fill grestore grestore} def
/h {rlineto rlineto rlineto gsave closepath fill grestore} bind def
%
% PostScript Level 1 Pattern Fill routine for rectangles
% Usage: x y w h s a XX PatternFill
%	x,y = lower left corner of box to be filled
%	w,h = width and height of box
%	  a = angle in degrees between lines and x-axis
%	 XX = 0/1 for no/yes cross-hatch
%
/PatternFill {gsave /PFa [ 9 2 roll ] def
  PFa 0 get PFa 2 get 2 div add PFa 1 get PFa 3 get 2 div add translate
  PFa 2 get -2 div PFa 3 get -2 div PFa 2 get PFa 3 get Rec
  gsave 1 setgray fill grestore clip
  currentlinewidth 0.5 mul setlinewidth
  /PFs PFa 2 get dup mul PFa 3 get dup mul add sqrt def
  0 0 M PFa 5 get rotate PFs -2 div dup translate
  0 1 PFs PFa 4 get div 1 add floor cvi
	{PFa 4 get mul 0 M 0 PFs V} for
  0 PFa 6 get ne {
	0 1 PFs PFa 4 get div 1 add floor cvi
	{PFa 4 get mul 0 2 1 roll M PFs 0 V} for
 } if
  stroke grestore} def
%
/languagelevel where
 {pop languagelevel} {1} ifelse
 2 lt
	{/InterpretLevel1 true def}
	{/InterpretLevel1 Level1 def}
 ifelse
%
% PostScript level 2 pattern fill definitions
%
/Level2PatternFill {
/Tile8x8 {/PaintType 2 /PatternType 1 /TilingType 1 /BBox [0 0 8 8] /XStep 8 /YStep 8}
	bind def
/KeepColor {currentrgbcolor [/Pattern /DeviceRGB] setcolorspace} bind def
<< Tile8x8
 /PaintProc {0.5 setlinewidth pop 0 0 M 8 8 L 0 8 M 8 0 L stroke} 
>> matrix makepattern
/Pat1 exch def
<< Tile8x8
 /PaintProc {0.5 setlinewidth pop 0 0 M 8 8 L 0 8 M 8 0 L stroke
	0 4 M 4 8 L 8 4 L 4 0 L 0 4 L stroke}
>> matrix makepattern
/Pat2 exch def
<< Tile8x8
 /PaintProc {0.5 setlinewidth pop 0 0 M 0 8 L
	8 8 L 8 0 L 0 0 L fill}
>> matrix makepattern
/Pat3 exch def
<< Tile8x8
 /PaintProc {0.5 setlinewidth pop -4 8 M 8 -4 L
	0 12 M 12 0 L stroke}
>> matrix makepattern
/Pat4 exch def
<< Tile8x8
 /PaintProc {0.5 setlinewidth pop -4 0 M 8 12 L
	0 -4 M 12 8 L stroke}
>> matrix makepattern
/Pat5 exch def
<< Tile8x8
 /PaintProc {0.5 setlinewidth pop -2 8 M 4 -4 L
	0 12 M 8 -4 L 4 12 M 10 0 L stroke}
>> matrix makepattern
/Pat6 exch def
<< Tile8x8
 /PaintProc {0.5 setlinewidth pop -2 0 M 4 12 L
	0 -4 M 8 12 L 4 -4 M 10 8 L stroke}
>> matrix makepattern
/Pat7 exch def
<< Tile8x8
 /PaintProc {0.5 setlinewidth pop 8 -2 M -4 4 L
	12 0 M -4 8 L 12 4 M 0 10 L stroke}
>> matrix makepattern
/Pat8 exch def
<< Tile8x8
 /PaintProc {0.5 setlinewidth pop 0 -2 M 12 4 L
	-4 0 M 12 8 L -4 4 M 8 10 L stroke}
>> matrix makepattern
/Pat9 exch def
/Pattern1 {PatternBgnd KeepColor Pat1 setpattern} bind def
/Pattern2 {PatternBgnd KeepColor Pat2 setpattern} bind def
/Pattern3 {PatternBgnd KeepColor Pat3 setpattern} bind def
/Pattern4 {PatternBgnd KeepColor Landscape {Pat5} {Pat4} ifelse setpattern} bind def
/Pattern5 {PatternBgnd KeepColor Landscape {Pat4} {Pat5} ifelse setpattern} bind def
/Pattern6 {PatternBgnd KeepColor Landscape {Pat9} {Pat6} ifelse setpattern} bind def
/Pattern7 {PatternBgnd KeepColor Landscape {Pat8} {Pat7} ifelse setpattern} bind def
} def
%
%
%End of PostScript Level 2 code
%
/PatternBgnd {
  TransparentPatterns {} {gsave 1 setgray fill grestore} ifelse
} def
%
% Substitute for Level 2 pattern fill codes with
% grayscale if Level 2 support is not selected.
%
/Level1PatternFill {
/Pattern1 {0.250 Density} bind def
/Pattern2 {0.500 Density} bind def
/Pattern3 {0.750 Density} bind def
/Pattern4 {0.125 Density} bind def
/Pattern5 {0.375 Density} bind def
/Pattern6 {0.625 Density} bind def
/Pattern7 {0.875 Density} bind def
} def
%
% Now test for support of Level 2 code
%
Level1 {Level1PatternFill} {Level2PatternFill} ifelse
%
/Symbol-Oblique /Symbol findfont [1 0 .167 1 0 0] makefont
dup length dict begin {1 index /FID eq {pop pop} {def} ifelse} forall
currentdict end definefont pop
/MFshow {
   { dup 5 get 3 ge
     { 5 get 3 eq {gsave} {grestore} ifelse }
     {dup dup 0 get findfont exch 1 get scalefont setfont
     [ currentpoint ] exch dup 2 get 0 exch R dup 5 get 2 ne {dup dup 6
     get exch 4 get {show} {stringwidth pop 0 R} ifelse }if dup 5 get 0 eq
     {dup 3 get {2 get neg 0 exch R pop} {pop aload pop M} ifelse} {dup 5
     get 1 eq {dup 2 get exch dup 3 get exch 6 get stringwidth pop -2 div
     dup 0 R} {dup 6 get stringwidth pop -2 div 0 R 6 get
     show 2 index {aload pop M neg 3 -1 roll neg R pop pop} {pop pop pop
     pop aload pop M} ifelse }ifelse }ifelse }
     ifelse }
   forall} bind def
/MFwidth {0 exch { dup 5 get 3 ge { 5 get 3 eq { 0 } { pop } ifelse }
 {dup 3 get{dup dup 0 get findfont exch 1 get scalefont setfont
     6 get stringwidth pop add} {pop} ifelse} ifelse} forall} bind def
/MLshow { currentpoint stroke M
  0 exch R
  Blacktext {gsave 0 setgray MFshow grestore} {MFshow} ifelse } bind def
/MRshow { currentpoint stroke M
  exch dup MFwidth neg 3 -1 roll R
  Blacktext {gsave 0 setgray MFshow grestore} {MFshow} ifelse } bind def
/MCshow { currentpoint stroke M
  exch dup MFwidth -2 div 3 -1 roll R
  Blacktext {gsave 0 setgray MFshow grestore} {MFshow} ifelse } bind def
/XYsave    { [( ) 1 2 true false 3 ()] } bind def
/XYrestore { [( ) 1 2 true false 4 ()] } bind def
end
%%EndProlog
gnudict begin
gsave
50 50 translate
0.050 0.050 scale
0 setgray
newpath
(Helvetica) findfont 240 scalefont setfont
1.000 UL
LTb
1752 1008 M
63 0 V
5025 0 R
-63 0 V
stroke
1608 1008 M
[ [(Helvetica) 240.0 0.0 true true 0 ( 0)]
] -80.0 MRshow
1.000 UL
LTb
1752 1800 M
63 0 V
5025 0 R
-63 0 V
stroke
1608 1800 M
[ [(Helvetica) 240.0 0.0 true true 0 ( 0.005)]
] -80.0 MRshow
1.000 UL
LTb
1752 2592 M
63 0 V
5025 0 R
-63 0 V
stroke
1608 2592 M
[ [(Helvetica) 240.0 0.0 true true 0 ( 0.01)]
] -80.0 MRshow
1.000 UL
LTb
1752 3384 M
63 0 V
5025 0 R
-63 0 V
stroke
1608 3384 M
[ [(Helvetica) 240.0 0.0 true true 0 ( 0.015)]
] -80.0 MRshow
1.000 UL
LTb
1752 4176 M
63 0 V
5025 0 R
-63 0 V
stroke
1608 4176 M
[ [(Helvetica) 240.0 0.0 true true 0 ( 0.02)]
] -80.0 MRshow
1.000 UL
LTb
1752 4968 M
63 0 V
5025 0 R
-63 0 V
stroke
1608 4968 M
[ [(Helvetica) 240.0 0.0 true true 0 ( 0.025)]
] -80.0 MRshow
1.000 UL
LTb
1752 5760 M
63 0 V
5025 0 R
-63 0 V
stroke
1608 5760 M
[ [(Helvetica) 240.0 0.0 true true 0 ( 0.03)]
] -80.0 MRshow
1.000 UL
LTb
1752 1008 M
0 63 V
0 4689 R
0 -63 V
stroke
1752 768 M
[ [(Helvetica) 240.0 0.0 true true 0 (10)]
[(Helvetica) 192.0 120.0 true true 0 (-2)]
] -104.0 MCshow
1.000 UL
LTb
2216 1008 M
0 31 V
0 4721 R
0 -31 V
2487 1008 M
0 31 V
0 4721 R
0 -31 V
2680 1008 M
0 31 V
0 4721 R
0 -31 V
2829 1008 M
0 31 V
0 4721 R
0 -31 V
2951 1008 M
0 31 V
0 4721 R
0 -31 V
3055 1008 M
0 31 V
0 4721 R
0 -31 V
89 -4721 R
0 31 V
0 4721 R
0 -31 V
79 -4721 R
0 31 V
0 4721 R
0 -31 V
70 -4721 R
0 63 V
0 4689 R
0 -63 V
stroke
3293 768 M
[ [(Helvetica) 240.0 0.0 true true 0 (10)]
[(Helvetica) 192.0 120.0 true true 0 (-1)]
] -104.0 MCshow
1.000 UL
LTb
3757 1008 M
0 31 V
0 4721 R
0 -31 V
4029 1008 M
0 31 V
0 4721 R
0 -31 V
4221 1008 M
0 31 V
0 4721 R
0 -31 V
4371 1008 M
0 31 V
0 4721 R
0 -31 V
4493 1008 M
0 31 V
0 4721 R
0 -31 V
4596 1008 M
0 31 V
0 4721 R
0 -31 V
89 -4721 R
0 31 V
0 4721 R
0 -31 V
79 -4721 R
0 31 V
0 4721 R
0 -31 V
71 -4721 R
0 63 V
0 4689 R
0 -63 V
stroke
4835 768 M
[ [(Helvetica) 240.0 0.0 true true 0 (10)]
[(Helvetica) 192.0 120.0 true true 0 (0)]
] -104.0 MCshow
1.000 UL
LTb
5299 1008 M
0 31 V
0 4721 R
0 -31 V
5570 1008 M
0 31 V
0 4721 R
0 -31 V
5763 1008 M
0 31 V
0 4721 R
0 -31 V
5912 1008 M
0 31 V
0 4721 R
0 -31 V
6034 1008 M
0 31 V
0 4721 R
0 -31 V
6137 1008 M
0 31 V
0 4721 R
0 -31 V
90 -4721 R
0 31 V
0 4721 R
0 -31 V
78 -4721 R
0 31 V
0 4721 R
0 -31 V
71 -4721 R
0 63 V
0 4689 R
0 -63 V
stroke
6376 768 M
[ [(Helvetica) 240.0 0.0 true true 0 (10)]
[(Helvetica) 192.0 120.0 true true 0 (1)]
] -104.0 MCshow
1.000 UL
LTb
6840 1008 M
0 31 V
0 4721 R
0 -31 V
stroke
1752 5760 N
0 -4752 V
5088 0 V
0 4752 V
-5088 0 V
Z stroke
LCb setrgbcolor
480 3384 M
currentpoint gsave translate 90 rotate 0 0 moveto
[ [(Helvetica) 240.0 0.0 true true 0 (c/c)]
[(Helvetica) 192.0 -72.0 true true 0 (inj)]
] -56.0 MCshow
grestore
LTb
LCb setrgbcolor
4296 408 M
[ [(Helvetica) 240.0 0.0 true true 0 (Pore Volume \(t)]
[(Helvetica) 192.0 -72.0 true true 0 (D)]
[(Helvetica) 240.0 0.0 true true 0 (\))]
] -56.0 MCshow
LTb
1.000 UP
1854 5522 M
[ [(Helvetica) 240.0 0.0 true true 0 (B1, B2, B3 & B7 tests)]
] -80.0 MLshow
1854 5142 M
[ [(Helvetica) 240.0 0.0 true true 0 (L = 50.9 cm)]
] -80.0 MLshow
1854 4810 M
[ [(Symbol) 240.0 0.0 true true 0 (f)]
[(Helvetica) 192.0 -72.0 true true 0 (T)]
[(Helvetica) 240.0 0.0 true true 0 ( = 0.14)]
] -56.0 MLshow
6331 5522 M
[ [(Helvetica) 240.0 0.0 true true 0 (\(a\))]
] -80.0 MLshow
3.000 UL
LTb
4835 1008 M
0 4752 V
stroke
1.000 UL
LTb
1.000 UP
3.000 UL
LT0
LTb
6150 4362 M
[ [(Helvetica) 240.0 0.0 true true 0 (B1-)]
[(Helvetica) 192.0 120.0 true true 0 (3)]
[(Helvetica) 240.0 0.0 true true 0 (H)]
] -104.0 MRshow
LT0
3514 1048 Box
3532 1009 Box
3551 1028 Box
3568 1030 Box
3586 1026 Box
3603 1050 Box
3619 1083 Box
3635 1078 Box
3650 1083 Box
3665 1110 Box
3680 1117 Box
3694 1140 Box
3708 1141 Box
3722 1169 Box
3735 1213 Box
3748 1231 Box
3761 1252 Box
3774 1283 Box
3786 1331 Box
3798 1341 Box
3809 1353 Box
3820 1453 Box
3831 1475 Box
3840 1441 Box
3849 1485 Box
3861 1559 Box
3873 1595 Box
3884 1656 Box
3895 1660 Box
3905 1819 Box
3916 1751 Box
3926 1785 Box
3937 1931 Box
3947 1868 Box
3957 1922 Box
3967 1948 Box
3976 1965 Box
4038 2310 Box
4093 2413 Box
4144 2646 Box
4200 2638 Box
4245 2775 Box
4299 2672 Box
4348 2655 Box
4396 2525 Box
4439 2319 Box
4515 2258 Box
4585 1965 Box
4706 1749 Box
4811 1511 Box
4900 1449 Box
4978 1329 Box
5048 1300 Box
5122 1200 Box
6469 4362 Box
1.000 UP
3.000 UL
LT1
LTb
6150 3942 M
[ [(Helvetica) 240.0 0.0 true true 0 (B2-)]
[(Helvetica) 192.0 120.0 true true 0 (22)]
[(Helvetica) 240.0 0.0 true true 0 (Na)]
] -104.0 MRshow
LT1
3508 1090 Crs
3526 1128 Crs
3544 1171 Crs
3562 1197 Crs
3579 1273 Crs
3595 1330 Crs
3611 1363 Crs
3627 1468 Crs
3642 1552 Crs
3658 1637 Crs
3672 1765 Crs
3687 1816 Crs
3701 1954 Crs
3715 2022 Crs
3729 2201 Crs
3742 2299 Crs
3779 2664 Crs
3792 2732 Crs
3805 2840 Crs
3817 2928 Crs
3829 3134 Crs
3841 3198 Crs
3853 3360 Crs
3865 3424 Crs
3876 3482 Crs
3887 3718 Crs
3898 3755 Crs
3908 3877 Crs
3919 3999 Crs
3929 4127 Crs
3939 4154 Crs
3949 4249 Crs
3959 4350 Crs
3968 4421 Crs
3977 4590 Crs
3996 4624 Crs
4005 4624 Crs
4013 4725 Crs
4022 4759 Crs
4056 4861 Crs
4064 4692 Crs
4072 4894 Crs
4080 4861 Crs
4088 4996 Crs
4096 4793 Crs
4104 4827 Crs
4112 4827 Crs
4120 4827 Crs
4127 4996 Crs
4135 5030 Crs
4142 4928 Crs
4149 4996 Crs
4156 4894 Crs
4163 4827 Crs
4170 4793 Crs
4177 4827 Crs
4184 4827 Crs
4191 4725 Crs
4197 4624 Crs
4204 4759 Crs
4211 4725 Crs
4217 4658 Crs
4224 4658 Crs
4230 4556 Crs
4236 4556 Crs
4243 4556 Crs
4249 4523 Crs
4255 4421 Crs
4262 4489 Crs
4268 4421 Crs
4274 4320 Crs
4280 4421 Crs
4286 4178 Crs
4293 4205 Crs
4299 4100 Crs
4305 4070 Crs
4311 4191 Crs
4316 4097 Crs
4322 4198 Crs
4327 4073 Crs
4333 4110 Crs
4338 4073 Crs
4343 4029 Crs
4348 4022 Crs
4369 3897 Crs
4374 3874 Crs
4379 3793 Crs
4384 3722 Crs
4389 3759 Crs
4394 3701 Crs
4398 3755 Crs
4403 3587 Crs
4408 3519 Crs
4413 3495 Crs
4418 3465 Crs
4423 3468 Crs
4428 3360 Crs
4433 3421 Crs
4438 3279 Crs
4443 3306 Crs
4448 3184 Crs
4453 3249 Crs
4458 3066 Crs
4463 3198 Crs
4467 3154 Crs
4472 3086 Crs
4477 3188 Crs
4481 3063 Crs
4486 3113 Crs
4490 3080 Crs
4495 2948 Crs
4499 3100 Crs
4503 3032 Crs
4508 2944 Crs
4512 2928 Crs
4516 2914 Crs
4521 2880 Crs
4534 2748 Crs
4538 2890 Crs
4545 2833 Crs
4549 2772 Crs
4553 2786 Crs
4557 2769 Crs
4561 2718 Crs
4565 2650 Crs
4569 2694 Crs
4573 2634 Crs
4577 2603 Crs
4581 2694 Crs
4584 2556 Crs
4588 2654 Crs
4592 2566 Crs
4595 2579 Crs
4599 2556 Crs
4603 2539 Crs
4606 2549 Crs
4610 2515 Crs
4613 2458 Crs
4617 2468 Crs
4620 2495 Crs
4624 2461 Crs
4634 2448 Crs
4638 2468 Crs
4641 2427 Crs
4644 2350 Crs
4648 2468 Crs
4651 2383 Crs
4657 2360 Crs
4660 2343 Crs
4664 2302 Crs
4667 2285 Crs
4670 2336 Crs
4673 2329 Crs
4677 2245 Crs
4680 2235 Crs
4683 2225 Crs
4686 2221 Crs
4689 2208 Crs
4692 2221 Crs
4696 2238 Crs
4699 2218 Crs
4702 2214 Crs
4705 2171 Crs
4708 2110 Crs
4711 2123 Crs
4714 2103 Crs
4717 2100 Crs
4720 2127 Crs
4723 2062 Crs
4726 2079 Crs
4729 2059 Crs
4731 2083 Crs
4734 2066 Crs
4737 1985 Crs
4740 2049 Crs
4743 2032 Crs
4746 2018 Crs
4749 1985 Crs
4752 1951 Crs
4755 1968 Crs
4758 1947 Crs
4760 1971 Crs
4763 1907 Crs
4766 1954 Crs
4769 1931 Crs
4772 1910 Crs
4775 1907 Crs
4777 1866 Crs
4780 1904 Crs
4785 1833 Crs
4788 1849 Crs
4791 1833 Crs
4793 1836 Crs
4796 1809 Crs
4799 1863 Crs
4802 1829 Crs
4804 1819 Crs
4807 1829 Crs
4810 1802 Crs
4812 1806 Crs
4815 1802 Crs
4818 1711 Crs
4820 1765 Crs
4823 1724 Crs
4826 1779 Crs
4828 1765 Crs
4831 1731 Crs
4833 1711 Crs
4836 1704 Crs
4841 1735 Crs
4851 1711 Crs
4861 1653 Crs
4871 1650 Crs
4881 1653 Crs
4890 1667 Crs
4900 1603 Crs
4909 1569 Crs
4918 1559 Crs
4928 1495 Crs
4937 1498 Crs
4946 1501 Crs
4955 1505 Crs
4963 1488 Crs
4972 1454 Crs
4980 1437 Crs
4989 1434 Crs
4997 1424 Crs
5005 1424 Crs
5013 1400 Crs
5021 1363 Crs
5029 1386 Crs
6469 3942 Crs
1.000 UP
3.000 UL
LT2
LTb
6150 3522 M
[ [(Helvetica) 240.0 0.0 true true 0 (B3-)]
[(Helvetica) 192.0 120.0 true true 0 (22)]
[(Helvetica) 240.0 0.0 true true 0 (Na)]
] -104.0 MRshow
LT2
3258 1285 TriU
3283 1279 TriU
3308 1262 TriU
3332 1288 TriU
3355 1299 TriU
3378 1279 TriU
3400 1301 TriU
3421 1318 TriU
3442 1331 TriU
3462 1358 TriU
3482 1407 TriU
3501 1453 TriU
3520 1510 TriU
3538 1519 TriU
3556 1622 TriU
3574 1649 TriU
3591 1782 TriU
3607 1790 TriU
3623 1910 TriU
3638 2010 TriU
3654 2100 TriU
3669 2146 TriU
3683 2290 TriU
3697 2415 TriU
3711 2483 TriU
3725 2483 TriU
3738 2781 TriU
3750 2822 TriU
3763 2887 TriU
3775 2920 TriU
3787 3034 TriU
3798 3240 TriU
3810 3173 TriU
3821 3243 TriU
3833 3270 TriU
3844 3344 TriU
3855 3428 TriU
3866 3433 TriU
3876 3479 TriU
3887 3577 TriU
3897 3694 TriU
3908 3656 TriU
3918 3702 TriU
3928 3833 TriU
3938 3708 TriU
3947 3914 TriU
3956 3778 TriU
3965 3778 TriU
3975 3914 TriU
3983 3833 TriU
3992 3833 TriU
4001 3833 TriU
4009 4023 TriU
4017 3995 TriU
4025 4023 TriU
4033 4050 TriU
4041 3887 TriU
4049 3860 TriU
4058 3778 TriU
4065 3887 TriU
4073 3860 TriU
4081 3778 TriU
4088 3724 TriU
4096 3683 TriU
4104 3751 TriU
4111 3689 TriU
4119 3629 TriU
4126 3683 TriU
4134 3585 TriU
4141 3686 TriU
4148 3675 TriU
4156 3618 TriU
4163 3539 TriU
4170 3596 TriU
4176 3651 TriU
4183 3444 TriU
4190 3580 TriU
4197 3450 TriU
4203 3471 TriU
4210 3420 TriU
4229 3425 TriU
4247 3273 TriU
4265 3200 TriU
4283 3183 TriU
4300 3080 TriU
4318 2982 TriU
4334 2966 TriU
4350 2863 TriU
4366 2868 TriU
4382 2798 TriU
4397 2730 TriU
4412 2676 TriU
4426 2610 TriU
4440 2532 TriU
4454 2469 TriU
4468 2439 TriU
4481 2412 TriU
4494 2333 TriU
4507 2423 TriU
4519 2325 TriU
4531 2233 TriU
4543 2200 TriU
4555 2138 TriU
4567 2092 TriU
4579 2059 TriU
4590 2130 TriU
4602 2029 TriU
4613 1997 TriU
4624 2070 TriU
4634 1940 TriU
4644 1953 TriU
4654 1891 TriU
4664 1839 TriU
4674 1817 TriU
4684 1779 TriU
4694 1793 TriU
4704 1749 TriU
4713 1749 TriU
4722 1747 TriU
4731 1722 TriU
4740 1673 TriU
4749 1687 TriU
4758 1668 TriU
4766 1646 TriU
4775 1649 TriU
4783 1603 TriU
4792 1597 TriU
4800 1589 TriU
4808 1567 TriU
4816 1559 TriU
4824 1581 TriU
4832 1529 TriU
4839 1519 TriU
4847 1502 TriU
4854 1557 TriU
4862 1516 TriU
4869 1527 TriU
4876 1508 TriU
4883 1494 TriU
4890 1462 TriU
4897 1478 TriU
4903 1489 TriU
4910 1453 TriU
4917 1434 TriU
4923 1424 TriU
4930 1424 TriU
4937 1434 TriU
4943 1396 TriU
4950 1399 TriU
4956 1434 TriU
4962 1394 TriU
4969 1391 TriU
4977 1377 TriU
4985 1347 TriU
4993 1323 TriU
5001 1353 TriU
5010 1331 TriU
5017 1339 TriU
5025 1299 TriU
5033 1323 TriU
5041 1296 TriU
5048 1285 TriU
5056 1282 TriU
5064 1278 TriU
5071 1290 TriU
5078 1278 TriU
5085 1296 TriU
5095 1264 TriU
5101 1267 TriU
5106 1221 TriU
5113 1229 TriU
5119 1209 TriU
5126 1192 TriU
5133 1204 TriU
5139 1208 TriU
5146 1184 TriU
5152 1207 TriU
5159 1191 TriU
5165 1206 TriU
5171 1180 TriU
5177 1215 TriU
5182 1187 TriU
5189 1189 TriU
5195 1172 TriU
5201 1189 TriU
5207 1200 TriU
5213 1175 TriU
5219 1165 TriU
5225 1173 TriU
5230 1176 TriU
5236 1171 TriU
5241 1161 TriU
5247 1189 TriU
5252 1188 TriU
5258 1163 TriU
5263 1167 TriU
5268 1168 TriU
5274 1152 TriU
5279 1158 TriU
5284 1173 TriU
5289 1139 TriU
5294 1146 TriU
5299 1156 TriU
5304 1177 TriU
5310 1128 TriU
5315 1138 TriU
5320 1139 TriU
5325 1129 TriU
5329 1140 TriU
5334 1116 TriU
5339 1133 TriU
5343 1120 TriU
5348 1132 TriU
5353 1123 TriU
5358 1113 TriU
5363 1130 TriU
5368 1159 TriU
5372 1123 TriU
5377 1128 TriU
5381 1122 TriU
5385 1165 TriU
5390 1117 TriU
5395 1120 TriU
5400 1141 TriU
5404 1126 TriU
5409 1116 TriU
5413 1122 TriU
5417 1128 TriU
5421 1130 TriU
5426 1122 TriU
5430 1111 TriU
5435 1108 TriU
5439 1118 TriU
5443 1130 TriU
5447 1117 TriU
5451 1118 TriU
5455 1113 TriU
5459 1112 TriU
5463 1103 TriU
5467 1104 TriU
5471 1104 TriU
5475 1102 TriU
5479 1107 TriU
5482 1120 TriU
5486 1104 TriU
5490 1113 TriU
5494 1128 TriU
5497 1110 TriU
5501 1110 TriU
5505 1109 TriU
5508 1114 TriU
5512 1102 TriU
5516 1096 TriU
5520 1096 TriU
5523 1107 TriU
5527 1095 TriU
5530 1115 TriU
5534 1101 TriU
5537 1095 TriU
5541 1100 TriU
5545 1103 TriU
5548 1104 TriU
5552 1102 TriU
5555 1100 TriU
5560 1103 TriU
5562 1106 TriU
5571 1117 TriU
5575 1092 TriU
5578 1109 TriU
5582 1094 TriU
5585 1122 TriU
5588 1109 TriU
5592 1137 TriU
5595 1092 TriU
5597 1102 TriU
5600 1102 TriU
5603 1102 TriU
5605 1099 TriU
5608 1106 TriU
5610 1096 TriU
5613 1101 TriU
5615 1106 TriU
5618 1137 TriU
5620 1109 TriU
5623 1119 TriU
5625 1111 TriU
5627 1119 TriU
5630 1118 TriU
5632 1142 TriU
5634 1102 TriU
5637 1114 TriU
5639 1103 TriU
5642 1147 TriU
5644 1095 TriU
5646 1103 TriU
5648 1087 TriU
5651 1091 TriU
5653 1108 TriU
5655 1103 TriU
5657 1101 TriU
5659 1093 TriU
5662 1105 TriU
5664 1093 TriU
5666 1091 TriU
5668 1095 TriU
5670 1094 TriU
5672 1085 TriU
5674 1096 TriU
5676 1100 TriU
5679 1095 TriU
5681 1084 TriU
5682 1091 TriU
5684 1093 TriU
5687 1096 TriU
5689 1094 TriU
5691 1089 TriU
5692 1107 TriU
5694 1106 TriU
5696 1098 TriU
5698 1084 TriU
5700 1089 TriU
5702 1086 TriU
5706 1088 TriU
5708 1096 TriU
5710 1088 TriU
5712 1082 TriU
5714 1086 TriU
5716 1082 TriU
6469 3522 TriU
1.000 UP
1.000 UL
LT3
LTb
6150 3102 M
[ [(Helvetica) 240.0 0.0 true true 0 (B7-)]
[(Helvetica) 192.0 120.0 true true 0 (22)]
[(Helvetica) 240.0 0.0 true true 0 (Na)]
] -104.0 MRshow
LT3
2742 1080 Circle
2844 1067 Circle
2934 1057 Circle
3080 1063 Circle
3146 1060 Circle
3206 1125 Circle
3260 1145 Circle
3311 1201 Circle
3359 1266 Circle
3403 1387 Circle
3444 1527 Circle
3483 1648 Circle
3521 1850 Circle
3556 2036 Circle
3590 2196 Circle
3622 2316 Circle
3653 2542 Circle
3681 2682 Circle
3710 2806 Circle
3737 2950 Circle
3762 3093 Circle
3788 3178 Circle
3811 3413 Circle
3835 3380 Circle
3857 3589 Circle
3879 3599 Circle
3900 3720 Circle
3920 3720 Circle
3949 3658 Circle
4005 3850 Circle
4031 3915 Circle
4056 3981 Circle
4080 3981 Circle
4103 3981 Circle
4126 3915 Circle
4147 3915 Circle
4168 3883 Circle
4189 3850 Circle
4208 3785 Circle
4228 3707 Circle
4247 3645 Circle
4265 3527 Circle
4300 3455 Circle
4317 3387 Circle
4334 3246 Circle
4350 3220 Circle
4366 3188 Circle
4382 3149 Circle
4396 3034 Circle
4411 2953 Circle
4426 2943 Circle
4440 2881 Circle
4454 2822 Circle
4467 2783 Circle
4480 2715 Circle
4493 2705 Circle
4506 2626 Circle
4519 2568 Circle
4531 2538 Circle
4543 2522 Circle
4566 2382 Circle
4577 2401 Circle
4588 2365 Circle
4600 2330 Circle
4611 2251 Circle
4621 2254 Circle
4632 2222 Circle
4642 2166 Circle
4652 2140 Circle
4663 2101 Circle
4673 2117 Circle
4682 2098 Circle
4692 2046 Circle
4701 2023 Circle
4710 2026 Circle
4720 1958 Circle
4729 1928 Circle
4738 1951 Circle
4747 1912 Circle
4755 1931 Circle
4764 1902 Circle
4773 1856 Circle
4781 1847 Circle
4789 1847 Circle
4797 1804 Circle
4820 1758 Circle
4828 1781 Circle
4836 1716 Circle
4844 1726 Circle
4851 1739 Circle
4858 1703 Circle
4866 1703 Circle
4873 1670 Circle
4881 1680 Circle
4888 1648 Circle
4895 1631 Circle
4902 1641 Circle
4909 1641 Circle
4914 1625 Circle
4921 1631 Circle
4928 1618 Circle
4934 1621 Circle
4941 1608 Circle
4953 1602 Circle
4960 1559 Circle
4966 1566 Circle
4972 1550 Circle
4979 1556 Circle
4985 1550 Circle
4991 1537 Circle
4997 1511 Circle
5003 1511 Circle
5009 1491 Circle
5015 1501 Circle
5021 1484 Circle
5027 1475 Circle
5038 1462 Circle
5050 1462 Circle
5055 1449 Circle
5061 1435 Circle
5072 1435 Circle
5077 1435 Circle
5082 1435 Circle
5088 1416 Circle
5093 1426 Circle
5098 1406 Circle
5103 1406 Circle
5109 1400 Circle
5114 1380 Circle
5119 1383 Circle
5124 1387 Circle
5129 1373 Circle
5134 1373 Circle
5138 1383 Circle
5149 1387 Circle
5154 1354 Circle
5182 1354 Circle
5203 1331 Circle
5219 1344 Circle
5224 1328 Circle
5244 1338 Circle
5249 1334 Circle
5253 1354 Circle
5258 1338 Circle
5277 1344 Circle
5282 1321 Circle
5286 1347 Circle
5300 1311 Circle
5335 1276 Circle
5365 1249 Circle
5369 1256 Circle
5374 1233 Circle
5382 1230 Circle
5386 1227 Circle
5390 1207 Circle
5394 1214 Circle
5397 1214 Circle
5401 1210 Circle
5405 1201 Circle
5412 1207 Circle
5415 1204 Circle
5423 1184 Circle
5426 1197 Circle
5430 1197 Circle
5433 1184 Circle
5436 1194 Circle
5443 1184 Circle
5447 1184 Circle
5450 1181 Circle
5454 1181 Circle
5457 1171 Circle
5460 1168 Circle
5464 1168 Circle
5467 1168 Circle
5477 1171 Circle
5480 1158 Circle
5484 1155 Circle
5487 1158 Circle
5490 1152 Circle
5494 1155 Circle
5497 1148 Circle
5500 1142 Circle
5503 1152 Circle
5510 1152 Circle
5513 1129 Circle
5516 1122 Circle
5519 1135 Circle
5523 1125 Circle
5526 1125 Circle
5529 1122 Circle
5532 1125 Circle
5535 1109 Circle
5538 1112 Circle
5541 1125 Circle
5551 1099 Circle
5554 1099 Circle
5556 1096 Circle
5559 1073 Circle
5561 1096 Circle
5566 1083 Circle
5569 1083 Circle
5574 1090 Circle
5577 1093 Circle
5579 1080 Circle
5582 1067 Circle
5584 1067 Circle
5587 1090 Circle
5589 1090 Circle
5592 1096 Circle
5594 1096 Circle
5597 1103 Circle
5599 1112 Circle
5601 1083 Circle
5606 1106 Circle
5609 1116 Circle
5613 1090 Circle
5616 1077 Circle
5618 1093 Circle
5621 1109 Circle
5623 1096 Circle
5625 1086 Circle
5628 1070 Circle
5630 1060 Circle
5633 1080 Circle
5635 1070 Circle
5637 1060 Circle
5640 1073 Circle
5642 1132 Circle
5644 1063 Circle
5646 1047 Circle
5649 1054 Circle
5651 1096 Circle
5653 1054 Circle
5655 1060 Circle
5657 1034 Circle
5660 1034 Circle
5662 1054 Circle
5664 1034 Circle
5666 1034 Circle
5669 1024 Circle
5671 1044 Circle
5673 1015 Circle
5675 1041 Circle
5677 1037 Circle
5680 1015 Circle
5682 1024 Circle
5684 1018 Circle
5686 1021 Circle
5688 1021 Circle
5694 1024 Circle
5696 1018 Circle
5698 1028 Circle
5701 1015 Circle
5703 1011 Circle
5705 1031 Circle
5707 1034 Circle
5709 1018 Circle
5711 1028 Circle
6469 3102 Circle
1.000 UL
LTb
1752 5760 N
0 -4752 V
5088 0 V
0 4752 V
-5088 0 V
Z stroke
1.000 UP
1.000 UL
LTb
stroke
grestore
end
showpage
