%!PS-Adobe-2.0 EPSF-2.0
%%Title: testB_all_b.eps
%%Creator: gnuplot 4.4 patchlevel 4
%%CreationDate: Fri Jul  6 14:44:30 2012
%%DocumentFonts: (atend)
%%BoundingBox: 50 50 410 352
%%EndComments
%%BeginProlog
/gnudict 256 dict def
gnudict begin
%
% The following true/false flags may be edited by hand if desired.
% The unit line width and grayscale image gamma correction may also be changed.
%
/Color true def
/Blacktext false def
/Solid false def
/Dashlength 1 def
/Landscape false def
/Level1 false def
/Rounded false def
/ClipToBoundingBox false def
/TransparentPatterns false def
/gnulinewidth 5.000 def
/userlinewidth gnulinewidth def
/Gamma 1.0 def
%
/vshift -86 def
/dl1 {
  10.0 Dashlength mul mul
  Rounded { currentlinewidth 0.75 mul sub dup 0 le { pop 0.01 } if } if
} def
/dl2 {
  10.0 Dashlength mul mul
  Rounded { currentlinewidth 0.75 mul add } if
} def
/hpt_ 31.5 def
/vpt_ 31.5 def
/hpt hpt_ def
/vpt vpt_ def
Level1 {} {
/SDict 10 dict def
systemdict /pdfmark known not {
  userdict /pdfmark systemdict /cleartomark get put
} if
SDict begin [
  /Title (testB_all_b.eps)
  /Subject (gnuplot plot)
  /Creator (gnuplot 4.4 patchlevel 4)
  /Author (bmalama)
%  /Producer (gnuplot)
%  /Keywords ()
  /CreationDate (Fri Jul  6 14:44:30 2012)
  /DOCINFO pdfmark
end
} ifelse
/doclip {
  ClipToBoundingBox {
    newpath 50 50 moveto 410 50 lineto 410 352 lineto 50 352 lineto closepath
    clip
  } if
} def
%
% Gnuplot Prolog Version 4.4 (August 2010)
%
%/SuppressPDFMark true def
%
/M {moveto} bind def
/L {lineto} bind def
/R {rmoveto} bind def
/V {rlineto} bind def
/N {newpath moveto} bind def
/Z {closepath} bind def
/C {setrgbcolor} bind def
/f {rlineto fill} bind def
/g {setgray} bind def
/Gshow {show} def   % May be redefined later in the file to support UTF-8
/vpt2 vpt 2 mul def
/hpt2 hpt 2 mul def
/Lshow {currentpoint stroke M 0 vshift R 
	Blacktext {gsave 0 setgray show grestore} {show} ifelse} def
/Rshow {currentpoint stroke M dup stringwidth pop neg vshift R
	Blacktext {gsave 0 setgray show grestore} {show} ifelse} def
/Cshow {currentpoint stroke M dup stringwidth pop -2 div vshift R 
	Blacktext {gsave 0 setgray show grestore} {show} ifelse} def
/UP {dup vpt_ mul /vpt exch def hpt_ mul /hpt exch def
  /hpt2 hpt 2 mul def /vpt2 vpt 2 mul def} def
/DL {Color {setrgbcolor Solid {pop []} if 0 setdash}
 {pop pop pop 0 setgray Solid {pop []} if 0 setdash} ifelse} def
/BL {stroke userlinewidth 2 mul setlinewidth
	Rounded {1 setlinejoin 1 setlinecap} if} def
/AL {stroke userlinewidth 2 div setlinewidth
	Rounded {1 setlinejoin 1 setlinecap} if} def
/UL {dup gnulinewidth mul /userlinewidth exch def
	dup 1 lt {pop 1} if 10 mul /udl exch def} def
/PL {stroke userlinewidth setlinewidth
	Rounded {1 setlinejoin 1 setlinecap} if} def
3.8 setmiterlimit
% Default Line colors
/LCw {1 1 1} def
/LCb {0 0 0} def
/LCa {0 0 0} def
/LC0 {1 0 0} def
/LC1 {0 1 0} def
/LC2 {0 0 1} def
/LC3 {1 0 1} def
/LC4 {0 1 1} def
/LC5 {1 1 0} def
/LC6 {0 0 0} def
/LC7 {1 0.3 0} def
/LC8 {0.5 0.5 0.5} def
% Default Line Types
/LTw {PL [] 1 setgray} def
/LTb {BL [] LCb DL} def
/LTa {AL [1 udl mul 2 udl mul] 0 setdash LCa setrgbcolor} def
/LT0 {PL [] LC0 DL} def
/LT1 {PL [4 dl1 2 dl2] LC1 DL} def
/LT2 {PL [2 dl1 3 dl2] LC2 DL} def
/LT3 {PL [1 dl1 1.5 dl2] LC3 DL} def
/LT4 {PL [6 dl1 2 dl2 1 dl1 2 dl2] LC4 DL} def
/LT5 {PL [3 dl1 3 dl2 1 dl1 3 dl2] LC5 DL} def
/LT6 {PL [2 dl1 2 dl2 2 dl1 6 dl2] LC6 DL} def
/LT7 {PL [1 dl1 2 dl2 6 dl1 2 dl2 1 dl1 2 dl2] LC7 DL} def
/LT8 {PL [2 dl1 2 dl2 2 dl1 2 dl2 2 dl1 2 dl2 2 dl1 4 dl2] LC8 DL} def
/Pnt {stroke [] 0 setdash gsave 1 setlinecap M 0 0 V stroke grestore} def
/Dia {stroke [] 0 setdash 2 copy vpt add M
  hpt neg vpt neg V hpt vpt neg V
  hpt vpt V hpt neg vpt V closepath stroke
  Pnt} def
/Pls {stroke [] 0 setdash vpt sub M 0 vpt2 V
  currentpoint stroke M
  hpt neg vpt neg R hpt2 0 V stroke
 } def
/Box {stroke [] 0 setdash 2 copy exch hpt sub exch vpt add M
  0 vpt2 neg V hpt2 0 V 0 vpt2 V
  hpt2 neg 0 V closepath stroke
  Pnt} def
/Crs {stroke [] 0 setdash exch hpt sub exch vpt add M
  hpt2 vpt2 neg V currentpoint stroke M
  hpt2 neg 0 R hpt2 vpt2 V stroke} def
/TriU {stroke [] 0 setdash 2 copy vpt 1.12 mul add M
  hpt neg vpt -1.62 mul V
  hpt 2 mul 0 V
  hpt neg vpt 1.62 mul V closepath stroke
  Pnt} def
/Star {2 copy Pls Crs} def
/BoxF {stroke [] 0 setdash exch hpt sub exch vpt add M
  0 vpt2 neg V hpt2 0 V 0 vpt2 V
  hpt2 neg 0 V closepath fill} def
/TriUF {stroke [] 0 setdash vpt 1.12 mul add M
  hpt neg vpt -1.62 mul V
  hpt 2 mul 0 V
  hpt neg vpt 1.62 mul V closepath fill} def
/TriD {stroke [] 0 setdash 2 copy vpt 1.12 mul sub M
  hpt neg vpt 1.62 mul V
  hpt 2 mul 0 V
  hpt neg vpt -1.62 mul V closepath stroke
  Pnt} def
/TriDF {stroke [] 0 setdash vpt 1.12 mul sub M
  hpt neg vpt 1.62 mul V
  hpt 2 mul 0 V
  hpt neg vpt -1.62 mul V closepath fill} def
/DiaF {stroke [] 0 setdash vpt add M
  hpt neg vpt neg V hpt vpt neg V
  hpt vpt V hpt neg vpt V closepath fill} def
/Pent {stroke [] 0 setdash 2 copy gsave
  translate 0 hpt M 4 {72 rotate 0 hpt L} repeat
  closepath stroke grestore Pnt} def
/PentF {stroke [] 0 setdash gsave
  translate 0 hpt M 4 {72 rotate 0 hpt L} repeat
  closepath fill grestore} def
/Circle {stroke [] 0 setdash 2 copy
  hpt 0 360 arc stroke Pnt} def
/CircleF {stroke [] 0 setdash hpt 0 360 arc fill} def
/C0 {BL [] 0 setdash 2 copy moveto vpt 90 450 arc} bind def
/C1 {BL [] 0 setdash 2 copy moveto
	2 copy vpt 0 90 arc closepath fill
	vpt 0 360 arc closepath} bind def
/C2 {BL [] 0 setdash 2 copy moveto
	2 copy vpt 90 180 arc closepath fill
	vpt 0 360 arc closepath} bind def
/C3 {BL [] 0 setdash 2 copy moveto
	2 copy vpt 0 180 arc closepath fill
	vpt 0 360 arc closepath} bind def
/C4 {BL [] 0 setdash 2 copy moveto
	2 copy vpt 180 270 arc closepath fill
	vpt 0 360 arc closepath} bind def
/C5 {BL [] 0 setdash 2 copy moveto
	2 copy vpt 0 90 arc
	2 copy moveto
	2 copy vpt 180 270 arc closepath fill
	vpt 0 360 arc} bind def
/C6 {BL [] 0 setdash 2 copy moveto
	2 copy vpt 90 270 arc closepath fill
	vpt 0 360 arc closepath} bind def
/C7 {BL [] 0 setdash 2 copy moveto
	2 copy vpt 0 270 arc closepath fill
	vpt 0 360 arc closepath} bind def
/C8 {BL [] 0 setdash 2 copy moveto
	2 copy vpt 270 360 arc closepath fill
	vpt 0 360 arc closepath} bind def
/C9 {BL [] 0 setdash 2 copy moveto
	2 copy vpt 270 450 arc closepath fill
	vpt 0 360 arc closepath} bind def
/C10 {BL [] 0 setdash 2 copy 2 copy moveto vpt 270 360 arc closepath fill
	2 copy moveto
	2 copy vpt 90 180 arc closepath fill
	vpt 0 360 arc closepath} bind def
/C11 {BL [] 0 setdash 2 copy moveto
	2 copy vpt 0 180 arc closepath fill
	2 copy moveto
	2 copy vpt 270 360 arc closepath fill
	vpt 0 360 arc closepath} bind def
/C12 {BL [] 0 setdash 2 copy moveto
	2 copy vpt 180 360 arc closepath fill
	vpt 0 360 arc closepath} bind def
/C13 {BL [] 0 setdash 2 copy moveto
	2 copy vpt 0 90 arc closepath fill
	2 copy moveto
	2 copy vpt 180 360 arc closepath fill
	vpt 0 360 arc closepath} bind def
/C14 {BL [] 0 setdash 2 copy moveto
	2 copy vpt 90 360 arc closepath fill
	vpt 0 360 arc} bind def
/C15 {BL [] 0 setdash 2 copy vpt 0 360 arc closepath fill
	vpt 0 360 arc closepath} bind def
/Rec {newpath 4 2 roll moveto 1 index 0 rlineto 0 exch rlineto
	neg 0 rlineto closepath} bind def
/Square {dup Rec} bind def
/Bsquare {vpt sub exch vpt sub exch vpt2 Square} bind def
/S0 {BL [] 0 setdash 2 copy moveto 0 vpt rlineto BL Bsquare} bind def
/S1 {BL [] 0 setdash 2 copy vpt Square fill Bsquare} bind def
/S2 {BL [] 0 setdash 2 copy exch vpt sub exch vpt Square fill Bsquare} bind def
/S3 {BL [] 0 setdash 2 copy exch vpt sub exch vpt2 vpt Rec fill Bsquare} bind def
/S4 {BL [] 0 setdash 2 copy exch vpt sub exch vpt sub vpt Square fill Bsquare} bind def
/S5 {BL [] 0 setdash 2 copy 2 copy vpt Square fill
	exch vpt sub exch vpt sub vpt Square fill Bsquare} bind def
/S6 {BL [] 0 setdash 2 copy exch vpt sub exch vpt sub vpt vpt2 Rec fill Bsquare} bind def
/S7 {BL [] 0 setdash 2 copy exch vpt sub exch vpt sub vpt vpt2 Rec fill
	2 copy vpt Square fill Bsquare} bind def
/S8 {BL [] 0 setdash 2 copy vpt sub vpt Square fill Bsquare} bind def
/S9 {BL [] 0 setdash 2 copy vpt sub vpt vpt2 Rec fill Bsquare} bind def
/S10 {BL [] 0 setdash 2 copy vpt sub vpt Square fill 2 copy exch vpt sub exch vpt Square fill
	Bsquare} bind def
/S11 {BL [] 0 setdash 2 copy vpt sub vpt Square fill 2 copy exch vpt sub exch vpt2 vpt Rec fill
	Bsquare} bind def
/S12 {BL [] 0 setdash 2 copy exch vpt sub exch vpt sub vpt2 vpt Rec fill Bsquare} bind def
/S13 {BL [] 0 setdash 2 copy exch vpt sub exch vpt sub vpt2 vpt Rec fill
	2 copy vpt Square fill Bsquare} bind def
/S14 {BL [] 0 setdash 2 copy exch vpt sub exch vpt sub vpt2 vpt Rec fill
	2 copy exch vpt sub exch vpt Square fill Bsquare} bind def
/S15 {BL [] 0 setdash 2 copy Bsquare fill Bsquare} bind def
/D0 {gsave translate 45 rotate 0 0 S0 stroke grestore} bind def
/D1 {gsave translate 45 rotate 0 0 S1 stroke grestore} bind def
/D2 {gsave translate 45 rotate 0 0 S2 stroke grestore} bind def
/D3 {gsave translate 45 rotate 0 0 S3 stroke grestore} bind def
/D4 {gsave translate 45 rotate 0 0 S4 stroke grestore} bind def
/D5 {gsave translate 45 rotate 0 0 S5 stroke grestore} bind def
/D6 {gsave translate 45 rotate 0 0 S6 stroke grestore} bind def
/D7 {gsave translate 45 rotate 0 0 S7 stroke grestore} bind def
/D8 {gsave translate 45 rotate 0 0 S8 stroke grestore} bind def
/D9 {gsave translate 45 rotate 0 0 S9 stroke grestore} bind def
/D10 {gsave translate 45 rotate 0 0 S10 stroke grestore} bind def
/D11 {gsave translate 45 rotate 0 0 S11 stroke grestore} bind def
/D12 {gsave translate 45 rotate 0 0 S12 stroke grestore} bind def
/D13 {gsave translate 45 rotate 0 0 S13 stroke grestore} bind def
/D14 {gsave translate 45 rotate 0 0 S14 stroke grestore} bind def
/D15 {gsave translate 45 rotate 0 0 S15 stroke grestore} bind def
/DiaE {stroke [] 0 setdash vpt add M
  hpt neg vpt neg V hpt vpt neg V
  hpt vpt V hpt neg vpt V closepath stroke} def
/BoxE {stroke [] 0 setdash exch hpt sub exch vpt add M
  0 vpt2 neg V hpt2 0 V 0 vpt2 V
  hpt2 neg 0 V closepath stroke} def
/TriUE {stroke [] 0 setdash vpt 1.12 mul add M
  hpt neg vpt -1.62 mul V
  hpt 2 mul 0 V
  hpt neg vpt 1.62 mul V closepath stroke} def
/TriDE {stroke [] 0 setdash vpt 1.12 mul sub M
  hpt neg vpt 1.62 mul V
  hpt 2 mul 0 V
  hpt neg vpt -1.62 mul V closepath stroke} def
/PentE {stroke [] 0 setdash gsave
  translate 0 hpt M 4 {72 rotate 0 hpt L} repeat
  closepath stroke grestore} def
/CircE {stroke [] 0 setdash 
  hpt 0 360 arc stroke} def
/Opaque {gsave closepath 1 setgray fill grestore 0 setgray closepath} def
/DiaW {stroke [] 0 setdash vpt add M
  hpt neg vpt neg V hpt vpt neg V
  hpt vpt V hpt neg vpt V Opaque stroke} def
/BoxW {stroke [] 0 setdash exch hpt sub exch vpt add M
  0 vpt2 neg V hpt2 0 V 0 vpt2 V
  hpt2 neg 0 V Opaque stroke} def
/TriUW {stroke [] 0 setdash vpt 1.12 mul add M
  hpt neg vpt -1.62 mul V
  hpt 2 mul 0 V
  hpt neg vpt 1.62 mul V Opaque stroke} def
/TriDW {stroke [] 0 setdash vpt 1.12 mul sub M
  hpt neg vpt 1.62 mul V
  hpt 2 mul 0 V
  hpt neg vpt -1.62 mul V Opaque stroke} def
/PentW {stroke [] 0 setdash gsave
  translate 0 hpt M 4 {72 rotate 0 hpt L} repeat
  Opaque stroke grestore} def
/CircW {stroke [] 0 setdash 
  hpt 0 360 arc Opaque stroke} def
/BoxFill {gsave Rec 1 setgray fill grestore} def
/Density {
  /Fillden exch def
  currentrgbcolor
  /ColB exch def /ColG exch def /ColR exch def
  /ColR ColR Fillden mul Fillden sub 1 add def
  /ColG ColG Fillden mul Fillden sub 1 add def
  /ColB ColB Fillden mul Fillden sub 1 add def
  ColR ColG ColB setrgbcolor} def
/BoxColFill {gsave Rec PolyFill} def
/PolyFill {gsave Density fill grestore grestore} def
/h {rlineto rlineto rlineto gsave closepath fill grestore} bind def
%
% PostScript Level 1 Pattern Fill routine for rectangles
% Usage: x y w h s a XX PatternFill
%	x,y = lower left corner of box to be filled
%	w,h = width and height of box
%	  a = angle in degrees between lines and x-axis
%	 XX = 0/1 for no/yes cross-hatch
%
/PatternFill {gsave /PFa [ 9 2 roll ] def
  PFa 0 get PFa 2 get 2 div add PFa 1 get PFa 3 get 2 div add translate
  PFa 2 get -2 div PFa 3 get -2 div PFa 2 get PFa 3 get Rec
  gsave 1 setgray fill grestore clip
  currentlinewidth 0.5 mul setlinewidth
  /PFs PFa 2 get dup mul PFa 3 get dup mul add sqrt def
  0 0 M PFa 5 get rotate PFs -2 div dup translate
  0 1 PFs PFa 4 get div 1 add floor cvi
	{PFa 4 get mul 0 M 0 PFs V} for
  0 PFa 6 get ne {
	0 1 PFs PFa 4 get div 1 add floor cvi
	{PFa 4 get mul 0 2 1 roll M PFs 0 V} for
 } if
  stroke grestore} def
%
/languagelevel where
 {pop languagelevel} {1} ifelse
 2 lt
	{/InterpretLevel1 true def}
	{/InterpretLevel1 Level1 def}
 ifelse
%
% PostScript level 2 pattern fill definitions
%
/Level2PatternFill {
/Tile8x8 {/PaintType 2 /PatternType 1 /TilingType 1 /BBox [0 0 8 8] /XStep 8 /YStep 8}
	bind def
/KeepColor {currentrgbcolor [/Pattern /DeviceRGB] setcolorspace} bind def
<< Tile8x8
 /PaintProc {0.5 setlinewidth pop 0 0 M 8 8 L 0 8 M 8 0 L stroke} 
>> matrix makepattern
/Pat1 exch def
<< Tile8x8
 /PaintProc {0.5 setlinewidth pop 0 0 M 8 8 L 0 8 M 8 0 L stroke
	0 4 M 4 8 L 8 4 L 4 0 L 0 4 L stroke}
>> matrix makepattern
/Pat2 exch def
<< Tile8x8
 /PaintProc {0.5 setlinewidth pop 0 0 M 0 8 L
	8 8 L 8 0 L 0 0 L fill}
>> matrix makepattern
/Pat3 exch def
<< Tile8x8
 /PaintProc {0.5 setlinewidth pop -4 8 M 8 -4 L
	0 12 M 12 0 L stroke}
>> matrix makepattern
/Pat4 exch def
<< Tile8x8
 /PaintProc {0.5 setlinewidth pop -4 0 M 8 12 L
	0 -4 M 12 8 L stroke}
>> matrix makepattern
/Pat5 exch def
<< Tile8x8
 /PaintProc {0.5 setlinewidth pop -2 8 M 4 -4 L
	0 12 M 8 -4 L 4 12 M 10 0 L stroke}
>> matrix makepattern
/Pat6 exch def
<< Tile8x8
 /PaintProc {0.5 setlinewidth pop -2 0 M 4 12 L
	0 -4 M 8 12 L 4 -4 M 10 8 L stroke}
>> matrix makepattern
/Pat7 exch def
<< Tile8x8
 /PaintProc {0.5 setlinewidth pop 8 -2 M -4 4 L
	12 0 M -4 8 L 12 4 M 0 10 L stroke}
>> matrix makepattern
/Pat8 exch def
<< Tile8x8
 /PaintProc {0.5 setlinewidth pop 0 -2 M 12 4 L
	-4 0 M 12 8 L -4 4 M 8 10 L stroke}
>> matrix makepattern
/Pat9 exch def
/Pattern1 {PatternBgnd KeepColor Pat1 setpattern} bind def
/Pattern2 {PatternBgnd KeepColor Pat2 setpattern} bind def
/Pattern3 {PatternBgnd KeepColor Pat3 setpattern} bind def
/Pattern4 {PatternBgnd KeepColor Landscape {Pat5} {Pat4} ifelse setpattern} bind def
/Pattern5 {PatternBgnd KeepColor Landscape {Pat4} {Pat5} ifelse setpattern} bind def
/Pattern6 {PatternBgnd KeepColor Landscape {Pat9} {Pat6} ifelse setpattern} bind def
/Pattern7 {PatternBgnd KeepColor Landscape {Pat8} {Pat7} ifelse setpattern} bind def
} def
%
%
%End of PostScript Level 2 code
%
/PatternBgnd {
  TransparentPatterns {} {gsave 1 setgray fill grestore} ifelse
} def
%
% Substitute for Level 2 pattern fill codes with
% grayscale if Level 2 support is not selected.
%
/Level1PatternFill {
/Pattern1 {0.250 Density} bind def
/Pattern2 {0.500 Density} bind def
/Pattern3 {0.750 Density} bind def
/Pattern4 {0.125 Density} bind def
/Pattern5 {0.375 Density} bind def
/Pattern6 {0.625 Density} bind def
/Pattern7 {0.875 Density} bind def
} def
%
% Now test for support of Level 2 code
%
Level1 {Level1PatternFill} {Level2PatternFill} ifelse
%
/Symbol-Oblique /Symbol findfont [1 0 .167 1 0 0] makefont
dup length dict begin {1 index /FID eq {pop pop} {def} ifelse} forall
currentdict end definefont pop
/MFshow {
   { dup 5 get 3 ge
     { 5 get 3 eq {gsave} {grestore} ifelse }
     {dup dup 0 get findfont exch 1 get scalefont setfont
     [ currentpoint ] exch dup 2 get 0 exch R dup 5 get 2 ne {dup dup 6
     get exch 4 get {Gshow} {stringwidth pop 0 R} ifelse }if dup 5 get 0 eq
     {dup 3 get {2 get neg 0 exch R pop} {pop aload pop M} ifelse} {dup 5
     get 1 eq {dup 2 get exch dup 3 get exch 6 get stringwidth pop -2 div
     dup 0 R} {dup 6 get stringwidth pop -2 div 0 R 6 get
     show 2 index {aload pop M neg 3 -1 roll neg R pop pop} {pop pop pop
     pop aload pop M} ifelse }ifelse }ifelse }
     ifelse }
   forall} def
/Gswidth {dup type /stringtype eq {stringwidth} {pop (n) stringwidth} ifelse} def
/MFwidth {0 exch { dup 5 get 3 ge { 5 get 3 eq { 0 } { pop } ifelse }
 {dup 3 get{dup dup 0 get findfont exch 1 get scalefont setfont
     6 get Gswidth pop add} {pop} ifelse} ifelse} forall} def
/MLshow { currentpoint stroke M
  0 exch R
  Blacktext {gsave 0 setgray MFshow grestore} {MFshow} ifelse } bind def
/MRshow { currentpoint stroke M
  exch dup MFwidth neg 3 -1 roll R
  Blacktext {gsave 0 setgray MFshow grestore} {MFshow} ifelse } bind def
/MCshow { currentpoint stroke M
  exch dup MFwidth -2 div 3 -1 roll R
  Blacktext {gsave 0 setgray MFshow grestore} {MFshow} ifelse } bind def
/XYsave    { [( ) 1 2 true false 3 ()] } bind def
/XYrestore { [( ) 1 2 true false 4 ()] } bind def
end
%%EndProlog
gnudict begin
gsave
doclip
50 50 translate
0.050 0.050 scale
0 setgray
newpath
(Helvetica) findfont 260 scalefont setfont
1.000 UL
LTb
1118 832 M
63 0 V
5550 0 R
-63 0 V
stroke
962 832 M
[ [(Helvetica) 260.0 0.0 true true 0 (10)]
[(Helvetica) 208.0 130.0 true true 0 (-4)]
] -112.7 MRshow
1.000 UL
LTb
1118 1146 M
31 0 V
5582 0 R
-31 0 V
1118 1561 M
31 0 V
5582 0 R
-31 0 V
1118 1774 M
31 0 V
5582 0 R
-31 0 V
1118 1875 M
63 0 V
5550 0 R
-63 0 V
stroke
962 1875 M
[ [(Helvetica) 260.0 0.0 true true 0 (10)]
[(Helvetica) 208.0 130.0 true true 0 (-3)]
] -112.7 MRshow
1.000 UL
LTb
1118 2190 M
31 0 V
5582 0 R
-31 0 V
1118 2605 M
31 0 V
5582 0 R
-31 0 V
1118 2818 M
31 0 V
5582 0 R
-31 0 V
1118 2919 M
63 0 V
5550 0 R
-63 0 V
stroke
962 2919 M
[ [(Helvetica) 260.0 0.0 true true 0 (10)]
[(Helvetica) 208.0 130.0 true true 0 (-2)]
] -112.7 MRshow
1.000 UL
LTb
1118 3233 M
31 0 V
5582 0 R
-31 0 V
1118 3648 M
31 0 V
5582 0 R
-31 0 V
1118 3861 M
31 0 V
5582 0 R
-31 0 V
1118 3962 M
63 0 V
5550 0 R
-63 0 V
stroke
962 3962 M
[ [(Helvetica) 260.0 0.0 true true 0 (10)]
[(Helvetica) 208.0 130.0 true true 0 (-1)]
] -112.7 MRshow
1.000 UL
LTb
1118 4276 M
31 0 V
5582 0 R
-31 0 V
1118 4692 M
31 0 V
5582 0 R
-31 0 V
1118 4905 M
31 0 V
5582 0 R
-31 0 V
1118 5006 M
63 0 V
5550 0 R
-63 0 V
stroke
962 5006 M
[ [(Helvetica) 260.0 0.0 true true 0 (10)]
[(Helvetica) 208.0 130.0 true true 0 (0)]
] -112.7 MRshow
1.000 UL
LTb
1118 5320 M
31 0 V
5582 0 R
-31 0 V
1118 5735 M
31 0 V
5582 0 R
-31 0 V
1118 832 M
0 63 V
0 4840 R
0 -63 V
stroke
1118 572 M
[ [(Helvetica) 260.0 0.0 true true 0 (10)]
[(Helvetica) 208.0 130.0 true true 0 (-1)]
] -112.7 MCshow
1.000 UL
LTb
1963 832 M
0 31 V
0 4872 R
0 -31 V
2457 832 M
0 31 V
0 4872 R
0 -31 V
2808 832 M
0 31 V
0 4872 R
0 -31 V
3080 832 M
0 31 V
0 4872 R
0 -31 V
3302 832 M
0 31 V
0 4872 R
0 -31 V
3490 832 M
0 31 V
0 4872 R
0 -31 V
3653 832 M
0 31 V
0 4872 R
0 -31 V
3796 832 M
0 31 V
0 4872 R
0 -31 V
3925 832 M
0 63 V
0 4840 R
0 -63 V
stroke
3925 572 M
[ [(Helvetica) 260.0 0.0 true true 0 (10)]
[(Helvetica) 208.0 130.0 true true 0 (0)]
] -112.7 MCshow
1.000 UL
LTb
4769 832 M
0 31 V
0 4872 R
0 -31 V
5264 832 M
0 31 V
0 4872 R
0 -31 V
5614 832 M
0 31 V
0 4872 R
0 -31 V
5886 832 M
0 31 V
0 4872 R
0 -31 V
6108 832 M
0 31 V
0 4872 R
0 -31 V
6296 832 M
0 31 V
0 4872 R
0 -31 V
6459 832 M
0 31 V
0 4872 R
0 -31 V
6603 832 M
0 31 V
0 4872 R
0 -31 V
6731 832 M
0 63 V
0 4840 R
0 -63 V
stroke
6731 572 M
[ [(Helvetica) 260.0 0.0 true true 0 (10)]
[(Helvetica) 208.0 130.0 true true 0 (1)]
] -112.7 MCshow
1.000 UL
LTb
1.000 UL
LTb
1118 5735 N
0 -4903 V
5613 0 V
0 4903 V
-5613 0 V
Z stroke
LCb setrgbcolor
208 3283 M
currentpoint gsave translate -270 rotate 0 0 moveto
[ [(Helvetica) 260.0 0.0 true true 0 (\(c - c)]
[(Helvetica) 208.0 -78.0 true true 0 (0)]
[(Helvetica) 260.0 0.0 true true 0 (\)/\(c)]
[(Helvetica) 208.0 -78.0 true true 0 (inj)]
[(Helvetica) 260.0 0.0 true true 0 ( - c)]
[(Helvetica) 208.0 -78.0 true true 0 (0)]
[(Helvetica) 260.0 0.0 true true 0 (\))]
] -60.7 MCshow
grestore
LTb
LCb setrgbcolor
3924 182 M
[ [(Helvetica) 260.0 0.0 true true 0 (Pore Volume)]
] -86.7 MCshow
LTb
1.000 UP
1230 5490 M
[ [(Helvetica) 260.0 0.0 true true 0 (\(b\))]
] -86.7 MLshow
4769 2818 M
[ [(Helvetica) 220.0 0.0 true true 0 (-5/2 slope)]
] -73.3 MLshow
3.000 UL
LTb
3925 832 M
0 4903 V
stroke
1.000 UL
LTb
5807 3136 M
79 97 V
-117 -44 V
5451 2919 M
435 314 V
stroke
gsave [] 0 setdash
5807 3136 M
79 97 V
-117 -44 V
stroke
grestore
1.000 UL
LTb
% Begin plot #1
1.000 UP
1.000 UL
LT0
LCb setrgbcolor
5888 1870 M
[ [(Helvetica) 260.0 0.0 true true 0 (B5 \(Q)]
[(Helvetica) 208.0 -78.0 true true 0 (x)]
[(Helvetica) 260.0 0.0 true true 0 ( = 0.05\))]
] -60.7 MRshow
LT0
1771 2706 Crs
1853 3056 Crs
1927 3492 Crs
1997 3610 Crs
2066 3723 Crs
2130 3875 Crs
2190 4002 Crs
2245 4065 Crs
2282 4174 Crs
2353 4199 Crs
2405 4248 Crs
2469 4295 Crs
2501 4348 Crs
2547 4401 Crs
2593 4393 Crs
2638 4471 Crs
2678 4516 Crs
2716 4542 Crs
2754 4547 Crs
2792 4566 Crs
2862 4623 Crs
2923 4654 Crs
2957 4675 Crs
3020 4704 Crs
3049 4701 Crs
3080 4759 Crs
3108 4749 Crs
3138 4754 Crs
3161 4771 Crs
3187 4764 Crs
3239 4783 Crs
3263 4793 Crs
3288 4824 Crs
3311 4816 Crs
3335 4800 Crs
3358 4820 Crs
3381 4840 Crs
3423 4864 Crs
3444 4840 Crs
3465 4833 Crs
3486 4843 Crs
3506 4874 Crs
3526 4884 Crs
3565 4898 Crs
3583 4879 Crs
3602 4884 Crs
3674 4930 Crs
3707 4925 Crs
3724 4930 Crs
3773 4934 Crs
3789 4959 Crs
3819 4938 Crs
3834 4971 Crs
3848 4967 Crs
3893 4951 Crs
3908 4983 Crs
3992 4983 Crs
4006 4987 Crs
4032 4998 Crs
4124 5002 Crs
4136 4998 Crs
4145 5017 Crs
4167 5013 Crs
4174 5020 Crs
4182 5017 Crs
4204 5024 Crs
4219 4991 Crs
4233 5009 Crs
4241 4987 Crs
4248 5027 Crs
4255 5006 Crs
4262 5013 Crs
4269 4975 Crs
4283 5009 Crs
4290 4991 Crs
4298 4994 Crs
4325 5013 Crs
4332 5002 Crs
4339 4975 Crs
4346 4967 Crs
4353 4991 Crs
4360 4983 Crs
4366 4994 Crs
4373 4983 Crs
4379 5017 Crs
4384 5002 Crs
4388 4971 Crs
4394 5020 Crs
4401 4991 Crs
4407 4998 Crs
4413 4991 Crs
4420 4998 Crs
4432 5013 Crs
4439 5002 Crs
4455 5024 Crs
4459 5020 Crs
4472 5013 Crs
4477 5009 Crs
4500 5017 Crs
4509 5024 Crs
4517 5024 Crs
4525 5013 Crs
4534 5006 Crs
4542 4998 Crs
4551 5009 Crs
4559 4998 Crs
4567 5009 Crs
4575 4975 Crs
4584 4967 Crs
4592 4979 Crs
4601 4971 Crs
4617 4951 Crs
4633 4938 Crs
4641 4930 Crs
4649 4898 Crs
4656 4898 Crs
4664 4889 Crs
4672 4862 Crs
4687 4851 Crs
4694 4832 Crs
4710 4833 Crs
4717 4808 Crs
4724 4812 Crs
4747 4744 Crs
4754 4754 Crs
4761 4754 Crs
4775 4681 Crs
4782 4697 Crs
4795 4632 Crs
4823 4595 Crs
4829 4568 Crs
4843 4527 Crs
4850 4514 Crs
4876 4461 Crs
4882 4470 Crs
4889 4451 Crs
4895 4426 Crs
4902 4418 Crs
4915 4395 Crs
4921 4390 Crs
4931 4383 Crs
4937 4371 Crs
4955 4282 Crs
4962 4288 Crs
4996 4232 Crs
5001 4226 Crs
5018 4115 Crs
5025 4102 Crs
5030 4133 Crs
5047 4062 Crs
5053 4053 Crs
5070 4062 Crs
5075 3985 Crs
5081 4016 Crs
5087 3992 Crs
5092 4012 Crs
5097 3967 Crs
5108 3975 Crs
5114 3937 Crs
5123 3905 Crs
5129 3884 Crs
5139 3866 Crs
5144 3884 Crs
5154 3852 Crs
5164 3828 Crs
5184 3776 Crs
5190 3765 Crs
5194 3823 Crs
5199 3759 Crs
5205 3759 Crs
5209 3735 Crs
5214 3697 Crs
5219 3618 Crs
5224 3704 Crs
5229 3503 Crs
5239 3634 Crs
5243 3586 Crs
5248 3602 Crs
5253 3577 Crs
5262 3532 Crs
6231 1870 Crs
% End plot #1
% Begin plot #2
1.000 UP
1.000 UL
LT1
LCb setrgbcolor
5888 1480 M
[ [(Helvetica) 260.0 0.0 true true 0 (B4 \(Q)]
[(Helvetica) 208.0 -78.0 true true 0 (x)]
[(Helvetica) 260.0 0.0 true true 0 ( = 0.10\))]
] -60.7 MRshow
LT1
1583 1468 Circle
1614 1976 Circle
1644 2320 Circle
1673 2455 Circle
1701 2534 Circle
1729 2688 Circle
1756 2862 Circle
1807 3060 Circle
1867 3251 Circle
1913 3377 Circle
1959 3489 Circle
1984 3555 Circle
2030 3656 Circle
2075 3757 Circle
2119 3831 Circle
2160 3907 Circle
2200 3948 Circle
2239 4035 Circle
2258 4095 Circle
2294 4148 Circle
2330 4258 Circle
2346 4215 Circle
2394 4288 Circle
2442 4324 Circle
2488 4377 Circle
2534 4402 Circle
2578 4484 Circle
2606 4503 Circle
2647 4544 Circle
2685 4574 Circle
2723 4595 Circle
2759 4602 Circle
2794 4633 Circle
2828 4687 Circle
2860 4696 Circle
2893 4700 Circle
2925 4719 Circle
2956 4728 Circle
2986 4753 Circle
3016 4779 Circle
3044 4756 Circle
3071 4798 Circle
3098 4800 Circle
3125 4795 Circle
3151 4801 Circle
3177 4817 Circle
3228 4818 Circle
3252 4844 Circle
3276 4848 Circle
3322 4848 Circle
3344 4861 Circle
3366 4857 Circle
3389 4874 Circle
3411 4865 Circle
3432 4870 Circle
3473 4914 Circle
3493 4914 Circle
3512 4921 Circle
3531 4925 Circle
3549 4929 Circle
3567 4925 Circle
3586 4921 Circle
3604 4898 Circle
3622 4914 Circle
3640 4918 Circle
3657 4921 Circle
3675 4936 Circle
3692 4910 Circle
3756 4918 Circle
3772 4929 Circle
3789 4940 Circle
3804 4958 Circle
3819 4943 Circle
3834 4958 Circle
3849 4947 Circle
3877 4968 Circle
3892 4943 Circle
3906 4968 Circle
3921 4936 Circle
3935 4936 Circle
3949 4964 Circle
3963 4958 Circle
3977 4978 Circle
3991 4961 Circle
4004 4951 Circle
4017 4958 Circle
4030 4997 Circle
4055 4991 Circle
4068 4978 Circle
4092 4991 Circle
4104 5001 Circle
4116 5001 Circle
4127 5004 Circle
4139 4984 Circle
4150 5001 Circle
4162 4991 Circle
4173 4981 Circle
4185 4975 Circle
4197 4984 Circle
4208 4997 Circle
4220 4994 Circle
4231 4984 Circle
4241 5007 Circle
4252 5004 Circle
4273 5010 Circle
4283 4997 Circle
4294 4981 Circle
4314 5007 Circle
4324 5007 Circle
4373 5010 Circle
4382 5004 Circle
4392 4984 Circle
4396 4997 Circle
4402 4997 Circle
4412 4994 Circle
4419 5001 Circle
4453 5022 Circle
4459 4988 Circle
4465 4991 Circle
4472 4997 Circle
4478 4994 Circle
4483 5007 Circle
4489 5013 Circle
4495 5013 Circle
4501 5004 Circle
4523 5019 Circle
4529 5007 Circle
4540 4997 Circle
4546 4984 Circle
4552 5004 Circle
4558 5001 Circle
4563 5004 Circle
4569 4991 Circle
4574 4988 Circle
4580 5001 Circle
4585 5001 Circle
4590 5004 Circle
4596 4988 Circle
4601 4975 Circle
4606 4981 Circle
4612 4978 Circle
4617 4968 Circle
4623 4954 Circle
4628 4940 Circle
4634 4936 Circle
4639 4933 Circle
4644 4929 Circle
4650 4918 Circle
4654 4921 Circle
4674 4894 Circle
4679 4894 Circle
4684 4878 Circle
4689 4852 Circle
4694 4848 Circle
4699 4823 Circle
4704 4808 Circle
4709 4800 Circle
4714 4811 Circle
4719 4787 Circle
4724 4800 Circle
4729 4788 Circle
4733 4774 Circle
4738 4776 Circle
4745 4777 Circle
4752 4765 Circle
4759 4731 Circle
4766 4713 Circle
4773 4708 Circle
4781 4661 Circle
4787 4683 Circle
4794 4667 Circle
4801 4663 Circle
4808 4603 Circle
4821 4621 Circle
4827 4592 Circle
4834 4564 Circle
4848 4558 Circle
4854 4551 Circle
4861 4554 Circle
4867 4544 Circle
4873 4522 Circle
4879 4526 Circle
4886 4492 Circle
4892 4491 Circle
4898 4498 Circle
4905 4449 Circle
4911 4435 Circle
4917 4429 Circle
4924 4436 Circle
4930 4436 Circle
4936 4416 Circle
4941 4407 Circle
4953 4392 Circle
4959 4358 Circle
4965 4361 Circle
4971 4342 Circle
4977 4317 Circle
4983 4313 Circle
4989 4311 Circle
4995 4301 Circle
5001 4304 Circle
5005 4275 Circle
5011 4275 Circle
5016 4291 Circle
5022 4250 Circle
5028 4259 Circle
5034 4222 Circle
5040 4191 Circle
5043 4243 Circle
5047 4245 Circle
5051 4201 Circle
5054 4233 Circle
5058 4234 Circle
5061 4188 Circle
5065 4202 Circle
5072 4176 Circle
5076 4186 Circle
5083 4156 Circle
5087 4164 Circle
5091 4150 Circle
5098 4164 Circle
5101 4129 Circle
5105 4144 Circle
5108 4144 Circle
5112 4174 Circle
5116 4049 Circle
5122 4142 Circle
5125 4116 Circle
5129 4086 Circle
5132 4097 Circle
5136 4086 Circle
5140 4061 Circle
5143 4088 Circle
5147 4088 Circle
5150 4071 Circle
5153 4066 Circle
5160 4081 Circle
5164 4056 Circle
5167 4049 Circle
5170 4059 Circle
5180 4081 Circle
5183 4066 Circle
5186 4056 Circle
5190 4041 Circle
5193 4061 Circle
5196 4056 Circle
5199 4066 Circle
5202 4049 Circle
5205 4025 Circle
5208 4033 Circle
5211 3991 Circle
5214 4016 Circle
5218 3988 Circle
5221 3988 Circle
5224 3973 Circle
5227 3976 Circle
5231 3911 Circle
5234 3918 Circle
5238 3938 Circle
5241 3964 Circle
5246 3970 Circle
5250 3967 Circle
5255 3960 Circle
5259 3948 Circle
5264 3925 Circle
5269 3935 Circle
5273 3851 Circle
5278 3907 Circle
5283 3893 Circle
5287 3911 Circle
5292 3907 Circle
5296 3904 Circle
5301 3773 Circle
5305 3886 Circle
5310 3863 Circle
5314 3914 Circle
5319 3855 Circle
5324 3859 Circle
5328 3847 Circle
5333 3863 Circle
5337 3835 Circle
5342 3831 Circle
5346 3839 Circle
5350 3831 Circle
5362 3843 Circle
5367 3822 Circle
5371 3800 Circle
5375 3814 Circle
5379 3757 Circle
5383 3809 Circle
5393 3773 Circle
5397 3726 Circle
5401 3761 Circle
5405 3752 Circle
5410 3736 Circle
5414 3787 Circle
5418 3757 Circle
5422 3738 Circle
5426 3778 Circle
5430 3757 Circle
5434 3749 Circle
5438 3706 Circle
6231 1480 Circle
% End plot #2
% Begin plot #3
1.000 UP
1.000 UL
LT2
LCb setrgbcolor
5888 1090 M
[ [(Helvetica) 260.0 0.0 true true 0 (B8 \(Q)]
[(Helvetica) 208.0 -78.0 true true 0 (x)]
[(Helvetica) 260.0 0.0 true true 0 ( = 0.50\))]
] -60.7 MRshow
LT2
1164 1182 CircleF
1209 1220 CircleF
1252 1201 CircleF
1293 1763 CircleF
1333 1705 CircleF
1372 1763 CircleF
1410 1805 CircleF
1447 2055 CircleF
1483 2119 CircleF
1518 2207 CircleF
1551 2397 CircleF
1583 2402 CircleF
1615 2539 CircleF
1646 2572 CircleF
1677 2706 CircleF
1706 2825 CircleF
1735 2897 CircleF
1763 2960 CircleF
1791 3032 CircleF
1818 3127 CircleF
1844 3188 CircleF
1869 3259 CircleF
1894 3304 CircleF
1919 3374 CircleF
1943 3406 CircleF
1967 3472 CircleF
1990 3528 CircleF
2013 3553 CircleF
2035 3609 CircleF
2057 3633 CircleF
2079 3694 CircleF
2100 3743 CircleF
2121 3755 CircleF
2141 3807 CircleF
2162 3844 CircleF
2181 3849 CircleF
2201 3879 CircleF
2220 3925 CircleF
2239 3961 CircleF
2257 3994 CircleF
2276 4013 CircleF
2294 4017 CircleF
2312 4064 CircleF
2364 4136 CircleF
2461 4253 CircleF
2507 4298 CircleF
2551 4368 CircleF
2595 4414 CircleF
2636 4429 CircleF
2676 4462 CircleF
2715 4497 CircleF
2752 4547 CircleF
2789 4569 CircleF
2825 4582 CircleF
2892 4638 CircleF
2961 4671 CircleF
2992 4688 CircleF
3023 4690 CircleF
3051 4722 CircleF
3080 4742 CircleF
3108 4743 CircleF
3135 4769 CircleF
3162 4767 CircleF
3189 4767 CircleF
3214 4803 CircleF
3239 4795 CircleF
3264 4812 CircleF
3288 4810 CircleF
3312 4829 CircleF
3335 4825 CircleF
3358 4831 CircleF
3380 4846 CircleF
3402 4838 CircleF
3426 4868 CircleF
3447 4867 CircleF
3467 4873 CircleF
3488 4871 CircleF
3508 4869 CircleF
3528 4875 CircleF
3548 4888 CircleF
3567 4894 CircleF
3586 4863 CircleF
3605 4895 CircleF
3623 4900 CircleF
3641 4909 CircleF
3659 4917 CircleF
3676 4909 CircleF
3694 4915 CircleF
3711 4913 CircleF
3728 4921 CircleF
3744 4928 CircleF
3760 4923 CircleF
3776 4930 CircleF
3792 4933 CircleF
3824 4939 CircleF
3839 4932 CircleF
3854 4936 CircleF
3869 4925 CircleF
3884 4950 CircleF
3898 4939 CircleF
3913 4952 CircleF
3927 4947 CircleF
3941 4952 CircleF
3955 4965 CircleF
3967 4953 CircleF
3981 4960 CircleF
3994 4958 CircleF
4008 4974 CircleF
4021 4962 CircleF
4034 4965 CircleF
4047 4962 CircleF
4059 4965 CircleF
4072 4975 CircleF
4085 4975 CircleF
4097 4960 CircleF
4109 4980 CircleF
4122 4970 CircleF
4134 4964 CircleF
4146 4956 CircleF
4157 4970 CircleF
4169 4980 CircleF
4180 4976 CircleF
4192 4976 CircleF
4203 4980 CircleF
4215 4976 CircleF
4226 4989 CircleF
4237 4985 CircleF
4248 4998 CircleF
4259 4994 CircleF
4269 4985 CircleF
4280 4989 CircleF
4291 4985 CircleF
4301 4994 CircleF
4312 4974 CircleF
4322 4985 CircleF
4332 4994 CircleF
4342 4998 CircleF
4352 4985 CircleF
4362 4998 CircleF
4372 4989 CircleF
4382 5007 CircleF
4391 4989 CircleF
4401 4985 CircleF
4411 4989 CircleF
4420 5002 CircleF
4430 4998 CircleF
4439 4994 CircleF
4448 5007 CircleF
4458 4998 CircleF
4467 5011 CircleF
4482 5007 CircleF
4510 5011 CircleF
4518 4998 CircleF
4527 5015 CircleF
4535 5007 CircleF
4544 4998 CircleF
4552 4994 CircleF
4561 5007 CircleF
4569 5002 CircleF
4578 5002 CircleF
4586 5002 CircleF
4594 5007 CircleF
4619 4994 CircleF
4627 4998 CircleF
4635 4989 CircleF
4643 4994 CircleF
4658 4985 CircleF
4666 4968 CircleF
4674 4985 CircleF
4681 4960 CircleF
4689 4953 CircleF
4696 4941 CircleF
4704 4919 CircleF
4711 4912 CircleF
4719 4902 CircleF
4733 4876 CircleF
4741 4865 CircleF
4748 4855 CircleF
4755 4841 CircleF
4762 4830 CircleF
4769 4799 CircleF
4776 4803 CircleF
4783 4788 CircleF
4790 4769 CircleF
4797 4756 CircleF
4804 4735 CircleF
4811 4723 CircleF
4818 4709 CircleF
4825 4695 CircleF
4832 4677 CircleF
4838 4672 CircleF
4845 4658 CircleF
4852 4640 CircleF
4858 4633 CircleF
4865 4626 CircleF
4871 4606 CircleF
4878 4602 CircleF
4884 4568 CircleF
4891 4569 CircleF
4897 4558 CircleF
4904 4556 CircleF
4910 4544 CircleF
4916 4505 CircleF
4923 4515 CircleF
4929 4515 CircleF
4935 4477 CircleF
4941 4488 CircleF
4947 4489 CircleF
4953 4453 CircleF
4959 4453 CircleF
4966 4440 CircleF
4972 4414 CircleF
4978 4414 CircleF
4984 4414 CircleF
4990 4393 CircleF
4995 4388 CircleF
5001 4378 CircleF
5007 4359 CircleF
5013 4362 CircleF
5019 4355 CircleF
5025 4346 CircleF
5030 4333 CircleF
5036 4324 CircleF
5042 4310 CircleF
5048 4288 CircleF
5053 4288 CircleF
5059 4279 CircleF
5064 4277 CircleF
5069 4281 CircleF
5075 4262 CircleF
5081 4249 CircleF
5086 4249 CircleF
5091 4239 CircleF
5097 4225 CircleF
5102 4228 CircleF
5108 4218 CircleF
5113 4196 CircleF
5118 4201 CircleF
5124 4188 CircleF
5129 4178 CircleF
5134 4170 CircleF
5139 4170 CircleF
5145 4145 CircleF
5150 4133 CircleF
5155 4139 CircleF
5160 4124 CircleF
5165 4118 CircleF
6231 1090 CircleF
% End plot #3
% Begin plot #4
4.000 UL
LT1
3252 5735 M
20 -19 V
57 -53 V
57 -52 V
57 -53 V
56 -53 V
57 -52 V
57 -53 V
56 -53 V
57 -53 V
57 -52 V
56 -53 V
57 -53 V
57 -52 V
57 -53 V
56 -53 V
57 -52 V
57 -53 V
56 -53 V
57 -53 V
57 -52 V
56 -53 V
57 -53 V
57 -52 V
57 -53 V
56 -53 V
57 -52 V
57 -53 V
56 -53 V
57 -52 V
57 -53 V
56 -53 V
57 -53 V
57 -52 V
56 -53 V
57 -53 V
57 -52 V
57 -53 V
56 -53 V
57 -52 V
57 -53 V
56 -53 V
57 -53 V
57 -52 V
56 -53 V
57 -53 V
57 -52 V
57 -53 V
56 -53 V
57 -52 V
57 -53 V
56 -53 V
57 -53 V
57 -52 V
56 -53 V
57 -53 V
57 -52 V
57 -53 V
56 -53 V
57 -52 V
57 -53 V
56 -53 V
57 -53 V
% End plot #4
stroke
1.000 UL
LTb
1118 5735 N
0 -4903 V
5613 0 V
0 4903 V
-5613 0 V
Z stroke
1.000 UP
1.000 UL
LTb
stroke
grestore
end
showpage
%%Trailer
%%DocumentFonts: Helvetica
