%!PS-Adobe-2.0 EPSF-2.0
%%Title: testB_all2b.eps
%%Creator: gnuplot 4.2 patchlevel 6 
%%CreationDate: Thu Aug  4 16:07:06 2011
%%DocumentFonts: (atend)
%%BoundingBox: 50 50 410 352
%%EndComments
%%BeginProlog
/gnudict 256 dict def
gnudict begin
%
% The following 6 true/false flags may be edited by hand if required
% The unit line width may also be changed
%
/Color true def
/Blacktext false def
/Solid false def
/Dashlength 1 def
/Landscape false def
/Level1 false def
/Rounded false def
/TransparentPatterns false def
/gnulinewidth 5.000 def
/userlinewidth gnulinewidth def
%
/vshift -86 def
/dl1 {
  10.0 Dashlength mul mul
  Rounded { currentlinewidth 0.75 mul sub dup 0 le { pop 0.01 } if } if
} def
/dl2 {
  10.0 Dashlength mul mul
  Rounded { currentlinewidth 0.75 mul add } if
} def
/hpt_ 31.5 def
/vpt_ 31.5 def
/hpt hpt_ def
/vpt vpt_ def
Level1 {} {
/SDict 10 dict def
systemdict /pdfmark known not {
  userdict /pdfmark systemdict /cleartomark get put
} if
SDict begin [
  /Title (testB_all2b.eps)
  /Subject (gnuplot plot)
  /Creator (gnuplot 4.2 patchlevel 6 )
  /Author (Bwalya Malama,,,)
%  /Producer (gnuplot)
%  /Keywords ()
  /CreationDate (Thu Aug  4 16:07:06 2011)
  /DOCINFO pdfmark
end
} ifelse
%
% Gnuplot Prolog Version 4.2 (August 2006)
%
/M {moveto} bind def
/L {lineto} bind def
/R {rmoveto} bind def
/V {rlineto} bind def
/N {newpath moveto} bind def
/Z {closepath} bind def
/C {setrgbcolor} bind def
/f {rlineto fill} bind def
/vpt2 vpt 2 mul def
/hpt2 hpt 2 mul def
/Lshow {currentpoint stroke M 0 vshift R 
	Blacktext {gsave 0 setgray show grestore} {show} ifelse} def
/Rshow {currentpoint stroke M dup stringwidth pop neg vshift R
	Blacktext {gsave 0 setgray show grestore} {show} ifelse} def
/Cshow {currentpoint stroke M dup stringwidth pop -2 div vshift R 
	Blacktext {gsave 0 setgray show grestore} {show} ifelse} def
/UP {dup vpt_ mul /vpt exch def hpt_ mul /hpt exch def
  /hpt2 hpt 2 mul def /vpt2 vpt 2 mul def} def
/DL {Color {setrgbcolor Solid {pop []} if 0 setdash}
 {pop pop pop 0 setgray Solid {pop []} if 0 setdash} ifelse} def
/BL {stroke userlinewidth 2 mul setlinewidth
	Rounded {1 setlinejoin 1 setlinecap} if} def
/AL {stroke userlinewidth 2 div setlinewidth
	Rounded {1 setlinejoin 1 setlinecap} if} def
/UL {dup gnulinewidth mul /userlinewidth exch def
	dup 1 lt {pop 1} if 10 mul /udl exch def} def
/PL {stroke userlinewidth setlinewidth
	Rounded {1 setlinejoin 1 setlinecap} if} def
% Default Line colors
/LCw {1 1 1} def
/LCb {0 0 0} def
/LCa {0 0 0} def
/LC0 {1 0 0} def
/LC1 {0 1 0} def
/LC2 {0 0 1} def
/LC3 {1 0 1} def
/LC4 {0 1 1} def
/LC5 {1 1 0} def
/LC6 {0 0 0} def
/LC7 {1 0.3 0} def
/LC8 {0.5 0.5 0.5} def
% Default Line Types
/LTw {PL [] 1 setgray} def
/LTb {BL [] LCb DL} def
/LTa {AL [1 udl mul 2 udl mul] 0 setdash LCa setrgbcolor} def
/LT0 {PL [] LC0 DL} def
/LT1 {PL [4 dl1 2 dl2] LC1 DL} def
/LT2 {PL [2 dl1 3 dl2] LC2 DL} def
/LT3 {PL [1 dl1 1.5 dl2] LC3 DL} def
/LT4 {PL [6 dl1 2 dl2 1 dl1 2 dl2] LC4 DL} def
/LT5 {PL [3 dl1 3 dl2 1 dl1 3 dl2] LC5 DL} def
/LT6 {PL [2 dl1 2 dl2 2 dl1 6 dl2] LC6 DL} def
/LT7 {PL [1 dl1 2 dl2 6 dl1 2 dl2 1 dl1 2 dl2] LC7 DL} def
/LT8 {PL [2 dl1 2 dl2 2 dl1 2 dl2 2 dl1 2 dl2 2 dl1 4 dl2] LC8 DL} def
/Pnt {stroke [] 0 setdash gsave 1 setlinecap M 0 0 V stroke grestore} def
/Dia {stroke [] 0 setdash 2 copy vpt add M
  hpt neg vpt neg V hpt vpt neg V
  hpt vpt V hpt neg vpt V closepath stroke
  Pnt} def
/Pls {stroke [] 0 setdash vpt sub M 0 vpt2 V
  currentpoint stroke M
  hpt neg vpt neg R hpt2 0 V stroke
 } def
/Box {stroke [] 0 setdash 2 copy exch hpt sub exch vpt add M
  0 vpt2 neg V hpt2 0 V 0 vpt2 V
  hpt2 neg 0 V closepath stroke
  Pnt} def
/Crs {stroke [] 0 setdash exch hpt sub exch vpt add M
  hpt2 vpt2 neg V currentpoint stroke M
  hpt2 neg 0 R hpt2 vpt2 V stroke} def
/TriU {stroke [] 0 setdash 2 copy vpt 1.12 mul add M
  hpt neg vpt -1.62 mul V
  hpt 2 mul 0 V
  hpt neg vpt 1.62 mul V closepath stroke
  Pnt} def
/Star {2 copy Pls Crs} def
/BoxF {stroke [] 0 setdash exch hpt sub exch vpt add M
  0 vpt2 neg V hpt2 0 V 0 vpt2 V
  hpt2 neg 0 V closepath fill} def
/TriUF {stroke [] 0 setdash vpt 1.12 mul add M
  hpt neg vpt -1.62 mul V
  hpt 2 mul 0 V
  hpt neg vpt 1.62 mul V closepath fill} def
/TriD {stroke [] 0 setdash 2 copy vpt 1.12 mul sub M
  hpt neg vpt 1.62 mul V
  hpt 2 mul 0 V
  hpt neg vpt -1.62 mul V closepath stroke
  Pnt} def
/TriDF {stroke [] 0 setdash vpt 1.12 mul sub M
  hpt neg vpt 1.62 mul V
  hpt 2 mul 0 V
  hpt neg vpt -1.62 mul V closepath fill} def
/DiaF {stroke [] 0 setdash vpt add M
  hpt neg vpt neg V hpt vpt neg V
  hpt vpt V hpt neg vpt V closepath fill} def
/Pent {stroke [] 0 setdash 2 copy gsave
  translate 0 hpt M 4 {72 rotate 0 hpt L} repeat
  closepath stroke grestore Pnt} def
/PentF {stroke [] 0 setdash gsave
  translate 0 hpt M 4 {72 rotate 0 hpt L} repeat
  closepath fill grestore} def
/Circle {stroke [] 0 setdash 2 copy
  hpt 0 360 arc stroke Pnt} def
/CircleF {stroke [] 0 setdash hpt 0 360 arc fill} def
/C0 {BL [] 0 setdash 2 copy moveto vpt 90 450 arc} bind def
/C1 {BL [] 0 setdash 2 copy moveto
	2 copy vpt 0 90 arc closepath fill
	vpt 0 360 arc closepath} bind def
/C2 {BL [] 0 setdash 2 copy moveto
	2 copy vpt 90 180 arc closepath fill
	vpt 0 360 arc closepath} bind def
/C3 {BL [] 0 setdash 2 copy moveto
	2 copy vpt 0 180 arc closepath fill
	vpt 0 360 arc closepath} bind def
/C4 {BL [] 0 setdash 2 copy moveto
	2 copy vpt 180 270 arc closepath fill
	vpt 0 360 arc closepath} bind def
/C5 {BL [] 0 setdash 2 copy moveto
	2 copy vpt 0 90 arc
	2 copy moveto
	2 copy vpt 180 270 arc closepath fill
	vpt 0 360 arc} bind def
/C6 {BL [] 0 setdash 2 copy moveto
	2 copy vpt 90 270 arc closepath fill
	vpt 0 360 arc closepath} bind def
/C7 {BL [] 0 setdash 2 copy moveto
	2 copy vpt 0 270 arc closepath fill
	vpt 0 360 arc closepath} bind def
/C8 {BL [] 0 setdash 2 copy moveto
	2 copy vpt 270 360 arc closepath fill
	vpt 0 360 arc closepath} bind def
/C9 {BL [] 0 setdash 2 copy moveto
	2 copy vpt 270 450 arc closepath fill
	vpt 0 360 arc closepath} bind def
/C10 {BL [] 0 setdash 2 copy 2 copy moveto vpt 270 360 arc closepath fill
	2 copy moveto
	2 copy vpt 90 180 arc closepath fill
	vpt 0 360 arc closepath} bind def
/C11 {BL [] 0 setdash 2 copy moveto
	2 copy vpt 0 180 arc closepath fill
	2 copy moveto
	2 copy vpt 270 360 arc closepath fill
	vpt 0 360 arc closepath} bind def
/C12 {BL [] 0 setdash 2 copy moveto
	2 copy vpt 180 360 arc closepath fill
	vpt 0 360 arc closepath} bind def
/C13 {BL [] 0 setdash 2 copy moveto
	2 copy vpt 0 90 arc closepath fill
	2 copy moveto
	2 copy vpt 180 360 arc closepath fill
	vpt 0 360 arc closepath} bind def
/C14 {BL [] 0 setdash 2 copy moveto
	2 copy vpt 90 360 arc closepath fill
	vpt 0 360 arc} bind def
/C15 {BL [] 0 setdash 2 copy vpt 0 360 arc closepath fill
	vpt 0 360 arc closepath} bind def
/Rec {newpath 4 2 roll moveto 1 index 0 rlineto 0 exch rlineto
	neg 0 rlineto closepath} bind def
/Square {dup Rec} bind def
/Bsquare {vpt sub exch vpt sub exch vpt2 Square} bind def
/S0 {BL [] 0 setdash 2 copy moveto 0 vpt rlineto BL Bsquare} bind def
/S1 {BL [] 0 setdash 2 copy vpt Square fill Bsquare} bind def
/S2 {BL [] 0 setdash 2 copy exch vpt sub exch vpt Square fill Bsquare} bind def
/S3 {BL [] 0 setdash 2 copy exch vpt sub exch vpt2 vpt Rec fill Bsquare} bind def
/S4 {BL [] 0 setdash 2 copy exch vpt sub exch vpt sub vpt Square fill Bsquare} bind def
/S5 {BL [] 0 setdash 2 copy 2 copy vpt Square fill
	exch vpt sub exch vpt sub vpt Square fill Bsquare} bind def
/S6 {BL [] 0 setdash 2 copy exch vpt sub exch vpt sub vpt vpt2 Rec fill Bsquare} bind def
/S7 {BL [] 0 setdash 2 copy exch vpt sub exch vpt sub vpt vpt2 Rec fill
	2 copy vpt Square fill Bsquare} bind def
/S8 {BL [] 0 setdash 2 copy vpt sub vpt Square fill Bsquare} bind def
/S9 {BL [] 0 setdash 2 copy vpt sub vpt vpt2 Rec fill Bsquare} bind def
/S10 {BL [] 0 setdash 2 copy vpt sub vpt Square fill 2 copy exch vpt sub exch vpt Square fill
	Bsquare} bind def
/S11 {BL [] 0 setdash 2 copy vpt sub vpt Square fill 2 copy exch vpt sub exch vpt2 vpt Rec fill
	Bsquare} bind def
/S12 {BL [] 0 setdash 2 copy exch vpt sub exch vpt sub vpt2 vpt Rec fill Bsquare} bind def
/S13 {BL [] 0 setdash 2 copy exch vpt sub exch vpt sub vpt2 vpt Rec fill
	2 copy vpt Square fill Bsquare} bind def
/S14 {BL [] 0 setdash 2 copy exch vpt sub exch vpt sub vpt2 vpt Rec fill
	2 copy exch vpt sub exch vpt Square fill Bsquare} bind def
/S15 {BL [] 0 setdash 2 copy Bsquare fill Bsquare} bind def
/D0 {gsave translate 45 rotate 0 0 S0 stroke grestore} bind def
/D1 {gsave translate 45 rotate 0 0 S1 stroke grestore} bind def
/D2 {gsave translate 45 rotate 0 0 S2 stroke grestore} bind def
/D3 {gsave translate 45 rotate 0 0 S3 stroke grestore} bind def
/D4 {gsave translate 45 rotate 0 0 S4 stroke grestore} bind def
/D5 {gsave translate 45 rotate 0 0 S5 stroke grestore} bind def
/D6 {gsave translate 45 rotate 0 0 S6 stroke grestore} bind def
/D7 {gsave translate 45 rotate 0 0 S7 stroke grestore} bind def
/D8 {gsave translate 45 rotate 0 0 S8 stroke grestore} bind def
/D9 {gsave translate 45 rotate 0 0 S9 stroke grestore} bind def
/D10 {gsave translate 45 rotate 0 0 S10 stroke grestore} bind def
/D11 {gsave translate 45 rotate 0 0 S11 stroke grestore} bind def
/D12 {gsave translate 45 rotate 0 0 S12 stroke grestore} bind def
/D13 {gsave translate 45 rotate 0 0 S13 stroke grestore} bind def
/D14 {gsave translate 45 rotate 0 0 S14 stroke grestore} bind def
/D15 {gsave translate 45 rotate 0 0 S15 stroke grestore} bind def
/DiaE {stroke [] 0 setdash vpt add M
  hpt neg vpt neg V hpt vpt neg V
  hpt vpt V hpt neg vpt V closepath stroke} def
/BoxE {stroke [] 0 setdash exch hpt sub exch vpt add M
  0 vpt2 neg V hpt2 0 V 0 vpt2 V
  hpt2 neg 0 V closepath stroke} def
/TriUE {stroke [] 0 setdash vpt 1.12 mul add M
  hpt neg vpt -1.62 mul V
  hpt 2 mul 0 V
  hpt neg vpt 1.62 mul V closepath stroke} def
/TriDE {stroke [] 0 setdash vpt 1.12 mul sub M
  hpt neg vpt 1.62 mul V
  hpt 2 mul 0 V
  hpt neg vpt -1.62 mul V closepath stroke} def
/PentE {stroke [] 0 setdash gsave
  translate 0 hpt M 4 {72 rotate 0 hpt L} repeat
  closepath stroke grestore} def
/CircE {stroke [] 0 setdash 
  hpt 0 360 arc stroke} def
/Opaque {gsave closepath 1 setgray fill grestore 0 setgray closepath} def
/DiaW {stroke [] 0 setdash vpt add M
  hpt neg vpt neg V hpt vpt neg V
  hpt vpt V hpt neg vpt V Opaque stroke} def
/BoxW {stroke [] 0 setdash exch hpt sub exch vpt add M
  0 vpt2 neg V hpt2 0 V 0 vpt2 V
  hpt2 neg 0 V Opaque stroke} def
/TriUW {stroke [] 0 setdash vpt 1.12 mul add M
  hpt neg vpt -1.62 mul V
  hpt 2 mul 0 V
  hpt neg vpt 1.62 mul V Opaque stroke} def
/TriDW {stroke [] 0 setdash vpt 1.12 mul sub M
  hpt neg vpt 1.62 mul V
  hpt 2 mul 0 V
  hpt neg vpt -1.62 mul V Opaque stroke} def
/PentW {stroke [] 0 setdash gsave
  translate 0 hpt M 4 {72 rotate 0 hpt L} repeat
  Opaque stroke grestore} def
/CircW {stroke [] 0 setdash 
  hpt 0 360 arc Opaque stroke} def
/BoxFill {gsave Rec 1 setgray fill grestore} def
/Density {
  /Fillden exch def
  currentrgbcolor
  /ColB exch def /ColG exch def /ColR exch def
  /ColR ColR Fillden mul Fillden sub 1 add def
  /ColG ColG Fillden mul Fillden sub 1 add def
  /ColB ColB Fillden mul Fillden sub 1 add def
  ColR ColG ColB setrgbcolor} def
/BoxColFill {gsave Rec PolyFill} def
/PolyFill {gsave Density fill grestore grestore} def
/h {rlineto rlineto rlineto gsave closepath fill grestore} bind def
%
% PostScript Level 1 Pattern Fill routine for rectangles
% Usage: x y w h s a XX PatternFill
%	x,y = lower left corner of box to be filled
%	w,h = width and height of box
%	  a = angle in degrees between lines and x-axis
%	 XX = 0/1 for no/yes cross-hatch
%
/PatternFill {gsave /PFa [ 9 2 roll ] def
  PFa 0 get PFa 2 get 2 div add PFa 1 get PFa 3 get 2 div add translate
  PFa 2 get -2 div PFa 3 get -2 div PFa 2 get PFa 3 get Rec
  gsave 1 setgray fill grestore clip
  currentlinewidth 0.5 mul setlinewidth
  /PFs PFa 2 get dup mul PFa 3 get dup mul add sqrt def
  0 0 M PFa 5 get rotate PFs -2 div dup translate
  0 1 PFs PFa 4 get div 1 add floor cvi
	{PFa 4 get mul 0 M 0 PFs V} for
  0 PFa 6 get ne {
	0 1 PFs PFa 4 get div 1 add floor cvi
	{PFa 4 get mul 0 2 1 roll M PFs 0 V} for
 } if
  stroke grestore} def
%
/languagelevel where
 {pop languagelevel} {1} ifelse
 2 lt
	{/InterpretLevel1 true def}
	{/InterpretLevel1 Level1 def}
 ifelse
%
% PostScript level 2 pattern fill definitions
%
/Level2PatternFill {
/Tile8x8 {/PaintType 2 /PatternType 1 /TilingType 1 /BBox [0 0 8 8] /XStep 8 /YStep 8}
	bind def
/KeepColor {currentrgbcolor [/Pattern /DeviceRGB] setcolorspace} bind def
<< Tile8x8
 /PaintProc {0.5 setlinewidth pop 0 0 M 8 8 L 0 8 M 8 0 L stroke} 
>> matrix makepattern
/Pat1 exch def
<< Tile8x8
 /PaintProc {0.5 setlinewidth pop 0 0 M 8 8 L 0 8 M 8 0 L stroke
	0 4 M 4 8 L 8 4 L 4 0 L 0 4 L stroke}
>> matrix makepattern
/Pat2 exch def
<< Tile8x8
 /PaintProc {0.5 setlinewidth pop 0 0 M 0 8 L
	8 8 L 8 0 L 0 0 L fill}
>> matrix makepattern
/Pat3 exch def
<< Tile8x8
 /PaintProc {0.5 setlinewidth pop -4 8 M 8 -4 L
	0 12 M 12 0 L stroke}
>> matrix makepattern
/Pat4 exch def
<< Tile8x8
 /PaintProc {0.5 setlinewidth pop -4 0 M 8 12 L
	0 -4 M 12 8 L stroke}
>> matrix makepattern
/Pat5 exch def
<< Tile8x8
 /PaintProc {0.5 setlinewidth pop -2 8 M 4 -4 L
	0 12 M 8 -4 L 4 12 M 10 0 L stroke}
>> matrix makepattern
/Pat6 exch def
<< Tile8x8
 /PaintProc {0.5 setlinewidth pop -2 0 M 4 12 L
	0 -4 M 8 12 L 4 -4 M 10 8 L stroke}
>> matrix makepattern
/Pat7 exch def
<< Tile8x8
 /PaintProc {0.5 setlinewidth pop 8 -2 M -4 4 L
	12 0 M -4 8 L 12 4 M 0 10 L stroke}
>> matrix makepattern
/Pat8 exch def
<< Tile8x8
 /PaintProc {0.5 setlinewidth pop 0 -2 M 12 4 L
	-4 0 M 12 8 L -4 4 M 8 10 L stroke}
>> matrix makepattern
/Pat9 exch def
/Pattern1 {PatternBgnd KeepColor Pat1 setpattern} bind def
/Pattern2 {PatternBgnd KeepColor Pat2 setpattern} bind def
/Pattern3 {PatternBgnd KeepColor Pat3 setpattern} bind def
/Pattern4 {PatternBgnd KeepColor Landscape {Pat5} {Pat4} ifelse setpattern} bind def
/Pattern5 {PatternBgnd KeepColor Landscape {Pat4} {Pat5} ifelse setpattern} bind def
/Pattern6 {PatternBgnd KeepColor Landscape {Pat9} {Pat6} ifelse setpattern} bind def
/Pattern7 {PatternBgnd KeepColor Landscape {Pat8} {Pat7} ifelse setpattern} bind def
} def
%
%
%End of PostScript Level 2 code
%
/PatternBgnd {
  TransparentPatterns {} {gsave 1 setgray fill grestore} ifelse
} def
%
% Substitute for Level 2 pattern fill codes with
% grayscale if Level 2 support is not selected.
%
/Level1PatternFill {
/Pattern1 {0.250 Density} bind def
/Pattern2 {0.500 Density} bind def
/Pattern3 {0.750 Density} bind def
/Pattern4 {0.125 Density} bind def
/Pattern5 {0.375 Density} bind def
/Pattern6 {0.625 Density} bind def
/Pattern7 {0.875 Density} bind def
} def
%
% Now test for support of Level 2 code
%
Level1 {Level1PatternFill} {Level2PatternFill} ifelse
%
/Symbol-Oblique /Symbol findfont [1 0 .167 1 0 0] makefont
dup length dict begin {1 index /FID eq {pop pop} {def} ifelse} forall
currentdict end definefont pop
/MFshow {
   { dup 5 get 3 ge
     { 5 get 3 eq {gsave} {grestore} ifelse }
     {dup dup 0 get findfont exch 1 get scalefont setfont
     [ currentpoint ] exch dup 2 get 0 exch R dup 5 get 2 ne {dup dup 6
     get exch 4 get {show} {stringwidth pop 0 R} ifelse }if dup 5 get 0 eq
     {dup 3 get {2 get neg 0 exch R pop} {pop aload pop M} ifelse} {dup 5
     get 1 eq {dup 2 get exch dup 3 get exch 6 get stringwidth pop -2 div
     dup 0 R} {dup 6 get stringwidth pop -2 div 0 R 6 get
     show 2 index {aload pop M neg 3 -1 roll neg R pop pop} {pop pop pop
     pop aload pop M} ifelse }ifelse }ifelse }
     ifelse }
   forall} bind def
/MFwidth {0 exch { dup 5 get 3 ge { 5 get 3 eq { 0 } { pop } ifelse }
 {dup 3 get{dup dup 0 get findfont exch 1 get scalefont setfont
     6 get stringwidth pop add} {pop} ifelse} ifelse} forall} bind def
/MLshow { currentpoint stroke M
  0 exch R
  Blacktext {gsave 0 setgray MFshow grestore} {MFshow} ifelse } bind def
/MRshow { currentpoint stroke M
  exch dup MFwidth neg 3 -1 roll R
  Blacktext {gsave 0 setgray MFshow grestore} {MFshow} ifelse } bind def
/MCshow { currentpoint stroke M
  exch dup MFwidth -2 div 3 -1 roll R
  Blacktext {gsave 0 setgray MFshow grestore} {MFshow} ifelse } bind def
/XYsave    { [( ) 1 2 true false 3 ()] } bind def
/XYrestore { [( ) 1 2 true false 4 ()] } bind def
end
%%EndProlog
gnudict begin
gsave
50 50 translate
0.050 0.050 scale
0 setgray
newpath
(Helvetica) findfont 260 scalefont setfont
1.000 UL
LTb
1430 1092 M
63 0 V
5317 0 R
-63 0 V
stroke
1274 1092 M
[ [(Helvetica) 260.0 0.0 true true 0 (10)]
[(Helvetica) 208.0 130.0 true true 0 (-4)]
] -112.7 MRshow
1.000 UL
LTb
1430 1390 M
31 0 V
5349 0 R
-31 0 V
1430 1783 M
31 0 V
5349 0 R
-31 0 V
1430 1985 M
31 0 V
5349 0 R
-31 0 V
-5349 95 R
63 0 V
5317 0 R
-63 0 V
stroke
1274 2080 M
[ [(Helvetica) 260.0 0.0 true true 0 (10)]
[(Helvetica) 208.0 130.0 true true 0 (-3)]
] -112.7 MRshow
1.000 UL
LTb
1430 2378 M
31 0 V
5349 0 R
-31 0 V
1430 2771 M
31 0 V
5349 0 R
-31 0 V
1430 2973 M
31 0 V
5349 0 R
-31 0 V
-5349 96 R
63 0 V
5317 0 R
-63 0 V
stroke
1274 3069 M
[ [(Helvetica) 260.0 0.0 true true 0 (10)]
[(Helvetica) 208.0 130.0 true true 0 (-2)]
] -112.7 MRshow
1.000 UL
LTb
1430 3366 M
31 0 V
5349 0 R
-31 0 V
1430 3759 M
31 0 V
5349 0 R
-31 0 V
1430 3961 M
31 0 V
5349 0 R
-31 0 V
-5349 96 R
63 0 V
5317 0 R
-63 0 V
stroke
1274 4057 M
[ [(Helvetica) 260.0 0.0 true true 0 (10)]
[(Helvetica) 208.0 130.0 true true 0 (-1)]
] -112.7 MRshow
1.000 UL
LTb
1430 4354 M
31 0 V
5349 0 R
-31 0 V
1430 4748 M
31 0 V
5349 0 R
-31 0 V
1430 4949 M
31 0 V
5349 0 R
-31 0 V
-5349 96 R
63 0 V
5317 0 R
-63 0 V
stroke
1274 5045 M
[ [(Helvetica) 260.0 0.0 true true 0 (10)]
[(Helvetica) 208.0 130.0 true true 0 (0)]
] -112.7 MRshow
1.000 UL
LTb
1430 5343 M
31 0 V
5349 0 R
-31 0 V
1430 5736 M
31 0 V
5349 0 R
-31 0 V
1430 1092 M
0 63 V
0 4581 R
0 -63 V
stroke
1430 832 M
[ [(Helvetica) 260.0 0.0 true true 0 (10)]
[(Helvetica) 208.0 130.0 true true 0 (-1)]
] -112.7 MCshow
1.000 UL
LTb
2240 1092 M
0 31 V
0 4613 R
0 -31 V
2713 1092 M
0 31 V
0 4613 R
0 -31 V
3050 1092 M
0 31 V
0 4613 R
0 -31 V
3310 1092 M
0 31 V
0 4613 R
0 -31 V
3523 1092 M
0 31 V
0 4613 R
0 -31 V
3703 1092 M
0 31 V
0 4613 R
0 -31 V
3859 1092 M
0 31 V
0 4613 R
0 -31 V
3997 1092 M
0 31 V
0 4613 R
0 -31 V
4120 1092 M
0 63 V
0 4581 R
0 -63 V
stroke
4120 832 M
[ [(Helvetica) 260.0 0.0 true true 0 (10)]
[(Helvetica) 208.0 130.0 true true 0 (0)]
] -112.7 MCshow
1.000 UL
LTb
4930 1092 M
0 31 V
0 4613 R
0 -31 V
5403 1092 M
0 31 V
0 4613 R
0 -31 V
5740 1092 M
0 31 V
0 4613 R
0 -31 V
6000 1092 M
0 31 V
0 4613 R
0 -31 V
6213 1092 M
0 31 V
0 4613 R
0 -31 V
6393 1092 M
0 31 V
0 4613 R
0 -31 V
6549 1092 M
0 31 V
0 4613 R
0 -31 V
6687 1092 M
0 31 V
0 4613 R
0 -31 V
6810 1092 M
0 63 V
0 4581 R
0 -63 V
stroke
6810 832 M
[ [(Helvetica) 260.0 0.0 true true 0 (10)]
[(Helvetica) 208.0 130.0 true true 0 (1)]
] -112.7 MCshow
1.000 UL
LTb
1.000 UL
LTb
1430 5736 N
0 -4644 V
5380 0 V
0 4644 V
-5380 0 V
Z stroke
LCb setrgbcolor
520 3414 M
currentpoint gsave translate 90 rotate 0 0 moveto
[ [(Helvetica) 260.0 0.0 true true 0 (\(c - c)]
[(Helvetica) 208.0 -78.0 true true 0 (0)]
[(Helvetica) 260.0 0.0 true true 0 (\)/\(c)]
[(Helvetica) 166.4 -140.4 true true 0 (i)]
[(Helvetica) 208.0 -78.0 true true 0 (nj)]
[(Helvetica) 260.0 0.0 true true 0 ( - c)]
[(Helvetica) 208.0 -78.0 true true 0 (0)]
[(Helvetica) 260.0 0.0 true true 0 (\))]
] -39.9 MCshow
grestore
LTb
LCb setrgbcolor
4120 442 M
[ [(Helvetica) 260.0 0.0 true true 0 (Pore Volume \(t)]
[(Helvetica) 208.0 -78.0 true true 0 (D)]
[(Helvetica) 260.0 0.0 true true 0 (\))]
] -60.7 MCshow
LTb
1.000 UP
1538 5504 M
[ [(Helvetica) 260.0 0.0 true true 0 (B4, B5 & B8 tests)]
] -86.7 MLshow
1538 5132 M
[ [(Helvetica) 260.0 0.0 true true 0 (L = 50.9 cm)]
] -86.7 MLshow
1538 4807 M
[ [(Symbol) 260.0 0.0 true true 0 (f)]
[(Helvetica) 208.0 -78.0 true true 0 (T)]
[(Helvetica) 260.0 0.0 true true 0 ( = 0.14)]
] -60.7 MLshow
6272 5504 M
[ [(Helvetica) 260.0 0.0 true true 0 (\(b\))]
] -86.7 MLshow
3.000 UL
LTb
4120 1092 M
0 4644 V
stroke
1.000 UL
LTb
1.000 UP
1.000 UL
LT0
LTb
5967 2130 M
[ [(Helvetica) 260.0 0.0 true true 0 (B4 \(Q)]
[(Helvetica) 208.0 -78.0 true true 0 (x)]
[(Helvetica) 260.0 0.0 true true 0 ( = 0.10\))]
] -60.7 MRshow
LT1
1876 1694 Box
1905 2175 Box
1934 2501 Box
1962 2629 Box
1989 2704 Box
2016 2850 Box
2041 3015 Box
2090 3202 Box
2148 3383 Box
2192 3503 Box
2236 3609 Box
2260 3672 Box
2304 3767 Box
2347 3862 Box
2389 3932 Box
2429 4005 Box
2467 4043 Box
2504 4126 Box
2522 4183 Box
2558 4233 Box
2592 4337 Box
2607 4296 Box
2653 4365 Box
2699 4400 Box
2743 4450 Box
2787 4473 Box
2829 4551 Box
2856 4569 Box
2895 4608 Box
2932 4636 Box
2968 4656 Box
3003 4663 Box
3036 4692 Box
3069 4744 Box
3100 4752 Box
3131 4755 Box
3162 4774 Box
3192 4782 Box
3221 4806 Box
3249 4830 Box
3276 4809 Box
3302 4849 Box
3328 4851 Box
3353 4845 Box
3379 4851 Box
3404 4867 Box
3452 4867 Box
3475 4892 Box
3498 4896 Box
3542 4896 Box
3564 4908 Box
3585 4904 Box
3607 4920 Box
3628 4912 Box
3648 4916 Box
3687 4958 Box
3706 4958 Box
3724 4965 Box
3743 4969 Box
3760 4972 Box
3778 4969 Box
3795 4965 Box
3813 4943 Box
3830 4958 Box
3847 4962 Box
3864 4965 Box
3881 4979 Box
3897 4955 Box
3958 4962 Box
3974 4972 Box
3990 4983 Box
4005 5000 Box
4019 4986 Box
4033 5000 Box
4047 4990 Box
4075 5009 Box
4089 4986 Box
4103 5009 Box
4117 4979 Box
4130 4979 Box
4144 5006 Box
4157 5000 Box
4171 5019 Box
4183 5003 Box
4196 4993 Box
4209 5000 Box
4222 5037 Box
4245 5031 Box
4257 5019 Box
4281 5031 Box
4292 5040 Box
4303 5040 Box
4314 5043 Box
4325 5025 Box
4336 5040 Box
4347 5031 Box
4358 5022 Box
4370 5016 Box
4381 5025 Box
4392 5037 Box
4403 5034 Box
4413 5025 Box
4424 5046 Box
4434 5043 Box
4454 5049 Box
4464 5037 Box
4474 5022 Box
4493 5046 Box
4503 5046 Box
4550 5049 Box
4559 5043 Box
4568 5025 Box
4572 5037 Box
4578 5037 Box
4587 5034 Box
4594 5040 Box
4627 5061 Box
4632 5028 Box
4638 5031 Box
4644 5037 Box
4650 5034 Box
4656 5046 Box
4661 5052 Box
4667 5052 Box
4672 5043 Box
4694 5058 Box
4699 5046 Box
4710 5037 Box
4716 5025 Box
4721 5043 Box
4727 5040 Box
4732 5043 Box
4737 5031 Box
4743 5028 Box
4748 5040 Box
4753 5040 Box
4758 5043 Box
4763 5028 Box
4768 5016 Box
4774 5022 Box
4779 5019 Box
4784 5009 Box
4789 4996 Box
4794 4983 Box
4800 4979 Box
4805 4976 Box
4810 4972 Box
4815 4962 Box
4820 4965 Box
4838 4940 Box
4843 4940 Box
4848 4924 Box
4852 4900 Box
4857 4896 Box
4862 4872 Box
4867 4858 Box
4872 4851 Box
4877 4861 Box
4882 4838 Box
4886 4851 Box
4891 4839 Box
4895 4826 Box
4900 4828 Box
4907 4828 Box
4913 4817 Box
4920 4785 Box
4927 4768 Box
4933 4763 Box
4940 4719 Box
4947 4739 Box
4954 4725 Box
4960 4721 Box
4967 4664 Box
4979 4681 Box
4985 4654 Box
4992 4627 Box
5005 4621 Box
5011 4614 Box
5017 4617 Box
5023 4608 Box
5029 4587 Box
5035 4591 Box
5041 4558 Box
5047 4557 Box
5053 4565 Box
5060 4518 Box
5066 4504 Box
5072 4499 Box
5078 4505 Box
5083 4505 Box
5089 4486 Box
5095 4479 Box
5106 4464 Box
5112 4432 Box
5117 4434 Box
5123 4417 Box
5129 4393 Box
5135 4389 Box
5140 4388 Box
5146 4378 Box
5152 4381 Box
5156 4353 Box
5161 4353 Box
5167 4368 Box
5172 4329 Box
5178 4338 Box
5183 4303 Box
5189 4274 Box
5192 4323 Box
5196 4324 Box
5199 4283 Box
5203 4313 Box
5206 4315 Box
5210 4270 Box
5213 4284 Box
5220 4259 Box
5223 4268 Box
5231 4240 Box
5234 4248 Box
5238 4235 Box
5244 4248 Box
5248 4215 Box
5251 4229 Box
5255 4229 Box
5258 4257 Box
5262 4139 Box
5267 4227 Box
5271 4202 Box
5274 4174 Box
5278 4185 Box
5281 4174 Box
5285 4151 Box
5288 4176 Box
5291 4176 Box
5295 4160 Box
5298 4155 Box
5304 4169 Box
5308 4146 Box
5311 4139 Box
5314 4148 Box
5323 4169 Box
5326 4155 Box
5329 4146 Box
5333 4131 Box
5336 4151 Box
5339 4146 Box
5342 4155 Box
5344 4139 Box
5347 4116 Box
5350 4124 Box
5353 4084 Box
5356 4108 Box
5359 4081 Box
5362 4081 Box
5366 4067 Box
5369 4070 Box
5372 4008 Box
5376 4015 Box
5379 4034 Box
5382 4058 Box
5386 4064 Box
5391 4061 Box
5395 4055 Box
5399 4043 Box
5404 4021 Box
5408 4031 Box
5413 3952 Box
5417 4005 Box
5422 3991 Box
5426 4008 Box
5431 4005 Box
5435 4001 Box
5439 3877 Box
5443 3984 Box
5448 3963 Box
5452 4011 Box
5457 3955 Box
5461 3959 Box
5466 3948 Box
5470 3963 Box
5474 3936 Box
5478 3932 Box
5482 3940 Box
5486 3932 Box
5498 3944 Box
5502 3924 Box
5506 3904 Box
5510 3916 Box
5514 3863 Box
5518 3912 Box
5527 3877 Box
5531 3833 Box
5535 3867 Box
5539 3858 Box
5543 3843 Box
5547 3891 Box
5551 3863 Box
5555 3845 Box
5559 3882 Box
5563 3863 Box
5567 3855 Box
5571 3814 Box
6310 2130 Box
1.000 UP
1.000 UL
LT1
LTb
5967 1740 M
[ [(Helvetica) 260.0 0.0 true true 0 (B5 \(Q)]
[(Helvetica) 208.0 -78.0 true true 0 (x)]
[(Helvetica) 260.0 0.0 true true 0 ( = 0.05\))]
] -60.7 MRshow
LT2
2056 2867 Circle
2135 3199 Circle
2206 3612 Circle
2272 3724 Circle
2339 3830 Circle
2400 3974 Circle
2458 4095 Circle
2511 4154 Circle
2545 4257 Circle
2614 4281 Circle
2664 4328 Circle
2725 4372 Circle
2755 4422 Circle
2800 4473 Circle
2844 4465 Circle
2886 4539 Circle
2925 4582 Circle
2961 4606 Circle
2998 4610 Circle
3034 4628 Circle
3101 4683 Circle
3161 4712 Circle
3192 4732 Circle
3253 4760 Circle
3281 4757 Circle
3310 4812 Circle
3337 4802 Circle
3366 4807 Circle
3388 4822 Circle
3413 4816 Circle
3463 4835 Circle
3486 4844 Circle
3509 4873 Circle
3532 4866 Circle
3555 4851 Circle
3577 4870 Circle
3599 4888 Circle
3640 4911 Circle
3660 4888 Circle
3680 4882 Circle
3700 4891 Circle
3719 4921 Circle
3738 4930 Circle
3776 4943 Circle
3793 4925 Circle
3811 4930 Circle
3880 4973 Circle
3911 4969 Circle
3928 4973 Circle
3974 4977 Circle
3990 5001 Circle
4019 4981 Circle
4033 5013 Circle
4047 5009 Circle
4090 4993 Circle
4104 5024 Circle
4185 5024 Circle
4198 5027 Circle
4223 5038 Circle
4312 5042 Circle
4323 5038 Circle
4331 5055 Circle
4352 5052 Circle
4359 5059 Circle
4366 5055 Circle
4388 5062 Circle
4402 5031 Circle
4416 5049 Circle
4423 5027 Circle
4430 5066 Circle
4437 5045 Circle
4444 5052 Circle
4451 5016 Circle
4464 5049 Circle
4471 5031 Circle
4478 5035 Circle
4504 5052 Circle
4510 5042 Circle
4517 5016 Circle
4524 5009 Circle
4531 5031 Circle
4537 5024 Circle
4543 5035 Circle
4550 5024 Circle
4556 5055 Circle
4561 5042 Circle
4564 5013 Circle
4570 5059 Circle
4576 5031 Circle
4582 5038 Circle
4589 5031 Circle
4595 5038 Circle
4607 5052 Circle
4613 5042 Circle
4628 5062 Circle
4632 5059 Circle
4644 5052 Circle
4650 5049 Circle
4671 5055 Circle
4680 5062 Circle
4688 5062 Circle
4696 5052 Circle
4704 5045 Circle
4712 5038 Circle
4720 5049 Circle
4728 5038 Circle
4736 5049 Circle
4744 5016 Circle
4752 5009 Circle
4760 5020 Circle
4768 5013 Circle
4783 4993 Circle
4799 4981 Circle
4807 4973 Circle
4814 4943 Circle
4821 4943 Circle
4829 4935 Circle
4836 4909 Circle
4851 4898 Circle
4858 4881 Circle
4873 4881 Circle
4880 4858 Circle
4887 4862 Circle
4908 4797 Circle
4915 4807 Circle
4921 4806 Circle
4935 4737 Circle
4942 4753 Circle
4955 4691 Circle
4981 4656 Circle
4987 4631 Circle
5000 4592 Circle
5007 4580 Circle
5032 4529 Circle
5038 4537 Circle
5044 4520 Circle
5050 4496 Circle
5057 4488 Circle
5069 4467 Circle
5075 4462 Circle
5085 4455 Circle
5091 4444 Circle
5108 4360 Circle
5114 4365 Circle
5147 4313 Circle
5152 4307 Circle
5169 4202 Circle
5174 4189 Circle
5179 4219 Circle
5196 4152 Circle
5202 4143 Circle
5218 4152 Circle
5223 4079 Circle
5228 4107 Circle
5234 4085 Circle
5239 4104 Circle
5244 4062 Circle
5255 4069 Circle
5260 4033 Circle
5269 4003 Circle
5274 3983 Circle
5284 3966 Circle
5289 3983 Circle
5299 3953 Circle
5308 3930 Circle
5328 3880 Circle
5333 3870 Circle
5337 3925 Circle
5342 3864 Circle
5347 3864 Circle
5352 3842 Circle
5356 3806 Circle
5361 3731 Circle
5366 3812 Circle
5370 3621 Circle
5380 3746 Circle
5384 3700 Circle
5388 3716 Circle
5393 3692 Circle
5402 3649 Circle
6310 1740 Circle
1.000 UP
1.000 UL
LT0
LTb
5967 1350 M
[ [(Helvetica) 260.0 0.0 true true 0 (B8 \(Q)]
[(Helvetica) 208.0 -78.0 true true 0 (x)]
[(Helvetica) 260.0 0.0 true true 0 ( = 0.50\))]
] -60.7 MRshow
LT3
%%6123 1350 M
%%375 0 V
%%1430 1549 M
%%44 -126 V
%%43 36 V
%%41 -17 V
%%40 532 V
%%38 -55 V
%%38 55 V
%%36 40 V
%%35 236 V
%%35 61 V
%%34 83 V
%%31 180 V
%%31 5 V
%%31 130 V
%%29 31 V
%%29 127 V
%%29 113 V
%%27 68 V
%%27 60 V
%%27 68 V
%%26 90 V
%%25 57 V
%%24 68 V
%%24 42 V
%%24 67 V
%%23 30 V
%%23 63 V
%%21 52 V
%%22 24 V
%%22 53 V
%%21 23 V
%%21 58 V
%%20 46 V
%%20 11 V
%%20 50 V
%%19 35 V
%%19 4 V
%%19 29 V
%%18 44 V
%%18 33 V
%%18 32 V
%%18 18 V
%%17 4 V
%%17 44 V
%%50 68 V
%%93 111 V
%%44 43 V
%%43 66 V
%%41 44 V
%%40 14 V
%%38 31 V
%%38 33 V
%%36 47 V
%%34 22 V
%%35 12 V
%%64 53 V
%%66 31 V
%%30 16 V
%%30 2 V
%%27 31 V
%%27 18 V
%%27 2 V
%%27 24 V
%%25 -2 V
%%26 0 V
%%24 34 V
%%24 -7 V
%%24 16 V
%%23 -2 V
%%23 18 V
%%22 -4 V
%%22 6 V
%%21 14 V
%%21 -7 V
%%23 28 V
%%20 -1 V
%%20 6 V
%%20 -2 V
%%19 -2 V
%%19 6 V
%%19 12 V
%%19 5 V
%%18 -29 V
%%18 30 V
%%17 5 V
%%17 8 V
%%17 8 V
%%17 -7 V
%%17 6 V
%%16 -2 V
%%16 7 V
%%16 7 V
%%16 -5 V
%%15 6 V
%%15 3 V
%%30 6 V
%%15 -6 V
%%15 3 V
%%14 -11 V
%%14 25 V
%%14 -11 V
%%14 12 V
%%14 -5 V
%%stroke 4123 4989 M
%%13 5 V
%%13 13 V
%%12 -11 V
%%13 6 V
%%13 -2 V
%%13 15 V
%%12 -11 V
%%13 3 V
%%12 -3 V
%%12 2 V
%%13 10 V
%%12 0 V
%%12 -14 V
%%11 19 V
%%12 -9 V
%%12 -6 V
%%11 -8 V
%%11 13 V
%%11 10 V
%%11 -4 V
%%11 0 V
%%11 4 V
%%11 -4 V
%%11 13 V
%%10 -5 V
%%11 13 V
%%10 -4 V
%%11 -9 V
%%10 5 V
%%10 -5 V
%%10 9 V
%%10 -18 V
%%10 9 V
%%10 9 V
%%9 4 V
%%10 -13 V
%%9 13 V
%%10 -8 V
%%9 16 V
%%9 -16 V
%%10 -5 V
%%9 5 V
%%9 12 V
%%9 -4 V
%%9 -4 V
%%9 12 V
%%9 -8 V
%%9 12 V
%%14 -4 V
%%27 4 V
%%8 -12 V
%%8 16 V
%%9 -8 V
%%8 -8 V
%%8 -4 V
%%8 12 V
%%8 -4 V
%%8 0 V
%%8 0 V
%%8 4 V
%%23 -12 V
%%8 4 V
%%8 -8 V
%%7 4 V
%%15 -9 V
%%8 -15 V
%%7 15 V
%%7 -23 V
%%8 -7 V
%%7 -11 V
%%7 -21 V
%%7 -7 V
%%7 -9 V
%%14 -25 V
%%7 -10 V
%%7 -10 V
%%7 -13 V
%%7 -10 V
%%7 -30 V
%%6 4 V
%%7 -14 V
%%7 -18 V
%%7 -12 V
%%6 -20 V
%%7 -11 V
%%6 -14 V
%%7 -13 V
%%6 -17 V
%%7 -5 V
%%6 -13 V
%%7 -17 V
%%6 -7 V
%%6 -6 V
%%7 -19 V
%%6 -4 V
%%6 -32 V
%%6 1 V
%%7 -11 V
%%6 -2 V
%%6 -11 V
%%6 -37 V
%%6 9 V
%%6 0 V
%%5 -36 V
%%stroke 5088 4544 M
%%6 11 V
%%6 1 V
%%6 -34 V
%%6 0 V
%%6 -13 V
%%6 -24 V
%%5 0 V
%%6 0 V
%%6 -20 V
%%5 -5 V
%%6 -9 V
%%6 -19 V
%%5 4 V
%%6 -7 V
%%5 -9 V
%%6 -12 V
%%5 -9 V
%%6 -13 V
%%5 -21 V
%%6 0 V
%%5 -8 V
%%5 -2 V
%%5 4 V
%%6 -18 V
%%5 -13 V
%%5 0 V
%%5 -9 V
%%6 -13 V
%%5 2 V
%%5 -9 V
%%5 -21 V
%%5 5 V
%%5 -12 V
%%5 -10 V
%%5 -8 V
%%5 0 V
%%6 -23 V
%%5 -11 V
%%4 5 V
%%5 -14 V
%%5 -5 V
1474 1423 Crs
1517 1459 Crs
1558 1442 Crs
1598 1974 Crs
1636 1919 Crs
1674 1974 Crs
1710 2014 Crs
1745 2250 Crs
1780 2311 Crs
1814 2394 Crs
1845 2574 Crs
1876 2579 Crs
1907 2709 Crs
1936 2740 Crs
1965 2867 Crs
1994 2980 Crs
2021 3048 Crs
2048 3108 Crs
2075 3176 Crs
2101 3266 Crs
2126 3323 Crs
2150 3391 Crs
2174 3433 Crs
2198 3500 Crs
2221 3530 Crs
2244 3593 Crs
2265 3645 Crs
2287 3669 Crs
2309 3722 Crs
2330 3745 Crs
2351 3803 Crs
2371 3849 Crs
2391 3860 Crs
2411 3910 Crs
2430 3945 Crs
2449 3949 Crs
2468 3978 Crs
2486 4022 Crs
2504 4055 Crs
2522 4087 Crs
2540 4105 Crs
2557 4109 Crs
2574 4153 Crs
2624 4221 Crs
2717 4332 Crs
2761 4375 Crs
2804 4441 Crs
2845 4485 Crs
2885 4499 Crs
2923 4530 Crs
2961 4563 Crs
2997 4610 Crs
3031 4632 Crs
3066 4644 Crs
3130 4697 Crs
3196 4728 Crs
3226 4744 Crs
3256 4746 Crs
3283 4777 Crs
3310 4795 Crs
3337 4797 Crs
3364 4821 Crs
3389 4819 Crs
3415 4819 Crs
3439 4853 Crs
3463 4846 Crs
3487 4862 Crs
3510 4860 Crs
3533 4878 Crs
3555 4874 Crs
3577 4880 Crs
3598 4894 Crs
3619 4887 Crs
3642 4915 Crs
3662 4914 Crs
3682 4920 Crs
3702 4918 Crs
3721 4916 Crs
3740 4922 Crs
3759 4934 Crs
3778 4939 Crs
3796 4910 Crs
3814 4940 Crs
3831 4945 Crs
3848 4953 Crs
3865 4961 Crs
3882 4954 Crs
3899 4960 Crs
3915 4958 Crs
3931 4965 Crs
3947 4972 Crs
3963 4967 Crs
3978 4973 Crs
3993 4976 Crs
4023 4982 Crs
4038 4976 Crs
4053 4979 Crs
4067 4968 Crs
4081 4993 Crs
4095 4982 Crs
4109 4994 Crs
4123 4989 Crs
4136 4994 Crs
4149 5007 Crs
4161 4996 Crs
4174 5002 Crs
4187 5000 Crs
4200 5015 Crs
4212 5004 Crs
4225 5007 Crs
4237 5004 Crs
4249 5006 Crs
4262 5016 Crs
4274 5016 Crs
4286 5002 Crs
4297 5021 Crs
4309 5012 Crs
4321 5006 Crs
4332 4998 Crs
4343 5011 Crs
4354 5021 Crs
4365 5017 Crs
4376 5017 Crs
4387 5021 Crs
4398 5017 Crs
4409 5030 Crs
4419 5025 Crs
4430 5038 Crs
4440 5034 Crs
4451 5025 Crs
4461 5030 Crs
4471 5025 Crs
4481 5034 Crs
4491 5016 Crs
4501 5025 Crs
4511 5034 Crs
4520 5038 Crs
4530 5025 Crs
4539 5038 Crs
4549 5030 Crs
4558 5046 Crs
4567 5030 Crs
4577 5025 Crs
4586 5030 Crs
4595 5042 Crs
4604 5038 Crs
4613 5034 Crs
4622 5046 Crs
4631 5038 Crs
4640 5050 Crs
4654 5046 Crs
4681 5050 Crs
4689 5038 Crs
4697 5054 Crs
4706 5046 Crs
4714 5038 Crs
4722 5034 Crs
4730 5046 Crs
4738 5042 Crs
4746 5042 Crs
4754 5042 Crs
4762 5046 Crs
4785 5034 Crs
4793 5038 Crs
4801 5030 Crs
4808 5034 Crs
4823 5025 Crs
4831 5010 Crs
4838 5025 Crs
4845 5002 Crs
4853 4995 Crs
4860 4984 Crs
4867 4963 Crs
4874 4956 Crs
4881 4947 Crs
4895 4922 Crs
4902 4912 Crs
4909 4902 Crs
4916 4889 Crs
4923 4879 Crs
4930 4849 Crs
4936 4853 Crs
4943 4839 Crs
4950 4821 Crs
4957 4809 Crs
4963 4789 Crs
4970 4778 Crs
4976 4764 Crs
4983 4751 Crs
4989 4734 Crs
4996 4729 Crs
5002 4716 Crs
5009 4699 Crs
5015 4692 Crs
5021 4686 Crs
5028 4667 Crs
5034 4663 Crs
5040 4631 Crs
5046 4632 Crs
5053 4621 Crs
5059 4619 Crs
5065 4608 Crs
5071 4571 Crs
5077 4580 Crs
5083 4580 Crs
5088 4544 Crs
5094 4555 Crs
5100 4556 Crs
5106 4522 Crs
5112 4522 Crs
5118 4509 Crs
5124 4485 Crs
5129 4485 Crs
5135 4485 Crs
5141 4465 Crs
5146 4460 Crs
5152 4451 Crs
5158 4432 Crs
5163 4436 Crs
5169 4429 Crs
5174 4420 Crs
5180 4408 Crs
5185 4399 Crs
5191 4386 Crs
5196 4365 Crs
5202 4365 Crs
5207 4357 Crs
5212 4355 Crs
5217 4359 Crs
5223 4341 Crs
5228 4328 Crs
5233 4328 Crs
5238 4319 Crs
5244 4306 Crs
5249 4308 Crs
5254 4299 Crs
5259 4278 Crs
5264 4283 Crs
5269 4271 Crs
5274 4261 Crs
5279 4253 Crs
5284 4253 Crs
5290 4230 Crs
5295 4219 Crs
5299 4224 Crs
5304 4210 Crs
5309 4205 Crs
6310 1350 Crs
1.000 UL
LTb
1430 5736 N
0 -4644 V
5380 0 V
0 4644 V
-5380 0 V
Z stroke
1.000 UP
1.000 UL
LTb
stroke
grestore
end
showpage
%%Trailer
%%DocumentFonts: Symbol Helvetica
