 Name                 Group          Measured         Modelled         Residual         Weight       Weight*Measured    Weight*Modelled  Weight*Residual  Measurement_sd   Natural_weight
 p001                 obsgroup      1.0510000E-03    1.3030000E-03   -2.5200000E-04     1.000000        1.0510000E-03    1.3030000E-03   -2.5200000E-04    6.1977414E-04     1613.491    
 p002                 obsgroup      1.0270000E-03    1.3860000E-03   -3.5900000E-04     1.000000        1.0270000E-03    1.3860000E-03   -3.5900000E-04    6.1977414E-04     1613.491    
 p003                 obsgroup      9.6400000E-04    1.4830000E-03   -5.1900000E-04     1.000000        9.6400000E-04    1.4830000E-03   -5.1900000E-04    6.1977414E-04     1613.491    
 p004                 obsgroup      1.0610000E-03    1.5930000E-03   -5.3200000E-04     1.000000        1.0610000E-03    1.5930000E-03   -5.3200000E-04    6.1977414E-04     1613.491    
 p005                 obsgroup      1.1020000E-03    1.7170000E-03   -6.1500000E-04     1.000000        1.1020000E-03    1.7170000E-03   -6.1500000E-04    6.1977414E-04     1613.491    
 p006                 obsgroup      1.0290000E-03    1.8560000E-03   -8.2700000E-04     1.000000        1.0290000E-03    1.8560000E-03   -8.2700000E-04    6.1977414E-04     1613.491    
 p007                 obsgroup      1.1120000E-03    2.0090000E-03   -8.9700000E-04     1.000000        1.1120000E-03    2.0090000E-03   -8.9700000E-04    6.1977414E-04     1613.491    
 p008                 obsgroup      1.1740000E-03    2.1740000E-03   -1.0000000E-03     1.000000        1.1740000E-03    2.1740000E-03   -1.0000000E-03    6.1977414E-04     1613.491    
 p009                 obsgroup      1.2260000E-03    2.3540000E-03   -1.1280000E-03     1.000000        1.2260000E-03    2.3540000E-03   -1.1280000E-03    6.1977414E-04     1613.491    
 p010                 obsgroup      1.3290000E-03    2.5480000E-03   -1.2190000E-03     1.000000        1.3290000E-03    2.5480000E-03   -1.2190000E-03    6.1977414E-04     1613.491    
 p011                 obsgroup      1.5140000E-03    2.7530000E-03   -1.2390000E-03     1.000000        1.5140000E-03    2.7530000E-03   -1.2390000E-03    6.1977414E-04     1613.491    
 p012                 obsgroup      1.6890000E-03    2.9670000E-03   -1.2780000E-03     1.000000        1.6890000E-03    2.9670000E-03   -1.2780000E-03    6.1977414E-04     1613.491    
 p013                 obsgroup      1.9060000E-03    3.1890000E-03   -1.2830000E-03     1.000000        1.9060000E-03    3.1890000E-03   -1.2830000E-03    6.1977414E-04     1613.491    
 p014                 obsgroup      1.9360000E-03    3.4210000E-03   -1.4850000E-03     1.000000        1.9360000E-03    3.4210000E-03   -1.4850000E-03    6.1977414E-04     1613.491    
 p015                 obsgroup      2.3280000E-03    3.6590000E-03   -1.3310000E-03     1.000000        2.3280000E-03    3.6590000E-03   -1.3310000E-03    6.1977414E-04     1613.491    
 p016                 obsgroup      2.4310000E-03    3.9090000E-03   -1.4780000E-03     1.000000        2.4310000E-03    3.9090000E-03   -1.4780000E-03    6.1977414E-04     1613.491    
 p017                 obsgroup      2.9360000E-03    4.1560000E-03   -1.2200000E-03     1.000000        2.9360000E-03    4.1560000E-03   -1.2200000E-03    6.1977414E-04     1613.491    
 p018                 obsgroup      2.9660000E-03    4.3960000E-03   -1.4300000E-03     1.000000        2.9660000E-03    4.3960000E-03   -1.4300000E-03    6.1977414E-04     1613.491    
 p019                 obsgroup      3.4200000E-03    4.6440000E-03   -1.2240000E-03     1.000000        3.4200000E-03    4.6440000E-03   -1.2240000E-03    6.1977414E-04     1613.491    
 p020                 obsgroup      3.8010000E-03    4.8910000E-03   -1.0900000E-03     1.000000        3.8010000E-03    4.8910000E-03   -1.0900000E-03    6.1977414E-04     1613.491    
 p021                 obsgroup      4.1410000E-03    5.1400000E-03   -9.9900000E-04     1.000000        4.1410000E-03    5.1400000E-03   -9.9900000E-04    6.1977414E-04     1613.491    
 p022                 obsgroup      4.3160000E-03    5.3920000E-03   -1.0760000E-03     1.000000        4.3160000E-03    5.3920000E-03   -1.0760000E-03    6.1977414E-04     1613.491    
 p023                 obsgroup      4.8620000E-03    5.6350000E-03   -7.7300000E-04     1.000000        4.8620000E-03    5.6350000E-03   -7.7300000E-04    6.1977414E-04     1613.491    
 p024                 obsgroup      5.3350000E-03    5.8720000E-03   -5.3700000E-04     1.000000        5.3350000E-03    5.8720000E-03   -5.3700000E-04    6.1977414E-04     1613.491    
 p025                 obsgroup      5.5930000E-03    6.1100000E-03   -5.1700000E-04     1.000000        5.5930000E-03    6.1100000E-03   -5.1700000E-04    6.1977414E-04     1613.491    
 p026                 obsgroup      5.5930000E-03    6.3470000E-03   -7.5400000E-04     1.000000        5.5930000E-03    6.3470000E-03   -7.5400000E-04    6.1977414E-04     1613.491    
 p027                 obsgroup      6.7260000E-03    6.5740000E-03    1.5200000E-04     1.000000        6.7260000E-03    6.5740000E-03    1.5200000E-04    6.1977414E-04     1613.491    
 p028                 obsgroup      6.8800000E-03    6.7880000E-03    9.2000000E-05     1.000000        6.8800000E-03    6.7880000E-03    9.2000000E-05    6.1977414E-04     1613.491    
 p029                 obsgroup      7.1280000E-03    6.9980000E-03    1.3000000E-04     1.000000        7.1280000E-03    6.9980000E-03    1.3000000E-04    6.1977414E-04     1613.491    
 p030                 obsgroup      7.2510000E-03    7.2060000E-03    4.5000000E-05     1.000000        7.2510000E-03    7.2060000E-03    4.5000000E-05    6.1977414E-04     1613.491    
 p031                 obsgroup      7.6840000E-03    7.4080000E-03    2.7600000E-04     1.000000        7.6840000E-03    7.4080000E-03    2.7600000E-04    6.1977414E-04     1613.491    
 p032                 obsgroup      8.4670000E-03    7.6010000E-03    8.6600000E-04     1.000000        8.4670000E-03    7.6010000E-03    8.6600000E-04    6.1977414E-04     1613.491    
 p033                 obsgroup      8.2090000E-03    7.7890000E-03    4.2000000E-04     1.000000        8.2090000E-03    7.7890000E-03    4.2000000E-04    6.1977414E-04     1613.491    
 p034                 obsgroup      8.4770000E-03    7.9720000E-03    5.0500000E-04     1.000000        8.4770000E-03    7.9720000E-03    5.0500000E-04    6.1977414E-04     1613.491    
 p035                 obsgroup      8.5800000E-03    8.1480000E-03    4.3200000E-04     1.000000        8.5800000E-03    8.1480000E-03    4.3200000E-04    6.1977414E-04     1613.491    
 p036                 obsgroup      8.8580000E-03    8.3190000E-03    5.3900000E-04     1.000000        8.8580000E-03    8.3190000E-03    5.3900000E-04    6.1977414E-04     1613.491    
 p037                 obsgroup      9.1770000E-03    8.4850000E-03    6.9200000E-04     1.000000        9.1770000E-03    8.4850000E-03    6.9200000E-04    6.1977414E-04     1613.491    
 p038                 obsgroup      9.1980000E-03    8.6420000E-03    5.5600000E-04     1.000000        9.1980000E-03    8.6420000E-03    5.5600000E-04    6.1977414E-04     1613.491    
 p039                 obsgroup      9.3730000E-03    8.7920000E-03    5.8100000E-04     1.000000        9.3730000E-03    8.7920000E-03    5.8100000E-04    6.1977414E-04     1613.491    
 p040                 obsgroup      9.7440000E-03    8.9360000E-03    8.0800000E-04     1.000000        9.7440000E-03    8.9360000E-03    8.0800000E-04    6.1977414E-04     1613.491    
 p041                 obsgroup      1.0187000E-02    9.0730000E-03    1.1140000E-03     1.000000        1.0187000E-02    9.0730000E-03    1.1140000E-03    6.1977414E-04     1613.491    
 p042                 obsgroup      1.0043000E-02    9.2020000E-03    8.4100000E-04     1.000000        1.0043000E-02    9.2020000E-03    8.4100000E-04    6.1977414E-04     1613.491    
 p043                 obsgroup      1.0218000E-02    9.3240000E-03    8.9400000E-04     1.000000        1.0218000E-02    9.3240000E-03    8.9400000E-04    6.1977414E-04     1613.491    
 p044                 obsgroup      1.0712000E-02    9.4360000E-03    1.2760000E-03     1.000000        1.0712000E-02    9.4360000E-03    1.2760000E-03    6.1977414E-04     1613.491    
 p045                 obsgroup      1.0238000E-02    9.5430000E-03    6.9500000E-04     1.000000        1.0238000E-02    9.5430000E-03    6.9500000E-04    6.1977414E-04     1613.491    
 p046                 obsgroup      1.1021000E-02    9.6420000E-03    1.3790000E-03     1.000000        1.1021000E-02    9.6420000E-03    1.3790000E-03    6.1977414E-04     1613.491    
 p047                 obsgroup      1.0506000E-02    9.7310000E-03    7.7500000E-04     1.000000        1.0506000E-02    9.7310000E-03    7.7500000E-04    6.1977414E-04     1613.491    
 p048                 obsgroup      1.0506000E-02    9.8150000E-03    6.9100000E-04     1.000000        1.0506000E-02    9.8150000E-03    6.9100000E-04    6.1977414E-04     1613.491    
 p049                 obsgroup      1.1021000E-02    9.8920000E-03    1.1290000E-03     1.000000        1.1021000E-02    9.8920000E-03    1.1290000E-03    6.1977414E-04     1613.491    
 p050                 obsgroup      1.0712000E-02    9.9620000E-03    7.5000000E-04     1.000000        1.0712000E-02    9.9620000E-03    7.5000000E-04    6.1977414E-04     1613.491    
 p051                 obsgroup      1.0712000E-02    1.0027000E-02    6.8500000E-04     1.000000        1.0712000E-02    1.0027000E-02    6.8500000E-04    6.1977414E-04     1613.491    
 p052                 obsgroup      1.0712000E-02    1.0086000E-02    6.2600000E-04     1.000000        1.0712000E-02    1.0086000E-02    6.2600000E-04    6.1977414E-04     1613.491    
 p053                 obsgroup      1.1433000E-02    1.0136000E-02    1.2970000E-03     1.000000        1.1433000E-02    1.0136000E-02    1.2970000E-03    6.1977414E-04     1613.491    
 p054                 obsgroup      1.1330000E-02    1.0181000E-02    1.1490000E-03     1.000000        1.1330000E-02    1.0181000E-02    1.1490000E-03    6.1977414E-04     1613.491    
 p055                 obsgroup      1.1433000E-02    1.0221000E-02    1.2120000E-03     1.000000        1.1433000E-02    1.0221000E-02    1.2120000E-03    6.1977414E-04     1613.491    
 p056                 obsgroup      1.1536000E-02    1.0256000E-02    1.2800000E-03     1.000000        1.1536000E-02    1.0256000E-02    1.2800000E-03    6.1977414E-04     1613.491    
 p057                 obsgroup      1.0918000E-02    1.0286000E-02    6.3200000E-04     1.000000        1.0918000E-02    1.0286000E-02    6.3200000E-04    6.1977414E-04     1613.491    
 p058                 obsgroup      1.0815000E-02    1.0312000E-02    5.0300000E-04     1.000000        1.0815000E-02    1.0312000E-02    5.0300000E-04    6.1977414E-04     1613.491    
 p059                 obsgroup      1.0506000E-02    1.0333000E-02    1.7300000E-04     1.000000        1.0506000E-02    1.0333000E-02    1.7300000E-04    6.1977414E-04     1613.491    
 p060                 obsgroup      1.0918000E-02    1.0349000E-02    5.6900000E-04     1.000000        1.0918000E-02    1.0349000E-02    5.6900000E-04    6.1977414E-04     1613.491    
 p061                 obsgroup      1.0815000E-02    1.0359000E-02    4.5600000E-04     1.000000        1.0815000E-02    1.0359000E-02    4.5600000E-04    6.1977414E-04     1613.491    
 p062                 obsgroup      1.0506000E-02    1.0366000E-02    1.4000000E-04     1.000000        1.0506000E-02    1.0366000E-02    1.4000000E-04    6.1977414E-04     1613.491    
 p063                 obsgroup      1.0300000E-02    1.0368000E-02   -6.8000000E-05     1.000000        1.0300000E-02    1.0368000E-02   -6.8000000E-05    6.1977414E-04     1613.491    
 p064                 obsgroup      1.0146000E-02    1.0366000E-02   -2.2000000E-04     1.000000        1.0146000E-02    1.0366000E-02   -2.2000000E-04    6.1977414E-04     1613.491    
 p065                 obsgroup      1.0403000E-02    1.0359000E-02    4.4000000E-05     1.000000        1.0403000E-02    1.0359000E-02    4.4000000E-05    6.1977414E-04     1613.491    
 p066                 obsgroup      1.0166000E-02    1.0348000E-02   -1.8200000E-04     1.000000        1.0166000E-02    1.0348000E-02   -1.8200000E-04    6.1977414E-04     1613.491    
 p067                 obsgroup      9.9400000E-03    1.0333000E-02   -3.9300000E-04     1.000000        9.9400000E-03    1.0333000E-02   -3.9300000E-04    6.1977414E-04     1613.491    
 p068                 obsgroup      1.0146000E-02    1.0313000E-02   -1.6700000E-04     1.000000        1.0146000E-02    1.0313000E-02   -1.6700000E-04    6.1977414E-04     1613.491    
 p069                 obsgroup      9.7750000E-03    1.0290000E-02   -5.1500000E-04     1.000000        9.7750000E-03    1.0290000E-02   -5.1500000E-04    6.1977414E-04     1613.491    
 p070                 obsgroup      1.0156000E-02    1.0263000E-02   -1.0700000E-04     1.000000        1.0156000E-02    1.0263000E-02   -1.0700000E-04    6.1977414E-04     1613.491    
 p071                 obsgroup      1.0115000E-02    1.0233000E-02   -1.1800000E-04     1.000000        1.0115000E-02    1.0233000E-02   -1.1800000E-04    6.1977414E-04     1613.491    
 p072                 obsgroup      9.8980000E-03    1.0199000E-02   -3.0100000E-04     1.000000        9.8980000E-03    1.0199000E-02   -3.0100000E-04    6.1977414E-04     1613.491    
 p073                 obsgroup      9.6000000E-03    1.0163000E-02   -5.6300000E-04     1.000000        9.6000000E-03    1.0163000E-02   -5.6300000E-04    6.1977414E-04     1613.491    
 p074                 obsgroup      9.8160000E-03    1.0124000E-02   -3.0800000E-04     1.000000        9.8160000E-03    1.0124000E-02   -3.0800000E-04    6.1977414E-04     1613.491    
 p075                 obsgroup      1.0022000E-02    1.0082000E-02   -6.0000000E-05     1.000000        1.0022000E-02    1.0082000E-02   -6.0000000E-05    6.1977414E-04     1613.491    
 p076                 obsgroup      9.2390000E-03    1.0037000E-02   -7.9800000E-04     1.000000        9.2390000E-03    1.0037000E-02   -7.9800000E-04    6.1977414E-04     1613.491    
 p077                 obsgroup      9.7540000E-03    9.9890000E-03   -2.3500000E-04     1.000000        9.7540000E-03    9.9890000E-03   -2.3500000E-04    6.1977414E-04     1613.491    
 p078                 obsgroup      9.2600000E-03    9.9390000E-03   -6.7900000E-04     1.000000        9.2600000E-03    9.9390000E-03   -6.7900000E-04    6.1977414E-04     1613.491    
 p079                 obsgroup      9.3420000E-03    9.8860000E-03   -5.4400000E-04     1.000000        9.3420000E-03    9.8860000E-03   -5.4400000E-04    6.1977414E-04     1613.491    
 p080                 obsgroup      9.1460000E-03    9.8310000E-03   -6.8500000E-04     1.000000        9.1460000E-03    9.8310000E-03   -6.8500000E-04    6.1977414E-04     1613.491    
 p081                 obsgroup      9.1670000E-03    9.6570000E-03   -4.9000000E-04     1.000000        9.1670000E-03    9.6570000E-03   -4.9000000E-04    6.1977414E-04     1613.491    
 p082                 obsgroup      8.5900000E-03    9.4670000E-03   -8.7700000E-04     1.000000        8.5900000E-03    9.4670000E-03   -8.7700000E-04    6.1977414E-04     1613.491    
 p083                 obsgroup      8.3120000E-03    9.2660000E-03   -9.5400000E-04     1.000000        8.3120000E-03    9.2660000E-03   -9.5400000E-04    6.1977414E-04     1613.491    
 p084                 obsgroup      8.2500000E-03    9.0540000E-03   -8.0400000E-04     1.000000        8.2500000E-03    9.0540000E-03   -8.0400000E-04    6.1977414E-04     1613.491    
 p085                 obsgroup      7.8590000E-03    8.8300000E-03   -9.7100000E-04     1.000000        7.8590000E-03    8.8300000E-03   -9.7100000E-04    6.1977414E-04     1613.491    
 p086                 obsgroup      7.4880000E-03    8.5900000E-03   -1.1020000E-03     1.000000        7.4880000E-03    8.5900000E-03   -1.1020000E-03    6.1977414E-04     1613.491    
 p087                 obsgroup      7.4260000E-03    8.3540000E-03   -9.2800000E-04     1.000000        7.4260000E-03    8.3540000E-03   -9.2800000E-04    6.1977414E-04     1613.491    
 p088                 obsgroup      7.0350000E-03    8.1120000E-03   -1.0770000E-03     1.000000        7.0350000E-03    8.1120000E-03   -1.0770000E-03    6.1977414E-04     1613.491    
 p089                 obsgroup      7.0560000E-03    7.8670000E-03   -8.1100000E-04     1.000000        7.0560000E-03    7.8670000E-03   -8.1100000E-04    6.1977414E-04     1613.491    
 p090                 obsgroup      6.7880000E-03    7.6270000E-03   -8.3900000E-04     1.000000        6.7880000E-03    7.6270000E-03   -8.3900000E-04    6.1977414E-04     1613.491    
 p091                 obsgroup      6.5300000E-03    7.3840000E-03   -8.5400000E-04     1.000000        6.5300000E-03    7.3840000E-03   -8.5400000E-04    6.1977414E-04     1613.491    
 p092                 obsgroup      6.3240000E-03    7.1420000E-03   -8.1800000E-04     1.000000        6.3240000E-03    7.1420000E-03   -8.1800000E-04    6.1977414E-04     1613.491    
 p093                 obsgroup      6.0770000E-03    6.9050000E-03   -8.2800000E-04     1.000000        6.0770000E-03    6.9050000E-03   -8.2800000E-04    6.1977414E-04     1613.491    
 p094                 obsgroup      5.7780000E-03    6.6670000E-03   -8.8900000E-04     1.000000        5.7780000E-03    6.6670000E-03   -8.8900000E-04    6.1977414E-04     1613.491    
 p095                 obsgroup      5.5410000E-03    6.4340000E-03   -8.9300000E-04     1.000000        5.5410000E-03    6.4340000E-03   -8.9300000E-04    6.1977414E-04     1613.491    
 p096                 obsgroup      5.4280000E-03    6.2020000E-03   -7.7400000E-04     1.000000        5.4280000E-03    6.2020000E-03   -7.7400000E-04    6.1977414E-04     1613.491    
 p097                 obsgroup      5.3250000E-03    5.9730000E-03   -6.4800000E-04     1.000000        5.3250000E-03    5.9730000E-03   -6.4800000E-04    6.1977414E-04     1613.491    
 p098                 obsgroup      5.0260000E-03    5.7560000E-03   -7.3000000E-04     1.000000        5.0260000E-03    5.7560000E-03   -7.3000000E-04    6.1977414E-04     1613.491    
 p099                 obsgroup      5.3660000E-03    5.5450000E-03   -1.7900000E-04     1.000000        5.3660000E-03    5.5450000E-03   -1.7900000E-04    6.1977414E-04     1613.491    
 p100                 obsgroup      4.9960000E-03    5.3400000E-03   -3.4400000E-04     1.000000        4.9960000E-03    5.3400000E-03   -3.4400000E-04    6.1977414E-04     1613.491    
 p101                 obsgroup      4.6450000E-03    5.1390000E-03   -4.9400000E-04     1.000000        4.6450000E-03    5.1390000E-03   -4.9400000E-04    6.1977414E-04     1613.491    
 p102                 obsgroup      4.5220000E-03    4.9440000E-03   -4.2200000E-04     1.000000        4.5220000E-03    4.9440000E-03   -4.2200000E-04    6.1977414E-04     1613.491    
 p103                 obsgroup      4.2850000E-03    4.7540000E-03   -4.6900000E-04     1.000000        4.2850000E-03    4.7540000E-03   -4.6900000E-04    6.1977414E-04     1613.491    
 p104                 obsgroup      4.1100000E-03    4.5680000E-03   -4.5800000E-04     1.000000        4.1100000E-03    4.5680000E-03   -4.5800000E-04    6.1977414E-04     1613.491    
 p105                 obsgroup      3.9860000E-03    4.3830000E-03   -3.9700000E-04     1.000000        3.9860000E-03    4.3830000E-03   -3.9700000E-04    6.1977414E-04     1613.491    
 p106                 obsgroup      4.2540000E-03    4.2020000E-03    5.2000000E-05     1.000000        4.2540000E-03    4.2020000E-03    5.2000000E-05    6.1977414E-04     1613.491    
 p107                 obsgroup      3.8730000E-03    4.0300000E-03   -1.5700000E-04     1.000000        3.8730000E-03    4.0300000E-03   -1.5700000E-04    6.1977414E-04     1613.491    
 p108                 obsgroup      3.7490000E-03    3.8660000E-03   -1.1700000E-04     1.000000        3.7490000E-03    3.8660000E-03   -1.1700000E-04    6.1977414E-04     1613.491    
 p109                 obsgroup      4.0270000E-03    3.7070000E-03    3.2000000E-04     1.000000        4.0270000E-03    3.7070000E-03    3.2000000E-04    6.1977414E-04     1613.491    
 p110                 obsgroup      3.5330000E-03    3.5580000E-03   -2.5000000E-05     1.000000        3.5330000E-03    3.5580000E-03   -2.5000000E-05    6.1977414E-04     1613.491    
 p111                 obsgroup      3.5840000E-03    3.4140000E-03    1.7000000E-04     1.000000        3.5840000E-03    3.4140000E-03    1.7000000E-04    6.1977414E-04     1613.491    
 p112                 obsgroup      3.3480000E-03    3.2770000E-03    7.1000000E-05     1.000000        3.3480000E-03    3.2770000E-03    7.1000000E-05    6.1977414E-04     1613.491    
 p113                 obsgroup      3.1520000E-03    3.1420000E-03    1.0000000E-05     1.000000        3.1520000E-03    3.1420000E-03    1.0000000E-05    6.1977414E-04     1613.491    
 p114                 obsgroup      3.0690000E-03    3.0120000E-03    5.7000000E-05     1.000000        3.0690000E-03    3.0120000E-03    5.7000000E-05    6.1977414E-04     1613.491    
 p115                 obsgroup      2.9250000E-03    2.8860000E-03    3.9000000E-05     1.000000        2.9250000E-03    2.8860000E-03    3.9000000E-05    6.1977414E-04     1613.491    
 p116                 obsgroup      2.9770000E-03    2.7640000E-03    2.1300000E-04     1.000000        2.9770000E-03    2.7640000E-03    2.1300000E-04    6.1977414E-04     1613.491    
 p117                 obsgroup      2.8120000E-03    2.6420000E-03    1.7000000E-04     1.000000        2.8120000E-03    2.6420000E-03    1.7000000E-04    6.1977414E-04     1613.491    
 p118                 obsgroup      2.8120000E-03    2.5320000E-03    2.8000000E-04     1.000000        2.8120000E-03    2.5320000E-03    2.8000000E-04    6.1977414E-04     1613.491    
 p119                 obsgroup      2.8020000E-03    2.4240000E-03    3.7800000E-04     1.000000        2.8020000E-03    2.4240000E-03    3.7800000E-04    6.1977414E-04     1613.491    
 p120                 obsgroup      2.7090000E-03    2.3220000E-03    3.8700000E-04     1.000000        2.7090000E-03    2.3220000E-03    3.8700000E-04    6.1977414E-04     1613.491    
 p121                 obsgroup      2.5240000E-03    2.2230000E-03    3.0100000E-04     1.000000        2.5240000E-03    2.2230000E-03    3.0100000E-04    6.1977414E-04     1613.491    
 p122                 obsgroup      2.5750000E-03    2.1270000E-03    4.4800000E-04     1.000000        2.5750000E-03    2.1270000E-03    4.4800000E-04    6.1977414E-04     1613.491    
 p123                 obsgroup      2.5030000E-03    2.0360000E-03    4.6700000E-04     1.000000        2.5030000E-03    2.0360000E-03    4.6700000E-04    6.1977414E-04     1613.491    
 p124                 obsgroup      2.4210000E-03    1.9510000E-03    4.7000000E-04     1.000000        2.4210000E-03    1.9510000E-03    4.7000000E-04    6.1977414E-04     1613.491    
 p125                 obsgroup      2.4310000E-03    1.8690000E-03    5.6200000E-04     1.000000        2.4310000E-03    1.8690000E-03    5.6200000E-04    6.1977414E-04     1613.491    
 p126                 obsgroup      2.2560000E-03    1.7880000E-03    4.6800000E-04     1.000000        2.2560000E-03    1.7880000E-03    4.6800000E-04    6.1977414E-04     1613.491    
 p127                 obsgroup      2.2350000E-03    1.7080000E-03    5.2700000E-04     1.000000        2.2350000E-03    1.7080000E-03    5.2700000E-04    6.1977414E-04     1613.491    
 p128                 obsgroup      2.2040000E-03    1.6330000E-03    5.7100000E-04     1.000000        2.2040000E-03    1.6330000E-03    5.7100000E-04    6.1977414E-04     1613.491    
 p129                 obsgroup      2.1220000E-03    1.5630000E-03    5.5900000E-04     1.000000        2.1220000E-03    1.5630000E-03    5.5900000E-04    6.1977414E-04     1613.491    
 p130                 obsgroup      2.0910000E-03    1.4950000E-03    5.9600000E-04     1.000000        2.0910000E-03    1.4950000E-03    5.9600000E-04    6.1977414E-04     1613.491    
 p131                 obsgroup      2.1730000E-03    1.4310000E-03    7.4200000E-04     1.000000        2.1730000E-03    1.4310000E-03    7.4200000E-04    6.1977414E-04     1613.491    
 p132                 obsgroup      1.9780000E-03    1.3700000E-03    6.0800000E-04     1.000000        1.9780000E-03    1.3700000E-03    6.0800000E-04    6.1977414E-04     1613.491    
 p133                 obsgroup      1.9360000E-03    1.3110000E-03    6.2500000E-04     1.000000        1.9360000E-03    1.3110000E-03    6.2500000E-04    6.1977414E-04     1613.491    
 p134                 obsgroup      1.8750000E-03    1.2550000E-03    6.2000000E-04     1.000000        1.8750000E-03    1.2550000E-03    6.2000000E-04    6.1977414E-04     1613.491    
 p135                 obsgroup      2.0810000E-03    1.2020000E-03    8.7900000E-04     1.000000        2.0810000E-03    1.2020000E-03    8.7900000E-04    6.1977414E-04     1613.491    
 p136                 obsgroup      1.9260000E-03    1.1510000E-03    7.7500000E-04     1.000000        1.9260000E-03    1.1510000E-03    7.7500000E-04    6.1977414E-04     1613.491    
 p137                 obsgroup      1.9670000E-03    1.1010000E-03    8.6600000E-04     1.000000        1.9670000E-03    1.1010000E-03    8.6600000E-04    6.1977414E-04     1613.491    
 p138                 obsgroup      1.8950000E-03    1.0550000E-03    8.4000000E-04     1.000000        1.8950000E-03    1.0550000E-03    8.4000000E-04    6.1977414E-04     1613.491    
 p139                 obsgroup      1.8440000E-03    1.0110000E-03    8.3300000E-04     1.000000        1.8440000E-03    1.0110000E-03    8.3300000E-04    6.1977414E-04     1613.491    
 p140                 obsgroup      1.7200000E-03    9.6800000E-04    7.5200000E-04     1.000000        1.7200000E-03    9.6800000E-04    7.5200000E-04    6.1977414E-04     1613.491    
 p141                 obsgroup      1.7820000E-03    9.2800000E-04    8.5400000E-04     1.000000        1.7820000E-03    9.2800000E-04    8.5400000E-04    6.1977414E-04     1613.491    
 p142                 obsgroup      1.8230000E-03    8.8900000E-04    9.3400000E-04     1.000000        1.8230000E-03    8.8900000E-04    9.3400000E-04    6.1977414E-04     1613.491    
 p143                 obsgroup      1.6890000E-03    8.5200000E-04    8.3700000E-04     1.000000        1.6890000E-03    8.5200000E-04    8.3700000E-04    6.1977414E-04     1613.491    
 p144                 obsgroup      1.6170000E-03    8.1600000E-04    8.0100000E-04     1.000000        1.6170000E-03    8.1600000E-04    8.0100000E-04    6.1977414E-04     1613.491    
 p145                 obsgroup      1.5760000E-03    7.8100000E-04    7.9500000E-04     1.000000        1.5760000E-03    7.8100000E-04    7.9500000E-04    6.1977414E-04     1613.491    
 p146                 obsgroup      1.5760000E-03    7.4700000E-04    8.2900000E-04     1.000000        1.5760000E-03    7.4700000E-04    8.2900000E-04    6.1977414E-04     1613.491    
 p147                 obsgroup      1.6170000E-03    7.1400000E-04    9.0300000E-04     1.000000        1.6170000E-03    7.1400000E-04    9.0300000E-04    6.1977414E-04     1613.491    
 p148                 obsgroup      1.4730000E-03    6.8300000E-04    7.9000000E-04     1.000000        1.4730000E-03    6.8300000E-04    7.9000000E-04    6.1977414E-04     1613.491    
 p149                 obsgroup      1.4830000E-03    6.5300000E-04    8.3000000E-04     1.000000        1.4830000E-03    6.5300000E-04    8.3000000E-04    6.1977414E-04     1613.491    
 p150                 obsgroup      1.6170000E-03    6.2400000E-04    9.9300000E-04     1.000000        1.6170000E-03    6.2400000E-04    9.9300000E-04    6.1977414E-04     1613.491    
 p151                 obsgroup      1.4630000E-03    5.9800000E-04    8.6500000E-04     1.000000        1.4630000E-03    5.9800000E-04    8.6500000E-04    6.1977414E-04     1613.491    
 p152                 obsgroup      1.4520000E-03    5.7300000E-04    8.7900000E-04     1.000000        1.4520000E-03    5.7300000E-04    8.7900000E-04    6.1977414E-04     1613.491    
 p153                 obsgroup      1.4010000E-03    5.4000000E-04    8.6100000E-04     1.000000        1.4010000E-03    5.4000000E-04    8.6100000E-04    6.1977414E-04     1613.491    
 p154                 obsgroup      1.2880000E-03    5.0900000E-04    7.7900000E-04     1.000000        1.2880000E-03    5.0900000E-04    7.7900000E-04    6.1977414E-04     1613.491    
 p155                 obsgroup      1.1950000E-03    4.7900000E-04    7.1600000E-04     1.000000        1.1950000E-03    4.7900000E-04    7.1600000E-04    6.1977414E-04     1613.491    
 p156                 obsgroup      1.3080000E-03    4.5100000E-04    8.5700000E-04     1.000000        1.3080000E-03    4.5100000E-04    8.5700000E-04    6.1977414E-04     1613.491    
 p157                 obsgroup      1.2260000E-03    4.2400000E-04    8.0200000E-04     1.000000        1.2260000E-03    4.2400000E-04    8.0200000E-04    6.1977414E-04     1613.491    
 p158                 obsgroup      1.2570000E-03    4.0000000E-04    8.5700000E-04     1.000000        1.2570000E-03    4.0000000E-04    8.5700000E-04    6.1977414E-04     1613.491    
 p159                 obsgroup      1.1020000E-03    3.7700000E-04    7.2500000E-04     1.000000        1.1020000E-03    3.7700000E-04    7.2500000E-04    6.1977414E-04     1613.491    
 p160                 obsgroup      1.1950000E-03    3.5500000E-04    8.4000000E-04     1.000000        1.1950000E-03    3.5500000E-04    8.4000000E-04    6.1977414E-04     1613.491    
 p161                 obsgroup      1.0920000E-03    3.3400000E-04    7.5800000E-04     1.000000        1.0920000E-03    3.3400000E-04    7.5800000E-04    6.1977414E-04     1613.491    
 p162                 obsgroup      1.0510000E-03    3.1400000E-04    7.3700000E-04     1.000000        1.0510000E-03    3.1400000E-04    7.3700000E-04    6.1977414E-04     1613.491    
 p163                 obsgroup      1.0400000E-03    2.9500000E-04    7.4500000E-04     1.000000        1.0400000E-03    2.9500000E-04    7.4500000E-04    6.1977414E-04     1613.491    
 p164                 obsgroup      1.0240000E-03    2.7800000E-04    7.4600000E-04     1.000000        1.0240000E-03    2.7800000E-04    7.4600000E-04    6.1977414E-04     1613.491    
 p165                 obsgroup      1.0710000E-03    2.6100000E-04    8.1000000E-04     1.000000        1.0710000E-03    2.6100000E-04    8.1000000E-04    6.1977414E-04     1613.491    
 p166                 obsgroup      1.0250000E-03    2.4600000E-04    7.7900000E-04     1.000000        1.0250000E-03    2.4600000E-04    7.7900000E-04    6.1977414E-04     1613.491    
 p167                 obsgroup      1.0920000E-03    2.3200000E-04    8.6000000E-04     1.000000        1.0920000E-03    2.3200000E-04    8.6000000E-04    6.1977414E-04     1613.491    
 p168                 obsgroup      9.6900000E-04    2.1400000E-04    7.5500000E-04     1.000000        9.6900000E-04    2.1400000E-04    7.5500000E-04    6.1977414E-04     1613.491    
 p169                 obsgroup      9.8300000E-04    2.0200000E-04    7.8100000E-04     1.000000        9.8300000E-04    2.0200000E-04    7.8100000E-04    6.1977414E-04     1613.491    
 p170                 obsgroup      8.0900000E-04    1.9400000E-04    6.1500000E-04     1.000000        8.0900000E-04    1.9400000E-04    6.1500000E-04    6.1977414E-04     1613.491    
 p171                 obsgroup      8.3800000E-04    1.8300000E-04    6.5500000E-04     1.000000        8.3800000E-04    1.8300000E-04    6.5500000E-04    6.1977414E-04     1613.491    
 p172                 obsgroup      7.6100000E-04    1.7300000E-04    5.8800000E-04     1.000000        7.6100000E-04    1.7300000E-04    5.8800000E-04    6.1977414E-04     1613.491    
 p173                 obsgroup      6.9900000E-04    1.6300000E-04    5.3600000E-04     1.000000        6.9900000E-04    1.6300000E-04    5.3600000E-04    6.1977414E-04     1613.491    
 p174                 obsgroup      7.4200000E-04    1.5300000E-04    5.8900000E-04     1.000000        7.4200000E-04    1.5300000E-04    5.8900000E-04    6.1977414E-04     1613.491    
 p175                 obsgroup      7.5800000E-04    1.4500000E-04    6.1300000E-04     1.000000        7.5800000E-04    1.4500000E-04    6.1300000E-04    6.1977414E-04     1613.491    
 p176                 obsgroup      6.6800000E-04    1.3600000E-04    5.3200000E-04     1.000000        6.6800000E-04    1.3600000E-04    5.3200000E-04    6.1977414E-04     1613.491    
 p177                 obsgroup      7.5400000E-04    1.2800000E-04    6.2600000E-04     1.000000        7.5400000E-04    1.2800000E-04    6.2600000E-04    6.1977414E-04     1613.491    
 p178                 obsgroup      6.9300000E-04    1.2000000E-04    5.7300000E-04     1.000000        6.9300000E-04    1.2000000E-04    5.7300000E-04    6.1977414E-04     1613.491    
 p179                 obsgroup      7.5100000E-04    1.1300000E-04    6.3800000E-04     1.000000        7.5100000E-04    1.1300000E-04    6.3800000E-04    6.1977414E-04     1613.491    
 p180                 obsgroup      6.5300000E-04    1.0700000E-04    5.4600000E-04     1.000000        6.5300000E-04    1.0700000E-04    5.4600000E-04    6.1977414E-04     1613.491    
 p181                 obsgroup      7.8600000E-04    1.0100000E-04    6.8500000E-04     1.000000        7.8600000E-04    1.0100000E-04    6.8500000E-04    6.1977414E-04     1613.491    
 p182                 obsgroup      6.7900000E-04    9.6000000E-05    5.8300000E-04     1.000000        6.7900000E-04    9.6000000E-05    5.8300000E-04    6.1977414E-04     1613.491    
 p183                 obsgroup      6.8800000E-04    9.0000000E-05    5.9800000E-04     1.000000        6.8800000E-04    9.0000000E-05    5.9800000E-04    6.1977414E-04     1613.491    
 p184                 obsgroup      6.2300000E-04    8.5000000E-05    5.3800000E-04     1.000000        6.2300000E-04    8.5000000E-05    5.3800000E-04    6.1977414E-04     1613.491    
 p185                 obsgroup      6.8800000E-04    8.0000000E-05    6.0800000E-04     1.000000        6.8800000E-04    8.0000000E-05    6.0800000E-04    6.1977414E-04     1613.491    
 p186                 obsgroup      7.2700000E-04    7.5000000E-05    6.5200000E-04     1.000000        7.2700000E-04    7.5000000E-05    6.5200000E-04    6.1977414E-04     1613.491    
 p187                 obsgroup      6.3400000E-04    7.1000000E-05    5.6300000E-04     1.000000        6.3400000E-04    7.1000000E-05    5.6300000E-04    6.1977414E-04     1613.491    
 p188                 obsgroup      5.9400000E-04    6.7000000E-05    5.2700000E-04     1.000000        5.9400000E-04    6.7000000E-05    5.2700000E-04    6.1977414E-04     1613.491    
 p189                 obsgroup      6.2600000E-04    6.3000000E-05    5.6300000E-04     1.000000        6.2600000E-04    6.3000000E-05    5.6300000E-04    6.1977414E-04     1613.491    
 p190                 obsgroup      6.3900000E-04    5.9000000E-05    5.8000000E-04     1.000000        6.3900000E-04    5.9000000E-05    5.8000000E-04    6.1977414E-04     1613.491    
 p191                 obsgroup      6.1800000E-04    5.6000000E-05    5.6200000E-04     1.000000        6.1800000E-04    5.6000000E-05    5.6200000E-04    6.1977414E-04     1613.491    
 p192                 obsgroup      5.7900000E-04    5.3000000E-05    5.2600000E-04     1.000000        5.7900000E-04    5.3000000E-05    5.2600000E-04    6.1977414E-04     1613.491    
 p193                 obsgroup      6.8800000E-04    5.0000000E-05    6.3800000E-04     1.000000        6.8800000E-04    5.0000000E-05    6.3800000E-04    6.1977414E-04     1613.491    
 p194                 obsgroup      6.8100000E-04    4.7000000E-05    6.3400000E-04     1.000000        6.8100000E-04    4.7000000E-05    6.3400000E-04    6.1977414E-04     1613.491    
 p195                 obsgroup      5.8600000E-04    4.4000000E-05    5.4200000E-04     1.000000        5.8600000E-04    4.4000000E-05    5.4200000E-04    6.1977414E-04     1613.491    
 p196                 obsgroup      6.0500000E-04    4.2000000E-05    5.6300000E-04     1.000000        6.0500000E-04    4.2000000E-05    5.6300000E-04    6.1977414E-04     1613.491    
 p197                 obsgroup      6.0800000E-04    3.9000000E-05    5.6900000E-04     1.000000        6.0800000E-04    3.9000000E-05    5.6900000E-04    6.1977414E-04     1613.491    
 p198                 obsgroup      5.4800000E-04    3.7000000E-05    5.1100000E-04     1.000000        5.4800000E-04    3.7000000E-05    5.1100000E-04    6.1977414E-04     1613.491    
 p199                 obsgroup      5.6900000E-04    3.5000000E-05    5.3400000E-04     1.000000        5.6900000E-04    3.5000000E-05    5.3400000E-04    6.1977414E-04     1613.491    
 p200                 obsgroup      6.2400000E-04    3.3000000E-05    5.9100000E-04     1.000000        6.2400000E-04    3.3000000E-05    5.9100000E-04    6.1977414E-04     1613.491    
 p201                 obsgroup      4.9900000E-04    3.1000000E-05    4.6800000E-04     1.000000        4.9900000E-04    3.1000000E-05    4.6800000E-04    6.1977414E-04     1613.491    
 p202                 obsgroup      5.2400000E-04    2.9000000E-05    4.9500000E-04     1.000000        5.2400000E-04    2.9000000E-05    4.9500000E-04    6.1977414E-04     1613.491    
 p203                 obsgroup      5.6100000E-04    2.8000000E-05    5.3300000E-04     1.000000        5.6100000E-04    2.8000000E-05    5.3300000E-04    6.1977414E-04     1613.491    
 p204                 obsgroup      6.4000000E-04    2.6000000E-05    6.1400000E-04     1.000000        6.4000000E-04    2.6000000E-05    6.1400000E-04    6.1977414E-04     1613.491    
 p205                 obsgroup      4.5400000E-04    2.5000000E-05    4.2900000E-04     1.000000        4.5400000E-04    2.5000000E-05    4.2900000E-04    6.1977414E-04     1613.491    
 p206                 obsgroup      4.9400000E-04    2.3000000E-05    4.7100000E-04     1.000000        4.9400000E-04    2.3000000E-05    4.7100000E-04    6.1977414E-04     1613.491    
 p207                 obsgroup      4.9600000E-04    2.2000000E-05    4.7400000E-04     1.000000        4.9600000E-04    2.2000000E-05    4.7400000E-04    6.1977414E-04     1613.491    
 p208                 obsgroup      4.5900000E-04    2.1000000E-05    4.3800000E-04     1.000000        4.5900000E-04    2.1000000E-05    4.3800000E-04    6.1977414E-04     1613.491    
 p209                 obsgroup      5.0100000E-04    2.0000000E-05    4.8100000E-04     1.000000        5.0100000E-04    2.0000000E-05    4.8100000E-04    6.1977414E-04     1613.491    
 p210                 obsgroup      4.1100000E-04    1.9000000E-05    3.9200000E-04     1.000000        4.1100000E-04    1.9000000E-05    3.9200000E-04    6.1977414E-04     1613.491    
 p211                 obsgroup      4.7600000E-04    1.8000000E-05    4.5800000E-04     1.000000        4.7600000E-04    1.8000000E-05    4.5800000E-04    6.1977414E-04     1613.491    
 p212                 obsgroup      4.2600000E-04    1.7000000E-05    4.0900000E-04     1.000000        4.2600000E-04    1.7000000E-05    4.0900000E-04    6.1977414E-04     1613.491    
 p213                 obsgroup      4.7100000E-04    1.6000000E-05    4.5500000E-04     1.000000        4.7100000E-04    1.6000000E-05    4.5500000E-04    6.1977414E-04     1613.491    
 p214                 obsgroup      4.3700000E-04    1.5000000E-05    4.2200000E-04     1.000000        4.3700000E-04    1.5000000E-05    4.2200000E-04    6.1977414E-04     1613.491    
 p215                 obsgroup      4.0000000E-04    1.4000000E-05    3.8600000E-04     1.000000        4.0000000E-04    1.4000000E-05    3.8600000E-04    6.1977414E-04     1613.491    
 p216                 obsgroup      4.6400000E-04    1.3000000E-05    4.5100000E-04     1.000000        4.6400000E-04    1.3000000E-05    4.5100000E-04    6.1977414E-04     1613.491    
 p217                 obsgroup      5.7400000E-04    1.2000000E-05    5.6200000E-04     1.000000        5.7400000E-04    1.2000000E-05    5.6200000E-04    6.1977414E-04     1613.491    
 p218                 obsgroup      4.3800000E-04    1.2000000E-05    4.2600000E-04     1.000000        4.3800000E-04    1.2000000E-05    4.2600000E-04    6.1977414E-04     1613.491    
 p219                 obsgroup      4.5600000E-04    1.1000000E-05    4.4500000E-04     1.000000        4.5600000E-04    1.1000000E-05    4.4500000E-04    6.1977414E-04     1613.491    
 p220                 obsgroup      4.3200000E-04    1.0000000E-05    4.2200000E-04     1.000000        4.3200000E-04    1.0000000E-05    4.2200000E-04    6.1977414E-04     1613.491    
 p221                 obsgroup      5.9400000E-04    1.0000000E-05    5.8400000E-04     1.000000        5.9400000E-04    1.0000000E-05    5.8400000E-04    6.1977414E-04     1613.491    
 p222                 obsgroup      4.1400000E-04    9.0000000E-06    4.0500000E-04     1.000000        4.1400000E-04    9.0000000E-06    4.0500000E-04    6.1977414E-04     1613.491    
 p223                 obsgroup      4.2300000E-04    9.0000000E-06    4.1400000E-04     1.000000        4.2300000E-04    9.0000000E-06    4.1400000E-04    6.1977414E-04     1613.491    
 p224                 obsgroup      5.0600000E-04    8.0000000E-06    4.9800000E-04     1.000000        5.0600000E-04    8.0000000E-06    4.9800000E-04    6.1977414E-04     1613.491    
 p225                 obsgroup      4.4600000E-04    8.0000000E-06    4.3800000E-04     1.000000        4.4600000E-04    8.0000000E-06    4.3800000E-04    6.1977414E-04     1613.491    
 p226                 obsgroup      4.0800000E-04    7.0000000E-06    4.0100000E-04     1.000000        4.0800000E-04    7.0000000E-06    4.0100000E-04    6.1977414E-04     1613.491    
 p227                 obsgroup      4.3100000E-04    7.0000000E-06    4.2400000E-04     1.000000        4.3100000E-04    7.0000000E-06    4.2400000E-04    6.1977414E-04     1613.491    
 p228                 obsgroup      4.5400000E-04    6.0000000E-06    4.4800000E-04     1.000000        4.5400000E-04    6.0000000E-06    4.4800000E-04    6.1977414E-04     1613.491    
 p229                 obsgroup      4.6100000E-04    6.0000000E-06    4.5500000E-04     1.000000        4.6100000E-04    6.0000000E-06    4.5500000E-04    6.1977414E-04     1613.491    
 p230                 obsgroup      4.3300000E-04    6.0000000E-06    4.2700000E-04     1.000000        4.3300000E-04    6.0000000E-06    4.2700000E-04    6.1977414E-04     1613.491    
 p231                 obsgroup      3.8900000E-04    5.0000000E-06    3.8400000E-04     1.000000        3.8900000E-04    5.0000000E-06    3.8400000E-04    6.1977414E-04     1613.491    
 p232                 obsgroup      3.8000000E-04    5.0000000E-06    3.7500000E-04     1.000000        3.8000000E-04    5.0000000E-06    3.7500000E-04    6.1977414E-04     1613.491    
 p233                 obsgroup      4.1600000E-04    5.0000000E-06    4.1100000E-04     1.000000        4.1600000E-04    5.0000000E-06    4.1100000E-04    6.1977414E-04     1613.491    
 p234                 obsgroup      4.6500000E-04    4.0000000E-06    4.6100000E-04     1.000000        4.6500000E-04    4.0000000E-06    4.6100000E-04    6.1977414E-04     1613.491    
 p235                 obsgroup      4.1200000E-04    4.0000000E-06    4.0800000E-04     1.000000        4.1200000E-04    4.0000000E-06    4.0800000E-04    6.1977414E-04     1613.491    
 p236                 obsgroup      4.1700000E-04    4.0000000E-06    4.1300000E-04     1.000000        4.1700000E-04    4.0000000E-06    4.1300000E-04    6.1977414E-04     1613.491    
 p237                 obsgroup      3.9700000E-04    4.0000000E-06    3.9300000E-04     1.000000        3.9700000E-04    4.0000000E-06    3.9300000E-04    6.1977414E-04     1613.491    
 p238                 obsgroup      3.9400000E-04    4.0000000E-06    3.9000000E-04     1.000000        3.9400000E-04    4.0000000E-06    3.9000000E-04    6.1977414E-04     1613.491    
 p239                 obsgroup      3.6200000E-04    3.0000000E-06    3.5900000E-04     1.000000        3.6200000E-04    3.0000000E-06    3.5900000E-04    6.1977414E-04     1613.491    
 p240                 obsgroup      3.6400000E-04    3.0000000E-06    3.6100000E-04     1.000000        3.6400000E-04    3.0000000E-06    3.6100000E-04    6.1977414E-04     1613.491    
 p241                 obsgroup      3.6300000E-04    3.0000000E-06    3.6000000E-04     1.000000        3.6300000E-04    3.0000000E-06    3.6000000E-04    6.1977414E-04     1613.491    
 p242                 obsgroup      3.5700000E-04    3.0000000E-06    3.5400000E-04     1.000000        3.5700000E-04    3.0000000E-06    3.5400000E-04    6.1977414E-04     1613.491    
 p243                 obsgroup      3.7700000E-04    3.0000000E-06    3.7400000E-04     1.000000        3.7700000E-04    3.0000000E-06    3.7400000E-04    6.1977414E-04     1613.491    
 p244                 obsgroup      4.2300000E-04    3.0000000E-06    4.2000000E-04     1.000000        4.2300000E-04    3.0000000E-06    4.2000000E-04    6.1977414E-04     1613.491    
 p245                 obsgroup      3.6300000E-04    2.0000000E-06    3.6100000E-04     1.000000        3.6300000E-04    2.0000000E-06    3.6100000E-04    6.1977414E-04     1613.491    
 p246                 obsgroup      3.9800000E-04    2.0000000E-06    3.9600000E-04     1.000000        3.9800000E-04    2.0000000E-06    3.9600000E-04    6.1977414E-04     1613.491    
 p247                 obsgroup      4.5600000E-04    2.0000000E-06    4.5400000E-04     1.000000        4.5600000E-04    2.0000000E-06    4.5400000E-04    6.1977414E-04     1613.491    
 p248                 obsgroup      3.8500000E-04    2.0000000E-06    3.8300000E-04     1.000000        3.8500000E-04    2.0000000E-06    3.8300000E-04    6.1977414E-04     1613.491    
 p249                 obsgroup      3.8600000E-04    2.0000000E-06    3.8400000E-04     1.000000        3.8600000E-04    2.0000000E-06    3.8400000E-04    6.1977414E-04     1613.491    
 p250                 obsgroup      3.8400000E-04    2.0000000E-06    3.8200000E-04     1.000000        3.8400000E-04    2.0000000E-06    3.8200000E-04    6.1977414E-04     1613.491    
 p251                 obsgroup      4.0200000E-04    2.0000000E-06    4.0000000E-04     1.000000        4.0200000E-04    2.0000000E-06    4.0000000E-04    6.1977414E-04     1613.491    
 p252                 obsgroup      3.5500000E-04    2.0000000E-06    3.5300000E-04     1.000000        3.5500000E-04    2.0000000E-06    3.5300000E-04    6.1977414E-04     1613.491    
 p253                 obsgroup      3.3500000E-04    2.0000000E-06    3.3300000E-04     1.000000        3.3500000E-04    2.0000000E-06    3.3300000E-04    6.1977414E-04     1613.491    
 p254                 obsgroup      3.3300000E-04    1.0000000E-06    3.3200000E-04     1.000000        3.3300000E-04    1.0000000E-06    3.3200000E-04    6.1977414E-04     1613.491    
 p255                 obsgroup      3.7600000E-04    1.0000000E-06    3.7500000E-04     1.000000        3.7600000E-04    1.0000000E-06    3.7500000E-04    6.1977414E-04     1613.491    
 p256                 obsgroup      3.3100000E-04    1.0000000E-06    3.3000000E-04     1.000000        3.3100000E-04    1.0000000E-06    3.3000000E-04    6.1977414E-04     1613.491    
 p257                 obsgroup      4.0500000E-04    1.0000000E-06    4.0400000E-04     1.000000        4.0500000E-04    1.0000000E-06    4.0400000E-04    6.1977414E-04     1613.491    
 p258                 obsgroup      3.5400000E-04    1.0000000E-06    3.5300000E-04     1.000000        3.5400000E-04    1.0000000E-06    3.5300000E-04    6.1977414E-04     1613.491    
 p259                 obsgroup      3.3000000E-04    1.0000000E-06    3.2900000E-04     1.000000        3.3000000E-04    1.0000000E-06    3.2900000E-04    6.1977414E-04     1613.491    
 p260                 obsgroup      3.4700000E-04    1.0000000E-06    3.4600000E-04     1.000000        3.4700000E-04    1.0000000E-06    3.4600000E-04    6.1977414E-04     1613.491    
 p261                 obsgroup      3.5800000E-04    1.0000000E-06    3.5700000E-04     1.000000        3.5800000E-04    1.0000000E-06    3.5700000E-04    6.1977414E-04     1613.491    
 p262                 obsgroup      3.6600000E-04    1.0000000E-06    3.6500000E-04     1.000000        3.6600000E-04    1.0000000E-06    3.6500000E-04    6.1977414E-04     1613.491    
 p263                 obsgroup      3.5600000E-04    1.0000000E-06    3.5500000E-04     1.000000        3.5600000E-04    1.0000000E-06    3.5500000E-04    6.1977414E-04     1613.491    
 p264                 obsgroup      3.4800000E-04    1.0000000E-06    3.4700000E-04     1.000000        3.4800000E-04    1.0000000E-06    3.4700000E-04    6.1977414E-04     1613.491    
 p265                 obsgroup      3.5800000E-04    1.0000000E-06    3.5700000E-04     1.000000        3.5800000E-04    1.0000000E-06    3.5700000E-04    6.1977414E-04     1613.491    
 p266                 obsgroup      3.7200000E-04    1.0000000E-06    3.7100000E-04     1.000000        3.7200000E-04    1.0000000E-06    3.7100000E-04    6.1977414E-04     1613.491    
 p267                 obsgroup      4.1300000E-04    1.0000000E-06    4.1200000E-04     1.000000        4.1300000E-04    1.0000000E-06    4.1200000E-04    6.1977414E-04     1613.491    
 p268                 obsgroup      3.1700000E-04    1.0000000E-06    3.1600000E-04     1.000000        3.1700000E-04    1.0000000E-06    3.1600000E-04    6.1977414E-04     1613.491    
 p269                 obsgroup      3.8400000E-04    1.0000000E-06    3.8300000E-04     1.000000        3.8400000E-04    1.0000000E-06    3.8300000E-04    6.1977414E-04     1613.491    
 p270                 obsgroup      3.2400000E-04    1.0000000E-06    3.2300000E-04     1.000000        3.2400000E-04    1.0000000E-06    3.2300000E-04    6.1977414E-04     1613.491    
 p271                 obsgroup      4.3300000E-04     0.000000        4.3300000E-04     1.000000        4.3300000E-04     0.000000        4.3300000E-04    6.1977414E-04     1613.491    
 p272                 obsgroup      3.8200000E-04     0.000000        3.8200000E-04     1.000000        3.8200000E-04     0.000000        3.8200000E-04    6.1977414E-04     1613.491    
 p273                 obsgroup      4.8900000E-04     0.000000        4.8900000E-04     1.000000        4.8900000E-04     0.000000        4.8900000E-04    6.1977414E-04     1613.491    
 p274                 obsgroup      3.1900000E-04     0.000000        3.1900000E-04     1.000000        3.1900000E-04     0.000000        3.1900000E-04    6.1977414E-04     1613.491    
 p275                 obsgroup      3.5500000E-04     0.000000        3.5500000E-04     1.000000        3.5500000E-04     0.000000        3.5500000E-04    6.1977414E-04     1613.491    
 p276                 obsgroup      3.5500000E-04     0.000000        3.5500000E-04     1.000000        3.5500000E-04     0.000000        3.5500000E-04    6.1977414E-04     1613.491    
 p277                 obsgroup      3.5600000E-04     0.000000        3.5600000E-04     1.000000        3.5600000E-04     0.000000        3.5600000E-04    6.1977414E-04     1613.491    
 p278                 obsgroup      3.4500000E-04     0.000000        3.4500000E-04     1.000000        3.4500000E-04     0.000000        3.4500000E-04    6.1977414E-04     1613.491    
 p279                 obsgroup      3.7300000E-04     0.000000        3.7300000E-04     1.000000        3.7300000E-04     0.000000        3.7300000E-04    6.1977414E-04     1613.491    
 p280                 obsgroup      3.3500000E-04     0.000000        3.3500000E-04     1.000000        3.3500000E-04     0.000000        3.3500000E-04    6.1977414E-04     1613.491    
 p281                 obsgroup      3.5100000E-04     0.000000        3.5100000E-04     1.000000        3.5100000E-04     0.000000        3.5100000E-04    6.1977414E-04     1613.491    
 p282                 obsgroup      3.7000000E-04     0.000000        3.7000000E-04     1.000000        3.7000000E-04     0.000000        3.7000000E-04    6.1977414E-04     1613.491    
 p283                 obsgroup      4.8800000E-04     0.000000        4.8800000E-04     1.000000        4.8800000E-04     0.000000        4.8800000E-04    6.1977414E-04     1613.491    
 p284                 obsgroup      3.8300000E-04     0.000000        3.8300000E-04     1.000000        3.8300000E-04     0.000000        3.8300000E-04    6.1977414E-04     1613.491    
 p285                 obsgroup      4.2000000E-04     0.000000        4.2000000E-04     1.000000        4.2000000E-04     0.000000        4.2000000E-04    6.1977414E-04     1613.491    
 p286                 obsgroup      3.9000000E-04     0.000000        3.9000000E-04     1.000000        3.9000000E-04     0.000000        3.9000000E-04    6.1977414E-04     1613.491    
 p287                 obsgroup      4.1900000E-04     0.000000        4.1900000E-04     1.000000        4.1900000E-04     0.000000        4.1900000E-04    6.1977414E-04     1613.491    
 p288                 obsgroup      4.1700000E-04     0.000000        4.1700000E-04     1.000000        4.1700000E-04     0.000000        4.1700000E-04    6.1977414E-04     1613.491    
 p289                 obsgroup      5.0700000E-04     0.000000        5.0700000E-04     1.000000        5.0700000E-04     0.000000        5.0700000E-04    6.1977414E-04     1613.491    
 p290                 obsgroup      3.5600000E-04     0.000000        3.5600000E-04     1.000000        3.5600000E-04     0.000000        3.5600000E-04    6.1977414E-04     1613.491    
 p291                 obsgroup      4.0200000E-04     0.000000        4.0200000E-04     1.000000        4.0200000E-04     0.000000        4.0200000E-04    6.1977414E-04     1613.491    
 p292                 obsgroup      3.5800000E-04     0.000000        3.5800000E-04     1.000000        3.5800000E-04     0.000000        3.5800000E-04    6.1977414E-04     1613.491    
 p293                 obsgroup      5.2800000E-04     0.000000        5.2800000E-04     1.000000        5.2800000E-04     0.000000        5.2800000E-04    6.1977414E-04     1613.491    
 p294                 obsgroup      3.3200000E-04     0.000000        3.3200000E-04     1.000000        3.3200000E-04     0.000000        3.3200000E-04    6.1977414E-04     1613.491    
 p295                 obsgroup      3.5800000E-04     0.000000        3.5800000E-04     1.000000        3.5800000E-04     0.000000        3.5800000E-04    6.1977414E-04     1613.491    
 p296                 obsgroup      3.0100000E-04     0.000000        3.0100000E-04     1.000000        3.0100000E-04     0.000000        3.0100000E-04    6.1977414E-04     1613.491    
 p297                 obsgroup      3.1300000E-04     0.000000        3.1300000E-04     1.000000        3.1300000E-04     0.000000        3.1300000E-04    6.1977414E-04     1613.491    
 p298                 obsgroup      3.8000000E-04     0.000000        3.8000000E-04     1.000000        3.8000000E-04     0.000000        3.8000000E-04    6.1977414E-04     1613.491    
 p299                 obsgroup      3.6100000E-04     0.000000        3.6100000E-04     1.000000        3.6100000E-04     0.000000        3.6100000E-04    6.1977414E-04     1613.491    
 p300                 obsgroup      3.5300000E-04     0.000000        3.5300000E-04     1.000000        3.5300000E-04     0.000000        3.5300000E-04    6.1977414E-04     1613.491    
 p301                 obsgroup      3.2100000E-04     0.000000        3.2100000E-04     1.000000        3.2100000E-04     0.000000        3.2100000E-04    6.1977414E-04     1613.491    
 p302                 obsgroup      3.6800000E-04     0.000000        3.6800000E-04     1.000000        3.6800000E-04     0.000000        3.6800000E-04    6.1977414E-04     1613.491    
 p303                 obsgroup      3.2300000E-04     0.000000        3.2300000E-04     1.000000        3.2300000E-04     0.000000        3.2300000E-04    6.1977414E-04     1613.491    
 p304                 obsgroup      3.1500000E-04     0.000000        3.1500000E-04     1.000000        3.1500000E-04     0.000000        3.1500000E-04    6.1977414E-04     1613.491    
 p305                 obsgroup      3.2900000E-04     0.000000        3.2900000E-04     1.000000        3.2900000E-04     0.000000        3.2900000E-04    6.1977414E-04     1613.491    
 p306                 obsgroup      3.2500000E-04     0.000000        3.2500000E-04     1.000000        3.2500000E-04     0.000000        3.2500000E-04    6.1977414E-04     1613.491    
 p307                 obsgroup      2.9000000E-04     0.000000        2.9000000E-04     1.000000        2.9000000E-04     0.000000        2.9000000E-04    6.1977414E-04     1613.491    
 p308                 obsgroup      3.3500000E-04     0.000000        3.3500000E-04     1.000000        3.3500000E-04     0.000000        3.3500000E-04    6.1977414E-04     1613.491    
 p309                 obsgroup      3.4900000E-04     0.000000        3.4900000E-04     1.000000        3.4900000E-04     0.000000        3.4900000E-04    6.1977414E-04     1613.491    
 p310                 obsgroup      3.3200000E-04     0.000000        3.3200000E-04     1.000000        3.3200000E-04     0.000000        3.3200000E-04    6.1977414E-04     1613.491    
 p311                 obsgroup      2.8800000E-04     0.000000        2.8800000E-04     1.000000        2.8800000E-04     0.000000        2.8800000E-04    6.1977414E-04     1613.491    
 p312                 obsgroup      3.1400000E-04     0.000000        3.1400000E-04     1.000000        3.1400000E-04     0.000000        3.1400000E-04    6.1977414E-04     1613.491    
 p313                 obsgroup      3.2100000E-04     0.000000        3.2100000E-04     1.000000        3.2100000E-04     0.000000        3.2100000E-04    6.1977414E-04     1613.491    
 p314                 obsgroup      3.3500000E-04     0.000000        3.3500000E-04     1.000000        3.3500000E-04     0.000000        3.3500000E-04    6.1977414E-04     1613.491    
 p315                 obsgroup      3.2400000E-04     0.000000        3.2400000E-04     1.000000        3.2400000E-04     0.000000        3.2400000E-04    6.1977414E-04     1613.491    
 p316                 obsgroup      3.0700000E-04     0.000000        3.0700000E-04     1.000000        3.0700000E-04     0.000000        3.0700000E-04    6.1977414E-04     1613.491    
 p317                 obsgroup      3.7600000E-04     0.000000        3.7600000E-04     1.000000        3.7600000E-04     0.000000        3.7600000E-04    6.1977414E-04     1613.491    
 p318                 obsgroup      3.7100000E-04     0.000000        3.7100000E-04     1.000000        3.7100000E-04     0.000000        3.7100000E-04    6.1977414E-04     1613.491    
 p319                 obsgroup      3.4300000E-04     0.000000        3.4300000E-04     1.000000        3.4300000E-04     0.000000        3.4300000E-04    6.1977414E-04     1613.491    
 p320                 obsgroup      2.8600000E-04     0.000000        2.8600000E-04     1.000000        2.8600000E-04     0.000000        2.8600000E-04    6.1977414E-04     1613.491    
 p321                 obsgroup      3.0700000E-04     0.000000        3.0700000E-04     1.000000        3.0700000E-04     0.000000        3.0700000E-04    6.1977414E-04     1613.491    
 p322                 obsgroup      2.9500000E-04     0.000000        2.9500000E-04     1.000000        2.9500000E-04     0.000000        2.9500000E-04    6.1977414E-04     1613.491    
 p323                 obsgroup      3.0200000E-04     0.000000        3.0200000E-04     1.000000        3.0200000E-04     0.000000        3.0200000E-04    6.1977414E-04     1613.491    
 p324                 obsgroup      3.3500000E-04     0.000000        3.3500000E-04     1.000000        3.3500000E-04     0.000000        3.3500000E-04    6.1977414E-04     1613.491    
 p325                 obsgroup      3.0400000E-04     0.000000        3.0400000E-04     1.000000        3.0400000E-04     0.000000        3.0400000E-04    6.1977414E-04     1613.491    
 p326                 obsgroup      2.8000000E-04     0.000000        2.8000000E-04     1.000000        2.8000000E-04     0.000000        2.8000000E-04    6.1977414E-04     1613.491    
 p327                 obsgroup      2.9600000E-04     0.000000        2.9600000E-04     1.000000        2.9600000E-04     0.000000        2.9600000E-04    6.1977414E-04     1613.491    
 p328                 obsgroup      2.8000000E-04     0.000000        2.8000000E-04     1.000000        2.8000000E-04     0.000000        2.8000000E-04    6.1977414E-04     1613.491    
