 Name                 Group          Measured         Modelled         Residual         Weight       Weight*Measured    Weight*Modelled  Weight*Residual  Measurement_sd   Natural_weight
 p001                 obsgroup      5.6550000E-04    3.0000000E-04    2.6550000E-04     1.000000        5.6550000E-04    3.0000000E-04    2.6550000E-04    3.1720585E-03     315.2527    
 p002                 obsgroup      4.0070000E-04    3.0000000E-04    1.0070000E-04     1.000000        4.0070000E-04    3.0000000E-04    1.0070000E-04    3.1720585E-03     315.2527    
 p003                 obsgroup      5.8810000E-04    3.0000000E-04    2.8810000E-04     1.000000        5.8810000E-04    3.0000000E-04    2.8810000E-04    3.1720585E-03     315.2527    
 p004                 obsgroup      4.6560000E-04    3.0000000E-04    1.6560000E-04     1.000000        4.6560000E-04    3.0000000E-04    1.6560000E-04    3.1720585E-03     315.2527    
 p005                 obsgroup      3.5020000E-04    3.0000000E-04    5.0200000E-05     1.000000        3.5020000E-04    3.0000000E-04    5.0200000E-05    3.1720585E-03     315.2527    
 p006                 obsgroup      3.3890000E-04    3.0000000E-04    3.8900000E-05     1.000000        3.3890000E-04    3.0000000E-04    3.8900000E-05    3.1720585E-03     315.2527    
 p007                 obsgroup      3.7180000E-04    3.0000000E-04    7.1800000E-05     1.000000        3.7180000E-04    3.0000000E-04    7.1800000E-05    3.1720585E-03     315.2527    
 p008                 obsgroup      5.4180000E-04    3.0000000E-04    2.4180000E-04     1.000000        5.4180000E-04    3.0000000E-04    2.4180000E-04    3.1720585E-03     315.2527    
 p009                 obsgroup      2.4820000E-04    3.0000000E-04   -5.1800000E-05     1.000000        2.4820000E-04    3.0000000E-04   -5.1800000E-05    3.1720585E-03     315.2527    
 p010                 obsgroup      3.2340000E-04    3.0000000E-04    2.3400000E-05     1.000000        3.2340000E-04    3.0000000E-04    2.3400000E-05    3.1720585E-03     315.2527    
 p011                 obsgroup      4.1710000E-04    3.0000000E-04    1.1710000E-04     1.000000        4.1710000E-04    3.0000000E-04    1.1710000E-04    3.1720585E-03     315.2527    
 p012                 obsgroup      3.2340000E-04    3.0000000E-04    2.3400000E-05     1.000000        3.2340000E-04    3.0000000E-04    2.3400000E-05    3.1720585E-03     315.2527    
 p013                 obsgroup      3.2030000E-04    3.0000000E-04    2.0300000E-05     1.000000        3.2030000E-04    3.0000000E-04    2.0300000E-05    3.1720585E-03     315.2527    
 p014                 obsgroup      2.9560000E-04    3.0000000E-04   -4.4000000E-06     1.000000        2.9560000E-04    3.0000000E-04   -4.4000000E-06    3.1720585E-03     315.2527    
 p015                 obsgroup      3.2550000E-04    3.0000000E-04    2.5500000E-05     1.000000        3.2550000E-04    3.0000000E-04    2.5500000E-05    3.1720585E-03     315.2527    
 p016                 obsgroup      3.0900000E-04    3.0000000E-04    9.0000000E-06     1.000000        3.0900000E-04    3.0000000E-04    9.0000000E-06    3.1720585E-03     315.2527    
 p017                 obsgroup      2.7500000E-04    3.0000000E-04   -2.5000000E-05     1.000000        2.7500000E-04    3.0000000E-04   -2.5000000E-05    3.1720585E-03     315.2527    
 p018                 obsgroup      2.9150000E-04    3.0100000E-04   -9.5000000E-06     1.000000        2.9150000E-04    3.0100000E-04   -9.5000000E-06    3.1720585E-03     315.2527    
 p019                 obsgroup      2.7400000E-04    3.0200000E-04   -2.8000000E-05     1.000000        2.7400000E-04    3.0200000E-04   -2.8000000E-05    3.1720585E-03     315.2527    
 p020                 obsgroup      3.0380000E-04    3.0500000E-04   -1.2000000E-06     1.000000        3.0380000E-04    3.0500000E-04   -1.2000000E-06    3.1720585E-03     315.2527    
 p021                 obsgroup      3.1000000E-04    3.0900000E-04    1.0000000E-06     1.000000        3.1000000E-04    3.0900000E-04    1.0000000E-06    3.1720585E-03     315.2527    
 p022                 obsgroup      3.0180000E-04    3.1500000E-04   -1.3200000E-05     1.000000        3.0180000E-04    3.1500000E-04   -1.3200000E-05    3.1720585E-03     315.2527    
 p023                 obsgroup      2.9770000E-04    3.2600000E-04   -2.8300000E-05     1.000000        2.9770000E-04    3.2600000E-04   -2.8300000E-05    3.1720585E-03     315.2527    
 p024                 obsgroup      2.9460000E-04    3.4100000E-04   -4.6400000E-05     1.000000        2.9460000E-04    3.4100000E-04   -4.6400000E-05    3.1720585E-03     315.2527    
 p025                 obsgroup      3.0590000E-04    3.6200000E-04   -5.6100000E-05     1.000000        3.0590000E-04    3.6200000E-04   -5.6100000E-05    3.1720585E-03     315.2527    
 p026                 obsgroup      2.3590000E-04    3.9100000E-04   -1.5510000E-04     1.000000        2.3590000E-04    3.9100000E-04   -1.5510000E-04    3.1720585E-03     315.2527    
 p027                 obsgroup      3.2030000E-04    4.3000000E-04   -1.0970000E-04     1.000000        3.2030000E-04    4.3000000E-04   -1.0970000E-04    3.1720585E-03     315.2527    
 p028                 obsgroup      2.8840000E-04    4.8100000E-04   -1.9260000E-04     1.000000        2.8840000E-04    4.8100000E-04   -1.9260000E-04    3.1720585E-03     315.2527    
 p029                 obsgroup      2.6990000E-04    5.4600000E-04   -2.7610000E-04     1.000000        2.6990000E-04    5.4600000E-04   -2.7610000E-04    3.1720585E-03     315.2527    
 p030                 obsgroup      2.9150000E-04    6.2600000E-04   -3.3450000E-04     1.000000        2.9150000E-04    6.2600000E-04   -3.3450000E-04    3.1720585E-03     315.2527    
 p031                 obsgroup      2.8220000E-04    7.2500000E-04   -4.4280000E-04     1.000000        2.8220000E-04    7.2500000E-04   -4.4280000E-04    3.1720585E-03     315.2527    
 p032                 obsgroup      3.5430000E-04    8.4400000E-04   -4.8970000E-04     1.000000        3.5430000E-04    8.4400000E-04   -4.8970000E-04    3.1720585E-03     315.2527    
 p033                 obsgroup      3.1830000E-04    9.8400000E-04   -6.6570000E-04     1.000000        3.1830000E-04    9.8400000E-04   -6.6570000E-04    3.1720585E-03     315.2527    
 p034                 obsgroup      4.1710000E-04    1.1470000E-03   -7.2990000E-04     1.000000        4.1710000E-04    1.1470000E-03   -7.2990000E-04    3.1720585E-03     315.2527    
 p035                 obsgroup      2.9870000E-04    1.3370000E-03   -1.0383000E-03     1.000000        2.9870000E-04    1.3370000E-03   -1.0383000E-03    3.1720585E-03     315.2527    
 p036                 obsgroup      3.3680000E-04    1.5510000E-03   -1.2142000E-03     1.000000        3.3680000E-04    1.5510000E-03   -1.2142000E-03    3.1720585E-03     315.2527    
 p037                 obsgroup      3.1830000E-04    1.7920000E-03   -1.4737000E-03     1.000000        3.1830000E-04    1.7920000E-03   -1.4737000E-03    3.1720585E-03     315.2527    
 p038                 obsgroup      3.0690000E-04    2.0590000E-03   -1.7521000E-03     1.000000        3.0690000E-04    2.0590000E-03   -1.7521000E-03    3.1720585E-03     315.2527    
 p039                 obsgroup      3.6570000E-04    2.3530000E-03   -1.9873000E-03     1.000000        3.6570000E-04    2.3530000E-03   -1.9873000E-03    3.1720585E-03     315.2527    
 p040                 obsgroup      4.8620000E-04    2.6740000E-03   -2.1878000E-03     1.000000        4.8620000E-04    2.6740000E-03   -2.1878000E-03    3.1720585E-03     315.2527    
 p041                 obsgroup      5.2430000E-04    3.0230000E-03   -2.4987000E-03     1.000000        5.2430000E-04    3.0230000E-03   -2.4987000E-03    3.1720585E-03     315.2527    
 p042                 obsgroup      6.2620000E-04    3.3990000E-03   -2.7728000E-03     1.000000        6.2620000E-04    3.3990000E-03   -2.7728000E-03    3.1720585E-03     315.2527    
 p043                 obsgroup      7.5190000E-04    3.8030000E-03   -3.0511000E-03     1.000000        7.5190000E-04    3.8030000E-03   -3.0511000E-03    3.1720585E-03     315.2527    
 p044                 obsgroup      9.6410000E-04    4.2340000E-03   -3.2699000E-03     1.000000        9.6410000E-04    4.2340000E-03   -3.2699000E-03    3.1720585E-03     315.2527    
 p045                 obsgroup      1.1021000E-03    4.6910000E-03   -3.5889000E-03     1.000000        1.1021000E-03    4.6910000E-03   -3.5889000E-03    3.1720585E-03     315.2527    
 p046                 obsgroup      1.2051000E-03    5.1720000E-03   -3.9669000E-03     1.000000        1.2051000E-03    5.1720000E-03   -3.9669000E-03    3.1720585E-03     315.2527    
 p047                 obsgroup      1.4626000E-03    5.6800000E-03   -4.2174000E-03     1.000000        1.4626000E-03    5.6800000E-03   -4.2174000E-03    3.1720585E-03     315.2527    
 p048                 obsgroup      1.8849000E-03    6.2130000E-03   -4.3281000E-03     1.000000        1.8849000E-03    6.2130000E-03   -4.3281000E-03    3.1720585E-03     315.2527    
 p049                 obsgroup      2.6059000E-03    7.3350000E-03   -4.7291000E-03     1.000000        2.6059000E-03    7.3350000E-03   -4.7291000E-03    3.1720585E-03     315.2527    
 p050                 obsgroup      3.6771000E-03    8.8580000E-03   -5.1809000E-03     1.000000        3.6771000E-03    8.8580000E-03   -5.1809000E-03    3.1720585E-03     315.2527    
 p051                 obsgroup      4.6762000E-03    1.0177000E-02   -5.5008000E-03     1.000000        4.6762000E-03    1.0177000E-02   -5.5008000E-03    3.1720585E-03     315.2527    
 p052                 obsgroup      5.8298000E-03    1.1645000E-02   -5.8152000E-03     1.000000        5.8298000E-03    1.1645000E-02   -5.8152000E-03    3.1720585E-03     315.2527    
 p053                 obsgroup      6.6538000E-03    1.2501000E-02   -5.8472000E-03     1.000000        6.6538000E-03    1.2501000E-02   -5.8472000E-03    3.1720585E-03     315.2527    
 p054                 obsgroup      8.1679000E-03    1.4183000E-02   -6.0151000E-03     1.000000        8.1679000E-03    1.4183000E-02   -6.0151000E-03    3.1720585E-03     315.2527    
 p055                 obsgroup      1.0063100E-02    1.5973000E-02   -5.9099000E-03     1.000000        1.0063100E-02    1.5973000E-02   -5.9099000E-03    3.1720585E-03     315.2527    
 p056                 obsgroup      1.1742000E-02    1.7875000E-02   -6.1330000E-03     1.000000        1.1742000E-02    1.7875000E-02   -6.1330000E-03    3.1720585E-03     315.2527    
 p057                 obsgroup      1.3802000E-02    1.9801000E-02   -5.9990000E-03     1.000000        1.3802000E-02    1.9801000E-02   -5.9990000E-03    3.1720585E-03     315.2527    
 p058                 obsgroup      1.5038000E-02    2.1793000E-02   -6.7550000E-03     1.000000        1.5038000E-02    2.1793000E-02   -6.7550000E-03    3.1720585E-03     315.2527    
 p059                 obsgroup      1.8128000E-02    2.3843000E-02   -5.7150000E-03     1.000000        1.8128000E-02    2.3843000E-02   -5.7150000E-03    3.1720585E-03     315.2527    
 p060                 obsgroup      2.0600000E-02    2.4880000E-02   -4.2800000E-03     1.000000        2.0600000E-02    2.4880000E-02   -4.2800000E-03    3.1720585E-03     315.2527    
 p061                 obsgroup      2.3072000E-02    2.6986000E-02   -3.9140000E-03     1.000000        2.3072000E-02    2.6986000E-02   -3.9140000E-03    3.1720585E-03     315.2527    
 p062                 obsgroup      2.9252000E-02    2.9103000E-02    1.4900000E-04     1.000000        2.9252000E-02    2.9103000E-02    1.4900000E-04    3.1720585E-03     315.2527    
 p063                 obsgroup      2.6677000E-02    3.0066000E-02   -3.3890000E-03     1.000000        2.6677000E-02    3.0066000E-02   -3.3890000E-03    3.1720585E-03     315.2527    
 p064                 obsgroup      3.1209000E-02    3.3173000E-02   -1.9640000E-03     1.000000        3.1209000E-02    3.3173000E-02   -1.9640000E-03    3.1720585E-03     315.2527    
 p065                 obsgroup      3.3784000E-02    3.6363000E-02   -2.5790000E-03     1.000000        3.3784000E-02    3.6363000E-02   -2.5790000E-03    3.1720585E-03     315.2527    
 p066                 obsgroup      3.7904000E-02    3.9618000E-02   -1.7140000E-03     1.000000        3.7904000E-02    3.9618000E-02   -1.7140000E-03    3.1720585E-03     315.2527    
 p067                 obsgroup      3.9964000E-02    4.2954000E-02   -2.9900000E-03     1.000000        3.9964000E-02    4.2954000E-02   -2.9900000E-03    3.1720585E-03     315.2527    
 p068                 obsgroup      4.7792000E-02    4.6323000E-02    1.4690000E-03     1.000000        4.7792000E-02    4.6323000E-02    1.4690000E-03    3.1720585E-03     315.2527    
 p069                 obsgroup      4.9852000E-02    4.8485000E-02    1.3670000E-03     1.000000        4.9852000E-02    4.8485000E-02    1.3670000E-03    3.1720585E-03     315.2527    
 p070                 obsgroup      5.4487000E-02    5.1679000E-02    2.8080000E-03     1.000000        5.4487000E-02    5.1679000E-02    2.8080000E-03    3.1720585E-03     315.2527    
 p071                 obsgroup      5.8195000E-02    5.4780000E-02    3.4150000E-03     1.000000        5.8195000E-02    5.4780000E-02    3.4150000E-03    3.1720585E-03     315.2527    
 p072                 obsgroup      6.0976000E-02    5.7856000E-02    3.1200000E-03     1.000000        6.0976000E-02    5.7856000E-02    3.1200000E-03    3.1720585E-03     315.2527    
 p073                 obsgroup      6.1903000E-02    6.0841000E-02    1.0620000E-03     1.000000        6.1903000E-02    6.0841000E-02    1.0620000E-03    3.1720585E-03     315.2527    
 p074                 obsgroup      6.6229000E-02    6.3782000E-02    2.4470000E-03     1.000000        6.6229000E-02    6.3782000E-02    2.4470000E-03    3.1720585E-03     315.2527    
 p075                 obsgroup      7.4572000E-02    6.6623000E-02    7.9490000E-03     1.000000        7.4572000E-02    6.6623000E-02    7.9490000E-03    3.1720585E-03     315.2527    
 p076                 obsgroup      7.6014000E-02    6.9377000E-02    6.6370000E-03     1.000000        7.6014000E-02    6.9377000E-02    6.6370000E-03    3.1720585E-03     315.2527    
 p077                 obsgroup      7.6632000E-02    7.2131000E-02    4.5010000E-03     1.000000        7.6632000E-02    7.2131000E-02    4.5010000E-03    3.1720585E-03     315.2527    
 p078                 obsgroup      8.0031000E-02    7.4858000E-02    5.1730000E-03     1.000000        8.0031000E-02    7.4858000E-02    5.1730000E-03    3.1720585E-03     315.2527    
 p079                 obsgroup      8.1576000E-02    7.7510000E-02    4.0660000E-03     1.000000        8.1576000E-02    7.7510000E-02    4.0660000E-03    3.1720585E-03     315.2527    
 p080                 obsgroup      8.6108000E-02    8.0054000E-02    6.0540000E-03     1.000000        8.6108000E-02    8.0054000E-02    6.0540000E-03    3.1720585E-03     315.2527    
 p081                 obsgroup      9.1155000E-02    8.2519000E-02    8.6360000E-03     1.000000        9.1155000E-02    8.2519000E-02    8.6360000E-03    3.1720585E-03     315.2527    
 p082                 obsgroup      8.6726000E-02    8.4848000E-02    1.8780000E-03     1.000000        8.6726000E-02    8.4848000E-02    1.8780000E-03    3.1720585E-03     315.2527    
 p083                 obsgroup      9.5069000E-02    8.7096000E-02    7.9730000E-03     1.000000        9.5069000E-02    8.7096000E-02    7.9730000E-03    3.1720585E-03     315.2527    
 p084                 obsgroup      9.5584000E-02    8.9297000E-02    6.2870000E-03     1.000000        9.5584000E-02    8.9297000E-02    6.2870000E-03    3.1720585E-03     315.2527    
 p085                 obsgroup      9.4348000E-02    9.1450000E-02    2.8980000E-03     1.000000        9.4348000E-02    9.1450000E-02    2.8980000E-03    3.1720585E-03     315.2527    
 p086                 obsgroup      9.5687000E-02    9.3570000E-02    2.1170000E-03     1.000000        9.5687000E-02    9.3570000E-02    2.1170000E-03    3.1720585E-03     315.2527    
 p087                 obsgroup      9.9189000E-02    9.5640000E-02    3.5490000E-03     1.000000        9.9189000E-02    9.5640000E-02    3.5490000E-03    3.1720585E-03     315.2527    
 p088                 obsgroup      9.9292000E-02    9.9513000E-02   -2.2100000E-04     1.000000        9.9292000E-02    9.9513000E-02   -2.2100000E-04    3.1720585E-03     315.2527    
 p089                 obsgroup      0.1050600        0.1013350        3.7250000E-03     1.000000        0.1050600        0.1013350        3.7250000E-03    3.1720585E-03     315.2527    
 p090                 obsgroup      0.1060900        0.1031010        2.9890000E-03     1.000000        0.1060900        0.1031010        2.9890000E-03    3.1720585E-03     315.2527    
 p091                 obsgroup      0.1060900        0.1064230       -3.3300000E-04     1.000000        0.1060900        0.1064230       -3.3300000E-04    3.1720585E-03     315.2527    
 p092                 obsgroup      0.1091800        0.1080000        1.1800000E-03     1.000000        0.1091800        0.1080000        1.1800000E-03    3.1720585E-03     315.2527    
 p093                 obsgroup      0.1081500        0.1095190       -1.3690000E-03     1.000000        0.1081500        0.1095190       -1.3690000E-03    3.1720585E-03     315.2527    
 p094                 obsgroup      0.1122700        0.1110250        1.2450000E-03     1.000000        0.1122700        0.1110250        1.2450000E-03    3.1720585E-03     315.2527    
 p095                 obsgroup      0.1102100        0.1124690       -2.2590000E-03     1.000000        0.1102100        0.1124690       -2.2590000E-03    3.1720585E-03     315.2527    
 p096                 obsgroup      0.1112400        0.1138620       -2.6220000E-03     1.000000        0.1112400        0.1138620       -2.6220000E-03    3.1720585E-03     315.2527    
 p097                 obsgroup      0.1225700        0.1164180        6.1520000E-03     1.000000        0.1225700        0.1164180        6.1520000E-03    3.1720585E-03     315.2527    
 p098                 obsgroup      0.1225700        0.1175970        4.9730000E-03     1.000000        0.1225700        0.1175970        4.9730000E-03    3.1720585E-03     315.2527    
 p099                 obsgroup      0.1246300        0.1187250        5.9050000E-03     1.000000        0.1246300        0.1187250        5.9050000E-03    3.1720585E-03     315.2527    
 p100                 obsgroup      0.1256600        0.1198260        5.8340000E-03     1.000000        0.1256600        0.1198260        5.8340000E-03    3.1720585E-03     315.2527    
 p101                 obsgroup      0.1266900        0.1208720        5.8180000E-03     1.000000        0.1266900        0.1208720        5.8180000E-03    3.1720585E-03     315.2527    
 p102                 obsgroup      0.1256600        0.1218870        3.7730000E-03     1.000000        0.1256600        0.1218870        3.7730000E-03    3.1720585E-03     315.2527    
 p103                 obsgroup      0.1246300        0.1228780        1.7520000E-03     1.000000        0.1246300        0.1228780        1.7520000E-03    3.1720585E-03     315.2527    
 p104                 obsgroup      0.1184500        0.1238460       -5.3960000E-03     1.000000        0.1184500        0.1238460       -5.3960000E-03    3.1720585E-03     315.2527    
 p105                 obsgroup      0.1225700        0.1247610       -2.1910000E-03     1.000000        0.1225700        0.1247610       -2.1910000E-03    3.1720585E-03     315.2527    
 p106                 obsgroup      0.1236000        0.1256700       -2.0700000E-03     1.000000        0.1236000        0.1256700       -2.0700000E-03    3.1720585E-03     315.2527    
 p107                 obsgroup      0.1246300        0.1265450       -1.9150000E-03     1.000000        0.1246300        0.1265450       -1.9150000E-03    3.1720585E-03     315.2527    
 p108                 obsgroup      0.1287500        0.1273890        1.3610000E-03     1.000000        0.1287500        0.1273890        1.3610000E-03    3.1720585E-03     315.2527    
 p109                 obsgroup      0.1215400        0.1281750       -6.6350000E-03     1.000000        0.1215400        0.1281750       -6.6350000E-03    3.1720585E-03     315.2527    
 p110                 obsgroup      0.1236000        0.1310390       -7.4390000E-03     1.000000        0.1236000        0.1310390       -7.4390000E-03    3.1720585E-03     315.2527    
 p111                 obsgroup      0.1266900        0.1317360       -5.0460000E-03     1.000000        0.1266900        0.1317360       -5.0460000E-03    3.1720585E-03     315.2527    
 p112                 obsgroup      0.1297800        0.1323980       -2.6180000E-03     1.000000        0.1297800        0.1323980       -2.6180000E-03    3.1720585E-03     315.2527    
 p113                 obsgroup      0.1349300        0.1330190        1.9110000E-03     1.000000        0.1349300        0.1330190        1.9110000E-03    3.1720585E-03     315.2527    
 p114                 obsgroup      0.1308100        0.1336080       -2.7980000E-03     1.000000        0.1308100        0.1336080       -2.7980000E-03    3.1720585E-03     315.2527    
 p115                 obsgroup      0.1349300        0.1341800        7.5000000E-04     1.000000        0.1349300        0.1341800        7.5000000E-04    3.1720585E-03     315.2527    
 p116                 obsgroup      0.1318400        0.1347320       -2.8920000E-03     1.000000        0.1318400        0.1347320       -2.8920000E-03    3.1720585E-03     315.2527    
 p117                 obsgroup      0.1380200        0.1357690        2.2510000E-03     1.000000        0.1380200        0.1357690        2.2510000E-03    3.1720585E-03     315.2527    
 p118                 obsgroup      0.1308100        0.1362770       -5.4670000E-03     1.000000        0.1308100        0.1362770       -5.4670000E-03    3.1720585E-03     315.2527    
 p119                 obsgroup      0.1380200        0.1367740        1.2460000E-03     1.000000        0.1380200        0.1367740        1.2460000E-03    3.1720585E-03     315.2527    
 p120                 obsgroup      0.1287500        0.1372640       -8.5140000E-03     1.000000        0.1287500        0.1372640       -8.5140000E-03    3.1720585E-03     315.2527    
 p121                 obsgroup      0.1287500        0.1377430       -8.9930000E-03     1.000000        0.1287500        0.1377430       -8.9930000E-03    3.1720585E-03     315.2527    
 p122                 obsgroup      0.1369900        0.1381950       -1.2050000E-03     1.000000        0.1369900        0.1381950       -1.2050000E-03    3.1720585E-03     315.2527    
 p123                 obsgroup      0.1349300        0.1386370       -3.7070000E-03     1.000000        0.1349300        0.1386370       -3.7070000E-03    3.1720585E-03     315.2527    
 p124                 obsgroup      0.1411100        0.1390620        2.0480000E-03     1.000000        0.1411100        0.1390620        2.0480000E-03    3.1720585E-03     315.2527    
 p125                 obsgroup      0.1359600        0.1394680       -3.5080000E-03     1.000000        0.1359600        0.1394680       -3.5080000E-03    3.1720585E-03     315.2527    
 p126                 obsgroup      0.1328700        0.1398650       -6.9950000E-03     1.000000        0.1328700        0.1398650       -6.9950000E-03    3.1720585E-03     315.2527    
 p127                 obsgroup      0.1349300        0.1402540       -5.3240000E-03     1.000000        0.1349300        0.1402540       -5.3240000E-03    3.1720585E-03     315.2527    
 p128                 obsgroup      0.1472900        0.1406300        6.6600000E-03     1.000000        0.1472900        0.1406300        6.6600000E-03    3.1720585E-03     315.2527    
 p129                 obsgroup      0.1452300        0.1413130        3.9170000E-03     1.000000        0.1452300        0.1413130        3.9170000E-03    3.1720585E-03     315.2527    
 p130                 obsgroup      0.1411100        0.1416580       -5.4800000E-04     1.000000        0.1411100        0.1416580       -5.4800000E-04    3.1720585E-03     315.2527    
 p131                 obsgroup      0.1452300        0.1423140        2.9160000E-03     1.000000        0.1452300        0.1423140        2.9160000E-03    3.1720585E-03     315.2527    
 p132                 obsgroup      0.1483200        0.1426210        5.6990000E-03     1.000000        0.1483200        0.1426210        5.6990000E-03    3.1720585E-03     315.2527    
 p133                 obsgroup      0.1483200        0.1429190        5.4010000E-03     1.000000        0.1483200        0.1429190        5.4010000E-03    3.1720585E-03     315.2527    
 p134                 obsgroup      0.1493500        0.1432060        6.1440000E-03     1.000000        0.1493500        0.1432060        6.1440000E-03    3.1720585E-03     315.2527    
 p135                 obsgroup      0.1431700        0.1434870       -3.1700000E-04     1.000000        0.1431700        0.1434870       -3.1700000E-04    3.1720585E-03     315.2527    
 p136                 obsgroup      0.1483200        0.1437630        4.5570000E-03     1.000000        0.1483200        0.1437630        4.5570000E-03    3.1720585E-03     315.2527    
 p137                 obsgroup      0.1452300        0.1440400        1.1900000E-03     1.000000        0.1452300        0.1440400        1.1900000E-03    3.1720585E-03     315.2527    
 p138                 obsgroup      0.1421400        0.1443180       -2.1780000E-03     1.000000        0.1421400        0.1443180       -2.1780000E-03    3.1720585E-03     315.2527    
 p139                 obsgroup      0.1400800        0.1445930       -4.5130000E-03     1.000000        0.1400800        0.1445930       -4.5130000E-03    3.1720585E-03     315.2527    
 p140                 obsgroup      0.1431700        0.1448610       -1.6910000E-03     1.000000        0.1431700        0.1448610       -1.6910000E-03    3.1720585E-03     315.2527    
 p141                 obsgroup      0.1472900        0.1451190        2.1710000E-03     1.000000        0.1472900        0.1451190        2.1710000E-03    3.1720585E-03     315.2527    
 p142                 obsgroup      0.1462600        0.1453660        8.9400000E-04     1.000000        0.1462600        0.1453660        8.9400000E-04    3.1720585E-03     315.2527    
 p143                 obsgroup      0.1431700        0.1456060       -2.4360000E-03     1.000000        0.1431700        0.1456060       -2.4360000E-03    3.1720585E-03     315.2527    
 p144                 obsgroup      0.1503800        0.1458330        4.5470000E-03     1.000000        0.1503800        0.1458330        4.5470000E-03    3.1720585E-03     315.2527    
 p145                 obsgroup      0.1493500        0.1460590        3.2910000E-03     1.000000        0.1493500        0.1460590        3.2910000E-03    3.1720585E-03     315.2527    
 p146                 obsgroup      0.1514100        0.1464820        4.9280000E-03     1.000000        0.1514100        0.1464820        4.9280000E-03    3.1720585E-03     315.2527    
 p147                 obsgroup      0.1472900        0.1466940        5.9600000E-04     1.000000        0.1472900        0.1466940        5.9600000E-04    3.1720585E-03     315.2527    
 p148                 obsgroup      0.1421400        0.1469060       -4.7660000E-03     1.000000        0.1421400        0.1469060       -4.7660000E-03    3.1720585E-03     315.2527    
 p149                 obsgroup      0.1503800        0.1473100        3.0700000E-03     1.000000        0.1503800        0.1473100        3.0700000E-03    3.1720585E-03     315.2527    
 p150                 obsgroup      0.1503800        0.1475080        2.8720000E-03     1.000000        0.1503800        0.1475080        2.8720000E-03    3.1720585E-03     315.2527    
 p151                 obsgroup      0.1514100        0.1484700        2.9400000E-03     1.000000        0.1514100        0.1484700        2.9400000E-03    3.1720585E-03     315.2527    
 p152                 obsgroup      0.1493500        0.1486740        6.7600000E-04     1.000000        0.1493500        0.1486740        6.7600000E-04    3.1720585E-03     315.2527    
 p153                 obsgroup      0.1431700        0.1488890       -5.7190000E-03     1.000000        0.1431700        0.1488890       -5.7190000E-03    3.1720585E-03     315.2527    
 p154                 obsgroup      0.1472900        0.1489590       -1.6690000E-03     1.000000        0.1472900        0.1489590       -1.6690000E-03    3.1720585E-03     315.2527    
 p155                 obsgroup      0.1472900        0.1491050       -1.8150000E-03     1.000000        0.1472900        0.1491050       -1.8150000E-03    3.1720585E-03     315.2527    
 p156                 obsgroup      0.1462600        0.1493330       -3.0730000E-03     1.000000        0.1462600        0.1493330       -3.0730000E-03    3.1720585E-03     315.2527    
 p157                 obsgroup      0.1483200        0.1494850       -1.1650000E-03     1.000000        0.1483200        0.1494850       -1.1650000E-03    3.1720585E-03     315.2527    
 p158                 obsgroup      0.1555300        0.1503300        5.2000000E-03     1.000000        0.1555300        0.1503300        5.2000000E-03    3.1720585E-03     315.2527    
 p159                 obsgroup      0.1442000        0.1504810       -6.2810000E-03     1.000000        0.1442000        0.1504810       -6.2810000E-03    3.1720585E-03     315.2527    
 p160                 obsgroup      0.1452300        0.1506320       -5.4020000E-03     1.000000        0.1452300        0.1506320       -5.4020000E-03    3.1720585E-03     315.2527    
 p161                 obsgroup      0.1472900        0.1507750       -3.4850000E-03     1.000000        0.1472900        0.1507750       -3.4850000E-03    3.1720585E-03     315.2527    
 p162                 obsgroup      0.1462600        0.1509050       -4.6450000E-03     1.000000        0.1462600        0.1509050       -4.6450000E-03    3.1720585E-03     315.2527    
 p163                 obsgroup      0.1503800        0.1510210       -6.4100000E-04     1.000000        0.1503800        0.1510210       -6.4100000E-04    3.1720585E-03     315.2527    
 p164                 obsgroup      0.1524400        0.1511200        1.3200000E-03     1.000000        0.1524400        0.1511200        1.3200000E-03    3.1720585E-03     315.2527    
 p165                 obsgroup      0.1524400        0.1512000        1.2400000E-03     1.000000        0.1524400        0.1512000        1.2400000E-03    3.1720585E-03     315.2527    
 p166                 obsgroup      0.1493500        0.1512550       -1.9050000E-03     1.000000        0.1493500        0.1512550       -1.9050000E-03    3.1720585E-03     315.2527    
 p167                 obsgroup      0.1545000        0.1511410        3.3590000E-03     1.000000        0.1545000        0.1511410        3.3590000E-03    3.1720585E-03     315.2527    
 p168                 obsgroup      0.1503800        0.1509990       -6.1900000E-04     1.000000        0.1503800        0.1509990       -6.1900000E-04    3.1720585E-03     315.2527    
 p169                 obsgroup      0.1472900        0.1505110       -3.2210000E-03     1.000000        0.1472900        0.1505110       -3.2210000E-03    3.1720585E-03     315.2527    
 p170                 obsgroup      0.1431700        0.1501510       -6.9810000E-03     1.000000        0.1431700        0.1501510       -6.9810000E-03    3.1720585E-03     315.2527    
 p171                 obsgroup      0.1493500        0.1497060       -3.5600000E-04     1.000000        0.1493500        0.1497060       -3.5600000E-04    3.1720585E-03     315.2527    
 p172                 obsgroup      0.1483200        0.1491850       -8.6500000E-04     1.000000        0.1483200        0.1491850       -8.6500000E-04    3.1720585E-03     315.2527    
 p173                 obsgroup      0.1493500        0.1485720        7.7800000E-04     1.000000        0.1493500        0.1485720        7.7800000E-04    3.1720585E-03     315.2527    
 p174                 obsgroup      0.1452300        0.1478690       -2.6390000E-03     1.000000        0.1452300        0.1478690       -2.6390000E-03    3.1720585E-03     315.2527    
 p175                 obsgroup      0.1442000        0.1470760       -2.8760000E-03     1.000000        0.1442000        0.1470760       -2.8760000E-03    3.1720585E-03     315.2527    
 p176                 obsgroup      0.1483200        0.1461680        2.1520000E-03     1.000000        0.1483200        0.1461680        2.1520000E-03    3.1720585E-03     315.2527    
 p177                 obsgroup      0.1483200        0.1451830        3.1370000E-03     1.000000        0.1483200        0.1451830        3.1370000E-03    3.1720585E-03     315.2527    
 p178                 obsgroup      0.1493500        0.1441020        5.2480000E-03     1.000000        0.1493500        0.1441020        5.2480000E-03    3.1720585E-03     315.2527    
 p179                 obsgroup      0.1442000        0.1429410        1.2590000E-03     1.000000        0.1442000        0.1429410        1.2590000E-03    3.1720585E-03     315.2527    
 p180                 obsgroup      0.1400800        0.1416660       -1.5860000E-03     1.000000        0.1400800        0.1416660       -1.5860000E-03    3.1720585E-03     315.2527    
 p181                 obsgroup      0.1421400        0.1402900        1.8500000E-03     1.000000        0.1421400        0.1402900        1.8500000E-03    3.1720585E-03     315.2527    
 p182                 obsgroup      0.1411100        0.1388260        2.2840000E-03     1.000000        0.1411100        0.1388260        2.2840000E-03    3.1720585E-03     315.2527    
 p183                 obsgroup      0.1380200        0.1372500        7.7000000E-04     1.000000        0.1380200        0.1372500        7.7000000E-04    3.1720585E-03     315.2527    
 p184                 obsgroup      0.1339000        0.1355560       -1.6560000E-03     1.000000        0.1339000        0.1355560       -1.6560000E-03    3.1720585E-03     315.2527    
 p185                 obsgroup      0.1297800        0.1337550       -3.9750000E-03     1.000000        0.1297800        0.1337550       -3.9750000E-03    3.1720585E-03     315.2527    
 p186                 obsgroup      0.1287500        0.1318830       -3.1330000E-03     1.000000        0.1287500        0.1318830       -3.1330000E-03    3.1720585E-03     315.2527    
 p187                 obsgroup      0.1277200        0.1299840       -2.2640000E-03     1.000000        0.1277200        0.1299840       -2.2640000E-03    3.1720585E-03     315.2527    
 p188                 obsgroup      0.1266900        0.1280190       -1.3290000E-03     1.000000        0.1266900        0.1280190       -1.3290000E-03    3.1720585E-03     315.2527    
 p189                 obsgroup      0.1236000        0.1260320       -2.4320000E-03     1.000000        0.1236000        0.1260320       -2.4320000E-03    3.1720585E-03     315.2527    
 p190                 obsgroup      0.1246300        0.1241570        4.7300000E-04     1.000000        0.1246300        0.1241570        4.7300000E-04    3.1720585E-03     315.2527    
 p191                 obsgroup      0.1174200        0.1163850        1.0350000E-03     1.000000        0.1174200        0.1163850        1.0350000E-03    3.1720585E-03     315.2527    
 p192                 obsgroup      0.1174200        0.1143780        3.0420000E-03     1.000000        0.1174200        0.1143780        3.0420000E-03    3.1720585E-03     315.2527    
 p193                 obsgroup      0.1133000        0.1123820        9.1800000E-04     1.000000        0.1133000        0.1123820        9.1800000E-04    3.1720585E-03     315.2527    
 p194                 obsgroup      0.1071200        0.1103130       -3.1930000E-03     1.000000        0.1071200        0.1103130       -3.1930000E-03    3.1720585E-03     315.2527    
 p195                 obsgroup      0.1060900        0.1082440       -2.1540000E-03     1.000000        0.1060900        0.1082440       -2.1540000E-03    3.1720585E-03     315.2527    
 p196                 obsgroup      0.1003220        0.1061010       -5.7790000E-03     1.000000        0.1003220        0.1061010       -5.7790000E-03    3.1720585E-03     315.2527    
 p197                 obsgroup      9.7129000E-02    0.1039570       -6.8280000E-03     1.000000        9.7129000E-02    0.1039570       -6.8280000E-03    3.1720585E-03     315.2527    
 p198                 obsgroup      9.5584000E-02    0.1018500       -6.2660000E-03     1.000000        9.5584000E-02    0.1018500       -6.2660000E-03    3.1720585E-03     315.2527    
 p199                 obsgroup      9.7747000E-02    9.9783000E-02   -2.0360000E-03     1.000000        9.7747000E-02    9.9783000E-02   -2.0360000E-03    3.1720585E-03     315.2527    
 p200                 obsgroup      9.2700000E-02    9.7720000E-02   -5.0200000E-03     1.000000        9.2700000E-02    9.7720000E-02   -5.0200000E-03    3.1720585E-03     315.2527    
 p201                 obsgroup      9.5584000E-02    9.5770000E-02   -1.8600000E-04     1.000000        9.5584000E-02    9.5770000E-02   -1.8600000E-04    3.1720585E-03     315.2527    
 p202                 obsgroup      9.2906000E-02    9.3829000E-02   -9.2300000E-04     1.000000        9.2906000E-02    9.3829000E-02   -9.2300000E-04    3.1720585E-03     315.2527    
 p203                 obsgroup      9.0228000E-02    9.1947000E-02   -1.7190000E-03     1.000000        9.0228000E-02    9.1947000E-02   -1.7190000E-03    3.1720585E-03     315.2527    
 p204                 obsgroup      9.0640000E-02    9.0114000E-02    5.2600000E-04     1.000000        9.0640000E-02    9.0114000E-02    5.2600000E-04    3.1720585E-03     315.2527    
 p205                 obsgroup      9.0743000E-02    8.7351000E-02    3.3920000E-03     1.000000        9.0743000E-02    8.7351000E-02    3.3920000E-03    3.1720585E-03     315.2527    
 p206                 obsgroup      8.8477000E-02    8.4766000E-02    3.7110000E-03     1.000000        8.8477000E-02    8.4766000E-02    3.7110000E-03    3.1720585E-03     315.2527    
 p207                 obsgroup      8.2091000E-02    8.2163000E-02   -7.2000000E-05     1.000000        8.2091000E-02    8.2163000E-02   -7.2000000E-05    3.1720585E-03     315.2527    
 p208                 obsgroup      7.8898000E-02    7.9600000E-02   -7.0200000E-04     1.000000        7.8898000E-02    7.9600000E-02   -7.0200000E-04    3.1720585E-03     315.2527    
 p209                 obsgroup      7.7971000E-02    7.7075000E-02    8.9600000E-04     1.000000        7.7971000E-02    7.7075000E-02    8.9600000E-04    3.1720585E-03     315.2527    
 p210                 obsgroup      7.0452000E-02    7.4509000E-02   -4.0570000E-03     1.000000        7.0452000E-02    7.4509000E-02   -4.0570000E-03    3.1720585E-03     315.2527    
 p211                 obsgroup      7.3851000E-02    7.2171000E-02    1.6800000E-03     1.000000        7.3851000E-02    7.2171000E-02    1.6800000E-03    3.1720585E-03     315.2527    
 p212                 obsgroup      7.1379000E-02    6.9938000E-02    1.4410000E-03     1.000000        7.1379000E-02    6.9938000E-02    1.4410000E-03    3.1720585E-03     315.2527    
 p213                 obsgroup      7.0761000E-02    6.7813000E-02    2.9480000E-03     1.000000        7.0761000E-02    6.7813000E-02    2.9480000E-03    3.1720585E-03     315.2527    
 p214                 obsgroup      6.2006000E-02    6.5711000E-02   -3.7050000E-03     1.000000        6.2006000E-02    6.5711000E-02   -3.7050000E-03    3.1720585E-03     315.2527    
 p215                 obsgroup      6.4478000E-02    6.1916000E-02    2.5620000E-03     1.000000        6.4478000E-02    6.1916000E-02    2.5620000E-03    3.1720585E-03     315.2527    
 p216                 obsgroup      6.0564000E-02    6.0052000E-02    5.1200000E-04     1.000000        6.0564000E-02    6.0052000E-02    5.1200000E-04    3.1720585E-03     315.2527    
 p217                 obsgroup      5.6959000E-02    5.8182000E-02   -1.2230000E-03     1.000000        5.6959000E-02    5.8182000E-02   -1.2230000E-03    3.1720585E-03     315.2527    
 p218                 obsgroup      5.6238000E-02    5.4675000E-02    1.5630000E-03     1.000000        5.6238000E-02    5.4675000E-02    1.5630000E-03    3.1720585E-03     315.2527    
 p219                 obsgroup      5.5311000E-02    5.3042000E-02    2.2690000E-03     1.000000        5.5311000E-02    5.3042000E-02    2.2690000E-03    3.1720585E-03     315.2527    
 p220                 obsgroup      5.5723000E-02    5.1551000E-02    4.1720000E-03     1.000000        5.5723000E-02    5.1551000E-02    4.1720000E-03    3.1720585E-03     315.2527    
 p221                 obsgroup      5.4487000E-02    5.0111000E-02    4.3760000E-03     1.000000        5.4487000E-02    5.0111000E-02    4.3760000E-03    3.1720585E-03     315.2527    
 p222                 obsgroup      5.1912000E-02    4.8734000E-02    3.1780000E-03     1.000000        5.1912000E-02    4.8734000E-02    3.1780000E-03    3.1720585E-03     315.2527    
 p223                 obsgroup      5.2427000E-02    4.7404000E-02    5.0230000E-03     1.000000        5.2427000E-02    4.7404000E-02    5.0230000E-03    3.1720585E-03     315.2527    
 p224                 obsgroup      4.8616000E-02    4.6129000E-02    2.4870000E-03     1.000000        4.8616000E-02    4.6129000E-02    2.4870000E-03    3.1720585E-03     315.2527    
 p225                 obsgroup      4.8513000E-02    4.4874000E-02    3.6390000E-03     1.000000        4.8513000E-02    4.4874000E-02    3.6390000E-03    3.1720585E-03     315.2527    
 p226                 obsgroup      4.9337000E-02    4.3633000E-02    5.7040000E-03     1.000000        4.9337000E-02    4.3633000E-02    5.7040000E-03    3.1720585E-03     315.2527    
 p227                 obsgroup      4.4290000E-02    4.2457000E-02    1.8330000E-03     1.000000        4.4290000E-02    4.2457000E-02    1.8330000E-03    3.1720585E-03     315.2527    
 p228                 obsgroup      4.2951000E-02    4.1319000E-02    1.6320000E-03     1.000000        4.2951000E-02    4.1319000E-02    1.6320000E-03    3.1720585E-03     315.2527    
 p229                 obsgroup      4.2436000E-02    4.0241000E-02    2.1950000E-03     1.000000        4.2436000E-02    4.0241000E-02    2.1950000E-03    3.1720585E-03     315.2527    
 p230                 obsgroup      4.3054000E-02    3.9221000E-02    3.8330000E-03     1.000000        4.3054000E-02    3.9221000E-02    3.8330000E-03    3.1720585E-03     315.2527    
 p231                 obsgroup      4.3054000E-02    3.8256000E-02    4.7980000E-03     1.000000        4.3054000E-02    3.8256000E-02    4.7980000E-03    3.1720585E-03     315.2527    
 p232                 obsgroup      4.1200000E-02    3.7371000E-02    3.8290000E-03     1.000000        4.1200000E-02    3.7371000E-02    3.8290000E-03    3.1720585E-03     315.2527    
 p233                 obsgroup      4.0479000E-02    3.6525000E-02    3.9540000E-03     1.000000        4.0479000E-02    3.6525000E-02    3.9540000E-03    3.1720585E-03     315.2527    
 p234                 obsgroup      3.9140000E-02    3.4891000E-02    4.2490000E-03     1.000000        3.9140000E-02    3.4891000E-02    4.2490000E-03    3.1720585E-03     315.2527    
 p235                 obsgroup      3.6359000E-02    3.4089000E-02    2.2700000E-03     1.000000        3.6359000E-02    3.4089000E-02    2.2700000E-03    3.1720585E-03     315.2527    
 p236                 obsgroup      3.6565000E-02    3.3315000E-02    3.2500000E-03     1.000000        3.6565000E-02    3.3315000E-02    3.2500000E-03    3.1720585E-03     315.2527    
 p237                 obsgroup      3.5123000E-02    3.2574000E-02    2.5490000E-03     1.000000        3.5123000E-02    3.2574000E-02    2.5490000E-03    3.1720585E-03     315.2527    
 p238                 obsgroup      3.3269000E-02    3.1873000E-02    1.3960000E-03     1.000000        3.3269000E-02    3.1873000E-02    1.3960000E-03    3.1720585E-03     315.2527    
 p239                 obsgroup      3.2960000E-02    3.1192000E-02    1.7680000E-03     1.000000        3.2960000E-02    3.1192000E-02    1.7680000E-03    3.1720585E-03     315.2527    
 p240                 obsgroup      3.2857000E-02    3.0534000E-02    2.3230000E-03     1.000000        3.2857000E-02    3.0534000E-02    2.3230000E-03    3.1720585E-03     315.2527    
 p241                 obsgroup      3.2136000E-02    2.9926000E-02    2.2100000E-03     1.000000        3.2136000E-02    2.9926000E-02    2.2100000E-03    3.1720585E-03     315.2527    
 p242                 obsgroup      3.2342000E-02    2.9334000E-02    3.0080000E-03     1.000000        3.2342000E-02    2.9334000E-02    3.0080000E-03    3.1720585E-03     315.2527    
 p243                 obsgroup      3.0385000E-02    2.8899000E-02    1.4860000E-03     1.000000        3.0385000E-02    2.8899000E-02    1.4860000E-03    3.1720585E-03     315.2527    
 p244                 obsgroup      3.0385000E-02    2.8370000E-02    2.0150000E-03     1.000000        3.0385000E-02    2.8370000E-02    2.0150000E-03    3.1720585E-03     315.2527    
 p245                 obsgroup      3.1415000E-02    2.7844000E-02    3.5710000E-03     1.000000        3.1415000E-02    2.7844000E-02    3.5710000E-03    3.1720585E-03     315.2527    
 p246                 obsgroup      2.8737000E-02    2.7328000E-02    1.4090000E-03     1.000000        2.8737000E-02    2.7328000E-02    1.4090000E-03    3.1720585E-03     315.2527    
 p247                 obsgroup      2.9355000E-02    2.6841000E-02    2.5140000E-03     1.000000        2.9355000E-02    2.6841000E-02    2.5140000E-03    3.1720585E-03     315.2527    
 p248                 obsgroup      2.7089000E-02    2.6373000E-02    7.1600000E-04     1.000000        2.7089000E-02    2.6373000E-02    7.1600000E-04    3.1720585E-03     315.2527    
 p249                 obsgroup      2.5338000E-02    2.5911000E-02   -5.7300000E-04     1.000000        2.5338000E-02    2.5911000E-02   -5.7300000E-04    3.1720585E-03     315.2527    
 p250                 obsgroup      2.8325000E-02    2.5635000E-02    2.6900000E-03     1.000000        2.8325000E-02    2.5635000E-02    2.6900000E-03    3.1720585E-03     315.2527    
 p251                 obsgroup      2.8428000E-02    2.5355000E-02    3.0730000E-03     1.000000        2.8428000E-02    2.5355000E-02    3.0730000E-03    3.1720585E-03     315.2527    
 p252                 obsgroup      2.5853000E-02    2.5081000E-02    7.7200000E-04     1.000000        2.5853000E-02    2.5081000E-02    7.7200000E-04    3.1720585E-03     315.2527    
 p253                 obsgroup      2.7707000E-02    2.4822000E-02    2.8850000E-03     1.000000        2.7707000E-02    2.4822000E-02    2.8850000E-03    3.1720585E-03     315.2527    
 p254                 obsgroup      2.7810000E-02    2.4563000E-02    3.2470000E-03     1.000000        2.7810000E-02    2.4563000E-02    3.2470000E-03    3.1720585E-03     315.2527    
 p255                 obsgroup      2.5132000E-02    2.4318000E-02    8.1400000E-04     1.000000        2.5132000E-02    2.4318000E-02    8.1400000E-04    3.1720585E-03     315.2527    
 p256                 obsgroup      2.5956000E-02    2.4073000E-02    1.8830000E-03     1.000000        2.5956000E-02    2.4073000E-02    1.8830000E-03    3.1720585E-03     315.2527    
 p257                 obsgroup      2.4514000E-02    2.3618000E-02    8.9600000E-04     1.000000        2.4514000E-02    2.3618000E-02    8.9600000E-04    3.1720585E-03     315.2527    
 p258                 obsgroup      2.5029000E-02    2.3389000E-02    1.6400000E-03     1.000000        2.5029000E-02    2.3389000E-02    1.6400000E-03    3.1720585E-03     315.2527    
 p259                 obsgroup      2.3484000E-02    2.2933000E-02    5.5100000E-04     1.000000        2.3484000E-02    2.2933000E-02    5.5100000E-04    3.1720585E-03     315.2527    
 p260                 obsgroup      2.3896000E-02    2.2712000E-02    1.1840000E-03     1.000000        2.3896000E-02    2.2712000E-02    1.1840000E-03    3.1720585E-03     315.2527    
 p261                 obsgroup      2.3175000E-02    2.2503000E-02    6.7200000E-04     1.000000        2.3175000E-02    2.2503000E-02    6.7200000E-04    3.1720585E-03     315.2527    
 p262                 obsgroup      2.3896000E-02    2.2105000E-02    1.7910000E-03     1.000000        2.3896000E-02    2.2105000E-02    1.7910000E-03    3.1720585E-03     315.2527    
 p263                 obsgroup      2.2145000E-02    2.1908000E-02    2.3700000E-04     1.000000        2.2145000E-02    2.1908000E-02    2.3700000E-04    3.1720585E-03     315.2527    
 p264                 obsgroup      2.2866000E-02    2.1721000E-02    1.1450000E-03     1.000000        2.2866000E-02    2.1721000E-02    1.1450000E-03    3.1720585E-03     315.2527    
 p265                 obsgroup      2.2866000E-02    2.1538000E-02    1.3280000E-03     1.000000        2.2866000E-02    2.1538000E-02    1.3280000E-03    3.1720585E-03     315.2527    
 p266                 obsgroup      2.4411000E-02    2.1364000E-02    3.0470000E-03     1.000000        2.4411000E-02    2.1364000E-02    3.0470000E-03    3.1720585E-03     315.2527    
 p267                 obsgroup      1.8643000E-02    2.1150000E-02   -2.5070000E-03     1.000000        1.8643000E-02    2.1150000E-02   -2.5070000E-03    3.1720585E-03     315.2527    
 p268                 obsgroup      2.2763000E-02    2.0863000E-02    1.9000000E-03     1.000000        2.2763000E-02    2.0863000E-02    1.9000000E-03    3.1720585E-03     315.2527    
 p269                 obsgroup      2.1527000E-02    2.0691000E-02    8.3600000E-04     1.000000        2.1527000E-02    2.0691000E-02    8.3600000E-04    3.1720585E-03     315.2527    
 p270                 obsgroup      2.0188000E-02    2.0523000E-02   -3.3500000E-04     1.000000        2.0188000E-02    2.0523000E-02   -3.3500000E-04    3.1720585E-03     315.2527    
 p271                 obsgroup      2.0703000E-02    2.0358000E-02    3.4500000E-04     1.000000        2.0703000E-02    2.0358000E-02    3.4500000E-04    3.1720585E-03     315.2527    
 p272                 obsgroup      2.0188000E-02    2.0194000E-02   -6.0000000E-06     1.000000        2.0188000E-02    2.0194000E-02   -6.0000000E-06    3.1720585E-03     315.2527    
 p273                 obsgroup      1.9158000E-02    2.0032000E-02   -8.7400000E-04     1.000000        1.9158000E-02    2.0032000E-02   -8.7400000E-04    3.1720585E-03     315.2527    
 p274                 obsgroup      2.0291000E-02    1.9878000E-02    4.1300000E-04     1.000000        2.0291000E-02    1.9878000E-02    4.1300000E-04    3.1720585E-03     315.2527    
 p275                 obsgroup      2.0291000E-02    1.9729000E-02    5.6200000E-04     1.000000        2.0291000E-02    1.9729000E-02    5.6200000E-04    3.1720585E-03     315.2527    
 p276                 obsgroup      1.9570000E-02    1.9586000E-02   -1.6000000E-05     1.000000        1.9570000E-02    1.9586000E-02   -1.6000000E-05    3.1720585E-03     315.2527    
 p277                 obsgroup      1.9364000E-02    1.9448000E-02   -8.4000000E-05     1.000000        1.9364000E-02    1.9448000E-02   -8.4000000E-05    3.1720585E-03     315.2527    
 p278                 obsgroup      1.9982000E-02    1.9177000E-02    8.0500000E-04     1.000000        1.9982000E-02    1.9177000E-02    8.0500000E-04    3.1720585E-03     315.2527    
 p279                 obsgroup      1.8952000E-02    1.9043000E-02   -9.1000000E-05     1.000000        1.8952000E-02    1.9043000E-02   -9.1000000E-05    3.1720585E-03     315.2527    
 p280                 obsgroup      1.8643000E-02    1.8913000E-02   -2.7000000E-04     1.000000        1.8643000E-02    1.8913000E-02   -2.7000000E-04    3.1720585E-03     315.2527    
 p281                 obsgroup      1.9055000E-02    1.8786000E-02    2.6900000E-04     1.000000        1.9055000E-02    1.8786000E-02    2.6900000E-04    3.1720585E-03     315.2527    
 p282                 obsgroup      1.9982000E-02    1.8447000E-02    1.5350000E-03     1.000000        1.9982000E-02    1.8447000E-02    1.5350000E-03    3.1720585E-03     315.2527    
 p283                 obsgroup      1.9364000E-02    1.8334000E-02    1.0300000E-03     1.000000        1.9364000E-02    1.8334000E-02    1.0300000E-03    3.1720585E-03     315.2527    
 p284                 obsgroup      1.8952000E-02    1.8222000E-02    7.3000000E-04     1.000000        1.8952000E-02    1.8222000E-02    7.3000000E-04    3.1720585E-03     315.2527    
 p285                 obsgroup      1.8334000E-02    1.8114000E-02    2.2000000E-04     1.000000        1.8334000E-02    1.8114000E-02    2.2000000E-04    3.1720585E-03     315.2527    
 p286                 obsgroup      1.9158000E-02    1.8009000E-02    1.1490000E-03     1.000000        1.9158000E-02    1.8009000E-02    1.1490000E-03    3.1720585E-03     315.2527    
 p287                 obsgroup      1.8952000E-02    1.7908000E-02    1.0440000E-03     1.000000        1.8952000E-02    1.7908000E-02    1.0440000E-03    3.1720585E-03     315.2527    
 p288                 obsgroup      1.9364000E-02    1.7810000E-02    1.5540000E-03     1.000000        1.9364000E-02    1.7810000E-02    1.5540000E-03    3.1720585E-03     315.2527    
 p289                 obsgroup      1.8643000E-02    1.7714000E-02    9.2900000E-04     1.000000        1.8643000E-02    1.7714000E-02    9.2900000E-04    3.1720585E-03     315.2527    
 p290                 obsgroup      1.7716000E-02    1.7620000E-02    9.6000000E-05     1.000000        1.7716000E-02    1.7620000E-02    9.6000000E-05    3.1720585E-03     315.2527    
 p291                 obsgroup      1.8025000E-02    1.7525000E-02    5.0000000E-04     1.000000        1.8025000E-02    1.7525000E-02    5.0000000E-04    3.1720585E-03     315.2527    
 p292                 obsgroup      1.6480000E-02    1.7433000E-02   -9.5300000E-04     1.000000        1.6480000E-02    1.7433000E-02   -9.5300000E-04    3.1720585E-03     315.2527    
 p293                 obsgroup      1.7407000E-02    1.7340000E-02    6.7000000E-05     1.000000        1.7407000E-02    1.7340000E-02    6.7000000E-05    3.1720585E-03     315.2527    
 p294                 obsgroup      1.6377000E-02    1.7248000E-02   -8.7100000E-04     1.000000        1.6377000E-02    1.7248000E-02   -8.7100000E-04    3.1720585E-03     315.2527    
 p295                 obsgroup      1.6377000E-02    1.7158000E-02   -7.8100000E-04     1.000000        1.6377000E-02    1.7158000E-02   -7.8100000E-04    3.1720585E-03     315.2527    
 p296                 obsgroup      1.5862000E-02    1.7068000E-02   -1.2060000E-03     1.000000        1.5862000E-02    1.7068000E-02   -1.2060000E-03    3.1720585E-03     315.2527    
 p297                 obsgroup      1.5965000E-02    1.6974000E-02   -1.0090000E-03     1.000000        1.5965000E-02    1.6974000E-02   -1.0090000E-03    3.1720585E-03     315.2527    
 p298                 obsgroup      1.3905000E-02    1.6879000E-02   -2.9740000E-03     1.000000        1.3905000E-02    1.6879000E-02   -2.9740000E-03    3.1720585E-03     315.2527    
 p299                 obsgroup      1.4111000E-02    1.6787000E-02   -2.6760000E-03     1.000000        1.4111000E-02    1.6787000E-02   -2.6760000E-03    3.1720585E-03     315.2527    
 p300                 obsgroup      1.4729000E-02    1.6700000E-02   -1.9710000E-03     1.000000        1.4729000E-02    1.6700000E-02   -1.9710000E-03    3.1720585E-03     315.2527    
 p301                 obsgroup      1.5553000E-02    1.6616000E-02   -1.0630000E-03     1.000000        1.5553000E-02    1.6616000E-02   -1.0630000E-03    3.1720585E-03     315.2527    
 p302                 obsgroup      1.5759000E-02    1.6499000E-02   -7.4000000E-04     1.000000        1.5759000E-02    1.6499000E-02   -7.4000000E-04    3.1720585E-03     315.2527    
 p303                 obsgroup      1.5656000E-02    1.6385000E-02   -7.2900000E-04     1.000000        1.5656000E-02    1.6385000E-02   -7.2900000E-04    3.1720585E-03     315.2527    
 p304                 obsgroup      1.5450000E-02    1.6273000E-02   -8.2300000E-04     1.000000        1.5450000E-02    1.6273000E-02   -8.2300000E-04    3.1720585E-03     315.2527    
 p305                 obsgroup      1.5038000E-02    1.6165000E-02   -1.1270000E-03     1.000000        1.5038000E-02    1.6165000E-02   -1.1270000E-03    3.1720585E-03     315.2527    
 p306                 obsgroup      1.4317000E-02    1.6057000E-02   -1.7400000E-03     1.000000        1.4317000E-02    1.6057000E-02   -1.7400000E-03    3.1720585E-03     315.2527    
 p307                 obsgroup      1.4626000E-02    1.5951000E-02   -1.3250000E-03     1.000000        1.4626000E-02    1.5951000E-02   -1.3250000E-03    3.1720585E-03     315.2527    
 p308                 obsgroup      1.2257000E-02    1.5839000E-02   -3.5820000E-03     1.000000        1.2257000E-02    1.5839000E-02   -3.5820000E-03    3.1720585E-03     315.2527    
 p309                 obsgroup      1.3802000E-02    1.5736000E-02   -1.9340000E-03     1.000000        1.3802000E-02    1.5736000E-02   -1.9340000E-03    3.1720585E-03     315.2527    
 p310                 obsgroup      1.3390000E-02    1.5633000E-02   -2.2430000E-03     1.000000        1.3390000E-02    1.5633000E-02   -2.2430000E-03    3.1720585E-03     315.2527    
 p311                 obsgroup      1.3905000E-02    1.5535000E-02   -1.6300000E-03     1.000000        1.3905000E-02    1.5535000E-02   -1.6300000E-03    3.1720585E-03     315.2527    
 p312                 obsgroup      1.3802000E-02    1.5439000E-02   -1.6370000E-03     1.000000        1.3802000E-02    1.5439000E-02   -1.6370000E-03    3.1720585E-03     315.2527    
 p313                 obsgroup      1.3699000E-02    1.5345000E-02   -1.6460000E-03     1.000000        1.3699000E-02    1.5345000E-02   -1.6460000E-03    3.1720585E-03     315.2527    
 p314                 obsgroup      1.0403000E-02    1.5250000E-02   -4.8470000E-03     1.000000        1.0403000E-02    1.5250000E-02   -4.8470000E-03    3.1720585E-03     315.2527    
 p315                 obsgroup      1.3184000E-02    1.5163000E-02   -1.9790000E-03     1.000000        1.3184000E-02    1.5163000E-02   -1.9790000E-03    3.1720585E-03     315.2527    
 p316                 obsgroup      1.2566000E-02    1.5071000E-02   -2.5050000E-03     1.000000        1.2566000E-02    1.5071000E-02   -2.5050000E-03    3.1720585E-03     315.2527    
 p317                 obsgroup      1.4008000E-02    1.4981000E-02   -9.7300000E-04     1.000000        1.4008000E-02    1.4981000E-02   -9.7300000E-04    3.1720585E-03     315.2527    
 p318                 obsgroup      1.2360000E-02    1.4891000E-02   -2.5310000E-03     1.000000        1.2360000E-02    1.4891000E-02   -2.5310000E-03    3.1720585E-03     315.2527    
 p319                 obsgroup      1.2463000E-02    1.4801000E-02   -2.3380000E-03     1.000000        1.2463000E-02    1.4801000E-02   -2.3380000E-03    3.1720585E-03     315.2527    
 p320                 obsgroup      1.2154000E-02    1.4713000E-02   -2.5590000E-03     1.000000        1.2154000E-02    1.4713000E-02   -2.5590000E-03    3.1720585E-03     315.2527    
 p321                 obsgroup      1.2566000E-02    1.4628000E-02   -2.0620000E-03     1.000000        1.2566000E-02    1.4628000E-02   -2.0620000E-03    3.1720585E-03     315.2527    
 p322                 obsgroup      1.1845000E-02    1.4547000E-02   -2.7020000E-03     1.000000        1.1845000E-02    1.4547000E-02   -2.7020000E-03    3.1720585E-03     315.2527    
 p323                 obsgroup      1.1742000E-02    1.4468000E-02   -2.7260000E-03     1.000000        1.1742000E-02    1.4468000E-02   -2.7260000E-03    3.1720585E-03     315.2527    
 p324                 obsgroup      1.1948000E-02    1.4391000E-02   -2.4430000E-03     1.000000        1.1948000E-02    1.4391000E-02   -2.4430000E-03    3.1720585E-03     315.2527    
 p325                 obsgroup      1.1742000E-02    1.4315000E-02   -2.5730000E-03     1.000000        1.1742000E-02    1.4315000E-02   -2.5730000E-03    3.1720585E-03     315.2527    
 p326                 obsgroup      1.2051000E-02    1.4096000E-02   -2.0450000E-03     1.000000        1.2051000E-02    1.4096000E-02   -2.0450000E-03    3.1720585E-03     315.2527    
 p327                 obsgroup      1.1536000E-02    1.4022000E-02   -2.4860000E-03     1.000000        1.1536000E-02    1.4022000E-02   -2.4860000E-03    3.1720585E-03     315.2527    
 p328                 obsgroup      1.1021000E-02    1.3950000E-02   -2.9290000E-03     1.000000        1.1021000E-02    1.3950000E-02   -2.9290000E-03    3.1720585E-03     315.2527    
 p329                 obsgroup      1.1330000E-02    1.3880000E-02   -2.5500000E-03     1.000000        1.1330000E-02    1.3880000E-02   -2.5500000E-03    3.1720585E-03     315.2527    
 p330                 obsgroup      1.0073400E-02    1.3808000E-02   -3.7346000E-03     1.000000        1.0073400E-02    1.3808000E-02   -3.7346000E-03    3.1720585E-03     315.2527    
 p331                 obsgroup      1.1227000E-02    1.3739000E-02   -2.5120000E-03     1.000000        1.1227000E-02    1.3739000E-02   -2.5120000E-03    3.1720585E-03     315.2527    
 p332                 obsgroup      1.0403000E-02    1.3586000E-02   -3.1830000E-03     1.000000        1.0403000E-02    1.3586000E-02   -3.1830000E-03    3.1720585E-03     315.2527    
 p333                 obsgroup      9.4348000E-03    1.3519000E-02   -4.0842000E-03     1.000000        9.4348000E-03    1.3519000E-02   -4.0842000E-03    3.1720585E-03     315.2527    
 p334                 obsgroup      1.0155800E-02    1.3448000E-02   -3.2922000E-03     1.000000        1.0155800E-02    1.3448000E-02   -3.2922000E-03    3.1720585E-03     315.2527    
 p335                 obsgroup      9.9601000E-03    1.3380000E-02   -3.4199000E-03     1.000000        9.9601000E-03    1.3380000E-02   -3.4199000E-03    3.1720585E-03     315.2527    
 p336                 obsgroup      9.6408000E-03    1.3312000E-02   -3.6712000E-03     1.000000        9.6408000E-03    1.3312000E-02   -3.6712000E-03    3.1720585E-03     315.2527    
 p337                 obsgroup      1.0712000E-02    1.3246000E-02   -2.5340000E-03     1.000000        1.0712000E-02    1.3246000E-02   -2.5340000E-03    3.1720585E-03     315.2527    
 p338                 obsgroup      1.0073400E-02    1.3182000E-02   -3.1086000E-03     1.000000        1.0073400E-02    1.3182000E-02   -3.1086000E-03    3.1720585E-03     315.2527    
 p339                 obsgroup      9.6820000E-03    1.3118000E-02   -3.4360000E-03     1.000000        9.6820000E-03    1.3118000E-02   -3.4360000E-03    3.1720585E-03     315.2527    
 p340                 obsgroup      1.0506000E-02    1.3056000E-02   -2.5500000E-03     1.000000        1.0506000E-02    1.3056000E-02   -2.5500000E-03    3.1720585E-03     315.2527    
 p341                 obsgroup      1.0073400E-02    1.2993000E-02   -2.9196000E-03     1.000000        1.0073400E-02    1.2993000E-02   -2.9196000E-03    3.1720585E-03     315.2527    
 p342                 obsgroup      9.8983000E-03    1.2931000E-02   -3.0327000E-03     1.000000        9.8983000E-03    1.2931000E-02   -3.0327000E-03    3.1720585E-03     315.2527    
 p343                 obsgroup      9.0537000E-03    1.2866000E-02   -3.8123000E-03     1.000000        9.0537000E-03    1.2866000E-02   -3.8123000E-03    3.1720585E-03     315.2527    
